{
    "@class": "com.kony.gen.viz.model.component.KVizDateField",
    "DNDConfig": null,
    "Image": "transparent.png",
    "__id": "frmEKYCIDInformation_calDOE",
    "__input": "calDOE",
    "__parentReadjusting__": false,
    "_data_": null,
    "_date_": [
        null,
        null,
        null
    ],
    "_height_": {
        "type": "string",
        "value": "30dp"
    },
    "_left_": {
        "type": "number",
        "value": "0"
    },
    "_margin_": [
        0,
        0,
        0,
        0
    ],
    "_padding_": [
        6,
        0,
        0,
        0
    ],
    "_placeholder_": "DD MMM YYYY",
    "_skin_": "sf28eb73bbc741c29a2cf163b217b1e1",
    "_startG": [
        0,
        "7",
        "2018"
    ],
    "_top_": {
        "type": "string",
        "value": "33dp"
    },
    "_width_": {
        "type": "string",
        "value": "100%"
    },
    "advview": "default",
    "calendaricon": "transparent.png",
    "canUpdateUI": true,
    "containerweight": 100,
    "contentalignment": 4,
    "datecomponents": [
        null,
        null,
        null
    ],
    "dateeditable": true,
    "dateformat": "dd/MMM/yyyy",
    "datesGroup": [],
    "datesState": 0,
    "day": null,
    "daytextalignmentincell": 5,
    "displayedMonths": [
        7,
        2018
    ],
    "entereddate": null,
    "format": "dd/MMM/yyyy",
    "formatteddate": "",
    "hidedaysheader": false,
    "hidemonthsheader": false,
    "hour": 0,
    "id": "calDOE",
    "info": null,
    "invokedProperty": "rightNavigationImage",
    "iscustomlayout": false,
    "isvisible": true,
    "kuid": "e1bcd54e9b5348b5b5b4ce6563f82cbe",
    "luadate": [
        null,
        null,
        null
    ],
    "minutes": 0,
    "month": null,
    "monthsinrow": 3,
    "name": "kony.ui.Calendar",
    "navigatorAlert": "Invalid Selection",
    "noofmonths": 1,
    "paddinginpixel": false,
    "pagedate": "/2018",
    "parent": "flxSubDOE",
    "pf": "frmMBeKYCIDInfo",
    "popupHeight": "auto",
    "popupWidth": "auto",
    "retaincontentalignment": false,
    "retainflexpositionproperties": false,
    "seconds": 0,
    "selectdate": "//2018",
    "startDay": 0,
    "viewconfig": {
        "gridConfig": {
            "rightNavigationImage": "calendar.png"
        }
    },
    "viewtype": "default",
    "wType": "Calendar",
    "widgetalignment": 5,
    "widths": [
        "14.2857%;",
        "14.2857%;",
        "14.2857%;",
        "14.2857%;",
        "14.2857%;",
        "14.2857%;",
        "14.2857%;"
    ],
    "year": null,
    "zindex": 1
}