{
    "@class": "com.kony.gen.viz.model.component.KVizLabel",
    "DNDConfig": null,
    "__parentReadjusting__": false,
    "_height_": {
        "type": "ref",
        "value": "preferred"
    },
    "_left_": {
        "type": "string",
        "value": "0"
    },
    "_margin_": [
        1,
        1,
        1,
        1
    ],
    "_padding_": [
        3,
        0,
        0,
        0
    ],
    "_right_": {
        "type": "string",
        "value": ""
    },
    "_skin_": "s68586940db64378a6b99ca0d85b420d",
    "_text_": "",
    "_top_": {
        "type": "number",
        "value": "0"
    },
    "_width_": {
        "type": "string",
        "value": "100%"
    },
    "_wrapping_": 2,
    "android": {
        "textStyle": {
            "letterSpacing": 0,
            "strikeThrough": false
        }
    },
    "canUpdateUI": true,
    "containerweight": 100,
    "contentalignment": 4,
    "id": "lblTitleLastname",
    "info": null,
    "ipad": {
        "psp": {
            "wrapping": 2
        }
    },
    "iphone": {
        "psp": {
            "wrapping": 2
        },
        "right": {
            "type": "string",
            "value": ""
        }
    },
    "iscustomlayout": false,
    "isvisible": true,
    "kuid": "hc49efa93f3c4e13aaf7b9e64874b4cd",
    "name": "kony.ui.Label",
    "paddinginpixel": false,
    "parent": "flxLastName1",
    "pf": "frmMBeKYCIDInfo",
    "retaincontentalignment": false,
    "retainflexpositionproperties": false,
    "texti18n": "EngSurname",
    "textstyle": {},
    "tooltip": "",
    "wType": "Label",
    "zindex": 1
}