{
    "@class": "com.kony.gen.viz.model.container.KVizVBox",
    "DNDConfig": null,
    "_margin_": [
        0,
        0,
        0,
        0
    ],
    "_orientation_": 2,
    "_padding_": [
        0,
        0,
        0,
        0
    ],
    "_percent_": true,
    "_position_": 3,
    "_skin_": "s0e13ed4077f481ab090dae6b2e595ed",
    "allboxes": [],
    "canUpdateUI": true,
    "children": [
        "CopyLabel0j542d8a562114d"
    ],
    "containerweight": 34,
    "contextmenu": null,
    "id": "CopyVBox0e7956b7aa9b842",
    "info": null,
    "iscustomlayout": false,
    "isvisible": true,
    "kuid": "f8af59053fed496fb2d88a8094b4e62e",
    "layouttype": 0,
    "name": "kony.ui.Box",
    "paddInPixel": [
        0,
        0,
        0,
        0
    ],
    "parent": "hbxHdrProgressbar",
    "pf": "frmFATCAQuestionnaire1",
    "retaincontentalignment": false,
    "retainflexpositionproperties": false,
    "templateType": "forms",
    "wType": "VBox",
    "widgetalignment": 1
}