{
    "DNDConfig": null,
    "_enabled_": false,
    "_margin_": [
        0,
        35,
        0,
        36
    ],
    "_padding_": [
        0,
        0,
        0,
        0
    ],
    "_skin_": "s77e157ba8e8401a94d581b60f5ef840",
    "_text_": "",
    "canUpdateUI": true,
    "containerweight": 100,
    "contentalignment": 5,
    "desktopweb": {
        "@class": "com.kony.gen.viz.model.component.property.button.DesktopWebButtonProperty",
        "displayText": true,
        "render": true
    },
    "displaytext": true,
    "focusskin": "saf5a1fce4ff42c5bc839ca0602c8374",
    "hexpand": false,
    "id": "btnConfirm",
    "ide_onClick": "p2kwiet2012247641953_btnConfirm_onClick_seq0",
    "info": null,
    "isvisible": true,
    "kiosk": {
        "@class": "com.kony.gen.viz.model.component.property.button.KioskButtonProperty",
        "render": true
    },
    "kuid": "p2kwiet2012247641939",
    "margininpixel": false,
    "name": "kony.ui.Button",
    "paddinginpixel": false,
    "parent": "vbox505595357229381",
    "pf": "frmIBCustomerBasicInfo",
    "spa": {
        "@class": "com.kony.gen.viz.model.component.property.button.SPAButtonProperty",
        "displayText": true
    },
    "texti18n": "Next",
    "vexpand": false,
    "wType": "Button",
    "widgetalignment": 5
}