{
    "DNDConfig": null,
    "_enabled_": false,
    "_margin_": [
        0,
        0,
        0,
        0
    ],
    "_orientation_": 2,
    "_padding_": [
        0,
        1,
        1,
        1
    ],
    "_position_": 3,
    "_resize_": true,
    "_skin_": "sa53654b4113418f8dcb6d569eb3ef8f",
    "allboxes": [],
    "borderCollapse": false,
    "canUpdateUI": true,
    "children": [
        "Copycustom0cbcda15aebf94d"
    ],
    "containerweight": 37,
    "desktopweb": {
        "@class": "com.kony.gen.viz.model.container.property.vbox.DesktopWebVBoxProperty",
        "render": true
    },
    "donotUpdateContainerWeight": false,
    "id": "Copyvbox0aa2d7cf417cb4e",
    "info": null,
    "isvisible": true,
    "kiosk": {
        "@class": "com.kony.gen.viz.model.container.property.vbox.KioskVBoxProperty",
        "render": true
    },
    "kuid": "b6a370aa2e6148949f556e9c6e84f451",
    "layouttype": 0,
    "margininpixel": false,
    "name": "kony.ui.Box",
    "paddInPixel": [
        0,
        11.54,
        11.54,
        11.54
    ],
    "paddinginpixel": false,
    "parent": "hboxConfirmEmail",
    "pf": "frmIBCustomerBasicInfo",
    "spa": {
        "@class": "com.kony.gen.viz.model.container.property.vbox.SPAVBoxProperty"
    },
    "templateType": "forms",
    "wType": "VBox",
    "widgetalignment": 1
}