{
    "@class": "com.kony.gen.viz.model.container.KVizVBox",
    "DNDConfig": null,
    "_margin_": [
        0,
        0,
        0,
        0
    ],
    "_orientation_": 2,
    "_padding_": [
        5,
        0,
        5,
        0
    ],
    "_percent_": true,
    "_position_": 3,
    "_skin_": "s0e13ed4077f481ab090dae6b2e595ed",
    "allboxes": [],
    "canUpdateUI": true,
    "children": [
        "hboxOTP4"
    ],
    "containerweight": 25,
    "contextmenu": null,
    "id": "vboxOTP4",
    "info": null,
    "iscustomlayout": false,
    "isvisible": true,
    "kuid": "fcc6f043a61d4a2680b9a71afd4d50a3",
    "layouttype": 0,
    "margininpixel": false,
    "name": "kony.ui.Box",
    "paddInPixel": [
        0,
        0,
        0,
        0
    ],
    "paddinginpixel": false,
    "parent": "hboxOTP",
    "pf": "frmIBCustomerBasicInfo",
    "retaincontentalignment": false,
    "retainflexpositionproperties": false,
    "wType": "VBox",
    "widgetalignment": 1
}