{
    "DNDConfig": null,
    "__parentReadjusting__": false,
    "_data_": [
        {},
        {},
        {}
    ],
    "_enabled_": false,
    "_height_": {
        "type": "ref",
        "value": "preferred"
    },
    "_indicator_": "none",
    "_left_": {
        "type": "string",
        "value": "0dp"
    },
    "_margin_": [
        0,
        0,
        0,
        0
    ],
    "_orientation_": 2,
    "_padding_": [
        0,
        0,
        0,
        0
    ],
    "_skin_": "seg2Normal",
    "_top_": {
        "type": "string",
        "value": "0.0%"
    },
    "_width_": {
        "type": "string",
        "value": "100%"
    },
    "android": {
        "@class": "com.kony.gen.viz.model.container.property.segment2.AndroidSegment2Property",
        "psp": {
            "dockSectionHeaders": false
        },
        "render": true,
        "viewConfig": {
            "coverflowConfig": {
                "isCircular": true,
                "projectionAngle": 60
            }
        },
        "viewType": "tableview"
    },
    "canUpdateUI": true,
    "containerheightreference": 1,
    "containerweight": 0,
    "context": {
        "channel": "mobile",
        "formID": "AdvancedWidgetsSegements",
        "templateType": "segments",
        "topLevelBox": false
    },
    "counter": "02",
    "focusedindex": null,
    "focuseditem": null,
    "groupcells": false,
    "hasSections": false,
    "hiddencolumns": {},
    "id": "segSoGooODTxns",
    "ide_onRowClick": "p2kwiet2012247633297_segSoGooODTxns_onRowClick_seq0",
    "info": null,
    "iphone": {
        "@class": "com.kony.gen.viz.model.container.property.segment2.IPhoneSegment2Property",
        "psp": {
            "bounces": true,
            "editStyle": "none",
            "enableDictionary": false,
            "indicator": "none",
            "progressIndicatorColor": "grey",
            "searchCriteria": 1,
            "showProgressIndicator": false
        },
        "render": true,
        "viewConfig": {
            "coverflowConfig": {}
        },
        "viewType": "tableview"
    },
    "isvisible": true,
    "kuid": "p2kwiet2012247633292",
    "layoutalignment": 3,
    "margininpixel": false,
    "name": "kony.ui.SegmentedUI2",
    "needpageindicator": true,
    "paddinginpixel": false,
    "pageoffdotimage": "pageoffdot.png",
    "pageondotimage": "pageondot.png",
    "paginationconfig": {
        "position": "bottom"
    },
    "parent": "FlexContent",
    "pf": "frmMBSoGooODTranasactions",
    "retainselection": false,
    "rowTemplateId": "p2kwiet2012247651402",
    "rowcounter": 2,
    "rowfocusskin": "s656774a44ad435d9d8e58a5ea252a99",
    "rowskin": "s1ec1fa08dc146e3962bf19d53ee58ac",
    "rowtemplate": "FlexMain",
    "screenlevelwidget": false,
    "scrollingevents": false,
    "seccounter": 0,
    "sectionheaderskin": "s9bd6d2f2f8c4fce89dae24cc47abe06",
    "selectedRows": null,
    "selectedState": false,
    "selectedindex": null,
    "selectedindices": null,
    "selecteditems": null,
    "selectedsectionindex": 0,
    "selectimage": "chkbox.png",
    "selectionbehavior": "multiselect",
    "selectionbehaviorconfig": {
        "imageIdentifier": "imgCheckBox",
        "selectedStateImage": "chkbox.png",
        "unselectedStateImage": "chkbox2.png"
    },
    "selectionindicator": "imgCheckBox",
    "separatorcolor": "cce2f100",
    "separatorrequired": true,
    "separatorthickness": 1,
    "showscrollbars": false,
    "spa": {
        "@class": "com.kony.gen.viz.model.container.property.segment2.SPASegment2Property"
    },
    "spaan": {
        "@class": "com.kony.gen.viz.model.container.property.segment2.SPAAndroidSegment2Property",
        "render": true
    },
    "spabb": {
        "@class": "com.kony.gen.viz.model.container.property.segment2.SPABBSegment2Property",
        "render": false
    },
    "spaip": {
        "@class": "com.kony.gen.viz.model.container.property.segment2.SPAIPhoneSegment2Property",
        "render": true
    },
    "spawinphone8": {
        "@class": "com.kony.gen.viz.model.container.property.segment2.SPAWinPhone8Segment2Property",
        "render": true
    },
    "unselectimage": "chkbox2.png",
    "viewtype": "tableview",
    "wType": "Segment",
    "widgetalignment": 1,
    "widgetdatamap": {
        "FlexMain": "FlexMain",
        "Hbox1": "Hbox1",
        "Hbox2": "Hbox2",
        "Hbox3": "Hbox3",
        "Vbox1": "Vbox1",
        "Vbox2": "Vbox2",
        "imgCheckBox": "imgCheckBox",
        "lblAmount": "lblAmount",
        "lblAmountValue": "lblAmountValue",
        "lblDesc": "lblDesc",
        "lblTxnDate": "lblTxnDate",
        "segItem": "segItem"
    },
    "widgetskin": "s8a88496b6734f5dbf25836405557448",
    "winphone8": {
        "@class": "com.kony.gen.viz.model.container.property.segment2.WinPhone8Segment2Property",
        "psp": {
            "enableCache": false
        },
        "render": true
    },
    "zindex": 1
}