{
    "DNDConfig": null,
    "__parentReadjusting__": false,
    "_height_": {
        "type": "string",
        "value": "100%"
    },
    "_left_": {
        "type": "number",
        "value": "0"
    },
    "_margin_": [
        0,
        0,
        0,
        0
    ],
    "_orientation_": 6,
    "_padding_": [
        0,
        0,
        0,
        0
    ],
    "_percent_": true,
    "_skin_": "s918d2c198cc4b1b99c1a0fe1f4e0370",
    "_top_": {
        "type": "string",
        "value": "0dp"
    },
    "_width_": {
        "type": "string",
        "value": "100%"
    },
    "allboxes": [],
    "autogrowmode": 0,
    "canUpdateUI": true,
    "children": [
        "btnContractPopUpClose",
        "lblAddress",
        "flxbuttons",
        "FlexStartDate",
        "FlexEndDate",
        "FlexContractPeriod",
        "btnSaveContractEmployed"
    ],
    "clipbounds": true,
    "containerweight": 100,
    "enablescrolling": true,
    "id": "flxsupportcontract",
    "info": null,
    "iscustomlayout": false,
    "isvisible": true,
    "kuid": "i257a5c303ca48f9936bfce74c341e12",
    "layouttype": 4,
    "name": "kony.ui.FlexContainer",
    "parent": "flxContractPopUp",
    "pf": "frmLoanWorkInfo",
    "retaincontentalignment": false,
    "retainflexpositionproperties": false,
    "snapgridsize": 10,
    "snaptogrid": true,
    "wType": "FlexContainer",
    "widgetalignment": 1,
    "zindex": 20
}