{
    "@class": "com.kony.gen.viz.model.component.KVizLabel",
    "DNDConfig": null,
    "__parentReadjusting__": false,
    "_height_": {
        "type": "string",
        "value": "30%"
    },
    "_left_": {
        "type": "string",
        "value": "4%"
    },
    "_margin_": [
        1,
        1,
        1,
        1
    ],
    "_padding_": [
        0,
        0,
        0,
        0
    ],
    "_skin_": "s02abd4b5b9c44d8ae0911e7a1003342",
    "_text_": "Contract Period",
    "_top_": {
        "type": "string",
        "value": "14%"
    },
    "_width_": {
        "type": "string",
        "value": "47%"
    },
    "_wrapping_": 2,
    "android": {
        "textStyle": {
            "letterSpacing": 0,
            "strikeThrough": false
        }
    },
    "canUpdateUI": true,
    "containerweight": 100,
    "contentalignment": 4,
    "id": "lblContractPeriod",
    "info": null,
    "ipad": {
        "psp": {
            "wrapping": 2
        }
    },
    "iphone": {
        "psp": {
            "wrapping": 2
        }
    },
    "isvisible": true,
    "kuid": "c72ba152f7e44b3da8db39b170cc552b",
    "name": "kony.ui.Label",
    "parent": "FlexContractPeriod",
    "pf": "frmLoanWorkInfo",
    "textstyle": {},
    "tooltip": "",
    "wType": "Label",
    "zindex": 1
}