{
    "@class": "com.kony.gen.viz.model.component.KVizLabel",
    "DNDConfig": null,
    "__parentReadjusting__": false,
    "_height_": {
        "type": "string",
        "value": "30%"
    },
    "_left_": {
        "type": "string",
        "value": "2%"
    },
    "_margin_": [
        1,
        1,
        1,
        1
    ],
    "_padding_": [
        0,
        0,
        0,
        0
    ],
    "_skin_": "s94b2ca44f5446f2ac59a535e8094e21",
    "_text_": "Contract Start Date",
    "_top_": {
        "type": "string",
        "value": "17.64%"
    },
    "_width_": {
        "type": "string",
        "value": "100%"
    },
    "_wrapping_": 2,
    "android": {
        "textStyle": {
            "letterSpacing": 0,
            "strikeThrough": false
        }
    },
    "canUpdateUI": true,
    "containerweight": 100,
    "contentalignment": 4,
    "id": "lblDOB",
    "info": null,
    "ipad": {
        "psp": {
            "wrapping": 2
        }
    },
    "iphone": {
        "psp": {
            "wrapping": 2
        }
    },
    "isvisible": true,
    "kuid": "e155aac1ef444621ad2b4b6c8503e069",
    "name": "kony.ui.Label",
    "parent": "CopyFlexStartDate0c07bd8c5d27940",
    "pf": "frmLoanWorkInfo",
    "textstyle": {},
    "tooltip": "",
    "wType": "Label",
    "zindex": 1
}