{
    "@class": "com.kony.gen.viz.model.component.KVizTextBox2",
    "DNDConfig": null,
    "__parentReadjusting__": false,
    "_bottom_": {
        "type": "string",
        "value": "0%"
    },
    "_height_": {
        "type": "string",
        "value": "50%"
    },
    "_left_": {
        "type": "string",
        "value": "1%"
    },
    "_margin_": [
        0,
        0,
        0,
        0
    ],
    "_padding_": [
        3,
        0,
        0,
        0
    ],
    "_placeholder_": "",
    "_right_": {
        "type": "string",
        "value": "0%"
    },
    "_skin_": "s7a4fad843aa4805901f183114695b78",
    "_text_": "",
    "_top_": {
        "type": "string",
        "value": "44%"
    },
    "_width_": {
        "type": "string",
        "value": "95%"
    },
    "android": {
        "psp": {
            "keyboardActionLabel": 4
        }
    },
    "autocapitalize": "none",
    "autocomplete": false,
    "autocorrect": false,
    "autofilter": false,
    "canUpdateUI": true,
    "containerheight": "",
    "containerheightmode": 1,
    "containerweight": 100,
    "contentalignment": 4,
    "focusskin": "s7a4fad843aa4805901f183114695b78",
    "id": "tbxAddrVal",
    "info": null,
    "iphone": {
        "psp": {
            "keyboardActionLabel": 4
        }
    },
    "isvisible": true,
    "keyboardactionlabel": 4,
    "keyboardtype": "A",
    "kuid": "j3f63ac348a84cb2a5ec8c2a12841150",
    "maxtextlength": 20,
    "mode": "A",
    "name": "kony.ui.TextBox2",
    "parent": "FlexAddNo",
    "pf": "frmLoanWorkInfo",
    "securetextentry": false,
    "textinputmode": "A",
    "viewtype": "default",
    "wType": "TextField",
    "zindex": 1
}