{
    "@class": "com.kony.gen.viz.model.component.KVizButton",
    "DNDConfig": null,
    "_margin_": [
        0,
        0,
        0,
        0
    ],
    "_padding_": [
        0,
        0,
        0,
        0
    ],
    "_skin_": "sa17ef14cfad420aa703bb519f15a5d7",
    "_text_": "",
    "canUpdateUI": true,
    "containerweight": 20,
    "contentalignment": 5,
    "displaytext": true,
    "donotUpdateContainerWeight": false,
    "focusskin": "s652461fed684e79a048ea4c3a0a222a",
    "id": "btnEditMFOrder",
    "ide_onClick": "AS_Button_ca0164f5662546f08bf25ed2dd35764b",
    "info": null,
    "isvisible": true,
    "kuid": "gb344fef0fee47f99341911730d7f438",
    "margininpixel": false,
    "name": "kony.ui.Button",
    "paddinginpixel": false,
    "parent": "HBox0aa6d577ad28c41",
    "pf": "frmIBMFConfirm",
    "wType": "Button"
}