{
    "@class": "com.kony.gen.viz.model.container.KVizHBox",
    "DNDConfig": null,
    "__markedForDelete__": true,
    "_margin_": [
        0,
        0,
        0,
        0
    ],
    "_orientation_": 1,
    "_padding_": [
        0,
        0,
        0,
        0
    ],
    "_percent_": false,
    "_position_": 3,
    "_skin_": "s3240d32b9a74cc78d1e0768cd2cdf1b",
    "allboxes": [],
    "canUpdateUI": true,
    "children": [
        "lblfundcodeval"
    ],
    "containerweight": 100,
    "contextmenu": null,
    "id": "CopyHBox0b6bb3cd96b6149",
    "info": null,
    "isvisible": true,
    "kuid": "f770e3270f6e458788ce8b49a46c1c02",
    "layoutalignment": 4,
    "layouttype": 0,
    "margininpixel": false,
    "name": "kony.ui.Box",
    "parent": "VBox0ce41d92f3e6d4a",
    "pf": "frmIBMFConfirm",
    "wType": "HBox",
    "widgetalignment": 2
}