{
    "@class": "com.kony.gen.viz.model.container.KVizHBox",
    "DNDConfig": null,
    "__markedForDelete__": true,
    "_margin_": [
        2,
        0,
        2,
        0
    ],
    "_orientation_": 1,
    "_padding_": [
        0,
        0,
        0,
        0
    ],
    "_percent_": true,
    "_position_": 3,
    "_skin_": "s3240d32b9a74cc78d1e0768cd2cdf1b",
    "allboxes": [],
    "canUpdateUI": true,
    "children": [
        "ImageStep"
    ],
    "containerweight": 100,
    "contextmenu": null,
    "id": "HBox0ed51eb1afc7040",
    "info": null,
    "isvisible": true,
    "kuid": "b4f5fa56f5be4b6db49befdd9dd1ddaa",
    "layouttype": 0,
    "margininpixel": false,
    "name": "kony.ui.Box",
    "parent": "vboxMiddle",
    "pf": "frmIBMFConfirm",
    "templateType": "forms",
    "wType": "HBox",
    "widgetalignment": 1
}