{
    "@class": "com.kony.gen.viz.model.component.KVizLabel",
    "DNDConfig": null,
    "__markedForDelete__": true,
    "_margin_": [
        5,
        0,
        1,
        1
    ],
    "_padding_": [
        0,
        0,
        0,
        0
    ],
    "_skin_": "se0ce00ec02e4927973d6171600a8a8e",
    "_text_": "T+X",
    "_wrapping_": 2,
    "android": {
        "textStyle": {
            "letterSpacing": 0,
            "strikeThrough": false
        }
    },
    "canUpdateUI": true,
    "containerweight": 100,
    "contentalignment": 4,
    "id": "LabelSettleDateVal",
    "info": null,
    "ipad": {
        "psp": {
            "wrapping": 2
        }
    },
    "iphone": {
        "psp": {
            "wrapping": 2
        }
    },
    "isvisible": true,
    "kuid": "a99970654eaf4ee2984f618417b2a548",
    "margininpixel": false,
    "name": "kony.ui.Label",
    "parent": "CopyVBox0be820e40e4fe4d",
    "pf": "frmIBMFConfirm",
    "tooltip": "",
    "wType": "Label"
}