{
    "@class": "com.kony.gen.viz.model.component.KVizLabel",
    "DNDConfig": null,
    "__markedForDelete__": true,
    "_margin_": [
        5,
        1,
        1,
        0
    ],
    "_padding_": [
        0,
        0,
        0,
        0
    ],
    "_skin_": "s7386d125d194186a8f550ddfec1ec77",
    "_text_": "Transaction Order Date",
    "_wrapping_": 2,
    "android": {
        "textStyle": {
            "letterSpacing": 0,
            "strikeThrough": false
        }
    },
    "canUpdateUI": true,
    "containerweight": 100,
    "contentalignment": 4,
    "id": "lblTranOrdDate",
    "info": null,
    "ipad": {
        "psp": {
            "wrapping": 2
        }
    },
    "iphone": {
        "psp": {
            "wrapping": 2
        }
    },
    "isvisible": true,
    "kuid": "d8c91ea2c2fe447e8313252a0f7e7579",
    "margininpixel": false,
    "name": "kony.ui.Label",
    "parent": "CopyVBox0ga3b79ba5e714a",
    "pf": "frmIBMFConfirm",
    "tooltip": "",
    "wType": "Label"
}