{
    "@class": "com.kony.gen.viz.model.component.KVizLine",
    "DNDConfig": null,
    "_margin_": [
        0,
        1,
        0,
        0
    ],
    "_padding_": [
        0,
        0,
        0,
        0
    ],
    "_skin_": "s39db7d025404e4b94521036cef4b99f",
    "_thickness_": 1,
    "canUpdateUI": true,
    "containerWeightLocked": false,
    "containerweight": 100,
    "id": "Line0a0cda7d2b00942",
    "info": null,
    "isvisible": true,
    "kuid": "aca3e96159024fbb901f389e0300b5be",
    "margininpixel": false,
    "name": "kony.ui.Line",
    "parent": "VBox0f3da940daac64b",
    "pf": "frmIBMFConfirm",
    "wType": "Line"
}