{
    "@class": "com.kony.gen.viz.model.component.KVizLink",
    "DNDConfig": null,
    "_margin_": [
        0,
        0,
        0,
        0
    ],
    "_padding_": [
        0,
        0,
        0,
        0
    ],
    "_skin_": "s4827b9a014c4c64aef88304ed4f0a0b",
    "_text_": "Purchase",
    "canUpdateUI": true,
    "containerweight": 25,
    "contentalignment": 5,
    "desktopweb": {
        "psp": {}
    },
    "disabledSkins": {
        "hoverSkin": "sfe01eb6e1f44a49a9ce0b8732982bdf"
    },
    "donotUpdateContainerWeight": false,
    "id": "LinkPurchase",
    "info": null,
    "isvisible": true,
    "kuid": "a0403330bf2a42569e3d4ca60c32815b",
    "name": "kony.ui.Link",
    "paddInPixel": [
        0,
        0,
        0,
        0
    ],
    "parent": "HboxLinks",
    "pf": "frmIBMFConfirm",
    "wType": "Link"
}