{
    "DNDConfig": null,
    "_base64_": null,
    "_enabled_": false,
    "_margin_": [
        15,
        0,
        10,
        0
    ],
    "_padding_": [
        0,
        0,
        0,
        0
    ],
    "_skin_": "s74407cc01df451c9a740ebe48f853eb",
    "_src_": "icon_my_note.png",
    "_text_": "avatar.png",
    "android": {
        "@class": "com.kony.gen.viz.model.component.property.image2.AndroidImage2Property",
        "_margin_": [
            15,
            0,
            10,
            0
        ],
        "margin": [
            15,
            0,
            10,
            0
        ],
        "marginInPixel": false,
        "render": true
    },
    "canUpdateUI": true,
    "containerweight": 100,
    "contentalignment": 5,
    "context": {
        "channel": "mobile",
        "ispercent": true,
        "platform": "iphone",
        "templateType": "forms",
        "topLevelBox": false
    },
    "hexpand": false,
    "id": "CopyimgTransNPbAckFrm0e7280a3b151a45",
    "imagescalemode": 1,
    "imagewhenfailed": "avatar_dis.png",
    "info": null,
    "invokedProperty": "src",
    "iphone": {
        "@class": "com.kony.gen.viz.model.component.property.image2.IPhoneImage2Property",
        "_margin_": [
            15,
            0,
            10,
            0
        ],
        "margin": [
            0,
            0,
            0,
            0
        ],
        "marginInPixel": true,
        "psp": {
            "glossyEffect": 0
        },
        "render": true
    },
    "ispercent": true,
    "isvisible": true,
    "kuid": "f91ac16fbf914609bc0b54d34b289ddc",
    "margininpixel": false,
    "name": "kony.ui.Image2",
    "paddInPixel": [
        0,
        0,
        0,
        0
    ],
    "paddinginpixel": false,
    "parent": "CopyvbxRepeatAs0bb65380b256942",
    "pf": "frmTransfersAck",
    "spa": {
        "@class": "com.kony.gen.viz.model.component.property.image2.SPAImage2Property"
    },
    "spaan": {
        "@class": "com.kony.gen.viz.model.component.property.image2.SPAAndroidImage2Property",
        "_margin_": [
            15,
            0,
            10,
            0
        ],
        "margin": [
            15,
            0,
            10,
            0
        ],
        "marginInPixel": false,
        "render": true
    },
    "spabb": {
        "@class": "com.kony.gen.viz.model.component.property.image2.SPABBImage2Property",
        "_margin_": [
            15,
            0,
            10,
            0
        ],
        "margin": [
            15,
            0,
            10,
            0
        ],
        "marginInPixel": false,
        "render": true
    },
    "spaip": {
        "@class": "com.kony.gen.viz.model.component.property.image2.SPAIPhoneImage2Property",
        "_margin_": [
            15,
            0,
            10,
            0
        ],
        "margin": [
            15,
            0,
            10,
            0
        ],
        "marginInPixel": false,
        "render": true
    },
    "spawinphone8": {
        "@class": "com.kony.gen.viz.model.component.property.image2.SPAWinPhone8Image2Property",
        "_margin_": [
            15,
            0,
            10,
            0
        ],
        "margin": [
            15,
            0,
            10,
            0
        ],
        "marginInPixel": false,
        "render": true
    },
    "srcType": 1,
    "vexpand": false,
    "wType": "Image",
    "widgetalignment": 5,
    "winphone8": {
        "@class": "com.kony.gen.viz.model.component.property.image2.WinPhone8Image2Property",
        "_margin_": [
            15,
            0,
            10,
            0
        ],
        "margin": [
            15,
            0,
            10,
            0
        ],
        "marginInPixel": false,
        "psp": {
            "enableCache": false
        },
        "render": true
    }
}