{
    "DNDConfig": null,
    "_enabled_": false,
    "_margin_": [
        0,
        0,
        2,
        0
    ],
    "_padding_": [
        0,
        0,
        0,
        0
    ],
    "_skin_": "s1b4f23656224f269f34c14a484705d6",
    "_text_": "Get Directions",
    "canUpdateUI": true,
    "containerweight": 60,
    "contentalignment": 5,
    "desktopweb": {
        "@class": "com.kony.gen.viz.model.component.property.button.DesktopWebButtonProperty",
        "_margin_": [
            0,
            0,
            2,
            0
        ],
        "_padding_": [
            0,
            0,
            0,
            0
        ],
        "displayText": true,
        "margin": [
            0,
            0,
            2,
            0
        ],
        "marginInPixel": false,
        "padding": [
            0,
            0,
            0,
            0
        ],
        "paddingInPixel": false,
        "render": true
    },
    "displaytext": true,
    "focusskin": "s1b4f23656224f269f34c14a484705d6",
    "hexpand": true,
    "id": "btnGetDirection",
    "ide_onClick": "p2kwiet2012247652425_btnGetDirection_onClick_seq0",
    "info": null,
    "isvisible": true,
    "kiosk": {
        "@class": "com.kony.gen.viz.model.component.property.button.KioskButtonProperty",
        "_margin_": [
            0,
            0,
            2,
            0
        ],
        "_padding_": [
            0,
            0,
            0,
            0
        ],
        "margin": [
            0,
            0,
            2,
            0
        ],
        "marginInPixel": false,
        "padding": [
            0,
            0,
            0,
            0
        ],
        "paddingInPixel": false,
        "render": true
    },
    "kuid": "p2kwiet2012247652419",
    "margininpixel": false,
    "name": "kony.ui.Button",
    "paddinginpixel": false,
    "parent": "hbox864917493204643",
    "pf": "templateIBMap",
    "spa": {
        "@class": "com.kony.gen.viz.model.component.property.button.SPAButtonProperty",
        "displayText": true
    },
    "texti18n": "FindTMB_GetDirections",
    "vexpand": false,
    "wType": "Button",
    "widgetalignment": 5
}