{
    "@class": "com.kony.gen.viz.model.component.KVizButton",
    "DNDConfig": null,
    "__parentReadjusting__": false,
    "_height_": {
        "type": "string",
        "value": "40dp"
    },
    "_margin_": [
        6,
        6,
        6,
        6
    ],
    "_padding_": [
        0,
        0,
        0,
        0
    ],
    "_right_": {
        "type": "number",
        "value": "0"
    },
    "_skin_": "sf87b574355247c7b6007b6936f185c0",
    "_text_": "",
    "_top_": {
        "type": "string",
        "value": "0dp"
    },
    "_width_": {
        "type": "string",
        "value": "40dp"
    },
    "canUpdateUI": true,
    "containerweight": 100,
    "contentalignment": 5,
    "disabledSkins": {
        "focusSkin": "sb03125d6967435d9bab3829bc2d31d6"
    },
    "displaytext": true,
    "id": "ButtonClose",
    "info": null,
    "iphone": {
        "psp": {
            "showProgressIndicator": false
        }
    },
    "isvisible": true,
    "kuid": "gc3a243917a74dd6bfb90550a55cc8ec",
    "name": "kony.ui.Button",
    "parent": "FlexContainerHeader",
    "pf": "frmMFSelectFundRedeemMB",
    "showprogressindicator": false,
    "wType": "Button",
    "zindex": 1
}