{
    "DNDConfig": null,
    "_enabled_": false,
    "_margin_": [
        0,
        0,
        0,
        0
    ],
    "_orientation_": 1,
    "_padding_": [
        0,
        3,
        0,
        3
    ],
    "_percent_": true,
    "_position_": 3,
    "_resize_": true,
    "_skin_": "sdb49f6964884200bd4e3caec9eef15f",
    "allboxes": [],
    "borderCollapse": false,
    "canUpdateUI": true,
    "children": [
        "segImgStatus",
        "vbox0",
        "segImgArrow"
    ],
    "containerweight": 100,
    "desktopweb": {
        "@class": "com.kony.gen.viz.model.container.property.hbox.DesktopWebHBoxProperty",
        "_position_": 3,
        "position": 3,
        "psp": {
            "hoverSkin": "sbdd027b6a03422694554708ec102810"
        },
        "render": true
    },
    "focusskin": "sbdd027b6a03422694554708ec102810",
    "id": "hboxCalendarFourRowsTemplate",
    "info": null,
    "isvisible": true,
    "kiosk": {
        "@class": "com.kony.gen.viz.model.container.property.hbox.KioskHBoxProperty",
        "_position_": 3,
        "position": 3,
        "render": true
    },
    "kuid": "p2kwiet2012247652226",
    "layoutalignment": 3,
    "layouttype": 0,
    "margininpixel": false,
    "name": "kony.ui.Box",
    "paddinginpixel": false,
    "parent": "segCalendarFourRowsTemplate",
    "pf": "segCalendarFourRowsTemplate",
    "spa": {
        "@class": "com.kony.gen.viz.model.container.property.hbox.SPAHBoxProperty"
    },
    "templateType": "forms",
    "wType": "HBox",
    "widgetalignment": 1
}