{
    "DNDConfig": null,
    "_enabled_": false,
    "_margin_": [
        0,
        0,
        0,
        0
    ],
    "_padding_": [
        0,
        3,
        0,
        3
    ],
    "_skin_": "sf9d7fce85f441cbabd532409f5848ea",
    "_text_": "",
    "canUpdateUI": true,
    "containerweight": 35,
    "contentalignment": 5,
    "desktopweb": {
        "@class": "com.kony.gen.viz.model.component.property.button.DesktopWebButtonProperty",
        "_margin_": [
            2,
            1,
            2,
            1
        ],
        "displayText": true,
        "margin": [
            2,
            1,
            2,
            1
        ],
        "marginInPixel": false,
        "render": true
    },
    "displaytext": true,
    "focusskin": "sf9d7fce85f441cbabd532409f5848ea",
    "hexpand": true,
    "id": "btncalender",
    "info": null,
    "isvisible": true,
    "kiosk": {
        "@class": "com.kony.gen.viz.model.component.property.button.KioskButtonProperty",
        "render": true
    },
    "kuid": "p2kwiet2012247644106",
    "margininpixel": false,
    "name": "kony.ui.Button",
    "paddinginpixel": false,
    "parent": "hbox58868446699428",
    "pf": "frmIBMyActivities",
    "spa": {
        "@class": "com.kony.gen.viz.model.component.property.button.SPAButtonProperty",
        "displayText": true
    },
    "texti18n": "MyActivitiesIB_Calender",
    "vexpand": false,
    "wType": "Button",
    "widgetalignment": 5
}