{
    "DNDConfig": null,
    "_enabled_": false,
    "_margin_": [
        0,
        0,
        0,
        0
    ],
    "_padding_": [
        0,
        1,
        0,
        1
    ],
    "_skin_": "s739225ffb8744cd8112b48647248f69",
    "_text_": "",
    "canUpdateUI": true,
    "containerweight": 100,
    "contentalignment": 4,
    "desktopweb": {
        "@class": "com.kony.gen.viz.model.component.property.combobox.DesktopWebComboBoxProperty",
        "psp": {
            "autoSuggest": false,
            "viewType": 0
        },
        "render": true
    },
    "focusskin": "s739225ffb8744cd8112b48647248f69",
    "hexpand": true,
    "id": "combosub",
    "info": null,
    "isvisible": true,
    "kiosk": {
        "@class": "com.kony.gen.viz.model.component.property.combobox.KioskComboBoxProperty",
        "render": true
    },
    "kuid": "p2kwiet2012247644119",
    "margininpixel": false,
    "masterdata": [],
    "name": "kony.ui.ComboBox",
    "paddinginpixel": false,
    "parent": "vbxcombo2",
    "pf": "frmIBMyActivities",
    "selectedkey": "",
    "selectedkeyvalue": [],
    "spa": {
        "@class": "com.kony.gen.viz.model.component.property.combobox.SPAComboBoxProperty"
    },
    "vexpand": false,
    "wType": "ComboBox",
    "widgetalignment": 5
}