{
    "DNDConfig": null,
    "_enabled_": false,
    "_margin_": [
        0,
        0,
        0,
        0
    ],
    "_padding_": [
        0,
        0,
        0,
        0
    ],
    "_skin_": "s88c6e4bc9b14fbaa47455a3aa5af337",
    "_text_": "5",
    "canUpdateUI": true,
    "containerweight": 3,
    "contentalignment": 5,
    "desktopweb": {
        "@class": "com.kony.gen.viz.model.component.property.link.DesktopWebLinkProperty",
        "render": true
    },
    "focusskin": "s88c6e4bc9b14fbaa47455a3aa5af337",
    "hexpand": true,
    "id": "link5future",
    "ide_onClick": "p2kwiet2012247644245_link5future_onClick_seq0",
    "info": null,
    "isvisible": true,
    "kiosk": {
        "@class": "com.kony.gen.viz.model.component.property.link.KioskLinkProperty",
        "render": true
    },
    "kuid": "p2kwiet2012247644238",
    "margininpixel": false,
    "name": "kony.ui.Link",
    "paddinginpixel": false,
    "parent": "hbxbottomfuture",
    "pf": "frmIBMyActivities",
    "spa": {
        "@class": "com.kony.gen.viz.model.component.property.link.SPALinkProperty"
    },
    "vexpand": false,
    "wType": "Link",
    "widgetalignment": 6
}