{
    "DNDConfig": null,
    "__parentReadjusting__": false,
    "_height_": {
        "type": "string",
        "value": "93%"
    },
    "_left_": {
        "type": "string",
        "value": "0dp"
    },
    "_margin_": [
        0,
        0,
        0,
        0
    ],
    "_orientation_": 6,
    "_padding_": [
        0,
        0,
        0,
        0
    ],
    "_percent_": true,
    "_skin_": "s918d2c198cc4b1b99c1a0fe1f4e0370",
    "_top_": {
        "type": "string",
        "value": "7%"
    },
    "_width_": {
        "type": "string",
        "value": "100%"
    },
    "allboxes": [],
    "autogrowmode": 0,
    "canUpdateUI": true,
    "children": [
        "CopylblHeader0b0bd001cce164a",
        "flexBenifit1",
        "flexSeperator1",
        "CopyflexBenifit0ha6ddf2f387949",
        "CopyflexSeperator0e448e3e543ca47",
        "CopyflexBenifit0a34acf16f4fd4c",
        "flexStart"
    ],
    "clipbounds": true,
    "containerweight": 100,
    "enablescrolling": true,
    "id": "FlexContainer0a12b10d63ed841",
    "info": null,
    "isvisible": true,
    "kuid": "b734acf07e8c435ba24237f7a1438aa9",
    "layouttype": 4,
    "name": "kony.ui.FlexContainer",
    "parent": "flexIntroduction",
    "pf": "frmDonationSelectBillers",
    "snapgridsize": 10,
    "snaptogrid": true,
    "wType": "FlexContainer",
    "widgetalignment": 1,
    "zindex": 1
}