{
    "DNDConfig": null,
    "_enabled_": false,
    "_margin_": [
        3,
        0,
        0,
        0
    ],
    "_padding_": [
        0,
        0,
        0,
        0
    ],
    "_skin_": "s448600326824d79a6940df1dbfd429c",
    "_text_": "",
    "canUpdateUI": true,
    "containerweight": 94,
    "contentalignment": 4,
    "desktopweb": {
        "@class": "com.kony.gen.viz.model.component.property.link.DesktopWebLinkProperty",
        "_margin_": [
            3,
            0,
            0,
            0
        ],
        "_padding_": [
            0,
            0,
            0,
            0
        ],
        "margin": [
            3,
            0,
            0,
            0
        ],
        "marginInPixel": false,
        "padding": [
            0,
            0,
            0,
            0
        ],
        "paddingInPixel": false,
        "render": true
    },
    "focusskin": "s448600326824d79a6940df1dbfd429c",
    "hexpand": true,
    "id": "linkMoreHide",
    "ide_onClick": "p2kwiet2012247638991_linkMoreHide_onClick_seq0",
    "info": null,
    "isvisible": true,
    "kiosk": {
        "@class": "com.kony.gen.viz.model.component.property.link.KioskLinkProperty",
        "_margin_": [
            3,
            0,
            0,
            0
        ],
        "_padding_": [
            0,
            0,
            0,
            0
        ],
        "margin": [
            3,
            0,
            0,
            0
        ],
        "marginInPixel": false,
        "padding": [
            0,
            0,
            0,
            0
        ],
        "paddingInPixel": false,
        "render": true
    },
    "kuid": "p2kwiet2012247638973",
    "margininpixel": false,
    "name": "kony.ui.Link",
    "paddinginpixel": false,
    "parent": "hbxLink",
    "pf": "vbox201224764716",
    "spa": {
        "@class": "com.kony.gen.viz.model.component.property.link.SPALinkProperty"
    },
    "texti18n": "More",
    "vexpand": false,
    "wType": "Link",
    "widgetalignment": 4
}