{
    "DNDConfig": null,
    "_enabled_": false,
    "_margin_": [
        0,
        0,
        0,
        0
    ],
    "_padding_": [
        0,
        0,
        0,
        0
    ],
    "_skin_": "sd5bae1daeab4832a535b4d5555df44c",
    "_text_": "",
    "_thickness_": 1,
    "canUpdateUI": true,
    "containerweight": 100,
    "contentalignment": 5,
    "desktopweb": {
        "@class": "com.kony.gen.viz.model.component.property.line.DesktopWebLineProperty",
        "render": true
    },
    "hexpand": true,
    "id": "linePointsBeingRedeemed",
    "info": null,
    "isvisible": true,
    "kiosk": {
        "@class": "com.kony.gen.viz.model.component.property.line.KioskLineProperty",
        "render": true
    },
    "kuid": "p2kwiet2012247646978",
    "margininpixel": false,
    "name": "kony.ui.Line",
    "paddinginpixel": false,
    "parent": "vbxCommonRewards",
    "pf": "frmIBPointRedemptionLanding",
    "spa": {
        "@class": "com.kony.gen.viz.model.component.property.line.SPALineProperty"
    },
    "vexpand": false,
    "wType": "Line",
    "widgetalignment": 5
}