{
    "DNDConfig": null,
    "__parentReadjusting__": false,
    "_height_": {
        "type": "ref",
        "value": "preferred"
    },
    "_left_": {
        "type": "string",
        "value": "0dp"
    },
    "_margin_": [
        0,
        0,
        0,
        0
    ],
    "_orientation_": 6,
    "_padding_": [
        0,
        0,
        0,
        0
    ],
    "_percent_": true,
    "_skin_": "s918d2c198cc4b1b99c1a0fe1f4e0370",
    "_top_": {
        "type": "string",
        "value": "10dp"
    },
    "_width_": {
        "type": "string",
        "value": "100%"
    },
    "allboxes": [],
    "autogrowmode": 1,
    "canUpdateUI": true,
    "children": [
        "CopylblFromAccntNum0cf27a2f76f5747",
        "CopylblFromAccntNum0d768cb77a6214c"
    ],
    "clipbounds": true,
    "containerweight": 100,
    "enablescrolling": true,
    "id": "CopyFlexMFNumber0ffdcd1820b1d44",
    "info": null,
    "isvisible": true,
    "kuid": "ff3108fa137f4aaaa1edbb84df5191e9",
    "layouttype": 4,
    "name": "kony.ui.FlexContainer",
    "parent": "CopyFlexDetailsHeader0b2241c0097fa47",
    "pf": "frmMFEnterInfo",
    "snapgridsize": 10,
    "snaptogrid": true,
    "wType": "FlexContainer",
    "widgetalignment": 1,
    "zindex": 1
}