{
    "@class": "com.kony.gen.viz.model.component.KVizLabel",
    "DNDConfig": null,
    "__parentReadjusting__": false,
    "_height_": {
        "type": "ref",
        "value": "preferred"
    },
    "_margin_": [
        1,
        1,
        1,
        1
    ],
    "_padding_": [
        0,
        0,
        0,
        0
    ],
    "_skin_": "sa70d0ad4a164e6286066ef3beabadbc",
    "_text_": "08 June 2018",
    "_width_": {
        "type": "string",
        "value": "100%"
    },
    "_wrapping_": 2,
    "android": {
        "textStyle": {
            "letterSpacing": 0,
            "strikeThrough": false
        }
    },
    "canUpdateUI": true,
    "containerweight": 100,
    "contentalignment": 4,
    "id": "CopylblFromAccntNum0f83a3eb13df64d",
    "info": null,
    "ipad": {
        "psp": {
            "wrapping": 2
        }
    },
    "iphone": {
        "psp": {
            "wrapping": 2
        }
    },
    "isvisible": true,
    "kuid": "dad4a2b38cee4d2e913b4ba33fe0c848",
    "name": "kony.ui.Label",
    "parent": "CopyFlexMFNumber06e95a35164c84b",
    "pf": "frmMFEnterInfo",
    "tooltip": "",
    "wType": "Label",
    "zindex": 1
}