{
    "DNDConfig": null,
    "__parentReadjusting__": false,
    "_height_": {
        "type": "ref",
        "value": "preferred"
    },
    "_left_": {
        "type": "string",
        "value": "3%"
    },
    "_margin_": [
        0,
        0,
        0,
        0
    ],
    "_orientation_": 6,
    "_padding_": [
        0,
        0,
        0,
        0
    ],
    "_percent_": true,
    "_skin_": "s8f45115a99942988b4529d2f3f27419",
    "_top_": {
        "type": "string",
        "value": "4%"
    },
    "_width_": {
        "type": "string",
        "value": "94%"
    },
    "allboxes": [],
    "autogrowmode": 1,
    "canUpdateUI": true,
    "children": [
        "FlexMFImage",
        "FlexMFNumber",
        "FlexMFShrtName",
        "FlexMFShrtDetail",
        "FlexAmountLbl",
        "FlexAmountVal"
    ],
    "clipbounds": true,
    "containerweight": 100,
    "enablescrolling": true,
    "id": "FlexDetailsHeader",
    "info": null,
    "isvisible": true,
    "kuid": "77b0cf8e544b4665be7682544f72776c",
    "layouttype": 4,
    "name": "kony.ui.FlexContainer",
    "parent": "FlexMainContainer",
    "pf": "frmMFEnterInfo",
    "snapgridsize": 10,
    "snaptogrid": true,
    "wType": "FlexContainer",
    "widgetalignment": 1,
    "zindex": 1
}