{
    "DNDConfig": null,
    "_enabled_": false,
    "_margin_": [
        3,
        0,
        3,
        0
    ],
    "_orientation_": 1,
    "_percent_": true,
    "_position_": 3,
    "_resize_": true,
    "_skin_": "s8b5d3d27f3a4198aeb35a159377333d",
    "allboxes": [],
    "android": {
        "@class": "com.kony.gen.viz.model.container.property.hbox.AndroidHBoxProperty",
        "_padding_": [
            0,
            0,
            0,
            0
        ],
        "_position_": 3,
        "padding": [
            0,
            0,
            0,
            0
        ],
        "paddingInPixel": false,
        "position": 3,
        "render": true
    },
    "borderCollapse": false,
    "canUpdateUI": true,
    "children": [
        "lblsubdistrict"
    ],
    "containerweight": 100,
    "focusskin": "s8b5d3d27f3a4198aeb35a159377333d",
    "id": "hbox4758937266374",
    "ide_onClick": "p2kwiet2012247629155_hbox4758937266374_onClick_seq0",
    "info": null,
    "iphone": {
        "@class": "com.kony.gen.viz.model.container.property.hbox.IPhoneHBoxProperty",
        "_padding_": [
            0,
            0,
            0,
            0
        ],
        "_position_": 3,
        "padding": [
            0,
            0,
            0,
            0
        ],
        "paddingInPixel": false,
        "position": 3,
        "render": true
    },
    "isvisible": true,
    "kuid": "p2kwiet2012247629139",
    "layoutalignment": 3,
    "margininpixel": false,
    "name": "kony.ui.Box",
    "parent": "sboxRight",
    "pf": "frmeditMyProfile",
    "spa": {
        "@class": "com.kony.gen.viz.model.container.property.hbox.SPAHBoxProperty"
    },
    "spaan": {
        "@class": "com.kony.gen.viz.model.container.property.hbox.SPAAndroidHBoxProperty",
        "render": true
    },
    "spabb": {
        "@class": "com.kony.gen.viz.model.container.property.hbox.SPABBHBoxProperty",
        "render": true
    },
    "spaip": {
        "@class": "com.kony.gen.viz.model.container.property.hbox.SPAIPhoneHBoxProperty",
        "render": true
    },
    "spawinphone8": {
        "@class": "com.kony.gen.viz.model.container.property.hbox.SPAWinPhone8HBoxProperty",
        "render": true
    },
    "templateType": "forms",
    "wType": "HBox",
    "widgetalignment": 1,
    "winphone8": {
        "@class": "com.kony.gen.viz.model.container.property.hbox.WinPhone8HBoxProperty",
        "_margin_": [
            1,
            1,
            1,
            1
        ],
        "_position_": 3,
        "margin": [
            1,
            1,
            1,
            1
        ],
        "marginInPixel": true,
        "position": 3,
        "psp": {
            "enableCache": false
        },
        "render": true
    }
}