{
    "DNDConfig": null,
    "_enabled_": false,
    "_margin_": [
        0,
        0,
        0,
        0
    ],
    "_orientation_": 2,
    "_padding_": [
        0,
        0,
        0,
        0
    ],
    "_percent_": true,
    "_position_": 3,
    "_resize_": true,
    "_skin_": "sa8c00f61daa4923a5bd013a081b3932",
    "allboxes": [],
    "android": {
        "@class": "com.kony.gen.viz.model.container.property.scrollbox.AndroidScrollBoxProperty",
        "_position_": 3,
        "enableScrollByPage": false,
        "position": 3,
        "render": true,
        "showScrollbars": true,
        "undefined": false
    },
    "canUpdateUI": true,
    "children": [
        "hbox475124774143",
        "hbxArrow",
        "hboxClosebtn",
        "hboxTitleHeader",
        "lblcustname",
        "hbox475868836194640",
        "hbxchangepic",
        "hbox475868836197589",
        "line449146309336944",
        "hbox1010003537248506",
        "line449146309336938",
        "hbox475868836198148",
        "line447269476337926",
        "lblcontadd",
        "txtAddress1",
        "line475868836196795",
        "txtAddress2",
        "line449146309336188",
        "hbox4758937265922",
        "line4740217943851",
        "hbox4758937266356",
        "line475868836197888",
        "hbox4758937266374",
        "line449146309336125",
        "hbox4758937266440",
        "line449146309336924",
        "hbox104235284554496",
        "hbox474230331217987",
        "HBox0d16e54a11a3741"
    ],
    "containerheight": 100,
    "containerheightreference": 1,
    "containerweight": 100,
    "enablescrollbypage": false,
    "id": "sboxRight",
    "info": null,
    "iphone": {
        "@class": "com.kony.gen.viz.model.container.property.scrollbox.IPhoneScrollBoxProperty",
        "_position_": 3,
        "enableScrollByPage": false,
        "position": 3,
        "psp": {
            "bounces": true
        },
        "render": true,
        "showScrollbars": true,
        "undefined": false
    },
    "isvisible": true,
    "kuid": "p2kwiet2012247629147",
    "layoutalignment": 3,
    "margininpixel": false,
    "name": "kony.ui.ScrollBox",
    "paddinginpixel": false,
    "parent": "vbox4751247744173",
    "pf": "frmeditMyProfile",
    "scrollbar": "scrollbar",
    "scrolldirection": 2,
    "scrollingevents": null,
    "showscrollbars": true,
    "spa": {
        "@class": "com.kony.gen.viz.model.container.property.scrollbox.SPAScrollBoxProperty",
        "psp": {
            "scrollArrowConfig": [
                null,
                null,
                null,
                null
            ]
        }
    },
    "spaan": {
        "@class": "com.kony.gen.viz.model.container.property.scrollbox.SPAAndroidScrollBoxProperty",
        "render": true
    },
    "spabb": {
        "@class": "com.kony.gen.viz.model.container.property.scrollbox.SPABBScrollBoxProperty",
        "render": true
    },
    "spaip": {
        "@class": "com.kony.gen.viz.model.container.property.scrollbox.SPAIPhoneScrollBoxProperty",
        "render": true
    },
    "spawinphone8": {
        "@class": "com.kony.gen.viz.model.container.property.scrollbox.SPAWinPhone8ScrollBoxProperty",
        "render": true
    },
    "templateType": "forms",
    "totalWt": 2700,
    "wType": "ScrollBox",
    "widgetalignment": 1,
    "winphone8": {
        "@class": "com.kony.gen.viz.model.container.property.scrollbox.WinPhone8ScrollBoxProperty",
        "_margin_": [
            0,
            0,
            0,
            0
        ],
        "_position_": 3,
        "margin": [
            0,
            0,
            0,
            0
        ],
        "marginInPixel": false,
        "position": 3,
        "psp": {
            "enableCache": false
        },
        "render": true
    }
}