{
    "DNDConfig": null,
    "_enabled_": false,
    "_margin_": [
        0,
        0,
        0,
        0
    ],
    "_skin_": "s77e157ba8e8401a94d581b60f5ef840",
    "_text_": "Button",
    "canUpdateUI": true,
    "containerweight": 100,
    "contentalignment": 5,
    "desktopweb": {
        "@class": "com.kony.gen.viz.model.component.property.button.DesktopWebButtonProperty",
        "_padding_": [
            0,
            0,
            0,
            0
        ],
        "displayText": true,
        "padding": [
            0,
            0,
            0,
            0
        ],
        "paddingInPixel": false,
        "render": true
    },
    "displaytext": true,
    "focusskin": "saf5a1fce4ff42c5bc839ca0602c8374",
    "hexpand": true,
    "id": "btnGoto",
    "ide_onClick": "p2kwiet2012247640468_btnGoto_onClick_seq0",
    "info": null,
    "isvisible": false,
    "kiosk": {
        "@class": "com.kony.gen.viz.model.component.property.button.KioskButtonProperty",
        "render": true
    },
    "kuid": "p2kwiet2012247640459",
    "margininpixel": false,
    "name": "kony.ui.Button",
    "parent": "vbox507353026213307",
    "pf": "frmIBChequeServiceConfirmation",
    "spa": {
        "@class": "com.kony.gen.viz.model.component.property.button.SPAButtonProperty",
        "displayText": true
    },
    "texti18n": "keyReturn",
    "vexpand": false,
    "wType": "Button",
    "widgetalignment": 5
}