{
    "@class": "com.kony.gen.viz.model.container.KVizHBox",
    "DNDConfig": null,
    "_margin_": [
        0,
        0,
        0,
        0
    ],
    "_orientation_": 1,
    "_padding_": [
        0,
        0,
        0,
        0
    ],
    "_percent_": true,
    "_position_": 3,
    "_skin_": "s3240d32b9a74cc78d1e0768cd2cdf1b",
    "allboxes": [],
    "canUpdateUI": true,
    "children": [
        "lblWarning2"
    ],
    "containerweight": 100,
    "contextmenu": null,
    "id": "HBox0baefad7eb36642",
    "info": null,
    "isvisible": true,
    "kuid": "b6a63b15ae9d4682a9d51edf2abfabec",
    "layouttype": 0,
    "name": "kony.ui.Box",
    "parent": "VBox0ccbf8df1aeb044",
    "pf": "frmIBMFTnC",
    "wType": "HBox",
    "widgetalignment": 1
}