{
    "@class": "com.kony.gen.viz.model.container.KVizHBox",
    "DNDConfig": null,
    "_margin_": [
        0,
        0,
        0,
        0
    ],
    "_orientation_": 1,
    "_padding_": [
        0,
        3,
        0,
        3
    ],
    "_percent_": true,
    "_position_": 3,
    "_skin_": "s3240d32b9a74cc78d1e0768cd2cdf1b",
    "allboxes": [],
    "canUpdateUI": true,
    "children": [
        "LinkPortfolio",
        "LinkPurchase",
        "LinkRedeem",
        "LinkSutability"
    ],
    "containerweight": 100,
    "contextmenu": null,
    "id": "HboxLinks",
    "info": null,
    "isvisible": true,
    "kuid": "b7cc633275af4ed2aaf70162496d434b",
    "layouttype": 0,
    "name": "kony.ui.Box",
    "paddinginpixel": false,
    "parent": "VBox0de7560d3d3a74b",
    "pf": "frmIBMFTnC",
    "wType": "HBox",
    "widgetalignment": 1
}