{
    "@class": "com.kony.gen.viz.model.container.KVizHBox",
    "DNDConfig": null,
    "__markedForDelete__": true,
    "_margin_": [
        0,
        0,
        0,
        0
    ],
    "_orientation_": 1,
    "_padding_": [
        0,
        5,
        0,
        0
    ],
    "_percent_": true,
    "_position_": 3,
    "_skin_": "s3240d32b9a74cc78d1e0768cd2cdf1b",
    "allboxes": [],
    "canUpdateUI": true,
    "children": [
        "lblRiskWarning"
    ],
    "containerweight": 100,
    "contextmenu": null,
    "id": "hbxHeader",
    "info": null,
    "isvisible": true,
    "kuid": "d6cd02d703d34ecbae514a2e3becb1bb",
    "layouttype": 0,
    "margininpixel": false,
    "name": "kony.ui.Box",
    "paddinginpixel": false,
    "parent": "vbxsecurity",
    "pf": "frmIBMFTnC",
    "wType": "HBox",
    "widgetalignment": 1
}