{
    "@class": "com.kony.gen.viz.model.component.KVizLink",
    "DNDConfig": null,
    "__markedForDelete__": true,
    "_margin_": [
        0,
        0,
        0,
        0
    ],
    "_padding_": [
        0,
        2,
        0,
        2
    ],
    "_skin_": "s448600326824d79a6940df1dbfd429c",
    "_text_": "Link",
    "canUpdateUI": true,
    "containerweight": 100,
    "contentalignment": 5,
    "id": "LabelLinkFundFactSheet",
    "ide_onClick": "AS_Link_ga66746b8e7b413bbca1a6a07dce68a4",
    "info": null,
    "isvisible": true,
    "kuid": "jcfe4db29de44c0b88e2d223760ba5de",
    "name": "kony.ui.Link",
    "paddinginpixel": false,
    "parent": "VBox0d02e046437d541",
    "pf": "frmIBMFTnC",
    "wType": "Link"
}