{
    "DNDConfig": null,
    "__markedForDelete__": true,
    "_enabled_": false,
    "_margin_": [
        0,
        0,
        0,
        0
    ],
    "_padding_": [
        0,
        0,
        0,
        0
    ],
    "_skin_": "s9052e4262fb4faaaf4601b96cfd519e",
    "_text_": "I accept T&C",
    "_wrapping_": 2,
    "canUpdateUI": true,
    "containerweight": 60,
    "contentalignment": 4,
    "desktopweb": {
        "@class": "com.kony.gen.viz.model.component.property.label.DesktopWebLabelProperty",
        "psp": {
            "textCopyable": false
        },
        "render": true
    },
    "donotUpdateContainerWeight": false,
    "hexpand": true,
    "id": "lblWarningVal2",
    "info": null,
    "isvisible": true,
    "kiosk": {
        "@class": "com.kony.gen.viz.model.component.property.label.KioskLabelProperty",
        "render": true
    },
    "kuid": "c2442063001b4a4f80fcdf3baab372ed",
    "margininpixel": false,
    "name": "kony.ui.Label",
    "paddInPixel": [
        0,
        0,
        0,
        0
    ],
    "paddinginpixel": false,
    "parent": "HBox0b4dba0f3ebe048",
    "pf": "frmIBMFTnC",
    "spa": {
        "@class": "com.kony.gen.viz.model.component.property.label.SPALabelProperty",
        "psp": {
            "textCopyable": false
        }
    },
    "tooltip": "",
    "vexpand": false,
    "wType": "Label",
    "widgetalignment": 4
}