{
    "@class": "com.kony.gen.viz.model.container.KVizVBox",
    "DNDConfig": null,
    "_margin_": [
        0,
        0,
        0,
        0
    ],
    "_orientation_": 2,
    "_padding_": [
        2,
        0,
        2,
        0
    ],
    "_percent_": true,
    "_position_": 3,
    "_skin_": "s97cc6c86bf047e2b52aaaa0fedee429",
    "allboxes": [],
    "canUpdateUI": true,
    "children": [
        "HBoxFundFact",
        "hbox502735421211160",
        "hbxsecurityoptions",
        "hbxBut0otn"
    ],
    "containerweight": 100,
    "contextmenu": null,
    "id": "VBox0cbb0d3ce6aa64a",
    "info": null,
    "isvisible": true,
    "kuid": "g1c287f3b47d4a4facfb0d4321bd9e37",
    "layouttype": 0,
    "name": "kony.ui.Box",
    "paddInPixel": [
        10.02,
        0,
        10.02,
        0
    ],
    "paddinginpixel": false,
    "parent": "HboxContents",
    "pf": "frmIBMFTnC",
    "wType": "VBox",
    "widgetalignment": 1
}