{
    "DNDConfig": null,
    "_enabled_": false,
    "_margin_": [
        0,
        0,
        2,
        0
    ],
    "_padding_": [
        0,
        0,
        0,
        0
    ],
    "_skin_": "s64a333c4e934b1c84ec385fd11d1648",
    "_text_": "",
    "android": {
        "@class": "com.kony.gen.viz.model.component.property.button.AndroidButtonProperty",
        "_margin_": [
            0,
            0,
            5,
            0
        ],
        "displayText": true,
        "margin": [
            0,
            0,
            5,
            0
        ],
        "marginInPixel": false,
        "render": true
    },
    "canUpdateUI": true,
    "containerweight": 9,
    "contentalignment": 5,
    "displaytext": true,
    "focusskin": "s64a333c4e934b1c84ec385fd11d1648",
    "hexpand": false,
    "id": "btnAddBiller",
    "ide_onClick": "p2kwiet2012247635104_btnAddBiller_onClick_seq0",
    "info": null,
    "iphone": {
        "@class": "com.kony.gen.viz.model.component.property.button.IPhoneButtonProperty",
        "_margin_": [
            0,
            0,
            3,
            0
        ],
        "_padding_": [
            0,
            0,
            0,
            0
        ],
        "displayText": true,
        "margin": [
            0,
            0,
            3,
            0
        ],
        "marginInPixel": false,
        "padding": [
            0,
            0,
            0,
            0
        ],
        "paddingInPixel": true,
        "psp": {
            "glowEffect": false
        },
        "render": true
    },
    "isvisible": true,
    "kuid": "p2kwiet2012247635087",
    "margininpixel": false,
    "name": "kony.ui.Button",
    "paddinginpixel": false,
    "parent": "hbox201224764672",
    "pf": "hbox201224764672",
    "spa": {
        "@class": "com.kony.gen.viz.model.component.property.button.SPAButtonProperty",
        "displayText": true
    },
    "spaan": {
        "@class": "com.kony.gen.viz.model.component.property.button.SPAAndroidButtonProperty",
        "_margin_": [
            0,
            0,
            2,
            0
        ],
        "_padding_": [
            0,
            8,
            0,
            8
        ],
        "margin": [
            0,
            0,
            2,
            0
        ],
        "marginInPixel": false,
        "padding": [
            0,
            8,
            0,
            8
        ],
        "paddingInPixel": false,
        "render": true
    },
    "spabb": {
        "@class": "com.kony.gen.viz.model.component.property.button.SPABBButtonProperty",
        "_margin_": [
            0,
            0,
            2,
            0
        ],
        "_padding_": [
            0,
            8,
            0,
            8
        ],
        "margin": [
            0,
            0,
            2,
            0
        ],
        "marginInPixel": false,
        "padding": [
            0,
            8,
            0,
            8
        ],
        "paddingInPixel": false,
        "render": true
    },
    "spaip": {
        "@class": "com.kony.gen.viz.model.component.property.button.SPAIPhoneButtonProperty",
        "_margin_": [
            0,
            0,
            2,
            0
        ],
        "_padding_": [
            0,
            8,
            0,
            8
        ],
        "margin": [
            0,
            0,
            2,
            0
        ],
        "marginInPixel": false,
        "padding": [
            0,
            8,
            0,
            8
        ],
        "paddingInPixel": false,
        "render": true
    },
    "spawinphone8": {
        "@class": "com.kony.gen.viz.model.component.property.button.SPAWinPhone8ButtonProperty",
        "_margin_": [
            0,
            0,
            2,
            0
        ],
        "margin": [
            0,
            0,
            2,
            0
        ],
        "marginInPixel": false,
        "render": true
    },
    "vexpand": false,
    "wType": "Button",
    "widgetalignment": 5,
    "winphone8": {
        "@class": "com.kony.gen.viz.model.component.property.button.WinPhone8ButtonProperty",
        "_margin_": [
            0,
            0,
            7,
            0
        ],
        "_padding_": [
            1,
            10,
            1,
            10
        ],
        "displayText": true,
        "margin": [
            0,
            0,
            7,
            0
        ],
        "marginInPixel": true,
        "padding": [
            1,
            10,
            1,
            10
        ],
        "paddingInPixel": true,
        "psp": {
            "enableCache": false
        },
        "render": true
    }
}