{
    "DNDConfig": null,
    "_enabled_": false,
    "_margin_": [
        0,
        0,
        0,
        0
    ],
    "_padding_": [
        0,
        3,
        0,
        3
    ],
    "_skin_": "se5fe21ca1b34dcdb0a96e7a6db24822",
    "_text_": "",
    "canUpdateUI": true,
    "containerweight": 0,
    "contentalignment": 5,
    "desktopweb": {
        "@class": "com.kony.gen.viz.model.component.property.button.DesktopWebButtonProperty",
        "displayText": true,
        "render": true
    },
    "displaytext": true,
    "focusskin": "se5fe21ca1b34dcdb0a96e7a6db24822",
    "gridcell": {
        "colNo": 2,
        "colSpan": 1,
        "rowNo": 2,
        "rowSpan": 1
    },
    "hexpand": true,
    "id": "btnMenuTopUp",
    "ide_onClick": "p2kwiet2012247649745_btnMenuTopUp_onClick_seq0",
    "info": null,
    "isvisible": true,
    "kiosk": {
        "@class": "com.kony.gen.viz.model.component.property.button.KioskButtonProperty",
        "render": true
    },
    "kuid": "p2kwiet2012247649729",
    "margininpixel": false,
    "name": "kony.ui.Button",
    "paddinginpixel": false,
    "parent": "hbox451137409789493",
    "pf": "frmIBTransferTemplate",
    "spa": {
        "@class": "com.kony.gen.viz.model.component.property.button.SPAButtonProperty",
        "displayText": true
    },
    "vexpand": false,
    "wType": "Button",
    "widgetalignment": 5
}