{
    "DNDConfig": null,
    "_enabled_": false,
    "_margin_": [
        0,
        0,
        0,
        0
    ],
    "_padding_": [
        0,
        0,
        0,
        0
    ],
    "_render_": true,
    "_skin_": "s758de555bb1448bb821e8c3a7a5cd78",
    "_text_": "",
    "_wrapping_": 2,
    "canUpdateUI": true,
    "containerweight": 100,
    "contentalignment": 4,
    "desktopweb": {
        "@class": "com.kony.gen.viz.model.component.property.richtext.DesktopWebRichTextProperty",
        "render": true
    },
    "hexpand": true,
    "id": "richTextProdDetIB",
    "info": null,
    "isvisible": true,
    "kiosk": {
        "@class": "com.kony.gen.viz.model.component.property.richtext.KioskRichTextProperty",
        "render": true
    },
    "kuid": "p2kwiet2012247646657",
    "margininpixel": false,
    "name": "kony.ui.RichText",
    "paddinginpixel": false,
    "parent": "vboxMiddle",
    "pf": "frmIBOpenProdDetnTnC",
    "spa": {
        "@class": "com.kony.gen.viz.model.component.property.richtext.SPARichTextProperty"
    },
    "vexpand": false,
    "wType": "RichText",
    "widgetalignment": 5
}