{
    "@class": "com.kony.gen.viz.model.container.KVizHBox",
    "DNDConfig": null,
    "_margin_": [
        0,
        0,
        0,
        0
    ],
    "_orientation_": 1,
    "_padding_": [
        0,
        0,
        0,
        0
    ],
    "_percent_": true,
    "_position_": 3,
    "_skin_": "s3240d32b9a74cc78d1e0768cd2cdf1b",
    "allboxes": [],
    "canUpdateUI": true,
    "children": [
        "VBox0c74d5070a17c4d"
    ],
    "containerId": true,
    "containerweight": 100,
    "contextmenu": null,
    "desktopweb": {
        "psp": {
            "hoverSkin": "s999e504e01b4ea3a2dad24f5074a9b1"
        }
    },
    "id": "HBox0d5c6ac1f97a14c",
    "info": null,
    "isTemplate": true,
    "isvisible": true,
    "kuid": "b7b9125debbf4090a6cc5f5981137386",
    "layouttype": 0,
    "margininpixel": false,
    "name": "kony.ui.Box",
    "parent": "SegSelectFundRedeem",
    "pf": "SegSelectFundRedeem",
    "wType": "HBox",
    "widgetalignment": 1
}