{
    "DNDConfig": null,
    "_enabled_": false,
    "_padding_": [
        0,
        0,
        0,
        0
    ],
    "_skin_": "s77e157ba8e8401a94d581b60f5ef840",
    "_text_": "",
    "canUpdateUI": true,
    "containerweight": 0,
    "contentalignment": 5,
    "desktopweb": {
        "@class": "com.kony.gen.viz.model.component.property.button.DesktopWebButtonProperty",
        "displayText": true,
        "render": true
    },
    "displaytext": true,
    "donotUpdateContainerWeight": false,
    "focusskin": "saf5a1fce4ff42c5bc839ca0602c8374",
    "hexpand": true,
    "id": "btnXferNextold",
    "ide_onClick": "p2kwiet2012247649718_btnXferNext_onClick_seq0",
    "info": null,
    "isvisible": false,
    "kiosk": {
        "@class": "com.kony.gen.viz.model.component.property.button.KioskButtonProperty",
        "render": true
    },
    "kuid": "p2kwiet2012247649695",
    "name": "kony.ui.Button",
    "paddInPixel": [
        0,
        0,
        0,
        0
    ],
    "paddinginpixel": false,
    "parent": "hboxPreConfirm",
    "pf": "frmIBTransferNowConfirmation",
    "spa": {
        "@class": "com.kony.gen.viz.model.component.property.button.SPAButtonProperty",
        "displayText": true
    },
    "texti18n": "keyConfirm",
    "vexpand": false,
    "wType": "Button",
    "widgetalignment": 5
}