{
    "DNDConfig": null,
    "_enabled_": false,
    "_margin_": [
        0,
        0,
        0,
        0
    ],
    "_skin_": "se8b14e75ed14d658bda36aa266aa782",
    "_text_": "",
    "canUpdateUI": true,
    "containerweight": 50,
    "contentalignment": 5,
    "desktopweb": {
        "@class": "com.kony.gen.viz.model.component.property.button.DesktopWebButtonProperty",
        "_margin_": [
            0,
            0,
            0,
            0
        ],
        "_padding_": [
            0,
            0,
            0,
            0
        ],
        "displayText": true,
        "margin": [
            0,
            0,
            0,
            0
        ],
        "marginInPixel": false,
        "padding": [
            0,
            0,
            0,
            0
        ],
        "paddingInPixel": false,
        "render": true
    },
    "displaytext": true,
    "focusskin": "s5acbd7611124b5db2432a29feceb493",
    "hexpand": true,
    "id": "btnXferCancel",
    "ide_onClick": "AS_Button_eeb3c1c3d83440fa8eac2ab783f8e23d",
    "info": null,
    "isvisible": true,
    "kiosk": {
        "@class": "com.kony.gen.viz.model.component.property.button.KioskButtonProperty",
        "render": true
    },
    "kuid": "edd63bb8b45949fcbb25062470519e9c",
    "margininpixel": false,
    "name": "kony.ui.Button",
    "paddInPixel": [
        0,
        0,
        0,
        0
    ],
    "parent": "hboxPreConfirm",
    "pf": "frmIBTransferNowConfirmation",
    "spa": {
        "@class": "com.kony.gen.viz.model.component.property.button.SPAButtonProperty",
        "displayText": true
    },
    "texti18n": "keyCancelButton",
    "vexpand": false,
    "wType": "Button",
    "widgetalignment": 5
}