{
    "DNDConfig": null,
    "_data_": [
        {},
        {},
        {}
    ],
    "_enabled_": false,
    "_indicator_": "none",
    "_margin_": [
        2,
        2,
        2,
        2
    ],
    "_orientation_": 1,
    "_padding_": [
        0,
        0,
        0,
        0
    ],
    "_skin_": "seg2Normal",
    "canUpdateUI": true,
    "containerheightreference": 1,
    "containerweight": 100,
    "context": {
        "channel": "mobile",
        "formID": "AdvancedWidgetsSegements",
        "templateType": "segments",
        "topLevelBox": false
    },
    "counter": "02",
    "desktopweb": {
        "@class": "com.kony.gen.viz.model.container.property.segment2.DesktopWebSegment2Property",
        "_margin_": [
            2,
            2,
            0,
            2
        ],
        "_padding_": [
            0,
            0,
            0,
            0
        ],
        "margin": [
            2,
            2,
            0,
            2
        ],
        "marginInPixel": false,
        "padding": [
            0,
            0,
            0,
            0
        ],
        "paddingInPixel": false,
        "render": true
    },
    "focusedindex": null,
    "focuseditem": null,
    "generatedtemplate": "p2kwiet2012247649721",
    "groupcells": false,
    "hasSections": false,
    "hiddencolumns": {},
    "id": "segSplitDet",
    "info": null,
    "isvisible": true,
    "kiosk": {
        "@class": "com.kony.gen.viz.model.container.property.segment2.KioskSegment2Property",
        "render": true
    },
    "kuid": "p2kwiet2012247649634",
    "layoutalignment": 3,
    "layouttype": 0,
    "margininpixel": false,
    "name": "kony.ui.SegmentedUI2",
    "needpageindicator": true,
    "paddinginpixel": false,
    "paginationconfig": {
        "position": "bottom"
    },
    "parent": "vbox101461944014146",
    "pf": "frmIBTransferNowConfirmation",
    "retainselection": false,
    "rowTemplateId": "p2kwiet2012247649721",
    "rowcounter": 2,
    "rowfocusskin": "sbbc7f0678bf4c678c40fe82030b9661",
    "rowskin": "s01e0182a4d14a4da5e4e707eafeea1b",
    "screenlevelwidget": false,
    "scrollingevents": false,
    "seccounter": 0,
    "sectionheaderskin": "s9bd6d2f2f8c4fce89dae24cc47abe06",
    "selectedRows": null,
    "selectedState": false,
    "selectedindex": null,
    "selectedindices": null,
    "selecteditems": null,
    "selectedsectionindex": 0,
    "selectionbehavior": "default",
    "selectionbehaviorconfig": {},
    "separatorcolor": "ffffff00",
    "separatorrequired": true,
    "separatorthickness": 1,
    "showscrollbars": false,
    "spa": {
        "@class": "com.kony.gen.viz.model.container.property.segment2.SPASegment2Property"
    },
    "viewtype": "tableview",
    "wType": "Segment",
    "widgetalignment": 1,
    "widgetdatamap": {
        "lblSplitAmt": "lblSplitAmt",
        "lblSplitAmtVal": "lblSplitAmtVal",
        "lblSplitFee": "lblSplitFee",
        "lblSplitFeeVal": "lblSplitFeeVal",
        "lblSplitTRN": "lblSplitTRN",
        "lblSplitTRNVal": "lblSplitTRNVal",
        "vbxSegLft": "vbxSegLft",
        "vbxSegRgt": "vbxSegRgt"
    },
    "widgetskin": "s893f13f9fdc4253863544311f1d9489"
}