{
    "DNDConfig": null,
    "_enabled_": false,
    "_margin_": [
        0,
        0,
        0,
        0
    ],
    "_padding_": [
        6,
        0,
        0,
        0
    ],
    "_skin_": "s1f62eb3506f4e23ac2573927ee8d6a7",
    "_text_": "Label",
    "_wrapping_": 2,
    "android": {
        "@class": "com.kony.gen.viz.model.component.property.label.AndroidLabelProperty",
        "_padding_": [
            6,
            0,
            6,
            0
        ],
        "padding": [
            6,
            0,
            6,
            0
        ],
        "paddingInPixel": true,
        "psp": {
            "textCopyable": true
        },
        "render": true
    },
    "canUpdateUI": true,
    "containerId": true,
    "containerWeightLocked": false,
    "containerweight": 51,
    "contentalignment": 4,
    "hexpand": false,
    "id": "lblAccountNum",
    "info": null,
    "iphone": {
        "@class": "com.kony.gen.viz.model.component.property.label.IPhoneLabelProperty",
        "_margin_": [
            1,
            1,
            0,
            0
        ],
        "_padding_": [
            6,
            0,
            0,
            0
        ],
        "margin": [
            1,
            1,
            0,
            0
        ],
        "marginInPixel": false,
        "padding": [
            6,
            0,
            0,
            0
        ],
        "paddingInPixel": true,
        "psp": {
            "pasteboardType": 2,
            "textCopyable": true,
            "wrapping": 2
        },
        "render": true
    },
    "isSegmentChild": true,
    "isvisible": true,
    "kuid": "p2kwiet2012247634479",
    "margininpixel": false,
    "name": "kony.ui.Label",
    "paddinginpixel": true,
    "parent": "hbox101086657956692",
    "pf": "hbox201224764646",
    "spa": {
        "@class": "com.kony.gen.viz.model.component.property.label.SPALabelProperty",
        "psp": {
            "textCopyable": false
        }
    },
    "spaan": {
        "@class": "com.kony.gen.viz.model.component.property.label.SPAAndroidLabelProperty",
        "_padding_": [
            2,
            0,
            1,
            1
        ],
        "padding": [
            2,
            0,
            1,
            1
        ],
        "paddingInPixel": false,
        "render": true
    },
    "spabb": {
        "@class": "com.kony.gen.viz.model.component.property.label.SPABBLabelProperty",
        "_padding_": [
            2,
            2,
            1,
            2
        ],
        "padding": [
            2,
            2,
            1,
            2
        ],
        "paddingInPixel": false,
        "render": true
    },
    "spaip": {
        "@class": "com.kony.gen.viz.model.component.property.label.SPAIPhoneLabelProperty",
        "_padding_": [
            2,
            2,
            1,
            2
        ],
        "padding": [
            2,
            2,
            1,
            2
        ],
        "paddingInPixel": false,
        "render": true
    },
    "spawinphone8": {
        "@class": "com.kony.gen.viz.model.component.property.label.SPAWinPhone8LabelProperty",
        "render": true
    },
    "tooltip": "",
    "vexpand": false,
    "wType": "Label",
    "widgetalignment": 5,
    "winphone8": {
        "@class": "com.kony.gen.viz.model.component.property.label.WinPhone8LabelProperty",
        "_margin_": [
            1,
            1,
            1,
            1
        ],
        "_padding_": [
            5,
            5,
            5,
            5
        ],
        "margin": [
            1,
            1,
            1,
            1
        ],
        "marginInPixel": true,
        "padding": [
            5,
            5,
            5,
            5
        ],
        "paddingInPixel": true,
        "psp": {
            "enableCache": false
        },
        "render": true
    }
}