{
    "DNDConfig": null,
    "_enabled_": false,
    "_margin_": [
        1,
        1,
        1,
        1
    ],
    "_padding_": [
        0,
        0,
        0,
        0
    ],
    "_skin_": "s7d02bf2516c487c811aa027abb2252c",
    "_text_": "",
    "android": {
        "@class": "com.kony.gen.viz.model.component.property.button.AndroidButtonProperty",
        "displayText": true,
        "render": true
    },
    "canUpdateUI": true,
    "containerweight": 28,
    "contentalignment": 5,
    "displaytext": true,
    "focusskin": "s7d02bf2516c487c811aa027abb2252c",
    "hexpand": true,
    "id": "btnTransfer",
    "ide_onClick": "p2kwiet2012247634343_btnTransfer_onClick_seq0",
    "info": null,
    "iphone": {
        "@class": "com.kony.gen.viz.model.component.property.button.IPhoneButtonProperty",
        "displayText": true,
        "psp": {
            "glowEffect": false,
            "showProgressIndicator": false
        },
        "render": true
    },
    "isvisible": true,
    "kuid": "p2kwiet2012247634329",
    "margininpixel": false,
    "name": "kony.ui.Button",
    "paddinginpixel": false,
    "parent": "hbox388487395356932",
    "pf": "frmMyRecipientEditAccComplete",
    "showprogressindicator": false,
    "spa": {
        "@class": "com.kony.gen.viz.model.component.property.button.SPAButtonProperty",
        "displayText": true
    },
    "spaan": {
        "@class": "com.kony.gen.viz.model.component.property.button.SPAAndroidButtonProperty",
        "render": true
    },
    "spabb": {
        "@class": "com.kony.gen.viz.model.component.property.button.SPABBButtonProperty",
        "render": true
    },
    "spaip": {
        "@class": "com.kony.gen.viz.model.component.property.button.SPAIPhoneButtonProperty",
        "render": true
    },
    "spawinphone8": {
        "@class": "com.kony.gen.viz.model.component.property.button.SPAWinPhone8ButtonProperty",
        "render": true
    },
    "texti18n": "Transfer",
    "vexpand": false,
    "wType": "Button",
    "widgetalignment": 5,
    "winphone8": {
        "@class": "com.kony.gen.viz.model.component.property.button.WinPhone8ButtonProperty",
        "displayText": true,
        "psp": {
            "enableCache": false
        },
        "render": true
    }
}