{
    "DNDConfig": null,
    "_enabled_": false,
    "_margin_": [
        0,
        0,
        0,
        0
    ],
    "_padding_": [
        0,
        0,
        0,
        0
    ],
    "_skin_": "s739225ffb8744cd8112b48647248f69",
    "_text_": "",
    "android": {
        "@class": "com.kony.gen.viz.model.component.property.combobox.AndroidComboBoxProperty",
        "render": true
    },
    "canUpdateUI": true,
    "containerweight": 100,
    "contentalignment": 4,
    "dropdownimage": "empty.png",
    "focusskin": "s739225ffb8744cd8112b48647248f69",
    "hexpand": true,
    "id": "cmbOption",
    "ide_onSelection": "p2kwiet2012247628706_cmbOption_onSelection_seq0",
    "info": null,
    "iphone": {
        "@class": "com.kony.gen.viz.model.component.property.combobox.IPhoneComboBoxProperty",
        "_margin_": [
            1,
            0,
            1,
            0
        ],
        "dropDownImage": "empty.png",
        "margin": [
            1,
            0,
            1,
            0
        ],
        "marginInPixel": true,
        "psp": {
            "groupCells": false,
            "viewType": 0
        },
        "render": true
    },
    "isvisible": true,
    "kuid": "p2kwiet2012247628645",
    "margininpixel": false,
    "masterdata": [
        [
            "1",
            "Select Topic",
            "cnt_topic"
        ]
    ],
    "name": "kony.ui.ComboBox",
    "paddinginpixel": false,
    "parent": "hbox506459299445026",
    "pf": "frmContactUsMB",
    "selectedkey": "1",
    "selectedkeyvalue": [
        "1",
        "เลือกหัวข้อที่ต้องการติดต่อ"
    ],
    "spa": {
        "@class": "com.kony.gen.viz.model.component.property.combobox.SPAComboBoxProperty"
    },
    "spaan": {
        "@class": "com.kony.gen.viz.model.component.property.combobox.SPAAndroidComboBoxProperty",
        "render": true
    },
    "spabb": {
        "@class": "com.kony.gen.viz.model.component.property.combobox.SPABBComboBoxProperty",
        "render": true
    },
    "spaip": {
        "@class": "com.kony.gen.viz.model.component.property.combobox.SPAIPhoneComboBoxProperty",
        "render": true
    },
    "spawinphone8": {
        "@class": "com.kony.gen.viz.model.component.property.combobox.SPAWinPhone8ComboBoxProperty",
        "render": true
    },
    "vexpand": false,
    "wType": "ComboBox",
    "widgetalignment": 5,
    "winphone8": {
        "@class": "com.kony.gen.viz.model.component.property.combobox.WinPhone8ComboBoxProperty",
        "_margin_": [
            1,
            1,
            1,
            1
        ],
        "margin": [
            1,
            1,
            1,
            1
        ],
        "marginInPixel": true,
        "psp": {
            "enableCache": false
        },
        "render": true
    }
}