{
    "DNDConfig": null,
    "_enabled_": false,
    "_orientation_": 1,
    "_padding_": [
        1,
        1,
        1,
        1
    ],
    "_percent_": true,
    "_position_": 3,
    "_resize_": true,
    "_skin_": "s999e504e01b4ea3a2dad24f5074a9b1",
    "allboxes": [],
    "android": {
        "@class": "com.kony.gen.viz.model.container.property.hbox.AndroidHBoxProperty",
        "_margin_": [
            15,
            11,
            15,
            11
        ],
        "_padding_": [
            1,
            1,
            1,
            1
        ],
        "_position_": 3,
        "margin": [
            15,
            11,
            15,
            11
        ],
        "marginInPixel": true,
        "padding": [
            1,
            1,
            1,
            1
        ],
        "paddingInPixel": false,
        "position": 3,
        "render": true
    },
    "borderCollapse": false,
    "canUpdateUI": true,
    "children": [
        "image2476822990294574",
        "btn3"
    ],
    "containerweight": 100,
    "focusskin": "s999e504e01b4ea3a2dad24f5074a9b1",
    "id": "hbxFB3",
    "ide_onClick": "p2kwiet2012247628706_hbxFB3_onClick_seq0",
    "info": null,
    "iphone": {
        "@class": "com.kony.gen.viz.model.container.property.hbox.IPhoneHBoxProperty",
        "_margin_": [
            11,
            11,
            11,
            11
        ],
        "_padding_": [
            1,
            1,
            1,
            1
        ],
        "_position_": 3,
        "margin": [
            11,
            11,
            11,
            11
        ],
        "marginInPixel": true,
        "padding": [
            1,
            1,
            1,
            1
        ],
        "paddingInPixel": false,
        "position": 3,
        "render": true
    },
    "isvisible": true,
    "kuid": "p2kwiet2012247628673",
    "layoutalignment": 3,
    "name": "kony.ui.Box",
    "paddinginpixel": false,
    "parent": "vbox477746511286953",
    "pf": "frmContactUsMB",
    "spa": {
        "@class": "com.kony.gen.viz.model.container.property.hbox.SPAHBoxProperty"
    },
    "spaan": {
        "@class": "com.kony.gen.viz.model.container.property.hbox.SPAAndroidHBoxProperty",
        "_margin_": [
            4,
            3,
            4,
            3
        ],
        "_padding_": [
            1,
            1,
            1,
            1
        ],
        "margin": [
            4,
            3,
            4,
            3
        ],
        "marginInPixel": false,
        "padding": [
            1,
            1,
            1,
            1
        ],
        "paddingInPixel": false,
        "render": true
    },
    "spabb": {
        "@class": "com.kony.gen.viz.model.container.property.hbox.SPABBHBoxProperty",
        "_margin_": [
            4,
            4,
            4,
            4
        ],
        "_padding_": [
            1,
            1,
            1,
            1
        ],
        "margin": [
            4,
            4,
            4,
            4
        ],
        "marginInPixel": false,
        "padding": [
            1,
            1,
            1,
            1
        ],
        "paddingInPixel": false,
        "render": true
    },
    "spaip": {
        "@class": "com.kony.gen.viz.model.container.property.hbox.SPAIPhoneHBoxProperty",
        "_margin_": [
            4,
            3,
            4,
            3
        ],
        "_padding_": [
            1,
            1,
            1,
            1
        ],
        "margin": [
            4,
            3,
            4,
            3
        ],
        "marginInPixel": false,
        "padding": [
            1,
            1,
            1,
            1
        ],
        "paddingInPixel": false,
        "render": true
    },
    "spawinphone8": {
        "@class": "com.kony.gen.viz.model.container.property.hbox.SPAWinPhone8HBoxProperty",
        "_margin_": [
            4,
            4,
            4,
            4
        ],
        "_padding_": [
            1,
            1,
            1,
            1
        ],
        "margin": [
            4,
            4,
            4,
            4
        ],
        "marginInPixel": false,
        "padding": [
            1,
            1,
            1,
            1
        ],
        "paddingInPixel": false,
        "render": true
    },
    "templateType": "forms",
    "wType": "HBox",
    "widgetalignment": 1,
    "winphone8": {
        "@class": "com.kony.gen.viz.model.container.property.hbox.WinPhone8HBoxProperty",
        "_margin_": [
            7,
            4,
            7,
            7
        ],
        "_padding_": [
            1,
            1,
            1,
            1
        ],
        "_position_": 3,
        "margin": [
            7,
            4,
            7,
            7
        ],
        "marginInPixel": true,
        "padding": [
            1,
            1,
            1,
            1
        ],
        "paddingInPixel": false,
        "position": 3,
        "psp": {
            "enableCache": false
        },
        "render": true
    }
}