{
    "DNDConfig": null,
    "_enabled_": false,
    "_padding_": [
        0,
        1,
        1,
        1
    ],
    "_skin_": "sb04015ee60645479aa5a6c2fb3e3efc",
    "_text_": "",
    "_wrapping_": 2,
    "android": {
        "@class": "com.kony.gen.viz.model.component.property.label.AndroidLabelProperty",
        "_margin_": [
            15,
            11,
            15,
            11
        ],
        "_padding_": [
            0,
            1,
            1,
            1
        ],
        "margin": [
            15,
            11,
            15,
            11
        ],
        "marginInPixel": true,
        "padding": [
            0,
            1,
            1,
            1
        ],
        "paddingInPixel": false,
        "psp": {
            "textCopyable": false
        },
        "render": true
    },
    "canUpdateUI": true,
    "containerweight": 100,
    "contentalignment": 4,
    "hexpand": true,
    "id": "label477746511291445",
    "info": null,
    "iphone": {
        "@class": "com.kony.gen.viz.model.component.property.label.IPhoneLabelProperty",
        "_margin_": [
            15,
            11,
            15,
            11
        ],
        "_padding_": [
            0,
            1,
            1,
            1
        ],
        "margin": [
            15,
            11,
            15,
            11
        ],
        "marginInPixel": true,
        "padding": [
            0,
            1,
            1,
            1
        ],
        "paddingInPixel": false,
        "psp": {
            "textCopyable": false,
            "wrapping": 2
        },
        "render": true
    },
    "isvisible": true,
    "kuid": "p2kwiet2012247628674",
    "name": "kony.ui.Label",
    "paddinginpixel": false,
    "parent": "vbox477746511286953",
    "pf": "frmContactUsMB",
    "spa": {
        "@class": "com.kony.gen.viz.model.component.property.label.SPALabelProperty",
        "psp": {
            "textCopyable": false
        }
    },
    "spaan": {
        "@class": "com.kony.gen.viz.model.component.property.label.SPAAndroidLabelProperty",
        "_margin_": [
            4,
            4,
            4,
            4
        ],
        "_padding_": [
            0,
            1,
            1,
            1
        ],
        "margin": [
            4,
            4,
            4,
            4
        ],
        "marginInPixel": false,
        "padding": [
            0,
            1,
            1,
            1
        ],
        "paddingInPixel": false,
        "render": true
    },
    "spabb": {
        "@class": "com.kony.gen.viz.model.component.property.label.SPABBLabelProperty",
        "_margin_": [
            4,
            4,
            4,
            4
        ],
        "_padding_": [
            0,
            1,
            1,
            1
        ],
        "margin": [
            4,
            4,
            4,
            4
        ],
        "marginInPixel": false,
        "padding": [
            0,
            1,
            1,
            1
        ],
        "paddingInPixel": false,
        "render": true
    },
    "spaip": {
        "@class": "com.kony.gen.viz.model.component.property.label.SPAIPhoneLabelProperty",
        "_margin_": [
            4,
            4,
            4,
            4
        ],
        "_padding_": [
            0,
            1,
            1,
            1
        ],
        "margin": [
            4,
            4,
            4,
            4
        ],
        "marginInPixel": false,
        "padding": [
            0,
            1,
            1,
            1
        ],
        "paddingInPixel": false,
        "render": true
    },
    "spawinphone8": {
        "@class": "com.kony.gen.viz.model.component.property.label.SPAWinPhone8LabelProperty",
        "_margin_": [
            4,
            4,
            4,
            4
        ],
        "_padding_": [
            0,
            1,
            1,
            1
        ],
        "margin": [
            4,
            4,
            4,
            4
        ],
        "marginInPixel": false,
        "padding": [
            0,
            1,
            1,
            1
        ],
        "paddingInPixel": false,
        "render": true
    },
    "texti18n": "keyAdditionalFB",
    "tooltip": "",
    "vexpand": false,
    "wType": "Label",
    "widgetalignment": 5,
    "winphone8": {
        "@class": "com.kony.gen.viz.model.component.property.label.WinPhone8LabelProperty",
        "_margin_": [
            7,
            10,
            7,
            13
        ],
        "_padding_": [
            0,
            1,
            1,
            1
        ],
        "margin": [
            7,
            10,
            7,
            13
        ],
        "marginInPixel": true,
        "padding": [
            0,
            1,
            1,
            1
        ],
        "paddingInPixel": false,
        "psp": {
            "enableCache": false
        },
        "render": true
    }
}