{
    "DNDConfig": null,
    "_enabled_": false,
    "_placeholder_": "Your message",
    "_skin_": "sf843242239e45b08cdbcaf6cdcd8018",
    "_text_": "",
    "android": {
        "@class": "com.kony.gen.viz.model.component.property.textbox2.AndroidTextBox2Property",
        "autoFilter": false,
        "containerHeightMode": 1,
        "psp": {
            "keyboardActionLabel": 12,
            "placeholderSkin": "s1610dfe304c4e7297b7c35bc12fd85d"
        },
        "render": true,
        "viewType": "default"
    },
    "autocapitalize": "none",
    "autocomplete": false,
    "autocorrect": false,
    "autofilter": false,
    "canUpdateUI": true,
    "containerheightmode": 1,
    "containerheightreference": 1,
    "containerweight": 100,
    "contentalignment": 4,
    "focusskin": "s81e25bd50564a9e8ca777b7ae0137e8",
    "hexpand": true,
    "id": "tbxMessage",
    "info": null,
    "iphone": {
        "@class": "com.kony.gen.viz.model.component.property.textbox2.IPhoneTextBox2Property",
        "autoCorrect": false,
        "containerHeightMode": 3,
        "psp": {
            "closeButtonText": "Done",
            "keyboardActionLabel": 1,
            "pasteboardType": 1,
            "showClearButton": true,
            "showCloseButton": true,
            "showProgressIndicator": true
        },
        "render": true,
        "viewType": "default"
    },
    "isvisible": true,
    "keyboardstyle": "A",
    "keyboardtype": "A",
    "kuid": "p2kwiet2012247628678",
    "maxtextlength": 4000,
    "mode": "A",
    "name": "kony.ui.TextBox2",
    "parent": "hbox47407657256254",
    "pf": "frmContactUsMB",
    "placeholderskin": "s1610dfe304c4e7297b7c35bc12fd85d",
    "securetextentry": false,
    "spa": {
        "@class": "com.kony.gen.viz.model.component.property.textbox2.SPATextBox2Property",
        "autoCorrect": false,
        "containerHeightMode": 3
    },
    "spaan": {
        "@class": "com.kony.gen.viz.model.component.property.textbox2.SPAAndroidTextBox2Property",
        "_margin_": [
            4,
            4,
            4,
            0
        ],
        "_padding_": [
            4,
            4,
            4,
            0
        ],
        "margin": [
            4,
            4,
            4,
            0
        ],
        "marginInPixel": false,
        "padding": [
            4,
            4,
            4,
            0
        ],
        "paddingInPixel": false,
        "render": false
    },
    "spabb": {
        "@class": "com.kony.gen.viz.model.component.property.textbox2.SPABBTextBox2Property",
        "_margin_": [
            4,
            4,
            4,
            4
        ],
        "_padding_": [
            4,
            4,
            4,
            4
        ],
        "margin": [
            4,
            4,
            4,
            4
        ],
        "marginInPixel": false,
        "padding": [
            4,
            4,
            4,
            4
        ],
        "paddingInPixel": false,
        "render": false
    },
    "spaip": {
        "@class": "com.kony.gen.viz.model.component.property.textbox2.SPAIPhoneTextBox2Property",
        "_margin_": [
            4,
            4,
            4,
            0
        ],
        "_padding_": [
            4,
            4,
            4,
            0
        ],
        "margin": [
            4,
            4,
            4,
            0
        ],
        "marginInPixel": false,
        "padding": [
            4,
            4,
            4,
            0
        ],
        "paddingInPixel": false,
        "render": false
    },
    "spawinphone8": {
        "@class": "com.kony.gen.viz.model.component.property.textbox2.SPAWinPhone8TextBox2Property",
        "_margin_": [
            4,
            4,
            4,
            4
        ],
        "_padding_": [
            4,
            4,
            4,
            4
        ],
        "margin": [
            4,
            4,
            4,
            4
        ],
        "marginInPixel": false,
        "padding": [
            4,
            4,
            4,
            4
        ],
        "paddingInPixel": false,
        "render": false
    },
    "textinputmode": "A",
    "vexpand": false,
    "viewtype": "default",
    "wType": "TextField",
    "widgetalignment": 5,
    "winphone8": {
        "@class": "com.kony.gen.viz.model.component.property.textbox2.WinPhone8TextBox2Property",
        "_margin_": [
            2,
            2,
            2,
            5
        ],
        "_padding_": [
            4,
            4,
            4,
            4
        ],
        "autoFilter": false,
        "containerHeightMode": 1,
        "margin": [
            2,
            2,
            2,
            5
        ],
        "marginInPixel": false,
        "padding": [
            4,
            4,
            4,
            4
        ],
        "paddingInPixel": false,
        "psp": {
            "enableCache": false
        },
        "render": true
    }
}