{
    "DNDConfig": null,
    "_enabled_": false,
    "_margin_": [
        0,
        0,
        0,
        0
    ],
    "_padding_": [
        1,
        1,
        1,
        1
    ],
    "_placeholder_": "Your message",
    "_render_": true,
    "_skin_": "s9f9426e9fc8480a8cab7229f9e43813",
    "_text_": "",
    "android": {
        "@class": "com.kony.gen.viz.model.component.property.textarea2.AndroidTextArea2Property",
        "psp": {
            "placeholderSkin": "s1610dfe304c4e7297b7c35bc12fd85d"
        },
        "render": false
    },
    "autocapitalize": "none",
    "autocomplete": false,
    "autocorrect": false,
    "autofilter": false,
    "canUpdateUI": true,
    "closebuttontext": "",
    "containerweight": 100,
    "contentalignment": 1,
    "focusskin": "s7583d8ae12846c19e9b0b3d419973fe",
    "hexpand": true,
    "id": "tbxMessageSPA",
    "info": null,
    "iphone": {
        "@class": "com.kony.gen.viz.model.component.property.textarea2.IPhoneTextArea2Property",
        "_margin_": [
            0,
            0,
            0,
            0
        ],
        "autoCorrect": false,
        "margin": [
            0,
            0,
            0,
            0
        ],
        "marginInPixel": false,
        "psp": {
            "closeButtonText": "Done",
            "keyboardActionLabel": 1,
            "pasteboardType": 1,
            "showCloseButton": true,
            "showProgressIndicator": false
        },
        "render": false
    },
    "isvisible": true,
    "keyboardactionlabel": "",
    "keyboardstyle": "A",
    "keyboardtype": "A",
    "kuid": "p2kwiet2012247628680",
    "margininpixel": false,
    "maxtextlength": 4000,
    "mode": "A",
    "name": "kony.ui.TextArea2",
    "numberofvisiblelines": 3,
    "paddinginpixel": false,
    "parent": "hbox47407657256340",
    "pf": "frmContactUsMB",
    "securetextentry": false,
    "showclosebutton": false,
    "showoprogressindicator": true,
    "showprogressindicator": false,
    "spa": {
        "@class": "com.kony.gen.viz.model.component.property.textarea2.SPATextArea2Property",
        "autoCorrect": false
    },
    "spaan": {
        "@class": "com.kony.gen.viz.model.component.property.textarea2.SPAAndroidTextArea2Property",
        "_margin_": [
            2,
            0,
            2,
            0
        ],
        "margin": [
            2,
            0,
            2,
            0
        ],
        "marginInPixel": false,
        "render": true
    },
    "spabb": {
        "@class": "com.kony.gen.viz.model.component.property.textarea2.SPABBTextArea2Property",
        "_margin_": [
            2,
            0,
            2,
            0
        ],
        "margin": [
            2,
            0,
            2,
            0
        ],
        "marginInPixel": false,
        "render": true
    },
    "spaip": {
        "@class": "com.kony.gen.viz.model.component.property.textarea2.SPAIPhoneTextArea2Property",
        "_margin_": [
            2,
            0,
            2,
            0
        ],
        "margin": [
            2,
            0,
            2,
            0
        ],
        "marginInPixel": false,
        "render": true
    },
    "spawinphone8": {
        "@class": "com.kony.gen.viz.model.component.property.textarea2.SPAWinPhone8TextArea2Property",
        "_margin_": [
            2,
            0,
            2,
            0
        ],
        "margin": [
            2,
            0,
            2,
            0
        ],
        "marginInPixel": false,
        "render": true
    },
    "textinputmode": "A",
    "vexpand": false,
    "viewtype": "default",
    "wType": "TextArea",
    "widgetalignment": 5,
    "winphone8": {
        "@class": "com.kony.gen.viz.model.component.property.textarea2.WinPhone8TextArea2Property",
        "_margin_": [
            0,
            0,
            0,
            0
        ],
        "margin": [
            0,
            0,
            0,
            0
        ],
        "marginInPixel": false,
        "psp": {
            "enableCache": false
        },
        "render": false
    }
}