{
    "@class": "com.kony.gen.viz.model.component.KVizButton",
    "DNDConfig": null,
    "__parentReadjusting__": false,
    "_height_": {
        "type": "string",
        "value": "30%"
    },
    "_left_": {
        "type": "string",
        "value": "0dp"
    },
    "_margin_": [
        6,
        6,
        6,
        6
    ],
    "_padding_": [
        0,
        0,
        0,
        0
    ],
    "_skin_": "s7ac2d72bbae4bcebdeed14d8382c881",
    "_text_": "",
    "_width_": {
        "type": "string",
        "value": "8%"
    },
    "canUpdateUI": true,
    "centery": {
        "type": "string",
        "value": "50%"
    },
    "containerweight": 100,
    "contentalignment": 5,
    "displaytext": false,
    "focusskin": "s7ac2d72bbae4bcebdeed14d8382c881",
    "id": "btnMinus",
    "info": null,
    "isvisible": true,
    "kuid": "c3fcb1234bb34d6aa418686a27f6bd71",
    "name": "kony.ui.Button",
    "parent": "flxSliderAmount",
    "pf": "frmMBCCUsageLimit",
    "wType": "Button",
    "zindex": 1
}