{
    "@class": "com.kony.gen.viz.model.component.KVizSlider",
    "DNDConfig": null,
    "__parentReadjusting__": false,
    "_height_": {
        "type": "string",
        "value": "100%"
    },
    "_left_": {
        "type": "string",
        "value": "0%"
    },
    "_margin_": [
        0,
        0,
        0,
        0
    ],
    "_max_": 100,
    "_min_": 0,
    "_padding_": [
        0,
        0,
        0,
        0
    ],
    "_step_": 1,
    "_thickness_": 1,
    "_top_": {
        "type": "string",
        "value": "0%"
    },
    "_width_": {
        "type": "string",
        "value": "100%"
    },
    "android": {},
    "canUpdateUI": true,
    "centerx": {
        "type": "string",
        "value": "50%"
    },
    "containerweight": 100,
    "desktopweb": {
        "psp": {
            "orientation": "horizontal",
            "viewType": "default"
        }
    },
    "focusthumbimage": "button_circle_blue.png",
    "id": "sliderCardLimit",
    "imgwt": 92,
    "info": null,
    "ipad": {
        "psp": {
            "enableThumbTintColor": true,
            "thumbTintColor": "ffffff00"
        },
        "thumbImage": "slider_ios7.png"
    },
    "iphone": {
        "psp": {
            "enableThumbTintColor": false
        }
    },
    "isvisible": true,
    "kuid": "dd67aeadd29e4e6ba3c5ca27d78b0d47",
    "leftskin": "sae38f48c47c479db11326f8e1bbc59e",
    "name": "kony.ui.Slider",
    "noofsteps": 100,
    "osPlatform": "android",
    "osVersion": "iOS7",
    "parent": "flxSlider",
    "pf": "frmMBCCUsageLimit",
    "rightskin": "s993d5a258194271b7f6f803514363d8",
    "selectedvalue": 40,
    "stepwidth": 0,
    "tabrcandroid": {
        "thumbImage": "slider_android.png"
    },
    "thumbimage": "button_circle.png",
    "wType": "Slider",
    "widgetalignment": 5,
    "zindex": 1
}