{
    "@class": "com.kony.gen.viz.model.component.KVizImage2",
    "DNDConfig": null,
    "__parentReadjusting__": false,
    "_base64_": null,
    "_height_": {
        "type": "string",
        "value": "18.19%"
    },
    "_left_": {
        "type": "string",
        "value": "0dp"
    },
    "_margin_": [
        0,
        0,
        0,
        0
    ],
    "_padding_": [
        0,
        0,
        0,
        0
    ],
    "_skin_": "s55d8a5125e74bb0b2eaca75c423dae1",
    "_src_": "icon_alert.png",
    "_top_": {
        "type": "string",
        "value": "7%"
    },
    "_width_": {
        "type": "string",
        "value": "42.67%"
    },
    "canUpdateUI": true,
    "centerx": {
        "type": "string",
        "value": "49.98%"
    },
    "containerweight": 100,
    "context": {
        "channel": "mobile",
        "formID": "frmMyQRPromptPayRegister",
        "platform": "iphone",
        "templateType": "forms",
        "topLevelBox": null
    },
    "id": "CopyimgPromptPay0e93860d272e845",
    "imagescalemode": 1,
    "info": null,
    "invokedProperty": "src",
    "isvisible": true,
    "kuid": "fc83f65964e449c6918c40ce87b08202",
    "name": "kony.ui.Image2",
    "parent": "flexBody",
    "pf": "frmMyQRPromptPayRegister",
    "srcType": 1,
    "wType": "Image",
    "widgetalignment": 5,
    "zindex": 1
}