{
    "DNDConfig": null,
    "__markedForDelete__": true,
    "_enabled_": false,
    "_margin_": [
        0,
        0,
        0,
        0
    ],
    "_padding_": [
        0,
        0,
        0,
        3
    ],
    "_skin_": "s77e157ba8e8401a94d581b60f5ef840",
    "_text_": "",
    "canUpdateUI": true,
    "containerweight": 98,
    "contentalignment": 5,
    "desktopweb": {
        "@class": "com.kony.gen.viz.model.component.property.button.DesktopWebButtonProperty",
        "_padding_": [
            0,
            3,
            0,
            3
        ],
        "displayText": true,
        "padding": [
            0,
            0,
            0,
            0
        ],
        "paddingInPixel": false,
        "render": true
    },
    "displaytext": true,
    "donotUpdateContainerWeight": false,
    "focusskin": "saf5a1fce4ff42c5bc839ca0602c8374",
    "hexpand": true,
    "id": "btnConfirm",
    "ide_onClick": "AS_Button_i5f8bd2dbe454e5c9d8412709157ba82",
    "info": null,
    "isvisible": true,
    "kiosk": {
        "@class": "com.kony.gen.viz.model.component.property.button.KioskButtonProperty",
        "render": true
    },
    "kuid": "hcf54cdad7614d22bbf65bdb076bc858",
    "margininpixel": false,
    "name": "kony.ui.Button",
    "paddInPixel": [
        0,
        0,
        0,
        0
    ],
    "paddinginpixel": false,
    "parent": "hbxBut0otn",
    "pf": "frmIBMFSelPurchaseFundsEntry",
    "spa": {
        "@class": "com.kony.gen.viz.model.component.property.button.SPAButtonProperty",
        "displayText": true
    },
    "texti18n": "keyConfirm",
    "vexpand": false,
    "wType": "Button",
    "widgetalignment": 5
}