{
    "@class": "com.kony.gen.viz.model.container.KVizVBox",
    "DNDConfig": null,
    "__markedForDelete__": true,
    "_margin_": [
        5,
        4,
        0,
        4
    ],
    "_orientation_": 2,
    "_padding_": [
        0,
        0,
        0,
        0
    ],
    "_percent_": true,
    "_position_": 3,
    "_skin_": "s0e13ed4077f481ab090dae6b2e595ed",
    "allboxes": [],
    "canUpdateUI": true,
    "children": [
        "lblSegSelectFund"
    ],
    "containerweight": 95,
    "contextmenu": null,
    "id": "CopyVBox0i87c2beee58a4e",
    "info": null,
    "isvisible": true,
    "kuid": "d1642479e73045c393f9618dff99b016",
    "layouttype": 0,
    "margininpixel": false,
    "name": "kony.ui.Box",
    "paddInPixel": [
        0,
        0,
        0,
        0
    ],
    "parent": "HBoxSelectFund",
    "pf": "frmIBMFSelPurchaseFundsEntry",
    "wType": "VBox",
    "widgetalignment": 1
}