{
    "@class": "com.kony.gen.viz.model.container.KVizVBox",
    "DNDConfig": null,
    "__markedForDelete__": true,
    "_margin_": [
        0,
        0,
        0,
        0
    ],
    "_orientation_": 2,
    "_padding_": [
        0,
        0,
        0,
        0
    ],
    "_percent_": true,
    "_position_": 3,
    "_skin_": "s0e13ed4077f481ab090dae6b2e595ed",
    "allboxes": [],
    "canUpdateUI": true,
    "children": [
        "CopyImage0fa24a4f4a44e42"
    ],
    "containerweight": 5,
    "contextmenu": null,
    "donotUpdateContainerWeight": false,
    "id": "CopyVBox0f9de30ab14c646",
    "info": null,
    "isvisible": true,
    "kuid": "ac16e42e23784027862ea2ceaa6bea15",
    "layouttype": 0,
    "name": "kony.ui.Box",
    "paddInPixel": [
        0,
        0,
        0,
        0
    ],
    "parent": "CopyHBox0e91af88e063b48",
    "pf": "frmIBMFSelPurchaseFundsEntry",
    "wType": "VBox",
    "widgetalignment": 5
}