{
    "@class": "com.kony.gen.viz.model.container.KVizHBox",
    "DNDConfig": null,
    "__markedForDelete__": true,
    "_margin_": [
        0,
        0,
        0,
        0
    ],
    "_orientation_": 1,
    "_padding_": [
        0,
        0,
        0,
        0
    ],
    "_percent_": true,
    "_position_": 3,
    "_skin_": "se5753c758864cea9ba9dbbb1dd5cd7c",
    "allboxes": [],
    "canUpdateUI": true,
    "children": [
        "CopyVBox0e59e2630bd544c",
        "CopyVBox0h9aee61365184e"
    ],
    "containerweight": 100,
    "contextmenu": null,
    "id": "HBoxSelectUnitHolderNo",
    "info": null,
    "isvisible": true,
    "kuid": "c49e78b1228e42958afb41bdad733cc2",
    "layouttype": 0,
    "margininpixel": false,
    "name": "kony.ui.Box",
    "parent": "VBox0d86dea8280e444",
    "pf": "frmIBMFSelPurchaseFundsEntry",
    "wType": "HBox",
    "widgetalignment": 1
}