{
    "@class": "com.kony.gen.viz.model.container.KVizHBox",
    "DNDConfig": null,
    "__markedForDelete__": true,
    "_margin_": [
        0,
        2,
        0,
        0
    ],
    "_orientation_": 1,
    "_padding_": [
        5,
        0,
        5,
        0
    ],
    "_percent_": true,
    "_position_": 3,
    "_skin_": "s3cd729155364efe97d4fcd79c72daf8",
    "allboxes": [],
    "canUpdateUI": true,
    "children": [
        "ScrollBox0cfd439bccfd841"
    ],
    "containerweight": 100,
    "contextmenu": null,
    "id": "HBoxSegment",
    "info": null,
    "isvisible": true,
    "kuid": "ge6b051c4b4342ee9adfeb65ab737a2c",
    "layouttype": 0,
    "margininpixel": false,
    "name": "kony.ui.Box",
    "paddinginpixel": false,
    "parent": "VBox0ef18170c9de743",
    "pf": "frmIBMFSelPurchaseFundsEntry",
    "wType": "HBox",
    "widgetalignment": 1
}