{
    "@class": "com.kony.gen.viz.model.container.KVizHBox",
    "DNDConfig": null,
    "_margin_": [
        0,
        0,
        0,
        0
    ],
    "_orientation_": 1,
    "_padding_": [
        5,
        3,
        5,
        0
    ],
    "_percent_": true,
    "_position_": 3,
    "_skin_": "s3240d32b9a74cc78d1e0768cd2cdf1b",
    "allboxes": [],
    "canUpdateUI": true,
    "children": [
        "ScrollBox0d0e7aaaf74594c"
    ],
    "containerweight": 100,
    "contextmenu": null,
    "id": "HBox0ad77482cfb744e",
    "info": null,
    "isvisible": true,
    "kuid": "b0a6c1e20a5143ba9ce87a30b524d2c9",
    "layouttype": 0,
    "name": "kony.ui.Box",
    "paddinginpixel": false,
    "parent": "VBox0d502db5551ac4b",
    "pf": "frmIBMFSelPurchaseFundsEntry",
    "wType": "HBox",
    "widgetalignment": 1
}