{
    "@class": "com.kony.gen.viz.model.container.KVizHBox",
    "DNDConfig": null,
    "_margin_": [
        0,
        0,
        0,
        0
    ],
    "_orientation_": 1,
    "_padding_": [
        0,
        0,
        0,
        0
    ],
    "_percent_": true,
    "_position_": 3,
    "_skin_": "s3240d32b9a74cc78d1e0768cd2cdf1b",
    "allboxes": [],
    "canUpdateUI": true,
    "children": [
        "VBox0h53198ff9a8d49"
    ],
    "containerweight": 100,
    "contextmenu": null,
    "id": "HBoxDetail",
    "info": null,
    "isvisible": true,
    "kuid": "e0659eb9f1f54c58beb421089f606736",
    "layouttype": 0,
    "name": "kony.ui.Box",
    "parent": "VBox0d86dea8280e444",
    "pf": "frmIBMFSelPurchaseFundsEntry",
    "wType": "HBox",
    "widgetalignment": 1
}