{
    "@class": "com.kony.gen.viz.model.component.KVizLabel",
    "DNDConfig": null,
    "_margin_": [
        1,
        1,
        1,
        1
    ],
    "_padding_": [
        0,
        0,
        0,
        0
    ],
    "_skin_": "sc37039bd73a4cfeb86bb8e15d561c08",
    "_text_": "Search",
    "_wrapping_": 2,
    "android": {
        "textStyle": {
            "letterSpacing": 0,
            "strikeThrough": false
        }
    },
    "canUpdateUI": true,
    "containerweight": 100,
    "contentalignment": 5,
    "id": "LabelSearch",
    "info": null,
    "ipad": {
        "psp": {
            "wrapping": 2
        }
    },
    "iphone": {
        "psp": {
            "wrapping": 2
        }
    },
    "isvisible": true,
    "kuid": "c0d56c168ca4433486d4cedacbbadb27",
    "name": "kony.ui.Label",
    "parent": "VBoxSearch",
    "pf": "frmIBMFSelPurchaseFundsEntry",
    "tooltip": "",
    "wType": "Label"
}