{
    "@class": "com.kony.gen.viz.model.component.KVizLabel",
    "DNDConfig": null,
    "__markedForDelete__": true,
    "_margin_": [
        0,
        0,
        0,
        0
    ],
    "_padding_": [
        0,
        0,
        0,
        0
    ],
    "_skin_": "s1a9b23f47234aff8b7d54abd30885c3",
    "_text_": "TMB Free Flow: 8882",
    "_wrapping_": 2,
    "android": {
        "textStyle": {
            "letterSpacing": 0,
            "strikeThrough": false
        }
    },
    "canUpdateUI": true,
    "containerweight": 100,
    "contentalignment": 4,
    "id": "lblAccountNameVal",
    "info": null,
    "ipad": {
        "psp": {
            "wrapping": 2
        }
    },
    "iphone": {
        "psp": {
            "wrapping": 2
        }
    },
    "isvisible": true,
    "kuid": "a998ce56a4654860b5a44f2c62d0f3ec",
    "margininpixel": false,
    "name": "kony.ui.Label",
    "parent": "CopyVBox0e4e5e315225f4e",
    "pf": "frmIBMFSelPurchaseFundsEntry",
    "tooltip": "",
    "wType": "Label",
    "widgetalignment": 4
}