{
    "@class": "com.kony.gen.viz.model.component.KVizTextBox2",
    "DNDConfig": null,
    "_margin_": [
        0,
        0,
        0,
        0
    ],
    "_padding_": [
        3,
        4,
        1,
        4
    ],
    "_placeholder_": "Search",
    "_skin_": "s6258d9f3c124792a82ea6eedb2569ae",
    "_text_": "",
    "autocapitalize": "none",
    "autocomplete": false,
    "autocorrect": false,
    "autofilter": false,
    "canUpdateUI": true,
    "containerheight": "",
    "containerheightmode": 1,
    "containerweight": 85,
    "contentalignment": 4,
    "desktopweb": {
        "ide_onKeyUp": "AS_TextField_h00cc7fad7164d5dae5cabd22991b04d",
        "onKeyUp": "AS_TextField_f1454474ec1a4c2ba79f988d6e3085ae"
    },
    "id": "TextFieldSearch",
    "info": null,
    "isvisible": true,
    "keyboardtype": "A",
    "kuid": "e21ffb7e266b441eae25bb238a7867c1",
    "mode": "A",
    "name": "kony.ui.TextBox2",
    "paddInPixel": [
        10.23,
        13.64,
        3.41,
        13.64
    ],
    "paddinginpixel": false,
    "parent": "HBox0d6a6dc5936a245",
    "pf": "frmIBMFSelPurchaseFundsEntry",
    "placeholderi18n": "MF_Purchase_18",
    "securetextentry": false,
    "textinputmode": "A",
    "viewtype": "default",
    "wType": "TextField"
}