{
    "@class": "com.kony.gen.viz.model.container.KVizVBox",
    "DNDConfig": null,
    "_margin_": [
        0,
        0,
        0,
        0
    ],
    "_orientation_": 2,
    "_padding_": [
        0,
        0,
        0,
        0
    ],
    "_percent_": true,
    "_position_": 3,
    "_skin_": "s0e13ed4077f481ab090dae6b2e595ed",
    "allboxes": [],
    "canUpdateUI": true,
    "children": [
        "LabelSearch",
        "LineSearch"
    ],
    "containerweight": 50,
    "contextmenu": null,
    "id": "VBoxSearch",
    "ide_onClick": "AS_VBox_i0a4b4818c8242b28a27aa3017e58d28",
    "info": null,
    "isvisible": true,
    "kuid": "cfdaa693f3864aaaa93d2b599a79788a",
    "layouttype": 0,
    "name": "kony.ui.Box",
    "paddInPixel": [
        0,
        0,
        0,
        0
    ],
    "parent": "HBox0f2005115a54947",
    "pf": "frmIBMFSelPurchaseFundsEntry",
    "wType": "VBox",
    "widgetalignment": 1
}