{
    "@class": "com.kony.gen.viz.model.container.KVizVBox",
    "DNDConfig": null,
    "_margin_": [
        0,
        0,
        0,
        0
    ],
    "_orientation_": 2,
    "_padding_": [
        2,
        0,
        2,
        0
    ],
    "_percent_": true,
    "_position_": 3,
    "_skin_": "s97cc6c86bf047e2b52aaaa0fedee429",
    "allboxes": [],
    "canUpdateUI": true,
    "children": [
        "lblMFConfirmHearder",
        "HBox0ed51eb1afc7040",
        "HBoxSelectFund",
        "HBoxSelectedFund",
        "HBoxSelectUnitHolderNo",
        "HBoxSelectedUnitHolderNo",
        "HBoxDetail",
        "hbxBut0otn"
    ],
    "containerweight": 100,
    "contextmenu": null,
    "id": "VBox0d86dea8280e444",
    "info": null,
    "isvisible": true,
    "kuid": "fefebf2d20ae428a93f992f9986a04b7",
    "layouttype": 0,
    "name": "kony.ui.Box",
    "paddInPixel": [
        10.02,
        0,
        10.02,
        0
    ],
    "paddinginpixel": false,
    "parent": "HboxContents",
    "pf": "frmIBMFSelPurchaseFundsEntry",
    "wType": "VBox",
    "widgetalignment": 1
}