{
    "@class": "com.kony.gen.viz.model.container.KVizSegment2",
    "DNDConfig": null,
    "__parentReadjusting__": false,
    "_data_": [
        {
            "LabelUnitHolderNo": {
                "@class": "com.viz.ide.model.segment.SimpleTextSegmentData",
                "text": "Fund Name"
            }
        },
        {
            "LabelUnitHolderNo": {
                "@class": "com.viz.ide.model.segment.SimpleTextSegmentData",
                "text": "Fund Name"
            }
        },
        {
            "LabelUnitHolderNo": {
                "@class": "com.viz.ide.model.segment.SimpleTextSegmentData",
                "text": "Fund Name"
            }
        }
    ],
    "_height_": {
        "type": "string",
        "value": "80%"
    },
    "_indicator_": "none",
    "_left_": {
        "type": "string",
        "value": "0dp"
    },
    "_margin_": [
        0,
        0,
        0,
        0
    ],
    "_orientation_": 2,
    "_padding_": [
        0,
        0,
        0,
        0
    ],
    "_top_": {
        "type": "string",
        "value": "0dp"
    },
    "_width_": {
        "type": "string",
        "value": "100%"
    },
    "autogrowmode": 0,
    "canUpdateUI": true,
    "containerweight": 100,
    "counter": "02",
    "enabledictionary": false,
    "focusedindex": null,
    "focuseditem": null,
    "groupcells": false,
    "hasSections": false,
    "id": "SegmentList",
    "info": null,
    "ipad": {
        "psp": {
            "indicator": "rowselect"
        }
    },
    "iphone": {
        "psp": {
            "enableDictionary": false,
            "indicator": "none",
            "showProgressIndicator": true
        }
    },
    "isvisible": true,
    "kuid": "d88c9a30f7224247987707e4a31368a7",
    "masterdata": {},
    "name": "kony.ui.SegmentedUI2",
    "needpageindicator": true,
    "pageoffdotimage": "pageoffdot.png",
    "pageondotimage": "pageondot.png",
    "paginationconfig": {
        "position": "bottom"
    },
    "parent": "FlexContainerMain",
    "pf": "frmMFFilterUnitHolderNoMB",
    "retainselection": false,
    "rowTemplateId": "e4f21edce6b048e8ac92c27da0fe72e1",
    "rowcounter": 2,
    "rowfocusskin": "sbbc7f0678bf4c678c40fe82030b9661",
    "rowskin": "s01e0182a4d14a4da5e4e707eafeea1b",
    "rowtemplate": "FlexContainerMFUnitHolderNo",
    "screenlevelwidget": false,
    "seccounter": 0,
    "sectionHeaderTemplateId": null,
    "sectionheaderskin": "s8bfadf7251c4abfa23d31af10ef7493",
    "selectedRows": null,
    "selectedState": false,
    "selectedindex": null,
    "selectedindices": null,
    "selecteditems": null,
    "selectedsectionindex": 0,
    "selectionbehavior": "default",
    "separatorrequired": false,
    "showprogressindicator": true,
    "showscrollbars": false,
    "viewtype": "tableview",
    "wType": "Segment",
    "widgetalignment": 5,
    "widgetdatamap": {
        "CopyFlexContainer0aa22f29c960d4d": "CopyFlexContainer0aa22f29c960d4d",
        "FlexContainerMFUnitHolderNo": "FlexContainerMFUnitHolderNo",
        "LabelUnitHolderNo": "LabelUnitHolderNo"
    },
    "zindex": 1
}