{
    "@class": "com.kony.gen.viz.model.component.KVizButton",
    "DNDConfig": null,
    "_margin_": [
        0,
        0,
        0,
        0
    ],
    "_padding_": [
        0,
        2,
        0,
        2
    ],
    "_skin_": "s09c5fce81d24976aba25be42495b24c",
    "_text_": "Button",
    "android": {},
    "canUpdateUI": true,
    "containerweight": 11,
    "contentalignment": 5,
    "displaytext": false,
    "donotUpdateContainerWeight": false,
    "focusskin": "sb03125d6967435d9bab3829bc2d31d6",
    "id": "btnclosePopUpProfile",
    "info": null,
    "iphone": {},
    "isvisible": true,
    "kuid": "j4b0cd95a5614302b5a70e096736641c",
    "margininpixel": false,
    "name": "kony.ui.Button",
    "paddInPixel": [
        0,
        15,
        0,
        15
    ],
    "paddinginpixel": false,
    "parent": "hboxMobileClosebtn",
    "pf": "frmChangeMobNoTransLimitMB",
    "wType": "Button",
    "widgetalignment": 5
}