{
    "DNDConfig": null,
    "_height_": {
        "type": "ref",
        "value": "preferred"
    },
    "_margin_": [
        0,
        0,
        0,
        0
    ],
    "_orientation_": 6,
    "_padding_": [
        0,
        0,
        0,
        0
    ],
    "_percent_": true,
    "_skin_": "sf16386922154a1ea965e4cdf033ea5e",
    "allboxes": [],
    "autogrowmode": 1,
    "canUpdateUI": true,
    "children": [
        "flexRequestDesc",
        "flexRequestSrcAccount",
        "flexTime",
        "flexLine"
    ],
    "clipbounds": true,
    "containerId": true,
    "containerweight": 100,
    "enablescrolling": true,
    "id": "flexSourceDtls",
    "info": null,
    "isvisible": true,
    "kuid": "e2e55a79e2a746b089e2196afe4b0da4",
    "layouttype": 4,
    "name": "kony.ui.FlexContainer",
    "parent": "UVrequestsTemplate",
    "pf": "UVrequestsTemplate",
    "snapgridsize": 10,
    "snaptogrid": true,
    "wType": "FlexContainer",
    "widgetalignment": 1
}