{
    "DNDConfig": null,
    "_enabled_": false,
    "_margin_": [
        0,
        0,
        0,
        0
    ],
    "_orientation_": 2,
    "_padding_": [
        0,
        0,
        0,
        0
    ],
    "_percent_": true,
    "_position_": 3,
    "_resize_": true,
    "_skin_": "sa8c00f61daa4923a5bd013a081b3932",
    "allboxes": [],
    "android": {
        "@class": "com.kony.gen.viz.model.container.property.scrollbox.AndroidScrollBoxProperty",
        "_position_": 3,
        "enableScrollByPage": false,
        "position": 3,
        "render": true,
        "showScrollbars": true,
        "undefined": false
    },
    "canUpdateUI": true,
    "children": [
        "hbxShareOption",
        "hbxPart4",
        "hbxPart2",
        "hbxPart3",
        "hbxAdv"
    ],
    "containerheight": 100,
    "containerheightreference": 1,
    "containerweight": 100,
    "enablescrollbypage": false,
    "id": "sboxRight",
    "info": null,
    "iphone": {
        "@class": "com.kony.gen.viz.model.container.property.scrollbox.IPhoneScrollBoxProperty",
        "_margin_": [
            0,
            0,
            0,
            0
        ],
        "_position_": 3,
        "enableScrollByPage": false,
        "margin": [
            0,
            0,
            0,
            0
        ],
        "marginInPixel": false,
        "position": 3,
        "psp": {
            "bounces": true
        },
        "render": true,
        "showScrollbars": true,
        "undefined": false
    },
    "isvisible": true,
    "kuid": "a05fa71106cd45d79b315bf5576071fb",
    "layoutalignment": 3,
    "margininpixel": false,
    "name": "kony.ui.ScrollBox",
    "paddinginpixel": false,
    "parent": "vbox4751247744173",
    "pf": "frmQRScreenShotCalendar",
    "scrollbar": "scrollbar",
    "scrolldirection": 2,
    "scrollingevents": null,
    "showscrollbars": true,
    "spa": {
        "@class": "com.kony.gen.viz.model.container.property.scrollbox.SPAScrollBoxProperty",
        "psp": {
            "scrollArrowConfig": [
                null,
                null,
                null,
                null
            ]
        }
    },
    "spaan": {
        "@class": "com.kony.gen.viz.model.container.property.scrollbox.SPAAndroidScrollBoxProperty",
        "render": true
    },
    "spabb": {
        "@class": "com.kony.gen.viz.model.container.property.scrollbox.SPABBScrollBoxProperty",
        "render": true
    },
    "spaip": {
        "@class": "com.kony.gen.viz.model.container.property.scrollbox.SPAIPhoneScrollBoxProperty",
        "render": true
    },
    "spawinphone8": {
        "@class": "com.kony.gen.viz.model.container.property.scrollbox.SPAWinPhone8ScrollBoxProperty",
        "render": true
    },
    "templateType": "forms",
    "totalWt": 500,
    "wType": "ScrollBox",
    "widgetalignment": 1,
    "winphone8": {
        "@class": "com.kony.gen.viz.model.container.property.scrollbox.WinPhone8ScrollBoxProperty",
        "_margin_": [
            0,
            0,
            0,
            0
        ],
        "_position_": 3,
        "margin": [
            0,
            0,
            0,
            0
        ],
        "marginInPixel": false,
        "position": 3,
        "psp": {
            "enableCache": false
        },
        "render": true
    }
}