{
    "DNDConfig": null,
    "_enabled_": false,
    "_margin_": [
        0,
        0,
        1,
        0
    ],
    "_skin_": "s8295d098ea0445784bb876ddec4be98",
    "_text_": "",
    "_wrapping_": 2,
    "canUpdateUI": true,
    "containerweight": 63,
    "contentalignment": 1,
    "desktopweb": {
        "@class": "com.kony.gen.viz.model.component.property.label.DesktopWebLabelProperty",
        "_padding_": [
            0,
            0,
            0,
            0
        ],
        "padding": [
            0,
            0,
            0,
            0
        ],
        "paddingInPixel": false,
        "psp": {
            "textCopyable": false
        },
        "render": true
    },
    "hexpand": true,
    "id": "label474076475460876",
    "info": null,
    "isvisible": true,
    "kiosk": {
        "@class": "com.kony.gen.viz.model.component.property.label.KioskLabelProperty",
        "render": true
    },
    "kuid": "p2kwiet2012247641452",
    "margininpixel": false,
    "name": "kony.ui.Label",
    "parent": "hbxchangepic",
    "pf": "frmIBCMEditMyProfile",
    "spa": {
        "@class": "com.kony.gen.viz.model.component.property.label.SPALabelProperty",
        "psp": {
            "textCopyable": false
        }
    },
    "texti18n": "keyChangePhoto",
    "tooltip": "",
    "vexpand": false,
    "wType": "Label",
    "widgetalignment": 2
}