{
    "DNDConfig": null,
    "_enabled_": false,
    "_margin_": [
        0,
        0,
        2,
        0
    ],
    "_orientation_": 2,
    "_padding_": [
        1,
        1,
        1,
        1
    ],
    "_position_": 3,
    "_resize_": true,
    "_skin_": "s5d325fcec194a539185f59daf705454",
    "allboxes": [],
    "borderCollapse": false,
    "canUpdateUI": true,
    "children": [
        "lblOpengAccFrom",
        "hbox47679117769442",
        "line866794452611764"
    ],
    "containerweight": 97,
    "desktopweb": {
        "@class": "com.kony.gen.viz.model.container.property.vbox.DesktopWebVBoxProperty",
        "_padding_": [
            0,
            0,
            0,
            0
        ],
        "padding": [
            0,
            0,
            0,
            0
        ],
        "paddingInPixel": false,
        "render": true
    },
    "focusskin": "s5d325fcec194a539185f59daf705454",
    "id": "vbxOpenAmount",
    "info": null,
    "isvisible": true,
    "kiosk": {
        "@class": "com.kony.gen.viz.model.container.property.vbox.KioskVBoxProperty",
        "render": true
    },
    "kuid": "p2kwiet2012247646414",
    "layouttype": 0,
    "margininpixel": false,
    "name": "kony.ui.Box",
    "paddinginpixel": false,
    "parent": "hboxOpenAmount",
    "pf": "frmIBOpenNewTermDepositAcc",
    "spa": {
        "@class": "com.kony.gen.viz.model.container.property.vbox.SPAVBoxProperty"
    },
    "templateType": "forms",
    "wType": "VBox",
    "widgetalignment": 1
}