{
    "DNDConfig": null,
    "__parentReadjusting__": false,
    "_height_": {
        "type": "string",
        "value": "68%"
    },
    "_left_": {
        "type": "string",
        "value": "0dp"
    },
    "_margin_": [
        0,
        0,
        0,
        0
    ],
    "_orientation_": 6,
    "_padding_": [
        0,
        0,
        0,
        0
    ],
    "_percent_": true,
    "_skin_": "s60a3bb5747a4dc397ce5a463c4eba92",
    "_top_": {
        "type": "string",
        "value": "0dp"
    },
    "_width_": {
        "type": "string",
        "value": "110%"
    },
    "allboxes": [],
    "autogrowmode": 0,
    "canUpdateUI": true,
    "centerx": {
        "type": "string",
        "value": "50%"
    },
    "children": [
        "lblNoCodes"
    ],
    "clipbounds": true,
    "containerweight": 100,
    "enablescrolling": true,
    "focusskin": "s60a3bb5747a4dc397ce5a463c4eba92",
    "id": "flexNoCodeNote",
    "info": null,
    "isvisible": false,
    "kuid": "d6672cbb0ac242c1918d5494469de50d",
    "layouttype": 2,
    "name": "kony.ui.FlexContainer",
    "parent": "FlexScrollContainer0ea78177032bd44",
    "pf": "frmCardlesswithdrawLanding",
    "snapgridsize": 10,
    "snaptogrid": true,
    "wType": "FlexContainer",
    "widgetalignment": 1,
    "zindex": 1
}