{
    "DNDConfig": null,
    "_height_": {
        "type": "string",
        "value": "100%"
    },
    "_margin_": [
        0,
        0,
        0,
        0
    ],
    "_orientation_": 6,
    "_padding_": [
        0,
        0,
        0,
        0
    ],
    "_percent_": true,
    "_skin_": "s918d2c198cc4b1b99c1a0fe1f4e0370",
    "allboxes": [],
    "autogrowmode": 0,
    "canUpdateUI": true,
    "children": [
        "Label0e0c8fd24d22945",
        "imageTutorial",
        "richTextActication"
    ],
    "clipbounds": true,
    "containerId": true,
    "containerweight": 100,
    "enablescrolling": true,
    "id": "CopyFlexContainer0j5eef9b1b2544e",
    "info": null,
    "isTemplate": true,
    "isvisible": true,
    "kuid": "eb04fefb6fe84bbeb81b017b62c5172a",
    "layouttype": 4,
    "name": "kony.ui.FlexContainer",
    "parent": "segTempSend2SaveSmartRequest",
    "pf": "segTempSend2SaveSmartRequest",
    "snapgridsize": 10,
    "snaptogrid": true,
    "wType": "FlexContainer",
    "widgetalignment": 1
}