{
    "@class": "com.kony.gen.viz.model.component.KVizImage2",
    "DNDConfig": null,
    "_base64_": null,
    "_margin_": [
        0,
        0,
        0,
        0
    ],
    "_padding_": [
        0,
        0,
        0,
        0
    ],
    "_skin_": "s55d8a5125e74bb0b2eaca75c423dae1",
    "_src_": "qr_info.png",
    "canUpdateUI": true,
    "containerweight": 4,
    "context": {
        "channel": "desktop",
        "ispercent": true,
        "platform": "desktopweb",
        "templateType": "popups",
        "topLevelBox": false
    },
    "id": "Image0c24d1f4152b143",
    "imagescalemode": 1,
    "info": null,
    "invokedProperty": "src",
    "ispercent": true,
    "isvisible": true,
    "kuid": "e24ee60370494d95bddd50a2604fc6b5",
    "name": "kony.ui.Image2",
    "paddInPixel": [
        0,
        0,
        0,
        0
    ],
    "parent": "HBox0b2ac0129db3e46",
    "pf": "QRCodeDisplay",
    "referenceheight": 20,
    "referencewidth": 20,
    "srcType": 1,
    "wType": "Image",
    "widgetalignment": 4
}