{
    "@class": "com.kony.gen.viz.model.container.KVizForm",
    "DNDConfig": null,
    "_margin_": [
        0,
        0,
        0,
        0
    ],
    "_orientation_": 1,
    "_padding_": [
        0,
        0,
        2,
        2
    ],
    "_percent_": true,
    "_skin_": "scfd0f19792a40f39b9bbba41a74cf30",
    "_title_": null,
    "addWidgetsdone": false,
    "allboxes": [],
    "android": {
        "psp": {
            "windowSoftInputMode": 2
        }
    },
    "canUpdateUI": true,
    "children": [
        "hBoxQRClose",
        "HBoxQrError",
        "HBoxQRCode",
        "Line0ef25875241fa4a",
        "HBox0b2ac0129db3e46",
        "HBox0c058e16e06e640"
    ],
    "containerheight": 54,
    "containerheightreference": 1,
    "containerweight": 60,
    "currentLocale": "default",
    "desktopweb": {
        "psp": {
            "titleBarConfig": {
                "closeIcon": "",
                "maxIcon": "",
                "minIcon": ""
            }
        }
    },
    "device": "desktopweb",
    "displayorientation": 3,
    "enabledforidletimeout": false,
    "id": "QRCodeDisplay",
    "ide_init": "AS_Popup_ga607303cc094ad98ed79cef49379a90",
    "info": null,
    "initdone": false,
    "inputaccessoryviewtype": 4,
    "ismodal": true,
    "isvisible": true,
    "kuid": "cc2a9386c99c44e89614dc859eff6bb5",
    "name": "kony.ui.Popup",
    "paddinginpixel": false,
    "platform": "desktopweb",
    "prevDevice": "desktopweb",
    "prevPlatform": "desktopweb",
    "retainscrollposition": false,
    "shellCSS": "desktop",
    "titlebar": true,
    "transparencybehindthepopup": 30,
    "wType": "Popup"
}
