{
    "DNDConfig": null,
    "_enabled_": false,
    "_margin_": [
        0,
        0,
        0,
        0
    ],
    "_padding_": [
        0,
        0,
        0,
        0
    ],
    "_skin_": "sc7b731970a1466d9b3222873b7eb076",
    "_title_": "",
    "addWidgetsdone": false,
    "allboxes": [],
    "android": {
        "@class": "com.kony.gen.viz.model.container.property.form.AndroidFormProperty",
        "_padding_": [
            0,
            0,
            0,
            0
        ],
        "displayOrientation": 1,
        "footerOverlap": false,
        "headerOverlap": false,
        "ide_onDeviceBack": "p2kwiet2012247629538_frmMBActiAtmIdMobile_Android_onDeviceBack_seq0",
        "inTransitionConfig": {
            "formAnimation": 0
        },
        "isModal": false,
        "menuPosition": 2,
        "needAppMenu": true,
        "outTransitionConfig": {
            "formAnimation": 0
        },
        "padding": [
            0,
            0,
            0,
            0
        ],
        "paddingInPixel": false,
        "psp": {
            "showActionBar": false,
            "showActionBarIcon": false,
            "windowSoftInputMode": 1
        },
        "render": true
    },
    "canUpdateUI": true,
    "children": [
        "hbxheaderRecipient",
        "hboximg",
        "label4742849861214",
        "hbox4742849861217",
        "lblInfo",
        "lblIdPassport",
        "HBox0b02b9f46127d49",
        "tbxIdPassport",
        "tbxIdCitizen",
        "lineIdPassport",
        "lblIdpasportConfirm",
        "lblMobileNo",
        "tbxMobileNo",
        "lineMobileNo",
        "lblMobileNoConfirm",
        "lblOption",
        "hbxChoiceDebitCredit",
        "hbxLightBlueTopArrow",
        "hbxCardNote",
        "lblAtmNumber",
        "tbxAtmNumber",
        "lineAtm",
        "lblAtmNumberConfirm",
        "lblCreditCardNum",
        "txtCreditCardNum",
        "lineCreditCard",
        "lblCreditCardNumConfirm",
        "hboxCaptcha",
        "hboxCaptchaText",
        "hbox4733076528910"
    ],
    "containerheightreference": 1,
    "containerweight": 100,
    "currentLocale": "default",
    "device": "iPhone6",
    "displayorientation": 3,
    "enabledforidletimeout": true,
    "footeroverlap": false,
    "headeroverlap": false,
    "id": "frmMBActiAtmIdMobile",
    "ide_onHide": "p2kwiet2012247629538_frmMBActiAtmIdMobile_onhide_seq0",
    "ide_postShow": "p2kwiet2012247629538_frmMBActiAtmIdMobile_postshow_seq0",
    "ide_preShow": "p2kwiet2012247629538_frmMBActiAtmIdMobile_preshow_seq0",
    "info": null,
    "initdone": false,
    "iphone": {
        "@class": "com.kony.gen.viz.model.container.property.form.IPhoneFormProperty",
        "_padding_": [
            0,
            0,
            0,
            0
        ],
        "displayOrientation": 1,
        "footerOverlap": false,
        "headerOverlap": false,
        "inTransitionConfig": {
            "transitionDirection": "none",
            "transitionEffect": "none"
        },
        "isModal": false,
        "needAppMenu": true,
        "outTransitionConfig": {
            "transitionDirection": "none",
            "transitionEffect": "none"
        },
        "padding": [
            0,
            0,
            0,
            0
        ],
        "paddingInPixel": false,
        "psp": {
            "bounces": true,
            "configureExtendBottom": false,
            "configureExtendTop": false,
            "configureStatusBarStyle": true,
            "extendBottom": false,
            "extendTop": false,
            "formTransparencyDuringPostShow": 100,
            "inputAccessoryViewType": 1,
            "needsIndicatorDuringPostShow": true,
            "statusBarStyle": "STATUS_BAR_STYLE_LIGHT_CONTENT",
            "titleBarAttributes": {
                "barStyle": 0,
                "hidesBackButton": true,
                "kuid": "e5d6ef263b6b4d6d909ad85989fee873",
                "leftBarButtonItems": [
                    {
                        "buttonClosureLeftSideView": "",
                        "kuid": "fdca2e15af7f4c30bba30c2a0a764d34",
                        "leftButtonText": "Back",
                        "leftTitle": "Back",
                        "prevFormTitle": false,
                        "titleBarLeftSideView": "button",
                        "titleClosureLeftSideView": "",
                        "type": 4
                    }
                ],
                "leftItemsSupplementBackButton": true,
                "prompt": "",
                "renderTitleText": true,
                "rightBarButtonItems": [],
                "tintColor": "333333",
                "translucent": true
            },
            "useNativeTitlebar": true
        },
        "render": true,
        "titleBar": false
    },
    "ismodal": false,
    "isvisible": true,
    "kuid": "p2kwiet2012247629538",
    "margininpixel": false,
    "menuposition": 2,
    "name": "kony.ui.Form2",
    "needappmenu": true,
    "paddinginpixel": false,
    "percent": true,
    "platform": "iphone",
    "prevDevice": "GalaxyS5",
    "prevPlatform": "android",
    "restorewidgetprototypes": true,
    "retainscrollposition": false,
    "shellCSS": "iOS_iPhone6",
    "spa": {
        "@class": "com.kony.gen.viz.model.container.property.form.SPAFormProperty",
        "inTransitionConfig": {
            "formTransition": "none"
        },
        "isModal": false,
        "needAppMenu": false,
        "outTransitionConfig": {
            "formTransition": "none"
        },
        "psp": {
            "dockableAppMenu": true,
            "dockableFooter": true,
            "dockableHeader": true
        }
    },
    "spaan": {
        "@class": "com.kony.gen.viz.model.container.property.form.SPAAndroidFormProperty",
        "needAppMenu": true,
        "render": true
    },
    "spabb": {
        "@class": "com.kony.gen.viz.model.container.property.form.SPABBFormProperty",
        "needAppMenu": true,
        "render": true
    },
    "spaip": {
        "@class": "com.kony.gen.viz.model.container.property.form.SPAIPhoneFormProperty",
        "needAppMenu": true,
        "render": true
    },
    "spawinphone8": {
        "@class": "com.kony.gen.viz.model.container.property.form.SPAWinPhone8FormProperty",
        "needAppMenu": true,
        "render": true
    },
    "statusbarstyle": "STATUS_BAR_STYLE_LIGHT_CONTENT",
    "templateType": "forms",
    "titleBarSkin": "sfa6e896438d4205a69f819cd18ad83e",
    "titlebar": false,
    "transparencybehindthepopup": 100,
    "type": 3,
    "wType": "Form",
    "widgetalignment": 1,
    "winphone8": {
        "@class": "com.kony.gen.viz.model.container.property.form.WinPhone8FormProperty",
        "_padding_": [
            0,
            0,
            0,
            0
        ],
        "displayOrientation": 1,
        "inTransitionConfig": {
            "transitionSpeed": 0
        },
        "needAppMenu": true,
        "outTransitionConfig": {
            "transitionSpeed": 0
        },
        "padding": [
            0,
            0,
            0,
            0
        ],
        "paddingInPixel": false,
        "psp": {
            "animateHeaderFooter": false,
            "enableCache": false,
            "maxAppMenuButtons": 4
        },
        "render": true
    }
}