{
    "DNDConfig": null,
    "_base64_": null,
    "_enabled_": false,
    "_margin_": [
        0,
        5,
        0,
        0
    ],
    "_padding_": [
        0,
        0,
        0,
        0
    ],
    "_skin_": "s74407cc01df451c9a740ebe48f853eb",
    "_src_": "avatar.png",
    "_text_": "avatar.png",
    "canUpdateUI": true,
    "containerweight": 22,
    "contentalignment": 5,
    "desktopweb": {
        "@class": "com.kony.gen.viz.model.component.property.image2.DesktopWebImage2Property",
        "_padding_": [
            0,
            0,
            0,
            0
        ],
        "padding": [
            0,
            0,
            0,
            0
        ],
        "paddingInPixel": false,
        "render": true
    },
    "hexpand": false,
    "id": "image2474288733627",
    "imagescalemode": 0,
    "imagewhenfailed": "avatar.png",
    "imagewhiledownloading": "avatar.png",
    "info": null,
    "isvisible": true,
    "kiosk": {
        "@class": "com.kony.gen.viz.model.component.property.image2.KioskImage2Property",
        "render": true
    },
    "kuid": "p2kwiet2012247641672",
    "margininpixel": false,
    "name": "kony.ui.Image2",
    "paddinginpixel": false,
    "parent": "hbox474288733626",
    "pf": "frmIBCMMyProfile",
    "referenceheight": 66,
    "referencewidth": 66,
    "spa": {
        "@class": "com.kony.gen.viz.model.component.property.image2.SPAImage2Property"
    },
    "srcType": 1,
    "vexpand": false,
    "wType": "Image",
    "widgetalignment": 1
}