{
    "DNDConfig": null,
    "_enabled_": false,
    "_margin_": [
        0,
        0,
        0,
        0
    ],
    "_padding_": [
        1,
        1,
        1,
        1
    ],
    "_skin_": "s543bc07c1c94e538bb8e380ce34e482",
    "_text_": "",
    "autocapitalize": "none",
    "autocomplete": false,
    "autocorrect": false,
    "autofilter": false,
    "canUpdateUI": true,
    "containerheightmode": 1,
    "containerheightreference": 1,
    "containerweight": 66,
    "contentalignment": 4,
    "desktopweb": {
        "@class": "com.kony.gen.viz.model.component.property.textbox2.DesktopWebTextBox2Property",
        "containerHeightMode": 3,
        "ide_onBeginEditing": "p2kwiet2012247640565_txtChequeNo_DESKTOPWEB_onBeginEditing_seq0",
        "ide_onEndEditing": "p2kwiet2012247640565_txtChequeNo_DESKTOPWEB_onEndEditing_seq0",
        "render": true
    },
    "focusskin": "s543bc07c1c94e538bb8e380ce34e482",
    "hexpand": true,
    "id": "txtChequeNo",
    "info": null,
    "isvisible": true,
    "keyboardstyle": "A",
    "keyboardtype": "A",
    "kiosk": {
        "@class": "com.kony.gen.viz.model.component.property.textbox2.KioskTextBox2Property",
        "render": true
    },
    "kuid": "p2kwiet2012247640552",
    "margininpixel": false,
    "maxtextlength": 8,
    "mode": "A",
    "name": "kony.ui.TextBox2",
    "paddinginpixel": false,
    "parent": "hbxChequeNo",
    "pf": "frmIBChequeServiceStopChequeLanding",
    "securetextentry": false,
    "spa": {
        "@class": "com.kony.gen.viz.model.component.property.textbox2.SPATextBox2Property",
        "autoCorrect": false,
        "containerHeightMode": 3
    },
    "texti18n": "keyChequeNo",
    "textinputmode": "A",
    "vexpand": false,
    "viewtype": "default",
    "wType": "TextField",
    "widgetalignment": 5
}