{
    "DNDConfig": null,
    "_enabled_": false,
    "_margin_": [
        0,
        5,
        0,
        11
    ],
    "_padding_": [
        1,
        1,
        1,
        1
    ],
    "_skin_": "s1576c487d154b718a2012ba3ba0c50c",
    "_text_": "Terms and Conditions are a set of rules and guidelines that a user must agree to in order to use your website or mobile app. It acts as a legal contract between you (the company) who has the website or mobile app and the user who access your website and mobile app.  It’s up to you to set the rules and guidelines that the user must agree to. You can think of your Terms and Conditions agreement as the legal agreement where you maintain your rights to exclude users from your app in the event that they abuse your app, and where you maintain your legal rights against potential app abusers, and so on.  Terms and Conditions are also known as Terms of Service or Terms of Use.  This type of legal agreement can be used for both your website and your mobile app. It’s not required (it’s not recommended actually) to have separate Terms and Conditions agreements: one for your website and one for your mobile app.",
    "_wrapping_": 2,
    "canUpdateUI": true,
    "containerweight": 100,
    "contentalignment": 1,
    "desktopweb": {
        "@class": "com.kony.gen.viz.model.component.property.label.DesktopWebLabelProperty",
        "_margin_": [
            0,
            0,
            0,
            0
        ],
        "_padding_": [
            0,
            0,
            0,
            0
        ],
        "margin": [
            0,
            3,
            0,
            3
        ],
        "marginInPixel": false,
        "padding": [
            0,
            0,
            0,
            0
        ],
        "paddingInPixel": false,
        "psp": {
            "textCopyable": false
        },
        "render": true
    },
    "hexpand": true,
    "id": "lblTnCDetails",
    "info": null,
    "isvisible": true,
    "kiosk": {
        "@class": "com.kony.gen.viz.model.component.property.label.KioskLabelProperty",
        "render": true
    },
    "kuid": "d5d0464fb91c44f6b92bcfba7eec508e",
    "margininpixel": false,
    "name": "kony.ui.Label",
    "paddinginpixel": false,
    "parent": "scrollTnCDetails",
    "pf": "frmIBMFSuitTnC",
    "spa": {
        "@class": "com.kony.gen.viz.model.component.property.label.SPALabelProperty",
        "psp": {
            "textCopyable": false
        }
    },
    "tooltip": "",
    "vexpand": false,
    "wType": "Label",
    "widgetalignment": 5
}