{
    "@class": "com.kony.gen.viz.model.container.KVizVBox",
    "DNDConfig": null,
    "_margin_": [
        0,
        0,
        0,
        0
    ],
    "_orientation_": 2,
    "_padding_": [
        2,
        0,
        2,
        0
    ],
    "_percent_": true,
    "_position_": 3,
    "_skin_": "s406f84d3f3c4e988928ebd4c0c5064a",
    "allboxes": [],
    "canUpdateUI": true,
    "children": [
        "lblMFHearder",
        "hbxLinks",
        "hbxTnCDetails",
        "hbxStartTest"
    ],
    "containerweight": 100,
    "contextmenu": null,
    "id": "vbxContents",
    "info": null,
    "isvisible": true,
    "kuid": "e02b3f719b1e44609d9a41cf5b4eae48",
    "layouttype": 0,
    "name": "kony.ui.Box",
    "paddInPixel": [
        7.7,
        0,
        7.7,
        0
    ],
    "paddinginpixel": false,
    "parent": "HboxContents",
    "pf": "frmIBMFSuitTnC",
    "wType": "VBox",
    "widgetalignment": 1
}