{
    "DNDConfig": null,
    "__parentReadjusting__": false,
    "_height_": {
        "type": "string",
        "value": "20dp"
    },
    "_left_": {
        "type": "string",
        "value": "0%"
    },
    "_margin_": [
        0,
        0,
        0,
        0
    ],
    "_orientation_": 6,
    "_padding_": [
        0,
        0,
        0,
        0
    ],
    "_percent_": true,
    "_skin_": "s696159257ad4a27b7c9f9e2e2050e54",
    "_top_": {
        "type": "number",
        "value": "0"
    },
    "_width_": {
        "type": "string",
        "value": "20dp"
    },
    "allboxes": [],
    "autogrowmode": 0,
    "canUpdateUI": true,
    "centerx": {
        "type": "string",
        "value": "17%"
    },
    "centery": {
        "type": "string",
        "value": "65%"
    },
    "children": [
        "checkMaskNumber"
    ],
    "clipbounds": true,
    "containerId": true,
    "containerweight": 100,
    "enablescrolling": true,
    "id": "checkMaskBox",
    "info": null,
    "isvisible": true,
    "kuid": "gc182ba9885146008017947af5740e74",
    "layouttype": 2,
    "name": "kony.ui.FlexContainer",
    "parent": "flxLeft",
    "pf": "segUploadDocument",
    "snapgridsize": 10,
    "snaptogrid": true,
    "wType": "FlexContainer",
    "widgetalignment": 1,
    "zindex": 1
}