{
    "DNDConfig": null,
    "_height_": {
        "type": "string",
        "value": "100dp"
    },
    "_margin_": [
        0,
        0,
        0,
        0
    ],
    "_orientation_": 6,
    "_padding_": [
        0,
        0,
        0,
        0
    ],
    "_percent_": true,
    "_skin_": "s813501d6c094c3eab63d7fa7dd056ef",
    "allboxes": [],
    "autogrowmode": 0,
    "canUpdateUI": true,
    "children": [
        "flxMainContainer",
        "lblSegRowLine"
    ],
    "clipbounds": true,
    "containerId": true,
    "containerweight": 100,
    "enablescrolling": true,
    "focusskin": "s5c43df57dc34dcabb73fdb91b472e8e",
    "id": "flxUploadDocumentRow",
    "info": null,
    "isTemplate": true,
    "isvisible": true,
    "kuid": "h77f3d6785bd40bdb71597ab9122e876",
    "layouttype": 2,
    "name": "kony.ui.FlexContainer",
    "parent": "segUploadDocument",
    "pf": "segUploadDocument",
    "snapgridsize": 10,
    "snaptogrid": true,
    "wType": "FlexContainer",
    "widgetalignment": 1
}