{
    "@class": "com.kony.gen.viz.model.container.KVizHBox",
    "DNDConfig": null,
    "_margin_": [
        0,
        0,
        0,
        0
    ],
    "_orientation_": 1,
    "_padding_": [
        0,
        0,
        0,
        0
    ],
    "_percent_": true,
    "_position_": 3,
    "_skin_": "s3240d32b9a74cc78d1e0768cd2cdf1b",
    "allboxes": [],
    "canUpdateUI": true,
    "children": [
        "imgQR"
    ],
    "containerweight": 100,
    "contextmenu": null,
    "id": "HBox0d38fc676ac0b42",
    "info": null,
    "isvisible": true,
    "kuid": "c2e7febd5ba24cb5997aff8a1661e325",
    "layouttype": 0,
    "margininpixel": false,
    "name": "kony.ui.Box",
    "paddinginpixel": false,
    "parent": "VBox0c5f7e837870d42",
    "pf": "frmBillPaymentCompleteCalendar",
    "vexpand": false,
    "wType": "HBox",
    "widgetalignment": 1
}