{
    "@class": "com.kony.gen.viz.model.component.KVizImage2",
    "DNDConfig": null,
    "_base64_": null,
    "_margin_": [
        0,
        0,
        0,
        0
    ],
    "_padding_": [
        0,
        0,
        0,
        0
    ],
    "_skin_": "s55d8a5125e74bb0b2eaca75c423dae1",
    "_src_": "imagedrag.png",
    "canUpdateUI": true,
    "containerweight": 100,
    "context": {
        "channel": "mobile",
        "ispercent": true,
        "platform": "iphone",
        "templateType": "forms",
        "topLevelBox": false
    },
    "id": "imgQR",
    "imagescalemode": 0,
    "info": null,
    "ispercent": true,
    "isvisible": true,
    "kuid": "h3254c5d49354d0a8a66dcb2e0cd8c48",
    "name": "kony.ui.Image2",
    "paddInPixel": [
        0,
        0,
        0,
        0
    ],
    "parent": "HBox0d38fc676ac0b42",
    "pf": "frmBillPaymentCompleteCalendar",
    "referenceheight": 150,
    "referencewidth": 150,
    "srcType": 1,
    "wType": "Image",
    "widgetalignment": 5
}