{
    "@class": "com.kony.gen.viz.model.component.KVizLabel",
    "DNDConfig": null,
    "_margin_": [
        1,
        0,
        1,
        0
    ],
    "_padding_": [
        0,
        0,
        0,
        0
    ],
    "_skin_": "sfa56ab0dbe143f4bc4653b51e90d391",
    "_text_": "",
    "_wrapping_": 2,
    "android": {
        "textStyle": {
            "letterSpacing": 0,
            "strikeThrough": false
        }
    },
    "canUpdateUI": true,
    "containerweight": 50,
    "contentalignment": 6,
    "id": "lblPaymentDateValueQR",
    "info": null,
    "ipad": {
        "psp": {
            "wrapping": 2
        }
    },
    "iphone": {
        "psp": {
            "wrapping": 2
        }
    },
    "isvisible": true,
    "kuid": "ae5582193368498cbf12063721b69a85",
    "margininpixel": false,
    "name": "kony.ui.Label",
    "parent": "CopyHBox0d39fe379621f41",
    "pf": "frmBillPaymentCompleteCalendar",
    "tooltip": "",
    "wType": "Label"
}