{
    "DNDConfig": null,
    "_enabled_": false,
    "_orientation_": 1,
    "_padding_": [
        0,
        0,
        0,
        0
    ],
    "_percent_": true,
    "_position_": 3,
    "_resize_": true,
    "_skin_": "s3cd729155364efe97d4fcd79c72daf8",
    "allboxes": [],
    "android": {
        "@class": "com.kony.gen.viz.model.container.property.hbox.AndroidHBoxProperty",
        "_margin_": [
            3,
            0,
            0,
            0
        ],
        "_position_": 3,
        "margin": [
            3,
            0,
            0,
            0
        ],
        "marginInPixel": false,
        "position": 3,
        "render": true
    },
    "borderCollapse": false,
    "canUpdateUI": true,
    "children": [
        "imgCashbackTo",
        "vbxTranLandToSel",
        "btnCashbackAccounts"
    ],
    "containerweight": 100,
    "id": "hbxToAccount",
    "ide_onClick": "p2kwiet2012247632223_hbxToAccount_onClick_seq0",
    "info": null,
    "iphone": {
        "@class": "com.kony.gen.viz.model.container.property.hbox.IPhoneHBoxProperty",
        "_margin_": [
            3,
            0,
            0,
            0
        ],
        "_position_": 3,
        "margin": [
            3,
            0,
            0,
            0
        ],
        "marginInPixel": false,
        "position": 3,
        "render": true
    },
    "isvisible": true,
    "kuid": "p2kwiet2012247632184",
    "layoutalignment": 3,
    "name": "kony.ui.Box",
    "paddinginpixel": false,
    "parent": "vbxCashback",
    "pf": "frmMBPointRedemptionLanding",
    "spa": {
        "@class": "com.kony.gen.viz.model.container.property.hbox.SPAHBoxProperty"
    },
    "spaan": {
        "@class": "com.kony.gen.viz.model.container.property.hbox.SPAAndroidHBoxProperty",
        "_margin_": [
            3,
            2,
            0,
            2
        ],
        "margin": [
            3,
            2,
            0,
            2
        ],
        "marginInPixel": false,
        "render": true
    },
    "spabb": {
        "@class": "com.kony.gen.viz.model.container.property.hbox.SPABBHBoxProperty",
        "_margin_": [
            3,
            2,
            3,
            1
        ],
        "margin": [
            3,
            2,
            3,
            1
        ],
        "marginInPixel": false,
        "render": true
    },
    "spaip": {
        "@class": "com.kony.gen.viz.model.container.property.hbox.SPAIPhoneHBoxProperty",
        "_margin_": [
            3,
            2,
            0,
            2
        ],
        "margin": [
            3,
            2,
            0,
            2
        ],
        "marginInPixel": false,
        "render": true
    },
    "spawinphone8": {
        "@class": "com.kony.gen.viz.model.container.property.hbox.SPAWinPhone8HBoxProperty",
        "_margin_": [
            3,
            2,
            3,
            1
        ],
        "margin": [
            3,
            2,
            3,
            1
        ],
        "marginInPixel": false,
        "render": true
    },
    "templateType": "forms",
    "wType": "HBox",
    "widgetalignment": 1,
    "winphone8": {
        "@class": "com.kony.gen.viz.model.container.property.hbox.WinPhone8HBoxProperty",
        "_position_": 3,
        "position": 3,
        "psp": {
            "enableCache": false
        },
        "render": true
    }
}