{
    "@class": "com.kony.gen.viz.model.component.KVizImage2",
    "DNDConfig": null,
    "__parentReadjusting__": false,
    "_base64_": null,
    "_height_": {
        "type": "string",
        "value": "20dp"
    },
    "_left_": {
        "type": "string",
        "value": "15dp"
    },
    "_margin_": [
        0,
        0,
        0,
        0
    ],
    "_padding_": [
        0,
        0,
        0,
        0
    ],
    "_skin_": "s55d8a5125e74bb0b2eaca75c423dae1",
    "_src_": "chkbox2.png",
    "_top_": {
        "type": "string",
        "value": "5dp"
    },
    "_width_": {
        "type": "ref",
        "value": "preferred"
    },
    "canUpdateUI": true,
    "containerweight": 100,
    "context": {
        "channel": "mobile",
        "formID": "frmMFTnc",
        "platform": "iphone",
        "templateType": "forms",
        "topLevelBox": null
    },
    "id": "imgChkbox1",
    "imagescalemode": 1,
    "info": null,
    "invokedProperty": "src",
    "isvisible": true,
    "kuid": "b2942ce2d45a4585b9beb8f104ed6a08",
    "name": "kony.ui.Image2",
    "parent": "FlexContainer0i8dbd15548464e",
    "pf": "frmMFTnc",
    "srcType": 1,
    "wType": "Image",
    "widgetalignment": 5,
    "zindex": 10
}