{
    "DNDConfig": null,
    "_enabled_": false,
    "_margin_": [
        1,
        0,
        1,
        0
    ],
    "_padding_": [
        0,
        0,
        0,
        0
    ],
    "_skin_": "s501c6abde4c4193a1d5f9429d142e11",
    "_text_": "",
    "canUpdateUI": true,
    "containerweight": 33,
    "contentalignment": 5,
    "desktopweb": {
        "@class": "com.kony.gen.viz.model.component.property.button.DesktopWebButtonProperty",
        "_margin_": [
            1,
            0,
            1,
            0
        ],
        "_padding_": [
            0,
            1,
            0,
            1
        ],
        "displayText": true,
        "margin": [
            1,
            0,
            1,
            0
        ],
        "marginInPixel": false,
        "padding": [
            0,
            1,
            0,
            1
        ],
        "paddingInPixel": false,
        "render": true
    },
    "displaytext": true,
    "focusskin": "s6be722788a043a8bb961d1aad4c6fdb",
    "hexpand": true,
    "id": "btnEndAfter",
    "ide_onClick": "p2kwiet2012247650520_btnEndAfter_onClick_seq0",
    "info": null,
    "isvisible": true,
    "kiosk": {
        "@class": "com.kony.gen.viz.model.component.property.button.KioskButtonProperty",
        "render": true
    },
    "kuid": "p2kwiet2012247650509",
    "margininpixel": false,
    "name": "kony.ui.Button",
    "paddinginpixel": false,
    "parent": "hbox4741706309271",
    "pf": "futuredate",
    "spa": {
        "@class": "com.kony.gen.viz.model.component.property.button.SPAButtonProperty",
        "displayText": true
    },
    "vexpand": false,
    "wType": "Button",
    "widgetalignment": 5
}