{
    "DNDConfig": null,
    "_height_": {
        "type": "string",
        "value": "125dp"
    },
    "_margin_": [
        0,
        0,
        0,
        0
    ],
    "_orientation_": 6,
    "_padding_": [
        0,
        0,
        0,
        0
    ],
    "_percent_": true,
    "_skin_": "s918d2c198cc4b1b99c1a0fe1f4e0370",
    "allboxes": [],
    "autogrowmode": 0,
    "canUpdateUI": true,
    "children": [
        "FlexContainer0dd9a1cc8672742",
        "lblAccountName",
        "FlexContainer0eb517ecbd1be44",
        "FlexContainer0c454c8408cdc42"
    ],
    "clipbounds": true,
    "containerId": true,
    "containerweight": 100,
    "enablescrolling": true,
    "id": "CopyFlexContainer0b4aa7073fc8642",
    "info": null,
    "isTemplate": true,
    "isvisible": true,
    "kuid": "fde756eedcc048eaa25cc7e767deecd1",
    "layouttype": 4,
    "name": "kony.ui.FlexContainer",
    "parent": "segCardlessWithdrawCodesExpired",
    "pf": "segCardlessWithdrawCodesExpired",
    "snapgridsize": 10,
    "snaptogrid": true,
    "wType": "FlexContainer",
    "widgetalignment": 1
}