{
    "@class": "com.kony.gen.viz.model.component.KVizLabel",
    "DNDConfig": null,
    "__parentReadjusting__": false,
    "_height_": {
        "type": "string",
        "value": "46%"
    },
    "_left_": {
        "type": "string",
        "value": "0dp"
    },
    "_margin_": [
        1,
        1,
        1,
        1
    ],
    "_padding_": [
        0,
        0,
        0,
        0
    ],
    "_skin_": "s346e99983c24936bb9879a1c29d9731",
    "_text_": "",
    "_top_": {
        "type": "string",
        "value": "3.00%"
    },
    "_width_": {
        "type": "string",
        "value": "90.00%"
    },
    "_wrapping_": 2,
    "android": {
        "textStyle": {
            "letterSpacing": 0,
            "strikeThrough": false
        }
    },
    "canUpdateUI": true,
    "centerx": {
        "type": "string",
        "value": "50%"
    },
    "containerweight": 100,
    "contentalignment": 2,
    "id": "lblwifiinformation",
    "info": null,
    "ipad": {
        "psp": {
            "wrapping": 2
        }
    },
    "iphone": {
        "psp": {
            "wrapping": 2
        }
    },
    "isvisible": true,
    "kuid": "a2b8c4eaa45b44178661a7fc3ffcda00",
    "name": "kony.ui.Label",
    "parent": "flexSettings",
    "pf": "frmENotificationSettings",
    "texti18n": "NST_txtPUdesc",
    "textstyle": {},
    "tooltip": "",
    "wType": "Label",
    "zindex": 1
}