{
    "@class": "com.kony.gen.viz.model.component.KVizButton",
    "DNDConfig": null,
    "__parentReadjusting__": false,
    "_height_": {
        "type": "string",
        "value": "100%"
    },
    "_left_": {
        "type": "number",
        "value": "0"
    },
    "_margin_": [
        6,
        6,
        6,
        6
    ],
    "_padding_": [
        0,
        0,
        0,
        0
    ],
    "_skin_": "s7d02bf2516c487c811aa027abb2252c",
    "_text_": "...",
    "_top_": {
        "type": "string",
        "value": "0dp"
    },
    "_width_": {
        "type": "string",
        "value": "100%"
    },
    "canUpdateUI": true,
    "containerweight": 100,
    "contentalignment": 5,
    "displaytext": true,
    "focusskin": "s1d2c6a265994910b396cbd3d13b7d02",
    "id": "btnPayBill",
    "info": null,
    "isvisible": true,
    "kuid": "8a255115773b421192753859d3c3a63d",
    "name": "kony.ui.Button",
    "parent": "flxFooter",
    "pf": "frmMBBankAssuranceDetails",
    "texti18n": "PayBill",
    "wType": "Button",
    "zindex": 1
}