{
    "@class": "com.kony.gen.viz.model.component.KVizButton",
    "DNDConfig": null,
    "__parentReadjusting__": false,
    "_height_": {
        "type": "string",
        "value": "100%"
    },
    "_margin_": [
        6,
        6,
        6,
        6
    ],
    "_padding_": [
        0,
        0,
        0,
        0
    ],
    "_skin_": "sb8c34bc7b6047768dda2a8fc7eef79c",
    "_text_": "",
    "_top_": {
        "type": "number",
        "value": "0"
    },
    "_width_": {
        "type": "string",
        "value": "14%"
    },
    "canUpdateUI": true,
    "centerx": {
        "type": "string",
        "value": "93%"
    },
    "centery": {
        "type": "string",
        "value": "50%"
    },
    "containerweight": 100,
    "contentalignment": 5,
    "displaytext": true,
    "focusskin": "sb8c34bc7b6047768dda2a8fc7eef79c",
    "id": "btnSetting",
    "info": null,
    "iphone": {
        "psp": {
            "showProgressIndicator": false
        }
    },
    "isvisible": true,
    "kuid": "e84c868a5e124c2eb6cf81679c325a4f",
    "name": "kony.ui.Button",
    "parent": "flxHeader",
    "pf": "frmEKYCIdpNoActive",
    "showprogressindicator": false,
    "wType": "Button",
    "zindex": 1
}