{
    "@class": "com.kony.gen.viz.model.component.KVizRichText",
    "DNDConfig": null,
    "__parentReadjusting__": false,
    "_height_": {
        "type": "ref",
        "value": "preferred"
    },
    "_left_": {
        "type": "string",
        "value": "0dp"
    },
    "_margin_": [
        0,
        0,
        0,
        0
    ],
    "_padding_": [
        0,
        0,
        0,
        0
    ],
    "_skin_": "s37e72095b854300ba2815953044c1cd",
    "_text_": "",
    "_top_": {
        "type": "string",
        "value": "0dp"
    },
    "_width_": {
        "type": "string",
        "value": "100%"
    },
    "_wrapping_": 2,
    "canUpdateUI": true,
    "containerweight": 100,
    "contentalignment": 5,
    "id": "lblAmountRichtext",
    "info": null,
    "isvisible": false,
    "kuid": "f17e85c38d0a447e8e6ae5c0cb703ea6",
    "linkskin": "sb61fec9e89847ad974d6fee327b9853",
    "name": "kony.ui.RichText",
    "parent": "flexBody",
    "pf": "frmMyQRCode",
    "wType": "RichText",
    "widgetalignment": 5,
    "zindex": 1
}