{
    "@class": "com.kony.gen.viz.model.component.KVizLabel",
    "DNDConfig": null,
    "__parentReadjusting__": false,
    "_height_": {
        "type": "string",
        "value": "9%"
    },
    "_left_": {
        "type": "string",
        "value": "0dp"
    },
    "_margin_": [
        1,
        1,
        1,
        1
    ],
    "_padding_": [
        0,
        0,
        0,
        0
    ],
    "_skin_": "s4a4194f22344efa9e5e2ed3a73b95ab",
    "_text_": "",
    "_top_": {
        "type": "string",
        "value": "-2%"
    },
    "_width_": {
        "type": "string",
        "value": "100%"
    },
    "_wrapping_": 2,
    "android": {
        "textStyle": {
            "letterSpacing": 0,
            "strikeThrough": false
        }
    },
    "canUpdateUI": true,
    "containerweight": 100,
    "contentalignment": 5,
    "id": "lblCustomerNameShareOld",
    "info": null,
    "ipad": {
        "psp": {
            "wrapping": 2
        }
    },
    "iphone": {
        "psp": {
            "wrapping": 2
        }
    },
    "isvisible": false,
    "kuid": "f765f5dd8bfb4edd8e2a90880ac9bd50",
    "name": "kony.ui.Label",
    "parent": "CopyflexBody0dd4c16f8b61b47",
    "pf": "frmMyQRCode",
    "tooltip": "",
    "wType": "Label",
    "zindex": 1
}