{
    "DNDConfig": null,
    "_enabled_": false,
    "_margin_": [
        0,
        1,
        0,
        1
    ],
    "_padding_": [
        0,
        3,
        0,
        3
    ],
    "_skin_": "s837b7d010a34344a18ad40920f91899",
    "_text_": "",
    "canUpdateUI": true,
    "containerweight": 41,
    "contentalignment": 5,
    "desktopweb": {
        "@class": "com.kony.gen.viz.model.component.property.button.DesktopWebButtonProperty",
        "displayText": true,
        "render": true
    },
    "displaytext": true,
    "focusskin": "s837b7d010a34344a18ad40920f91899",
    "hexpand": true,
    "id": "button474139778231524",
    "info": null,
    "isvisible": true,
    "kiosk": {
        "@class": "com.kony.gen.viz.model.component.property.button.KioskButtonProperty",
        "render": true
    },
    "kuid": "p2kwiet2012247641345",
    "margininpixel": false,
    "name": "kony.ui.Button",
    "paddinginpixel": false,
    "parent": "hbox476047582115281",
    "pf": "frmIBCMConfirmEdit",
    "spa": {
        "@class": "com.kony.gen.viz.model.component.property.button.SPAButtonProperty",
        "displayText": true
    },
    "texti18n": "keyRequest",
    "vexpand": false,
    "wType": "Button",
    "widgetalignment": 5
}