{
    "DNDConfig": null,
    "__parentReadjusting__": false,
    "_height_": {
        "type": "string",
        "value": "100%"
    },
    "_left_": {
        "type": "string",
        "value": "-1px"
    },
    "_margin_": [
        0,
        0,
        0,
        0
    ],
    "_orientation_": 6,
    "_padding_": [
        0,
        0,
        0,
        0
    ],
    "_percent_": true,
    "_skin_": "sfba1ee1611548a59789a2310536c97f",
    "_top_": {
        "type": "string",
        "value": "0px"
    },
    "_width_": {
        "type": "string",
        "value": "25%"
    },
    "allboxes": [],
    "autogrowmode": 0,
    "canUpdateUI": true,
    "children": [
        "CopyImage0c4f56ed185944b",
        "LabelLine"
    ],
    "clipbounds": true,
    "containerweight": 100,
    "enablescrolling": true,
    "id": "FlexLine",
    "ide_onClick": "AS_FlexContainer_c29e3d14492c42bbaf8884789e150bdb",
    "info": null,
    "isvisible": true,
    "kuid": "e8445e3cc00a41578987d26b4639aa0d",
    "layouttype": 4,
    "name": "kony.ui.FlexContainer",
    "parent": "hbxShareOption",
    "pf": "frmEDonationPaymentComplete",
    "snapgridsize": 10,
    "snaptogrid": true,
    "wType": "FlexContainer",
    "widgetalignment": 1,
    "zindex": 1
}