{
    "DNDConfig": null,
    "_enabled_": false,
    "_margin_": [
        1,
        0,
        1,
        0
    ],
    "_padding_": [
        0,
        3,
        0,
        3
    ],
    "_skin_": "s1111d9de9274d30b38b435b370df58f",
    "_text_": "",
    "canUpdateUI": true,
    "containerweight": 34,
    "contentalignment": 5,
    "desktopweb": {
        "@class": "com.kony.gen.viz.model.component.property.button.DesktopWebButtonProperty",
        "_margin_": [
            2,
            0,
            0,
            0
        ],
        "_padding_": [
            0,
            0,
            0,
            0
        ],
        "displayText": true,
        "margin": [
            2,
            0,
            0,
            0
        ],
        "marginInPixel": false,
        "padding": [
            0,
            0,
            0,
            0
        ],
        "paddingInPixel": false,
        "render": true
    },
    "displaytext": true,
    "focusskin": "se4414d6c3de4326b43f4d5ade47442d",
    "hexpand": true,
    "id": "btnAmtMinimum",
    "ide_onClick": "p2kwiet2012247640268_btnAmtMinimum_onClick_seq0",
    "info": null,
    "isvisible": true,
    "kiosk": {
        "@class": "com.kony.gen.viz.model.component.property.button.KioskButtonProperty",
        "render": true
    },
    "kuid": "p2kwiet2012247640124",
    "margininpixel": false,
    "name": "kony.ui.Button",
    "paddinginpixel": false,
    "parent": "hbxMinMax",
    "pf": "frmIBBillPaymentLP",
    "spa": {
        "@class": "com.kony.gen.viz.model.component.property.button.SPAButtonProperty",
        "displayText": true
    },
    "texti18n": "keyBillPaymentMinimum",
    "vexpand": false,
    "wType": "Button",
    "widgetalignment": 6
}