{
    "@class": "com.kony.gen.viz.model.component.KVizLabel",
    "DNDConfig": null,
    "_margin_": [
        0,
        0,
        0,
        0
    ],
    "_padding_": [
        1,
        1,
        1,
        1
    ],
    "_skin_": "s1cea515e85b4b3b98c5c8cd183bcc10",
    "_text_": "",
    "_wrapping_": 2,
    "android": {
        "textStyle": {
            "letterSpacing": 0,
            "strikeThrough": false
        }
    },
    "canUpdateUI": true,
    "containerWeightLocked": false,
    "containerweight": 65,
    "contentalignment": 4,
    "desktopweb": {},
    "id": "lblMWAAmtLabel",
    "info": null,
    "ipad": {
        "psp": {
            "wrapping": 2
        }
    },
    "iphone": {
        "psp": {
            "wrapping": 2
        }
    },
    "isvisible": true,
    "kuid": "a98a1766a40142f39131ea565bc2c54d",
    "margininpixel": false,
    "name": "kony.ui.Label",
    "paddInPixel": [
        0,
        0,
        0,
        0
    ],
    "paddinginpixel": false,
    "parent": "hbxMWAAmt",
    "pf": "frmIBBillPaymentLP",
    "tooltip": "",
    "wType": "Label",
    "widgetalignment": 5
}