{
    "DNDConfig": null,
    "_enabled_": false,
    "_margin_": [
        0,
        0,
        0,
        0
    ],
    "_orientation_": 2,
    "_padding_": [
        1,
        1,
        1,
        0
    ],
    "_position_": 3,
    "_resize_": true,
    "_skin_": "s97cc6c86bf047e2b52aaaa0fedee429",
    "allboxes": [],
    "borderCollapse": false,
    "canUpdateUI": true,
    "children": [
        "lblBPTitle",
        "lblBPFrom",
        "hbxFromLabelContainer",
        "hbxFrom",
        "line475152798334920",
        "hbxTo",
        "line10136690395346",
        "hbxRef1",
        "hboxCustomerName",
        "hboxBillNumber",
        "hbxReference2",
        "lineRef1",
        "lineRef2",
        "hbxPenalty",
        "hbxAmount",
        "hbxMWAAmt",
        "hbxHideBtn",
        "line865870963436155",
        "hbxAmountDetailsMEA",
        "hbxDaliyLimit",
        "line1011851788754",
        "hbxMyNote",
        "line1011851788750",
        "hbox1011732624569",
        "line475152798335325",
        "hbxScheduleNickName",
        "hbxAddBillsBeforeSchedule",
        "lineAddBillsBeforeSchedule",
        "btnBPNext",
        "lblDummy"
    ],
    "containerweight": 50,
    "desktopweb": {
        "@class": "com.kony.gen.viz.model.container.property.vbox.DesktopWebVBoxProperty",
        "_padding_": [
            2,
            2,
            2,
            0
        ],
        "padding": [
            2,
            2,
            2,
            0
        ],
        "paddingInPixel": false,
        "render": true
    },
    "id": "vbox507353026213307",
    "info": null,
    "isvisible": true,
    "kiosk": {
        "@class": "com.kony.gen.viz.model.container.property.vbox.KioskVBoxProperty",
        "render": true
    },
    "kuid": "p2kwiet2012247640212",
    "layouttype": 0,
    "margininpixel": false,
    "name": "kony.ui.Box",
    "paddinginpixel": false,
    "parent": "hbxBPMiddleRight",
    "pf": "frmIBBillPaymentLP",
    "spa": {
        "@class": "com.kony.gen.viz.model.container.property.vbox.SPAVBoxProperty"
    },
    "templateType": "forms",
    "wType": "VBox",
    "widgetalignment": 1
}