{
    "DNDConfig": null,
    "_enabled_": false,
    "_margin_": [
        0,
        1,
        0,
        4
    ],
    "_padding_": [
        0,
        1,
        0,
        1
    ],
    "_skin_": "s8088bcff2a940d09a253414fb857192",
    "_text_": "",
    "canUpdateUI": true,
    "containerweight": 100,
    "contentalignment": 5,
    "desktopweb": {
        "@class": "com.kony.gen.viz.model.component.property.button.DesktopWebButtonProperty",
        "displayText": true,
        "render": true
    },
    "displaytext": true,
    "focusskin": "s8088bcff2a940d09a253414fb857192",
    "hexpand": true,
    "id": "button475089374658701",
    "ide_onClick": "p2kwiet2012247650804_button475089374658701_onClick_seq0",
    "info": null,
    "isvisible": false,
    "kiosk": {
        "@class": "com.kony.gen.viz.model.component.property.button.KioskButtonProperty",
        "render": true
    },
    "kuid": "p2kwiet2012247650801",
    "margininpixel": false,
    "name": "kony.ui.Button",
    "paddinginpixel": false,
    "parent": "popupDisplayPicOptionsRecipients",
    "pf": "popupDisplayPicOptionsRecipients",
    "spa": {
        "@class": "com.kony.gen.viz.model.component.property.button.SPAButtonProperty",
        "displayText": true
    },
    "texti18n": "Receipent_delete",
    "vexpand": false,
    "wType": "Button",
    "widgetalignment": 5
}