{
    "DNDConfig": null,
    "__parentReadjusting__": false,
    "_height_": {
        "type": "string",
        "value": "100%"
    },
    "_left_": {
        "type": "string",
        "value": "0dp"
    },
    "_margin_": [
        0,
        0,
        0,
        0
    ],
    "_orientation_": 6,
    "_padding_": [
        0,
        0,
        0,
        0
    ],
    "_percent_": true,
    "_skin_": "sf16386922154a1ea965e4cdf033ea5e",
    "_top_": {
        "type": "string",
        "value": "0dp"
    },
    "_width_": {
        "type": "string",
        "value": "100%"
    },
    "allboxes": [],
    "autogrowmode": 0,
    "canUpdateUI": true,
    "children": [
        "btnCloseAIL",
        "lblUpdateAILHeader",
        "lblUpdateAILHeader2",
        "flexImages",
        "CopyflexImages0id9f8352956245",
        "flexFooterUpdateAIL",
        "Image0d2c1743d7d5844",
        "Label0jd45a5d31d6c4a",
        "flexNoNFC"
    ],
    "clipbounds": true,
    "containerweight": 100,
    "enablescrolling": true,
    "id": "flexIDPPopup",
    "info": null,
    "iscustomlayout": false,
    "isvisible": false,
    "kuid": "ddfb115baffc4558bfc7d26fbffb574c",
    "layouttype": 2,
    "name": "kony.ui.FlexContainer",
    "parent": "frmEKYCIdpDetailsList",
    "pf": "frmEKYCIdpDetailsList",
    "retaincontentalignment": false,
    "retainflexpositionproperties": false,
    "snapgridsize": 10,
    "snaptogrid": true,
    "wType": "FlexContainer",
    "widgetalignment": 1,
    "zindex": 10
}