{
    "DNDConfig": null,
    "__parentReadjusting__": false,
    "_height_": {
        "type": "string",
        "value": "81.0%"
    },
    "_left_": {
        "type": "string",
        "value": "0dp"
    },
    "_margin_": [
        0,
        0,
        0,
        0
    ],
    "_padding_": [
        0,
        0,
        0,
        0
    ],
    "_skin_": "s35553cbdcd64d06b81e2dc5d27f1b06",
    "_top_": {
        "type": "string",
        "value": "0dp"
    },
    "_width_": {
        "type": "string",
        "value": "100%"
    },
    "allboxes": [],
    "allowhorizontalbounce": false,
    "allowverticalbounce": false,
    "android": {
        "@class": "com.kony.gen.viz.model.container.property.scrollflexcontainer.AndroidScrollFlexContainerProperty",
        "render": true
    },
    "bounces": false,
    "canUpdateUI": true,
    "children": [
        "flexNormalImage",
        "flxCardImage",
        "CopyFlexContainer0322a1e7406e447",
        "CopyFlexContainer089cbdb26b09c46",
        "flexbuttonfour",
        "flexbuttonthree",
        "flexbuttontwo",
        "flexbuttonone",
        "flexlinetop",
        "flexLinkMyAcctivities",
        "flexLineStatement",
        "flexLinkStatement",
        "flexLineSavingsCare",
        "flexLinkSavingsCare",
        "flexLineDebitCards",
        "flexLinkDebitCards",
        "flexLineEditBeneficiaries",
        "flexLinkEditBeneficiaries",
        "flexLineApplysoGood",
        "flexLinkApplysoGood",
        "flexLinePointsRdeem",
        "flexLinkPointsRdeem",
        "flexLineManageCreditCard",
        "flexLinkManageCreditCard",
        "flexlinebottom",
        "hbxUseful14",
        "hbxUseful15",
        "hbxUseful1",
        "hbxUseful2",
        "hbxUseful3",
        "hbxUseful4",
        "hbxUseful5",
        "hbxUseful6",
        "hbxUseful7",
        "hbxUseful8",
        "hbxUseful9",
        "hbxUseful10",
        "hbxUseful11",
        "hbxUseful12",
        "hbxUseful13",
        "Copyflexlinebottom0ece6d5355f9943",
        "flexMaturityHeaderone",
        "flexMaturityDisplayHeader",
        "flexMaturityDisplay",
        "hboxBeneficiary",
        "flexBenefiListHeader",
        "flexBenefiList",
        "hbox566614587293709"
    ],
    "containerweight": 100,
    "contentoffset": {},
    "contentsize": {},
    "defaultunit": 2,
    "enablescrolling": true,
    "horizontalscrollindicator": true,
    "id": "FlexScrollContainer0daaa04af3fa445",
    "ide_onScrollStart": "AS_FlexScrollContainer_e130b9abd4b3466599f79e7b6bc72d3d",
    "iphone": {
        "@class": "com.kony.gen.viz.model.container.property.scrollflexcontainer.IPhoneScrollFlexContainerProperty",
        "psp": {
            "bouncesZoom": true,
            "maxZoomScale": 1,
            "minZoomScale": 1,
            "zoomScale": 1
        },
        "render": true
    },
    "isvisible": true,
    "kuid": "p2kwiet2012247626338",
    "layouttype": 4,
    "margininpixel": false,
    "name": "kony.ui.FlexScrollContainer",
    "paddinginpixel": false,
    "pagingenabled": false,
    "parent": "FlexContainer05649d1c0262d4f",
    "pf": "frmAccountDetailsMB",
    "scrolldirection": 2,
    "spa": {
        "@class": "com.kony.gen.viz.model.container.property.scrollflexcontainer.SPAScrollFlexContainerProperty"
    },
    "spaan": {
        "@class": "com.kony.gen.viz.model.container.property.scrollflexcontainer.SPAAndroidScrollFlexContainerProperty",
        "render": true
    },
    "spabb": {
        "@class": "com.kony.gen.viz.model.container.property.scrollflexcontainer.SPABBScrollFlexContainerProperty",
        "render": false
    },
    "spaip": {
        "@class": "com.kony.gen.viz.model.container.property.scrollflexcontainer.SPAIPhoneScrollFlexContainerProperty",
        "render": true
    },
    "spawinphone8": {
        "@class": "com.kony.gen.viz.model.container.property.scrollflexcontainer.SPAWinPhone8ScrollFlexContainerProperty",
        "render": true
    },
    "verticalscrollindicator": true,
    "wType": "FlexScrollContainer",
    "widgetalignment": 1,
    "winphone8": {
        "@class": "com.kony.gen.viz.model.container.property.scrollflexcontainer.WinPhone8ScrollFlexContainerProperty",
        "psp": {
            "enableCache": false
        },
        "render": true
    },
    "zindex": 1
}