{
    "@class": "com.kony.gen.viz.model.component.KVizLabel",
    "DNDConfig": null,
    "__parentReadjusting__": false,
    "_height_": {
        "type": "ref",
        "value": "preferred"
    },
    "_margin_": [
        1,
        1,
        1,
        1
    ],
    "_padding_": [
        0,
        0,
        5,
        0
    ],
    "_skin_": "s2d5156262954847bd66d2253c36a9cf",
    "_text_": "MetroPolitan Electricity Authority",
    "_top_": {
        "type": "string",
        "value": "2dp"
    },
    "_width_": {
        "type": "string",
        "value": "99%"
    },
    "_wrapping_": 2,
    "android": {
        "textStyle": {
            "letterSpacing": 0,
            "strikeThrough": false
        }
    },
    "canUpdateUI": true,
    "containerweight": 100,
    "contentalignment": 3,
    "id": "lblBillerNameVal",
    "info": null,
    "ipad": {
        "psp": {
            "wrapping": 2
        }
    },
    "iphone": {
        "psp": {
            "wrapping": 2
        }
    },
    "isvisible": true,
    "kuid": "gf33a8019eef4e9aa594477790825fec",
    "name": "kony.ui.Label",
    "paddinginpixel": false,
    "parent": "flxAcctBillerFund",
    "pf": "frmUVApprovalMB",
    "tooltip": "",
    "wType": "Label",
    "zindex": 1
}