{
    "DNDConfig": null,
    "_data_": [],
    "_enabled_": false,
    "_indicator_": "none",
    "_margin_": [
        0,
        0,
        0,
        0
    ],
    "_orientation_": 2,
    "_padding_": [
        0,
        0,
        0,
        0
    ],
    "_skin_": "seg2Normal",
    "canUpdateUI": true,
    "containerheightreference": 1,
    "containerweight": 100,
    "context": {
        "channel": "mobile",
        "formID": "AdvancedWidgetsSegements",
        "templateType": "segments",
        "topLevelBox": false
    },
    "counter": 3,
    "desktopweb": {
        "@class": "com.kony.gen.viz.model.container.property.segment2.DesktopWebSegment2Property",
        "_padding_": [
            0,
            0,
            0,
            0
        ],
        "padding": [
            0,
            0,
            0,
            0
        ],
        "paddingInPixel": false,
        "render": true
    },
    "focusedindex": null,
    "focuseditem": null,
    "generatedtemplate": "p2kwiet2012247639667",
    "groupcells": false,
    "hasSections": false,
    "hiddencolumns": {
        "hdnAccType": "text",
        "hdnAccountName": "text",
        "hdnAccountNum": "text",
        "hdnBalacne": "text",
        "hdnBillerCategoryID": "text",
        "hdnBillerCompcode": "text",
        "hdnBillerGroupType": "text",
        "hdnBillerMethod": "text",
        "hdnBillerNameEN": "text",
        "hdnBillerNameTH": "text",
        "hdnChannelCode": "text",
        "hdnIsReqRef2Add": "text",
        "hdnIsReqRef2Pay": "text",
        "hdnLabelRefNum1EN": "text",
        "hdnLabelRefNum1TH": "text",
        "hdnLabelRefNum2EN": "text",
        "hdnLabelRefNum2TH": "text",
        "hdnRef2BB": "text",
        "hdnRef2Data": "text",
        "hdnRef2Type": "text",
        "hdnStatus": "text"
    },
    "id": "segBillersList",
    "ide_onRowClick": "p2kwiet2012247639664_segBillersList_onRowClick_seq0",
    "info": null,
    "isvisible": true,
    "kiosk": {
        "@class": "com.kony.gen.viz.model.container.property.segment2.KioskSegment2Property",
        "render": true
    },
    "kuid": "p2kwiet2012247639633",
    "layoutalignment": 3,
    "layouttype": 0,
    "margininpixel": false,
    "name": "kony.ui.SegmentedUI2",
    "needpageindicator": true,
    "paddinginpixel": false,
    "paginationconfig": {
        "position": "bottom"
    },
    "parent": "scrollBoxBillersList",
    "pf": "frmIBBeepAndBillList",
    "retainselection": true,
    "rowTemplateId": "p2kwiet2012247639667",
    "rowcounter": 2,
    "rowfocusskin": "sf9921663168478e88850b338e726ac3",
    "rowskin": "s01e0182a4d14a4da5e4e707eafeea1b",
    "screenlevelwidget": false,
    "scrollingevents": false,
    "seccounter": 0,
    "sectionheaderskin": "sf9921663168478e88850b338e726ac3",
    "selectedRows": null,
    "selectedState": false,
    "selectedindex": null,
    "selectedindices": null,
    "selecteditems": null,
    "selectedsectionindex": 0,
    "selectionbehavior": "default",
    "selectionbehaviorconfig": {},
    "separatorcolor": "64646400",
    "separatorrequired": false,
    "separatorthickness": 0,
    "showscrollbars": false,
    "spa": {
        "@class": "com.kony.gen.viz.model.container.property.segment2.SPASegment2Property"
    },
    "viewtype": "tableview",
    "wType": "Segment",
    "widgetalignment": 1,
    "widgetdatamap": {
        "hbxBillersRow": "hbxBillersRow",
        "hbxRef1Row": "hbxRef1Row",
        "hbxRef2Row": "hbxRef2Row",
        "imgBillerLogo": "imgBillerLogo",
        "imgBillersRtArrow": "imgBillersRtArrow",
        "lblBillerCompCode": "lblBillerCompCode",
        "lblBillerNickname": "lblBillerNickname",
        "lblRef1": "lblRef1",
        "lblRef1Value": "lblRef1Value",
        "lblRef2": "lblRef2",
        "lblRef2Value": "lblRef2Value",
        "vbox1013461214420": "vbox1013461214420"
    }
}