{
    "DNDConfig": null,
    "_enabled_": false,
    "_margin_": [
        0,
        0,
        0,
        0
    ],
    "_padding_": [
        0,
        0,
        0,
        0
    ],
    "_skin_": "se8e8fd0c6b34a0880bdde480a1b0898",
    "_text_": "",
    "canUpdateUI": true,
    "containerweight": 41,
    "contentalignment": 4,
    "desktopweb": {
        "@class": "com.kony.gen.viz.model.component.property.link.DesktopWebLinkProperty",
        "render": true
    },
    "focusskin": "s16c02cddcd64e21a1c05df2a13c89d2",
    "hexpand": true,
    "id": "linkMore",
    "ide_onClick": "p2kwiet2012247647346_linkMore_onClick_seq0",
    "info": null,
    "isvisible": true,
    "kiosk": {
        "@class": "com.kony.gen.viz.model.component.property.link.KioskLinkProperty",
        "render": true
    },
    "kuid": "p2kwiet2012247647308",
    "margininpixel": false,
    "name": "kony.ui.Link",
    "paddinginpixel": false,
    "parent": "hboxMore",
    "pf": "frmIBPostLoginDashboard",
    "spa": {
        "@class": "com.kony.gen.viz.model.component.property.link.SPALinkProperty"
    },
    "texti18n": "keyIBMoreMyActivities",
    "vexpand": false,
    "wType": "Link",
    "widgetalignment": 1
}