{
    "DNDConfig": null,
    "_data_": [],
    "_enabled_": false,
    "_indicator_": "none",
    "_margin_": [
        0,
        1,
        0,
        0
    ],
    "_orientation_": 2,
    "_padding_": [
        0,
        0,
        0,
        0
    ],
    "_skin_": "seg2Normal",
    "canUpdateUI": true,
    "containerheightreference": 1,
    "containerweight": 100,
    "context": {
        "channel": "mobile",
        "formID": "AdvancedWidgetsSegements",
        "templateType": "segments",
        "topLevelBox": false
    },
    "counter": 3,
    "desktopweb": {
        "@class": "com.kony.gen.viz.model.container.property.segment2.DesktopWebSegment2Property",
        "render": true
    },
    "focusedindex": null,
    "focuseditem": null,
    "generatedtemplate": "",
    "groupcells": false,
    "hasSections": false,
    "hiddencolumns": {
        "lblHidden": "text"
    },
    "id": "segCalendar",
    "ide_onReachingBeginning": "p2kwiet2012247647346_segCalendar_onReachingBegining_seq0",
    "ide_onReachingEnd": "p2kwiet2012247647346_segCalendar_onReachingEnd_seq0",
    "ide_onRowClick": "p2kwiet2012247647346_segCalendar_onRowClick_seq0",
    "info": null,
    "isvisible": true,
    "kiosk": {
        "@class": "com.kony.gen.viz.model.container.property.segment2.KioskSegment2Property",
        "render": true
    },
    "kuid": "p2kwiet2012247647313",
    "layoutalignment": 3,
    "layouttype": 0,
    "margininpixel": false,
    "name": "kony.ui.SegmentedUI2",
    "needpageindicator": true,
    "paddinginpixel": false,
    "paginationconfig": {
        "position": "bottom"
    },
    "parent": "vboxTxnsMain",
    "pf": "frmIBPostLoginDashboard",
    "retainselection": true,
    "rowTemplateId": "",
    "rowcounter": 2,
    "rowfocusskin": "sbbc7f0678bf4c678c40fe82030b9661",
    "rowskin": "s01e0182a4d14a4da5e4e707eafeea1b",
    "screenlevelwidget": true,
    "scrollingevents": false,
    "seccounter": 0,
    "sectionHeaderTemplateId": "p2kwiet2012247652238",
    "sectionheaderskin": "s9bd6d2f2f8c4fce89dae24cc47abe06",
    "sectionheadertemplate": "hboxCalendarSectionHeaderTemplate",
    "selectedRows": null,
    "selectedState": false,
    "selectedindex": null,
    "selectedindices": null,
    "selecteditems": null,
    "selectedsectionindex": 0,
    "selectionbehavior": "default",
    "selectionbehaviorconfig": {},
    "separatorcolor": "64646400",
    "separatorrequired": false,
    "separatorthickness": 0,
    "showscrollbars": false,
    "spa": {
        "@class": "com.kony.gen.viz.model.container.property.segment2.SPASegment2Property"
    },
    "viewtype": "tableview",
    "wType": "Segment",
    "widgetalignment": 1,
    "widgetdatamap": {
        "hboxCalendarSectionHeaderTemplate": "hboxCalendarSectionHeaderTemplate",
        "lblDateHeader": "lblDateHeader",
        "segCalendarSectionHeaderTemplate": "segCalendarSectionHeaderTemplate"
    }
}