{
    "@class": "com.kony.gen.viz.model.container.KVizSegment2",
    "DNDConfig": null,
    "__parentReadjusting__": false,
    "_bounces_": false,
    "_data_": [
        {
            "btnStatus": {
                "@class": "com.viz.ide.model.segment.SimpleTextSegmentData",
                "i18nkey": "MB_RTPStatusActive",
                "text": "Active"
            },
            "imgLogo": {
                "@class": "com.viz.ide.model.segment.ImageSegmentData",
                "src": "myrecpicon.png"
            },
            "lblBillerName": {
                "@class": "com.viz.ide.model.segment.SimpleTextSegmentData",
                "text": "Pat.W"
            },
            "lblBillerNameComp": {
                "@class": "com.viz.ide.model.segment.SimpleTextSegmentData",
                "text": "TMB Credit Card (0069)"
            }
        },
        {
            "btnStatus": {
                "@class": "com.viz.ide.model.segment.SimpleTextSegmentData",
                "i18nkey": "MB_RTPStatusPending",
                "text": ""
            },
            "imgLogo": {
                "@class": "com.viz.ide.model.segment.ImageSegmentData",
                "src": "myrecpicon.png"
            },
            "lblBillerName": {
                "@class": "com.viz.ide.model.segment.SimpleTextSegmentData",
                "text": "Tem.P"
            },
            "lblBillerNameComp": {
                "@class": "com.viz.ide.model.segment.SimpleTextSegmentData",
                "text": "TMB Credit Card (0069)"
            }
        }
    ],
    "_height_": {
        "type": "ref",
        "value": "preferred"
    },
    "_indicator_": "none",
    "_margin_": [
        0,
        0,
        0,
        0
    ],
    "_orientation_": 2,
    "_padding_": [
        0,
        0,
        0,
        0
    ],
    "_width_": {
        "type": "string",
        "value": "100%"
    },
    "autogrowmode": 1,
    "canUpdateUI": true,
    "containerweight": 100,
    "counter": "01",
    "disabledSkins": {
        "rowFocusSkin": "sbbc7f0678bf4c678c40fe82030b9661"
    },
    "focusedindex": null,
    "focuseditem": null,
    "groupcells": false,
    "hasSections": false,
    "id": "segMyBills",
    "info": null,
    "ipad": {
        "psp": {
            "indicator": "rowselect"
        }
    },
    "iphone": {
        "psp": {
            "bounces": false,
            "indicator": "none",
            "showProgressIndicator": false
        }
    },
    "isvisible": true,
    "kuid": "c59da51386b0470b84dc3d3d06577a03",
    "masterdata": {},
    "name": "kony.ui.SegmentedUI2",
    "needpageindicator": true,
    "pageoffdotimage": "pageoffdot.png",
    "pageondotimage": "pageondot.png",
    "paginationconfig": {
        "position": "bottom"
    },
    "parent": "flxList",
    "pf": "frmMBRTPBillerSettings",
    "retainselection": false,
    "rowTemplateId": "e8bc94cb894b4b86a690c45a1d3ca613",
    "rowcounter": 1,
    "rowskin": "s01e0182a4d14a4da5e4e707eafeea1b",
    "rowtemplate": "flxRTPMyBills",
    "screenlevelwidget": false,
    "seccounter": 0,
    "sectionheaderskin": "s8bfadf7251c4abfa23d31af10ef7493",
    "selectedRows": null,
    "selectedState": false,
    "selectedindex": null,
    "selectedindices": null,
    "selecteditems": null,
    "selectedsectionindex": 0,
    "selectionbehavior": "default",
    "separatorrequired": false,
    "showprogressindicator": false,
    "showscrollbars": false,
    "viewtype": "tableview",
    "wType": "Segment",
    "widgetalignment": 5,
    "widgetdatamap": {
        "btnStatus": "btnStatus",
        "flxBillsNmae": "flxBillsNmae",
        "flxDetails": "flxDetails",
        "flxLine": "flxLine",
        "flxRTPMyBills": "flxRTPMyBills",
        "imgLogo": "imgLogo",
        "lblBillerName": "lblBillerName",
        "lblBillerNameComp": "lblBillerNameComp"
    },
    "zindex": 1
}