{
    "@class": "com.kony.gen.viz.model.component.KVizTextBox2",
    "DNDConfig": null,
    "__parentReadjusting__": false,
    "_height_": {
        "type": "string",
        "value": "100%"
    },
    "_margin_": [
        0,
        0,
        0,
        0
    ],
    "_padding_": [
        2,
        0,
        0,
        0
    ],
    "_placeholder_": "",
    "_skin_": "s367b19f772e450c9277149c3af5f253",
    "_text_": "",
    "_width_": {
        "type": "string",
        "value": "88%"
    },
    "autocapitalize": "none",
    "autocomplete": false,
    "autocorrect": false,
    "autofilter": false,
    "canUpdateUI": true,
    "centery": {
        "type": "string",
        "value": "50%"
    },
    "containerheight": "",
    "containerheightmode": 1,
    "containerweight": 100,
    "contentalignment": 4,
    "focusskin": "s367b19f772e450c9277149c3af5f253",
    "id": "txtSearch",
    "ide_onTouchStart": "AS_FlexContainer_f99615a3678746f09763155acb277fe6",
    "info": null,
    "iphone": {},
    "isvisible": true,
    "keyboardtype": "A",
    "kuid": "b8254e5c12e94edcb4874ff449038b83",
    "mode": "A",
    "name": "kony.ui.TextBox2",
    "paddinginpixel": false,
    "parent": "flxTxtSearch",
    "pf": "frmMBRTPBillerSettings",
    "placeholderi18n": "keySearch",
    "placeholderskin": "s1610dfe304c4e7297b7c35bc12fd85d",
    "securetextentry": false,
    "textinputmode": "A",
    "viewtype": "default",
    "wType": "TextField",
    "zindex": 1
}