{
    "@class": "com.kony.gen.viz.model.container.KVizSegment2",
    "DNDConfig": null,
    "__parentReadjusting__": false,
    "_bounces_": false,
    "_data_": [
        {
            "CopyLabel0a6ae87640b1b46": {
                "@class": "com.viz.ide.model.segment.SimpleTextSegmentData",
                "i18nkey": "FIN01_txtDes",
                "text": ""
            },
            "Label0e0c8fd24d22945": {
                "@class": "com.viz.ide.model.segment.SimpleTextSegmentData",
                "i18nkey": "FIN01_txtTopic",
                "text": ""
            },
            "imageTutorial": {
                "@class": "com.viz.ide.model.segment.ImageSegmentData",
                "src": "actsuccess.png"
            },
            "richTextActication": {
                "@class": "com.viz.ide.model.segment.SimpleTextSegmentData",
                "i18nkey": "FIN01_txtDes",
                "text": ""
            }
        },
        {
            "CopyLabel0a6ae87640b1b46": {
                "@class": "com.viz.ide.model.segment.SimpleTextSegmentData",
                "i18nkey": "FIN02_txtDes",
                "text": ""
            },
            "Label0e0c8fd24d22945": {
                "@class": "com.viz.ide.model.segment.SimpleTextSegmentData",
                "i18nkey": "FIN02_txtTopic",
                "text": ""
            },
            "imageTutorial": {
                "@class": "com.viz.ide.model.segment.ImageSegmentData",
                "src": "tmbconfirm.png"
            },
            "richTextActication": {
                "@class": "com.viz.ide.model.segment.SimpleTextSegmentData",
                "i18nkey": "FIN02_txtDes",
                "text": ""
            }
        },
        {
            "CopyLabel0a6ae87640b1b46": {
                "@class": "com.viz.ide.model.segment.SimpleTextSegmentData",
                "i18nkey": "FIN03_txtDes",
                "text": ""
            },
            "Label0e0c8fd24d22945": {
                "@class": "com.viz.ide.model.segment.SimpleTextSegmentData",
                "i18nkey": "FIN03_txtTopic",
                "text": ""
            },
            "imageTutorial": {
                "@class": "com.viz.ide.model.segment.ImageSegmentData",
                "src": "carlesswithdraw.png"
            },
            "richTextActication": {
                "@class": "com.viz.ide.model.segment.SimpleTextSegmentData",
                "i18nkey": "FIN03_txtDes",
                "text": ""
            }
        }
    ],
    "_height_": {
        "type": "string",
        "value": "95%"
    },
    "_indicator_": "none",
    "_left_": {
        "type": "string",
        "value": "0dp"
    },
    "_margin_": [
        0,
        0,
        0,
        0
    ],
    "_orientation_": 2,
    "_padding_": [
        0,
        0,
        0,
        0
    ],
    "_top_": {
        "type": "string",
        "value": "0dp"
    },
    "_width_": {
        "type": "string",
        "value": "100%"
    },
    "autogrowmode": 0,
    "canUpdateUI": true,
    "containerweight": 100,
    "counter": "02",
    "disabledSkins": {},
    "focusedindex": null,
    "focuseditem": null,
    "groupcells": false,
    "hasSections": false,
    "id": "segRegActivation",
    "ide_onSwipe": "AS_Segment_e0e578056c8d4e93adbe65b990bdeb4a",
    "info": null,
    "invokedProperty": "pageOffDotImage",
    "ipad": {
        "psp": {
            "indicator": "rowselect"
        }
    },
    "iphone": {
        "psp": {
            "bounces": false,
            "indicator": "rowselect"
        },
        "viewType": "pageview"
    },
    "isvisible": true,
    "kuid": "b6506a286a974ed5896eab286a7950b2",
    "masterdata": {},
    "name": "kony.ui.SegmentedUI2",
    "needpageindicator": true,
    "pageoffdotimage": "key_default.png",
    "pageondotimage": "key_sel.png",
    "paginationconfig": {
        "position": "bottom",
        "vdistance": 1
    },
    "parent": "flexBody",
    "pf": "frmRegActivationSuccess",
    "retainselection": false,
    "rowTemplateId": "b8b37d4faf42423188d725b9a23d5ea9",
    "rowcounter": 2,
    "rowfocusskin": "sa210dd8f8314cf581d230b3d99ab471",
    "rowskin": "s02d09af8efb47008a962eda1488d0ea",
    "rowtemplate": "FlexContainer0e9010cd523ab4e",
    "screenlevelwidget": false,
    "seccounter": 0,
    "sectionheaderskin": "s8bfadf7251c4abfa23d31af10ef7493",
    "selectedRows": null,
    "selectedState": false,
    "selectedindex": null,
    "selectedindices": null,
    "selecteditems": null,
    "selectedsectionindex": 0,
    "selectionbehavior": "default",
    "separatorrequired": true,
    "separatorthickness": 0,
    "showscrollbars": false,
    "swipeContext": {
        "currentPage": 0,
        "imageWidth": 1112,
        "widthRatio": 0
    },
    "viewtype": "pageview",
    "wType": "Segment",
    "widgetalignment": 5,
    "widgetdatamap": {
        "CopyLabel0a6ae87640b1b46": "CopyLabel0a6ae87640b1b46",
        "FlexContainer0e9010cd523ab4e": "FlexContainer0e9010cd523ab4e",
        "Label0e0c8fd24d22945": "Label0e0c8fd24d22945",
        "imageTutorial": "imageTutorial",
        "richTextActication": "richTextActication"
    },
    "zindex": 1
}