{
    "DNDConfig": null,
    "__markedForDelete__": true,
    "_enabled_": false,
    "_margin_": [
        0,
        4,
        0,
        0
    ],
    "_padding_": [
        0,
        3,
        0,
        3
    ],
    "_skin_": "s058985cb3404f0b9ea940131de41a58",
    "_text_": "Log In with QR Code",
    "canUpdateUI": true,
    "containerweight": 100,
    "contentalignment": 5,
    "desktopweb": {
        "@class": "com.kony.gen.viz.model.component.property.button.DesktopWebButtonProperty",
        "displayText": true,
        "render": true
    },
    "displaytext": true,
    "focusskin": "sc8552921e81402e836a92bbb1db6292",
    "hexpand": true,
    "id": "btnQRLogin",
    "ide_onClick": "AS_Button_aff2be0e7b474ca0a6dae166dd1982c6",
    "info": null,
    "isvisible": true,
    "kiosk": {
        "@class": "com.kony.gen.viz.model.component.property.button.KioskButtonProperty",
        "render": true
    },
    "kuid": "a0aefc6bad884fe8a859c736883f5e08",
    "margininpixel": false,
    "name": "kony.ui.Button",
    "paddInPixel": [
        0,
        12.6,
        0,
        12.6
    ],
    "paddinginpixel": false,
    "parent": "vbox",
    "pf": "frmIBPreLogin",
    "spa": {
        "@class": "com.kony.gen.viz.model.component.property.button.SPAButtonProperty",
        "displayText": true
    },
    "texti18n": "IB_btnQR",
    "vexpand": true,
    "wType": "Button",
    "widgetalignment": 5
}
