{
    "DNDConfig": null,
    "_base64_": null,
    "_enabled_": false,
    "_margin_": [
        0,
        0,
        5,
        0
    ],
    "_padding_": [
        0,
        0,
        0,
        0
    ],
    "_skin_": "s74407cc01df451c9a740ebe48f853eb",
    "_text_": "",
    "canUpdateUI": true,
    "containerweight": 5,
    "contentalignment": 5,
    "desktopweb": {
        "@class": "com.kony.gen.viz.model.component.property.image2.DesktopWebImage2Property",
        "_margin_": [
            0,
            0,
            5,
            0
        ],
        "_padding_": [
            0,
            0,
            0,
            0
        ],
        "margin": [
            0,
            0,
            5,
            0
        ],
        "marginInPixel": false,
        "padding": [
            0,
            0,
            0,
            0
        ],
        "paddingInPixel": false,
        "render": false
    },
    "hexpand": false,
    "id": "imgXferArrow",
    "imagescalemode": 1,
    "info": null,
    "isvisible": false,
    "kiosk": {
        "@class": "com.kony.gen.viz.model.component.property.image2.KioskImage2Property",
        "render": true
    },
    "kuid": "p2kwiet2012247652152",
    "margininpixel": false,
    "name": "kony.ui.Image2",
    "paddinginpixel": false,
    "parent": "hbxXferSegmentInitial",
    "pf": "IBXferSegmentInitial",
    "spa": {
        "@class": "com.kony.gen.viz.model.component.property.image2.SPAImage2Property"
    },
    "srcType": 1,
    "vexpand": false,
    "wType": "Image",
    "widgetalignment": 6
}