{
    "DNDConfig": null,
    "_enabled_": false,
    "_margin_": [
        0,
        0,
        0,
        0
    ],
    "_padding_": [
        0,
        3,
        0,
        3
    ],
    "_skin_": "sa3e60c5e4734bebbfbac381f3759a04",
    "_text_": "",
    "canUpdateUI": true,
    "containerweight": 26,
    "contentalignment": 5,
    "desktopweb": {
        "@class": "com.kony.gen.viz.model.component.property.button.DesktopWebButtonProperty",
        "_margin_": [
            0,
            0,
            0,
            0
        ],
        "_padding_": [
            0,
            0,
            0,
            3
        ],
        "contentAlignment": 5,
        "displayText": true,
        "margin": [
            0,
            0,
            0,
            0
        ],
        "marginInPixel": false,
        "padding": [
            0,
            0,
            0,
            3
        ],
        "paddingInPixel": false,
        "psp": {
            "hoverSkin": "sa3e60c5e4734bebbfbac381f3759a04"
        },
        "render": true
    },
    "displaytext": true,
    "focusskin": "sa3e60c5e4734bebbfbac381f3759a04",
    "hexpand": true,
    "id": "btnOrderToBProceed",
    "ide_onClick": "p2kwiet2012247643906_btnOrderToBProceed_onClick_seq0",
    "info": null,
    "isvisible": true,
    "kuid": "p2kwiet2012247643884",
    "margininpixel": false,
    "name": "kony.ui.Button",
    "paddinginpixel": false,
    "parent": "hbox589518614375692",
    "pf": "frmIBMFAcctOrderToBProceed",
    "spa": {
        "@class": "com.kony.gen.viz.model.component.property.button.SPAButtonProperty",
        "displayText": true
    },
    "texti18n": "MF_lbl_Order_tobe_process",
    "vexpand": false,
    "wType": "Button",
    "widgetalignment": 5
}