{
    "@class": "com.kony.gen.viz.model.container.KVizSegment2",
    "DNDConfig": null,
    "_data_": [
        [
            {
                "btndelete": {
                    "@class": "com.viz.ide.model.segment.SimpleTextSegmentData",
                    "text": ""
                },
                "lblAmountval": {
                    "@class": "com.viz.ide.model.segment.SimpleTextSegmentData",
                    "text": "Amount (B)"
                },
                "lblEfftDateval": {
                    "@class": "com.viz.ide.model.segment.SimpleTextSegmentData",
                    "text": "Effective Date"
                },
                "lblItemNoval": {
                    "@class": "com.viz.ide.model.segment.SimpleTextSegmentData",
                    "i18nkey": "MF_thr_Order_no",
                    "text": "Order No"
                },
                "lblOrderDateval": {
                    "@class": "com.viz.ide.model.segment.SimpleTextSegmentData",
                    "text": "Order Date"
                },
                "lblUnitval": {
                    "@class": "com.viz.ide.model.segment.SimpleTextSegmentData",
                    "text": "Unit"
                },
                "lblblank": {
                    "@class": "com.viz.ide.model.segment.SimpleTextSegmentData",
                    "text": ""
                },
                "lblchannelHubval": {
                    "@class": "com.viz.ide.model.segment.SimpleTextSegmentData",
                    "text": "Channel"
                },
                "lblstatusHubval": {
                    "@class": "com.viz.ide.model.segment.SimpleTextSegmentData",
                    "text": "Status"
                },
                "lbltranTypeHubval": {
                    "@class": "com.viz.ide.model.segment.SimpleTextSegmentData",
                    "text": "Trans."
                }
            },
            [
                {
                    "btndelete": {
                        "@class": "com.viz.ide.model.segment.SimpleTextSegmentData",
                        "text": "Button"
                    },
                    "lblAmountval": {
                        "@class": "com.viz.ide.model.segment.SimpleTextSegmentData",
                        "text": "Label"
                    },
                    "lblEfftDateval": {
                        "@class": "com.viz.ide.model.segment.SimpleTextSegmentData",
                        "text": "Label"
                    },
                    "lblItemNoval": {
                        "@class": "com.viz.ide.model.segment.SimpleTextSegmentData",
                        "text": "Label"
                    },
                    "lblOrderDateval": {
                        "@class": "com.viz.ide.model.segment.SimpleTextSegmentData",
                        "text": "Label"
                    },
                    "lblUnitval": {
                        "@class": "com.viz.ide.model.segment.SimpleTextSegmentData",
                        "text": "Label"
                    },
                    "lblblank": {
                        "@class": "com.viz.ide.model.segment.SimpleTextSegmentData",
                        "text": "Label"
                    },
                    "lblchannelHubval": {
                        "@class": "com.viz.ide.model.segment.SimpleTextSegmentData",
                        "text": "Label"
                    },
                    "lblstatusHubval": {
                        "@class": "com.viz.ide.model.segment.SimpleTextSegmentData",
                        "text": "Label"
                    },
                    "lbltranTypeHubval": {
                        "@class": "com.viz.ide.model.segment.SimpleTextSegmentData",
                        "text": "Label"
                    }
                },
                {
                    "btndelete": {
                        "@class": "com.viz.ide.model.segment.SimpleTextSegmentData",
                        "text": "Button"
                    },
                    "lblAmountval": {
                        "@class": "com.viz.ide.model.segment.SimpleTextSegmentData",
                        "text": "Label"
                    },
                    "lblEfftDateval": {
                        "@class": "com.viz.ide.model.segment.SimpleTextSegmentData",
                        "text": "Label"
                    },
                    "lblItemNoval": {
                        "@class": "com.viz.ide.model.segment.SimpleTextSegmentData",
                        "text": "Label"
                    },
                    "lblOrderDateval": {
                        "@class": "com.viz.ide.model.segment.SimpleTextSegmentData",
                        "text": "Label"
                    },
                    "lblUnitval": {
                        "@class": "com.viz.ide.model.segment.SimpleTextSegmentData",
                        "text": "Label"
                    },
                    "lblblank": {
                        "@class": "com.viz.ide.model.segment.SimpleTextSegmentData",
                        "text": "Label"
                    },
                    "lblchannelHubval": {
                        "@class": "com.viz.ide.model.segment.SimpleTextSegmentData",
                        "text": "Label"
                    },
                    "lblstatusHubval": {
                        "@class": "com.viz.ide.model.segment.SimpleTextSegmentData",
                        "text": "Label"
                    },
                    "lbltranTypeHubval": {
                        "@class": "com.viz.ide.model.segment.SimpleTextSegmentData",
                        "text": "Label"
                    }
                },
                {
                    "btndelete": {
                        "@class": "com.viz.ide.model.segment.SimpleTextSegmentData",
                        "text": "Button"
                    },
                    "lblAmountval": {
                        "@class": "com.viz.ide.model.segment.SimpleTextSegmentData",
                        "text": "Label"
                    },
                    "lblEfftDateval": {
                        "@class": "com.viz.ide.model.segment.SimpleTextSegmentData",
                        "text": "Label"
                    },
                    "lblItemNoval": {
                        "@class": "com.viz.ide.model.segment.SimpleTextSegmentData",
                        "text": "Label"
                    },
                    "lblOrderDateval": {
                        "@class": "com.viz.ide.model.segment.SimpleTextSegmentData",
                        "text": "Label"
                    },
                    "lblUnitval": {
                        "@class": "com.viz.ide.model.segment.SimpleTextSegmentData",
                        "text": "Label"
                    },
                    "lblblank": {
                        "@class": "com.viz.ide.model.segment.SimpleTextSegmentData",
                        "text": "Label"
                    },
                    "lblchannelHubval": {
                        "@class": "com.viz.ide.model.segment.SimpleTextSegmentData",
                        "text": "Label"
                    },
                    "lblstatusHubval": {
                        "@class": "com.viz.ide.model.segment.SimpleTextSegmentData",
                        "text": "Label"
                    },
                    "lbltranTypeHubval": {
                        "@class": "com.viz.ide.model.segment.SimpleTextSegmentData",
                        "text": "Label"
                    }
                }
            ]
        ]
    ],
    "_indicator_": "none",
    "_margin_": [
        0,
        0,
        0,
        0
    ],
    "_orientation_": 2,
    "_padding_": [
        0,
        0,
        0,
        0
    ],
    "alternaterowskin": "s02d09af8efb47008a962eda1488d0ea",
    "canUpdateUI": true,
    "containerweight": 100,
    "counter": "02",
    "focusedindex": null,
    "focuseditem": null,
    "generatedtemplate": "ha13cea3069846d39cb7194a38010e8b",
    "groupcells": false,
    "hasSections": true,
    "id": "segOrder",
    "info": null,
    "ipad": {
        "psp": {
            "indicator": "rowselect"
        }
    },
    "iphone": {
        "psp": {
            "indicator": "rowselect"
        }
    },
    "isvisible": true,
    "kuid": "ff46b9bce320443d9c40de7f91eeb707",
    "masterdata": {},
    "name": "kony.ui.SegmentedUI2",
    "needpageindicator": true,
    "pageoffdotimage": "pageoffdot.png",
    "pageondotimage": "pageondot.png",
    "paginationconfig": {
        "position": "bottom"
    },
    "parent": "vbxXferMiddleRight",
    "pf": "frmIBMFAcctOrderToBProceed",
    "retainselection": false,
    "rowTemplateId": "c412b535963f4cc4a4dbfc7187f02deb",
    "rowcounter": 2,
    "rowfocusskin": "sbbc7f0678bf4c678c40fe82030b9661",
    "rowskin": "s009bc538a8e4cf18a5af25fd740374b",
    "rowtemplate": "HBxorderList",
    "screenlevelwidget": false,
    "seccounter": 0,
    "sectionHeaderTemplateId": "dcb229e4d3754bab9f6a86757fa23432",
    "sectionheaderskin": "s8bfadf7251c4abfa23d31af10ef7493",
    "sectionheadertemplate": "CopyHBxorderList0db352010bcba49",
    "selectedRows": null,
    "selectedState": false,
    "selectedindex": null,
    "selectedindices": null,
    "selecteditems": null,
    "selectedsectionindex": 0,
    "selectionbehavior": "default",
    "separatorcolor": "eeeeee00",
    "separatorrequired": true,
    "separatorthickness": 1,
    "showscrollbars": false,
    "viewtype": "tableview",
    "wType": "Segment",
    "widgetalignment": 5,
    "widgetdatamap": {
        "CopyHBxorderList0db352010bcba49": "CopyHBxorderList0db352010bcba49",
        "HBxorderList": "HBxorderList",
        "btndelete": "btndelete",
        "lblAmountval": "lblAmountval",
        "lblEfftDateval": "lblEfftDateval",
        "lblItemNoval": "lblItemNoval",
        "lblOrderDateval": "lblOrderDateval",
        "lblUnitval": "lblUnitval",
        "lblblank": "lblblank",
        "lblchannelHubval": "lblchannelHubval",
        "lblstatusHubval": "lblstatusHubval",
        "lbltranTypeHubval": "lbltranTypeHubval"
    }
}