{
    "@class": "com.kony.gen.viz.model.container.KVizVBox",
    "DNDConfig": null,
    "_margin_": [
        0,
        0,
        0,
        0
    ],
    "_orientation_": 2,
    "_padding_": [
        0,
        0,
        0,
        0
    ],
    "_percent_": true,
    "_position_": 3,
    "_skin_": "s0e13ed4077f481ab090dae6b2e595ed",
    "allboxes": [],
    "canUpdateUI": true,
    "children": [
        "lblLoadingtext",
        "HBox0d8549f80d1c246"
    ],
    "containerweight": 100,
    "contextmenu": null,
    "id": "VBox0c8185e1469464b",
    "info": null,
    "isvisible": true,
    "kuid": "c9a7cb308612439f8222921737e3790b",
    "layouttype": 0,
    "name": "kony.ui.Box",
    "paddInPixel": [
        0,
        0,
        0,
        0
    ],
    "parent": "HboxLoading",
    "pf": "frmIBMFAcctOrderToBProceed",
    "wType": "VBox",
    "widgetalignment": 1
}