{
    "@class": "com.kony.gen.viz.model.container.KVizHBox",
    "DNDConfig": null,
    "_margin_": [
        0,
        0,
        0,
        0
    ],
    "_orientation_": 1,
    "_padding_": [
        0,
        0,
        0,
        0
    ],
    "_percent_": true,
    "_position_": 3,
    "_skin_": "s3240d32b9a74cc78d1e0768cd2cdf1b",
    "allboxes": [],
    "canUpdateUI": true,
    "children": [
        "CopyLabel0f26a2301672240"
    ],
    "containerweight": 100,
    "contextmenu": null,
    "id": "CopyHBox0bb22b3bc2a5340",
    "info": null,
    "iscustomlayout": false,
    "isvisible": true,
    "kuid": "f599d701ff724883961a939c5627e09a",
    "layouttype": 0,
    "name": "kony.ui.Box",
    "parent": "VBox0f3f109a184c94c",
    "pf": "segSliderNew2",
    "retaincontentalignment": false,
    "retainflexpositionproperties": false,
    "wType": "HBox",
    "widgetalignment": 1
}