{
    "@class": "com.kony.gen.viz.model.container.KVizVBox",
    "DNDConfig": null,
    "_margin_": [
        0,
        0,
        0,
        0
    ],
    "_orientation_": 2,
    "_padding_": [
        0,
        0,
        0,
        0
    ],
    "_percent_": true,
    "_position_": 3,
    "_skin_": "s0e13ed4077f481ab090dae6b2e595ed",
    "allboxes": [],
    "canUpdateUI": true,
    "children": [
        "CopyHBox0bb22b3bc2a5340"
    ],
    "containerId": true,
    "containerweight": 3,
    "contextmenu": null,
    "donotUpdateContainerWeight": false,
    "id": "VBox0f3f109a184c94c",
    "info": null,
    "iscustomlayout": false,
    "isvisible": true,
    "kuid": "de0ef62ce4d846679a424a4cc3b58bad",
    "layouttype": 0,
    "name": "kony.ui.Box",
    "paddInPixel": [
        0,
        0,
        0,
        0
    ],
    "parent": "hbxSliderNew2",
    "pf": "segSliderNew2",
    "retaincontentalignment": false,
    "retainflexpositionproperties": false,
    "templateType": "forms",
    "wType": "VBox",
    "widgetalignment": 1
}