{
    "DNDConfig": null,
    "_enabled_": false,
    "_margin_": [
        0,
        0,
        0,
        0
    ],
    "_orientation_": 2,
    "_position_": 3,
    "_resize_": true,
    "_skin_": "s539cb0fb5bb441993d5ee076ca8b897",
    "allboxes": [],
    "borderCollapse": false,
    "canUpdateUI": true,
    "children": [
        "hbxHeader",
        "hbxBtns",
        "hbxSuccess",
        "Fromaccount",
        "hbxFrom",
        "hbxBalanceafterPayment",
        "headerLine",
        "hbxTo",
        "lblTransferDet",
        "hbxPaymentAmount",
        "hbxFee",
        "hbxDueDate",
        "hbxXfer",
        "hbxTxnId",
        "hbxTRN",
        "hbxBtn"
    ],
    "containerweight": 100,
    "desktopweb": {
        "@class": "com.kony.gen.viz.model.container.property.vbox.DesktopWebVBoxProperty",
        "_padding_": [
            0,
            0,
            0,
            0
        ],
        "padding": [
            0,
            0,
            0,
            0
        ],
        "paddingInPixel": false,
        "render": true
    },
    "focusskin": "s539cb0fb5bb441993d5ee076ca8b897",
    "id": "vbxConfirm",
    "info": null,
    "isvisible": true,
    "kiosk": {
        "@class": "com.kony.gen.viz.model.container.property.vbox.KioskVBoxProperty",
        "render": true
    },
    "kuid": "p2kwiet2012247639570",
    "layouttype": 0,
    "margininpixel": false,
    "name": "kony.ui.Box",
    "parent": "hboxScreenLevel2",
    "pf": "frmIBBeepAndBillExecutedTxn",
    "spa": {
        "@class": "com.kony.gen.viz.model.container.property.vbox.SPAVBoxProperty"
    },
    "templateType": "forms",
    "wType": "VBox",
    "widgetalignment": 1
}