{
    "@class": "com.kony.gen.viz.model.component.KVizButton",
    "DNDConfig": null,
    "__parentReadjusting__": false,
    "_height_": {
        "type": "string",
        "value": "5%"
    },
    "_margin_": [
        6,
        6,
        6,
        6
    ],
    "_padding_": [
        0,
        0,
        0,
        0
    ],
    "_right_": {
        "type": "string",
        "value": "4%"
    },
    "_skin_": "sc1c6d943f5c4644879aed96ec02ef36",
    "_text_": "X",
    "_top_": {
        "type": "string",
        "value": "2%"
    },
    "_width_": {
        "type": "string",
        "value": "10%"
    },
    "canUpdateUI": true,
    "containerweight": 100,
    "contentalignment": 5,
    "disabledSkins": {
        "focusSkin": "sb03125d6967435d9bab3829bc2d31d6"
    },
    "displaytext": true,
    "id": "btnClose",
    "info": null,
    "iscustomlayout": false,
    "isvisible": true,
    "kuid": "id7b07045140408787da685f4ee34f55",
    "name": "kony.ui.Button",
    "parent": "flexHowtoverifyPopup",
    "pf": "frmMBeKycAppVerification",
    "retaincontentalignment": false,
    "retainflexpositionproperties": false,
    "wType": "Button",
    "zindex": 1
}