{
    "@class": "com.kony.gen.viz.model.component.KVizButton",
    "DNDConfig": null,
    "__parentReadjusting__": false,
    "_height_": {
        "type": "ref",
        "value": "preferred"
    },
    "_margin_": [
        6,
        6,
        6,
        6
    ],
    "_padding_": [
        0,
        0,
        0,
        0
    ],
    "_skin_": "s0b75b761b3a482aac24f43680f70b2a",
    "_text_": "Learn about FATCA",
    "_top_": {
        "type": "string",
        "value": "2%"
    },
    "_width_": {
        "type": "string",
        "value": "50%"
    },
    "canUpdateUI": true,
    "centerx": {
        "type": "string",
        "value": "50%"
    },
    "containerweight": 100,
    "contentalignment": 5,
    "disabledSkins": {
        "focusSkin": "sb03125d6967435d9bab3829bc2d31d6"
    },
    "displaytext": true,
    "id": "btnLearnFatca",
    "info": null,
    "iscustomlayout": false,
    "isvisible": true,
    "kuid": "ab0a02effddb4f94b653aaffb807648c",
    "name": "kony.ui.Button",
    "parent": "flexSetpsFatca",
    "pf": "frmMBeKycAppVerification",
    "retaincontentalignment": false,
    "retainflexpositionproperties": false,
    "wType": "Button",
    "zindex": 1
}