{
    "DNDConfig": null,
    "_enabled_": false,
    "_margin_": [
        0,
        0,
        0,
        0
    ],
    "_orientation_": 2,
    "_padding_": [
        0,
        0,
        0,
        0
    ],
    "_percent_": true,
    "_position_": 3,
    "_resize_": true,
    "_skin_": "sa8c00f61daa4923a5bd013a081b3932",
    "allboxes": [],
    "android": {
        "@class": "com.kony.gen.viz.model.container.property.scrollbox.AndroidScrollBoxProperty",
        "_position_": 3,
        "enableScrollByPage": false,
        "position": 3,
        "render": true,
        "showScrollbars": true,
        "undefined": false
    },
    "canUpdateUI": true,
    "children": [
        "hbxHdrCommon",
        "hbxArrow",
        "hboxaddfblist",
        "hbxCompIcon",
        "lblGreetingNS",
        "hboxSubHeadr",
        "hbxNickName",
        "hbxProdType",
        "hbxAccuntNo",
        "hbox47420125326014",
        "hbxBranch",
        "hbxOpenAmt",
        "hbxIntrstRate",
        "hbxOpenDate",
        "hbxCardType",
        "hbxCardFee",
        "hbxTransRefNo",
        "line448366816409",
        "lblOpenAccountFrom",
        "hbxNoFix",
        "lineAboveAddress",
        "lblAddressHeader",
        "lblHdrContactAddr",
        "hbxAddress",
        "lineBelowAddress",
        "hbxCannotTrans",
        "hbxOpenActNotify",
        "hbxAdv",
        "hbxCommon",
        "hbxCnfrmCncl",
        "hboxBackMore",
        "HBox0d16e54a11a3741"
    ],
    "containerheight": 100,
    "containerheightreference": 1,
    "containerweight": 100,
    "enablescrollbypage": false,
    "id": "sboxRight",
    "info": null,
    "iphone": {
        "@class": "com.kony.gen.viz.model.container.property.scrollbox.IPhoneScrollBoxProperty",
        "_margin_": [
            0,
            0,
            0,
            0
        ],
        "_position_": 3,
        "enableScrollByPage": false,
        "margin": [
            0,
            0,
            0,
            0
        ],
        "marginInPixel": false,
        "position": 3,
        "psp": {
            "bounces": true
        },
        "render": true,
        "showScrollbars": true,
        "undefined": false
    },
    "isvisible": true,
    "kuid": "p2kwiet2012247635372",
    "layoutalignment": 3,
    "margininpixel": false,
    "name": "kony.ui.ScrollBox",
    "paddinginpixel": false,
    "parent": "vbxContainer",
    "pf": "frmOpenAccountNSConfirmation",
    "scrollbar": "scrollbar",
    "scrolldirection": 2,
    "scrollingevents": null,
    "showscrollbars": true,
    "spa": {
        "@class": "com.kony.gen.viz.model.container.property.scrollbox.SPAScrollBoxProperty",
        "psp": {
            "scrollArrowConfig": [
                null,
                null,
                null,
                null
            ]
        }
    },
    "spaan": {
        "@class": "com.kony.gen.viz.model.container.property.scrollbox.SPAAndroidScrollBoxProperty",
        "render": true
    },
    "spabb": {
        "@class": "com.kony.gen.viz.model.container.property.scrollbox.SPABBScrollBoxProperty",
        "render": true
    },
    "spaip": {
        "@class": "com.kony.gen.viz.model.container.property.scrollbox.SPAIPhoneScrollBoxProperty",
        "render": true
    },
    "spawinphone8": {
        "@class": "com.kony.gen.viz.model.container.property.scrollbox.SPAWinPhone8ScrollBoxProperty",
        "render": true
    },
    "templateType": "forms",
    "totalWt": 3100,
    "wType": "ScrollBox",
    "widgetalignment": 1,
    "winphone8": {
        "@class": "com.kony.gen.viz.model.container.property.scrollbox.WinPhone8ScrollBoxProperty",
        "_margin_": [
            0,
            0,
            0,
            0
        ],
        "_position_": 3,
        "margin": [
            0,
            0,
            0,
            0
        ],
        "marginInPixel": false,
        "position": 3,
        "psp": {
            "enableCache": false
        },
        "render": true
    }
}