{
    "DNDConfig": null,
    "_enabled_": false,
    "_margin_": [
        0,
        0,
        0,
        0
    ],
    "_padding_": [
        0,
        0,
        0,
        0
    ],
    "_skin_": "s1e9380ac6854372bea0caa099d3dc8b",
    "_text_": "",
    "autocapitalize": "none",
    "autocomplete": false,
    "autocorrect": false,
    "autofilter": false,
    "canUpdateUI": true,
    "containerheightmode": 1,
    "containerheightreference": 1,
    "containerweight": 35,
    "contentalignment": 6,
    "desktopweb": {
        "@class": "com.kony.gen.viz.model.component.property.textbox2.DesktopWebTextBox2Property",
        "_padding_": [
            3,
            1,
            1,
            1
        ],
        "containerHeightMode": 3,
        "ide_onEndEditing": "p2kwiet2012247649002_txtAddBillerRef1_DESKTOPWEB_onEndEditing_seq0",
        "padding": [
            3,
            1,
            1,
            1
        ],
        "paddingInPixel": false,
        "render": true
    },
    "focusskin": "s1e9380ac6854372bea0caa099d3dc8b",
    "hexpand": true,
    "id": "txtAddBillerRef1",
    "ide_onTextChange": "p2kwiet2012247649002_txtAddBillerRef1_onTextChange_seq0",
    "info": null,
    "isvisible": true,
    "keyboardstyle": "A",
    "keyboardtype": "A",
    "kiosk": {
        "@class": "com.kony.gen.viz.model.component.property.textbox2.KioskTextBox2Property",
        "render": true
    },
    "kuid": "p2kwiet2012247648912",
    "margininpixel": false,
    "mode": "A",
    "name": "kony.ui.TextBox2",
    "paddinginpixel": false,
    "parent": "hbox1010867476251487",
    "pf": "frmIBTopUpLandingPage",
    "securetextentry": false,
    "spa": {
        "@class": "com.kony.gen.viz.model.component.property.textbox2.SPATextBox2Property",
        "autoCorrect": false,
        "containerHeightMode": 3
    },
    "textinputmode": "A",
    "vexpand": false,
    "viewtype": "default",
    "wType": "TextField",
    "widgetalignment": 5
}