{
    "DNDConfig": null,
    "_enabled_": false,
    "_margin_": [
        0,
        0,
        0,
        0
    ],
    "_padding_": [
        9,
        3,
        2,
        2
    ],
    "_skin_": "s6258d9f3c124792a82ea6eedb2569ae",
    "_text_": "",
    "autocapitalize": "none",
    "autocomplete": false,
    "autocorrect": false,
    "autofilter": false,
    "canUpdateUI": true,
    "containerheightmode": 1,
    "containerheightreference": 1,
    "containerweight": 83,
    "contentalignment": 4,
    "desktopweb": {
        "@class": "com.kony.gen.viz.model.component.property.textbox2.DesktopWebTextBox2Property",
        "_margin_": [
            0,
            3,
            0,
            0
        ],
        "_padding_": [
            9,
            3,
            2,
            2
        ],
        "containerHeightMode": 3,
        "ide_onKeyUp": "p2kwiet2012247649002_txtSearchBox_DESKTOPWEB_onKeyUp_seq0",
        "margin": [
            0,
            3,
            0,
            0
        ],
        "marginInPixel": false,
        "padding": [
            9,
            3,
            2,
            2
        ],
        "paddingInPixel": false,
        "render": true
    },
    "focusskin": "s04062962e2b4e4c8644ca2db43f905a",
    "hexpand": true,
    "id": "txtSearchBox",
    "info": null,
    "isvisible": true,
    "keyboardstyle": "A",
    "keyboardtype": "A",
    "kiosk": {
        "@class": "com.kony.gen.viz.model.component.property.textbox2.KioskTextBox2Property",
        "_padding_": [
            9,
            3,
            2,
            2
        ],
        "padding": [
            9,
            3,
            2,
            2
        ],
        "paddingInPixel": false,
        "render": true
    },
    "kuid": "p2kwiet2012247648953",
    "margininpixel": false,
    "mode": "A",
    "name": "kony.ui.TextBox2",
    "paddinginpixel": false,
    "parent": "hbox1010778103103744",
    "pf": "frmIBTopUpLandingPage",
    "placeholderi18n": "Receipent_Search",
    "securetextentry": false,
    "spa": {
        "@class": "com.kony.gen.viz.model.component.property.textbox2.SPATextBox2Property",
        "autoCorrect": false,
        "containerHeightMode": 3
    },
    "textinputmode": "A",
    "vexpand": false,
    "viewtype": "default",
    "wType": "TextField",
    "widgetalignment": 5
}