{
    "DNDConfig": null,
    "_enabled_": false,
    "_margin_": [
        0,
        0,
        0,
        0
    ],
    "_orientation_": 2,
    "_padding_": [
        1,
        1,
        1,
        0
    ],
    "_position_": 3,
    "_resize_": true,
    "_skin_": "s97cc6c86bf047e2b52aaaa0fedee429",
    "allboxes": [],
    "borderCollapse": false,
    "canUpdateUI": true,
    "children": [
        "label5035993605",
        "line2098525061167432",
        "hbxFromLabelContainer",
        "hbxFrmSegmentDataContainer",
        "line1209355100130344",
        "hbxTo",
        "line1209355100130369",
        "hbxRef1TopUpScreen",
        "hbxAmntExclBillerMethodOne",
        "hbxAmount",
        "line1012565563256029",
        "hbox473272094634649",
        "line2098495270128386",
        "hbox1011732624591",
        "line1209355100130590",
        "hbox1209355100130338",
        "line1012565563254205",
        "hbxScheduleNickName",
        "hbxAddBillsBeforeSchedule",
        "lineAddBillsBeforeSchedule",
        "lblDummy",
        "hbox5028545854028"
    ],
    "containerweight": 50,
    "desktopweb": {
        "@class": "com.kony.gen.viz.model.container.property.vbox.DesktopWebVBoxProperty",
        "_padding_": [
            2,
            2,
            2,
            0
        ],
        "padding": [
            2,
            2,
            2,
            0
        ],
        "paddingInPixel": false,
        "render": true
    },
    "id": "vboxBillPayMain",
    "info": null,
    "isvisible": true,
    "kiosk": {
        "@class": "com.kony.gen.viz.model.container.property.vbox.KioskVBoxProperty",
        "render": true
    },
    "kuid": "p2kwiet2012247648931",
    "layouttype": 0,
    "margininpixel": false,
    "name": "kony.ui.Box",
    "paddinginpixel": false,
    "parent": "hbxContent",
    "pf": "frmIBTopUpLandingPage",
    "spa": {
        "@class": "com.kony.gen.viz.model.container.property.vbox.SPAVBoxProperty"
    },
    "templateType": "forms",
    "wType": "VBox",
    "widgetalignment": 1
}