{
    "DNDConfig": null,
    "_data_": [
        {},
        {},
        {}
    ],
    "_enabled_": false,
    "_indicator_": "none",
    "_margin_": [
        3,
        3,
        3,
        1
    ],
    "_orientation_": 2,
    "_padding_": [
        0,
        0,
        0,
        0
    ],
    "_skin_": "seg2Normal",
    "android": {
        "@class": "com.kony.gen.viz.model.container.property.segment2.AndroidSegment2Property",
        "psp": {
            "dockSectionHeaders": false
        },
        "render": true,
        "viewConfig": {
            "coverflowConfig": {
                "isCircular": true,
                "projectionAngle": 60
            }
        },
        "viewType": "tableview"
    },
    "canUpdateUI": true,
    "containerheightreference": 1,
    "containerweight": 100,
    "context": {
        "channel": "mobile",
        "formID": "AdvancedWidgetsSegements",
        "templateType": "segments",
        "topLevelBox": false
    },
    "counter": "02",
    "focusedindex": null,
    "focuseditem": null,
    "generatedtemplate": "p2kwiet2012247633124",
    "groupcells": false,
    "hasSections": false,
    "hiddencolumns": {
        "planId": "text",
        "transactionId": "text"
    },
    "id": "segTransDetail",
    "info": null,
    "iphone": {
        "@class": "com.kony.gen.viz.model.container.property.segment2.IPhoneSegment2Property",
        "psp": {
            "bounces": true,
            "editStyle": "none",
            "enableDictionary": false,
            "indicator": "none",
            "progressIndicatorColor": "white",
            "searchCriteria": 1,
            "showProgressIndicator": true
        },
        "render": true,
        "viewConfig": {
            "coverflowConfig": {}
        },
        "viewType": "tableview"
    },
    "isvisible": true,
    "kuid": "p2kwiet2012247633108",
    "layoutalignment": 3,
    "margininpixel": false,
    "name": "kony.ui.SegmentedUI2",
    "needpageindicator": true,
    "paddinginpixel": false,
    "paginationconfig": {
        "position": "bottom"
    },
    "parent": "sboxRight",
    "pf": "frmMBSoGooodConf",
    "retainselection": false,
    "rowTemplateId": "p2kwiet2012247633124",
    "rowcounter": 2,
    "rowfocusskin": "s95b453b58b14bb9b0213841c91e1f69",
    "rowskin": "sa210dd8f8314cf581d230b3d99ab471",
    "screenlevelwidget": false,
    "scrollingevents": false,
    "seccounter": 0,
    "sectionheaderskin": "se767cf77ac843aa8b4c335cbb5eda62",
    "selectedRows": null,
    "selectedState": false,
    "selectedindex": null,
    "selectedindices": null,
    "selecteditems": null,
    "selectedsectionindex": 0,
    "selectionbehavior": "default",
    "selectionbehaviorconfig": {},
    "separatorcolor": "ffffff00",
    "separatorrequired": true,
    "separatorthickness": 1,
    "showscrollbars": false,
    "spa": {
        "@class": "com.kony.gen.viz.model.container.property.segment2.SPASegment2Property"
    },
    "spaan": {
        "@class": "com.kony.gen.viz.model.container.property.segment2.SPAAndroidSegment2Property",
        "render": true
    },
    "spabb": {
        "@class": "com.kony.gen.viz.model.container.property.segment2.SPABBSegment2Property",
        "render": true
    },
    "spaip": {
        "@class": "com.kony.gen.viz.model.container.property.segment2.SPAIPhoneSegment2Property",
        "render": true
    },
    "spawinphone8": {
        "@class": "com.kony.gen.viz.model.container.property.segment2.SPAWinPhone8Segment2Property",
        "render": true
    },
    "viewtype": "tableview",
    "wType": "Segment",
    "widgetalignment": 1,
    "widgetdatamap": {
        "hbxAmount": "hbxAmount",
        "hbxInstallment": "hbxInstallment",
        "hbxInterest": "hbxInterest",
        "hbxMore": "hbxMore",
        "hbxPlan": "hbxPlan",
        "hbxPostedDate": "hbxPostedDate",
        "hbxTotalAmount": "hbxTotalAmount",
        "hbxTransDetail": "hbxTransDetail",
        "hbxTransactionDate": "hbxTransactionDate",
        "hbxTransactionNumber": "hbxTransactionNumber",
        "imgMoreHide": "imgMoreHide",
        "lblAmount": "lblAmount",
        "lblAmountVal": "lblAmountVal",
        "lblInstallment": "lblInstallment",
        "lblInstallmentVal": "lblInstallmentVal",
        "lblInterest": "lblInterest",
        "lblInterestVal": "lblInterestVal",
        "lblPlan": "lblPlan",
        "lblPlanVal": "lblPlanVal",
        "lblPostedDate": "lblPostedDate",
        "lblPostedDateVal": "lblPostedDateVal",
        "lblTotalAmount": "lblTotalAmount",
        "lblTotalAmountVal": "lblTotalAmountVal",
        "lblTransaction": "lblTransaction",
        "lblTransactionDate": "lblTransactionDate",
        "lblTransactionDateVal": "lblTransactionDateVal",
        "lineSepSeg": "lineSepSeg",
        "linkMoreHide": "linkMoreHide",
        "vbxTransDetail": "vbxTransDetail"
    },
    "winphone8": {
        "@class": "com.kony.gen.viz.model.container.property.segment2.WinPhone8Segment2Property",
        "psp": {
            "enableCache": false
        },
        "render": true
    }
}