{
    "@class": "com.kony.gen.viz.model.container.KVizVBox",
    "DNDConfig": null,
    "__markedForDelete__": true,
    "_margin_": [
        0,
        0,
        0,
        0
    ],
    "_orientation_": 2,
    "_padding_": [
        5,
        0,
        0,
        0
    ],
    "_percent_": true,
    "_position_": 3,
    "_skin_": "s0e13ed4077f481ab090dae6b2e595ed",
    "allboxes": [],
    "canUpdateUI": true,
    "children": [
        "CopyHBox0ebcce255cd9141"
    ],
    "containerweight": 100,
    "contextmenu": null,
    "id": "CopyVBox0a958cba23dc248",
    "info": null,
    "isvisible": true,
    "kuid": "ddeb39a964d24aa69e419bcc0902dc1a",
    "layouttype": 0,
    "name": "kony.ui.Box",
    "paddInPixel": [
        23.65,
        0,
        0,
        0
    ],
    "paddinginpixel": false,
    "parent": "HBoxSelectedUnitHolderNo",
    "pf": "frmIBMFSelPurchaseFundsLP",
    "wType": "VBox",
    "widgetalignment": 4
}