{
    "@class": "com.kony.gen.viz.model.container.KVizHBox",
    "DNDConfig": null,
    "__markedForDelete__": true,
    "_margin_": [
        0,
        0,
        0,
        0
    ],
    "_orientation_": 1,
    "_padding_": [
        0,
        0,
        0,
        0
    ],
    "_percent_": true,
    "_position_": 3,
    "_skin_": "sbf6371c8e33459897c5104ea9b4a027",
    "allboxes": [],
    "canUpdateUI": true,
    "children": [
        "CopyVBox0bdc7bc85a8944e",
        "CopyVBox0c7de413ffa7b4e"
    ],
    "containerweight": 100,
    "contextmenu": null,
    "id": "HBoxSelectAccount",
    "info": null,
    "isvisible": true,
    "kuid": "j15c63592e4d467cba6c76c5f6307bdf",
    "layouttype": 0,
    "margininpixel": false,
    "name": "kony.ui.Box",
    "parent": "VBox0h53198ff9a8d49",
    "pf": "frmIBMFSelPurchaseFundsLP",
    "wType": "HBox",
    "widgetalignment": 1
}