{
    "@class": "com.kony.gen.viz.model.container.KVizHBox",
    "DNDConfig": null,
    "_margin_": [
        0,
        0,
        0,
        0
    ],
    "_orientation_": 1,
    "_padding_": [
        0,
        1,
        0,
        1
    ],
    "_percent_": true,
    "_position_": 3,
    "_skin_": "s669fe894b154ba1ba7f4af670cf8772",
    "allboxes": [],
    "canUpdateUI": true,
    "children": [
        "VBox0gc2addbe743b49",
        "VBox0c74d5070a17c4d",
        "VBoxArrowFund"
    ],
    "containerweight": 100,
    "contextmenu": null,
    "id": "HBox0a4153fb9f97e4b",
    "info": null,
    "isvisible": true,
    "kuid": "cd4a97883cfb47148e68f1b308904a78",
    "layouttype": 0,
    "name": "kony.ui.Box",
    "paddinginpixel": false,
    "parent": "CopyVBox0a934a57e0b634a",
    "pf": "frmIBMFSelPurchaseFundsLP",
    "wType": "HBox",
    "widgetalignment": 1
}