{
    "DNDConfig": null,
    "__markedForDelete__": true,
    "_enabled_": false,
    "_margin_": [
        0,
        0,
        0,
        0
    ],
    "_padding_": [
        0,
        0,
        0,
        0
    ],
    "_skin_": "sb5a3b249b2f4d508990f20c82d055e5",
    "_text_": "",
    "autocapitalize": "none",
    "autocomplete": false,
    "autocorrect": false,
    "autofilter": false,
    "canUpdateUI": true,
    "containerheightmode": 1,
    "containerheightreference": 1,
    "containerweight": 90,
    "contentalignment": 4,
    "desktopweb": {
        "@class": "com.kony.gen.viz.model.component.property.textbox2.DesktopWebTextBox2Property",
        "containerHeightMode": 3,
        "onBeginEditing": "AS_TextField_e8f995bd364347fa9cecbdd5d02ed335",
        "onEndEditing": "AS_TextField_cc639f26432a43fe840f9e18694a68ec",
        "onKeyUp": "AS_TextField_i8b1e5e1282e41d4956cd346b7431ae8",
        "psp": {
            "hoverSkin": "sdce64cd6406424db3ed4fe47d97442d"
        },
        "render": true
    },
    "donotUpdateContainerWeight": false,
    "focusskin": "sdce64cd6406424db3ed4fe47d97442d",
    "hexpand": true,
    "id": "txtAmountVal",
    "info": null,
    "isvisible": true,
    "keyboardstyle": "emailpad",
    "keyboardtype": "A",
    "kiosk": {
        "@class": "com.kony.gen.viz.model.component.property.textbox2.KioskTextBox2Property",
        "render": true
    },
    "kuid": "c27c0a67c882461b9f4bad62cae3852c",
    "margininpixel": false,
    "maxtextlength": 14,
    "mode": "A",
    "name": "kony.ui.TextBox2",
    "paddInPixel": [
        0,
        0,
        0,
        0
    ],
    "paddinginpixel": false,
    "parent": "hbxenteramnt",
    "pf": "frmIBMFSelPurchaseFundsLP",
    "securetextentry": false,
    "spa": {
        "@class": "com.kony.gen.viz.model.component.property.textbox2.SPATextBox2Property",
        "autoCorrect": false,
        "containerHeightMode": 3
    },
    "textinputmode": "A",
    "vexpand": false,
    "viewtype": "default",
    "wType": "TextField",
    "widgetalignment": 4
}