{
    "@class": "com.kony.gen.viz.model.container.KVizVBox",
    "DNDConfig": null,
    "__markedForDelete__": true,
    "_margin_": [
        0,
        0,
        0,
        0
    ],
    "_orientation_": 2,
    "_padding_": [
        0,
        0,
        0,
        0
    ],
    "_percent_": true,
    "_position_": 3,
    "_skin_": "s0e13ed4077f481ab090dae6b2e595ed",
    "allboxes": [],
    "canUpdateUI": true,
    "children": [
        "CopyImage0f324be0efebb4f"
    ],
    "containerweight": 5,
    "contextmenu": null,
    "donotUpdateContainerWeight": false,
    "id": "VBoxArrowUnitHolder",
    "info": null,
    "isvisible": true,
    "kuid": "gb750d21eaae4fc4bbdc7ee32812d275",
    "layouttype": 0,
    "name": "kony.ui.Box",
    "paddInPixel": [
        0,
        0,
        0,
        0
    ],
    "parent": "CopyHBox0ebcce255cd9141",
    "pf": "frmIBMFSelPurchaseFundsLP",
    "templateType": "forms",
    "wType": "VBox",
    "widgetalignment": 5
}