{
    "DNDConfig": null,
    "__parentReadjusting__": false,
    "_height_": {
        "type": "string",
        "value": "90%"
    },
    "_left_": {
        "type": "string",
        "value": "3%"
    },
    "_margin_": [
        0,
        0,
        0,
        0
    ],
    "_orientation_": 6,
    "_padding_": [
        0,
        0,
        0,
        0
    ],
    "_percent_": true,
    "_skin_": "s514ef3a51834b8c807fa31ea27b664e",
    "_top_": {
        "type": "string",
        "value": "5%"
    },
    "_width_": {
        "type": "string",
        "value": "94%"
    },
    "allboxes": [],
    "autogrowmode": 0,
    "canUpdateUI": true,
    "children": [
        "FlexContainer0f855331dcc594d",
        "FlexContainer0d50da0dbb7d140",
        "TextBoxAmount",
        "LabelDescription"
    ],
    "clipbounds": true,
    "containerweight": 100,
    "enablescrolling": true,
    "id": "FlexContainer0c2efa239662c45",
    "info": null,
    "isvisible": true,
    "kuid": "j4ee4b33bcab465ea4c9af9cfd001166",
    "layouttype": 4,
    "name": "kony.ui.FlexContainer",
    "parent": "FlexContainerDetail",
    "pf": "frmMFSelectRedeemFundMB",
    "snapgridsize": 10,
    "snaptogrid": true,
    "wType": "FlexContainer",
    "widgetalignment": 1,
    "zindex": 1
}