{
    "@class": "com.kony.gen.viz.model.component.KVizTextBox2",
    "DNDConfig": null,
    "__parentReadjusting__": false,
    "_height_": {
        "type": "ref",
        "value": "preferred"
    },
    "_margin_": [
        0,
        0,
        0,
        0
    ],
    "_padding_": [
        3,
        0,
        0,
        0
    ],
    "_placeholder_": "",
    "_skin_": "scc89f529d384cd587c34c2efc92e2a2",
    "_text_": "2.88",
    "_top_": {
        "type": "string",
        "value": "1dp"
    },
    "_width_": {
        "type": "string",
        "value": "100%"
    },
    "android": {
        "containerHeightMode": 1,
        "psp": {
            "keyboardActionLabel": 1
        }
    },
    "autocapitalize": "none",
    "autocomplete": false,
    "autocorrect": false,
    "autofilter": false,
    "canUpdateUI": true,
    "centerx": {
        "type": "string",
        "value": "50%"
    },
    "containerheight": "",
    "containerheightmode": 1,
    "containerweight": 100,
    "contentalignment": 5,
    "disabledSkins": {},
    "focusskin": "scc89f529d384cd587c34c2efc92e2a2",
    "id": "TextAmount",
    "info": null,
    "iphone": {
        "containerHeightMode": 3,
        "psp": {
            "closeButtonText": "Done",
            "pasteboardType": 4,
            "showClearButton": false,
            "showCloseButton": true,
            "showProgressIndicator": false
        }
    },
    "isvisible": true,
    "keyboardstyle": "number",
    "keyboardtype": "A",
    "kuid": "343e6c91162a4a46aca925695552f86a",
    "maxtextlength": 14,
    "mode": "N",
    "name": "kony.ui.TextBox2",
    "parent": "FlexBath",
    "pasteboardtype": 1,
    "pf": "frmMFSelectRedeemFundMB",
    "placeholderskin": "scc89f529d384cd587c34c2efc92e2a2",
    "securetextentry": false,
    "showclearbutton": false,
    "showoprogressindicator": false,
    "textinputmode": "N",
    "viewtype": "default",
    "wType": "TextField",
    "zindex": 1
}