{
    "DNDConfig": null,
    "_enabled_": false,
    "_margin_": [
        5,
        0,
        5,
        0
    ],
    "_padding_": [
        0,
        0,
        0,
        0
    ],
    "_skin_": "sc9477adf312420b81ac9f5df9acd4ee",
    "_text_": "",
    "_thickness_": 2,
    "android": {
        "@class": "com.kony.gen.viz.model.component.property.line.AndroidLineProperty",
        "render": true
    },
    "canUpdateUI": true,
    "containerweight": 100,
    "contentalignment": 5,
    "hexpand": true,
    "id": "line2",
    "info": null,
    "iphone": {
        "@class": "com.kony.gen.viz.model.component.property.line.IPhoneLineProperty",
        "render": true
    },
    "isvisible": true,
    "kuid": "p2kwiet2012247629909",
    "margininpixel": false,
    "name": "kony.ui.Line",
    "paddinginpixel": false,
    "parent": "vbxActivationAllOptions",
    "pf": "frmMBanking",
    "spa": {
        "@class": "com.kony.gen.viz.model.component.property.line.SPALineProperty"
    },
    "spaan": {
        "@class": "com.kony.gen.viz.model.component.property.line.SPAAndroidLineProperty",
        "render": true
    },
    "spabb": {
        "@class": "com.kony.gen.viz.model.component.property.line.SPABBLineProperty",
        "render": true
    },
    "spaip": {
        "@class": "com.kony.gen.viz.model.component.property.line.SPAIPhoneLineProperty",
        "render": true
    },
    "spawinphone8": {
        "@class": "com.kony.gen.viz.model.component.property.line.SPAWinPhone8LineProperty",
        "render": true
    },
    "vexpand": false,
    "wType": "Line",
    "widgetalignment": 5,
    "winphone8": {
        "@class": "com.kony.gen.viz.model.component.property.line.WinPhone8LineProperty",
        "psp": {
            "enableCache": false
        },
        "render": true
    }
}