{
    "@class": "com.kony.gen.viz.model.component.KVizImage2",
    "DNDConfig": null,
    "__parentReadjusting__": false,
    "_base64_": null,
    "_height_": {
        "type": "string",
        "value": "70dp"
    },
    "_left_": {
        "type": "string",
        "value": "20dp"
    },
    "_margin_": [
        0,
        0,
        0,
        0
    ],
    "_padding_": [
        0,
        0,
        0,
        0
    ],
    "_skin_": "s55d8a5125e74bb0b2eaca75c423dae1",
    "_src_": "selfie_color.png",
    "_top_": {
        "type": "string",
        "value": "0dp"
    },
    "_width_": {
        "type": "string",
        "value": "75dp"
    },
    "canUpdateUI": true,
    "centerx": {
        "type": "string",
        "value": "49.92%"
    },
    "containerweight": 100,
    "context": {
        "channel": "mobile",
        "formID": "frmEKYCIdpSetting",
        "platform": "android",
        "templateType": "forms",
        "topLevelBox": null
    },
    "id": "imgSelfie",
    "imagescalemode": 1,
    "info": null,
    "invokedProperty": "src",
    "iscustomlayout": false,
    "isvisible": true,
    "kuid": "b80c621b65fd49868160a03320444d6f",
    "name": "kony.ui.Image2",
    "parent": "CopyflexImages0id9f8352956245",
    "pf": "frmEKYCIdpSetting",
    "retaincontentalignment": false,
    "retainflexpositionproperties": false,
    "srcType": 1,
    "wType": "Image",
    "widgetalignment": 5,
    "zindex": 1
}