{
    "DNDConfig": null,
    "_enabled_": false,
    "_margin_": [
        0,
        0,
        0,
        0
    ],
    "_orientation_": 2,
    "_padding_": [
        1,
        1,
        1,
        1
    ],
    "_position_": 3,
    "_resize_": true,
    "_skin_": "sa42c8152f494de38a5464fecfc65db1",
    "allboxes": [],
    "borderCollapse": false,
    "canUpdateUI": true,
    "children": [
        "hbox474020740336224",
        "hbox474020740336176"
    ],
    "containerweight": 45,
    "desktopweb": {
        "@class": "com.kony.gen.viz.model.container.property.vbox.DesktopWebVBoxProperty",
        "_margin_": [
            30,
            15,
            30,
            30
        ],
        "_padding_": [
            3,
            3,
            3,
            3
        ],
        "margin": [
            30,
            15,
            30,
            30
        ],
        "marginInPixel": false,
        "padding": [
            3,
            3,
            3,
            3
        ],
        "paddingInPixel": false,
        "render": true
    },
    "id": "vbox474020740336170",
    "info": null,
    "isvisible": true,
    "kiosk": {
        "@class": "com.kony.gen.viz.model.container.property.vbox.KioskVBoxProperty",
        "render": true
    },
    "kuid": "p2kwiet2012247650581",
    "layouttype": 0,
    "margininpixel": false,
    "name": "kony.ui.Box",
    "paddinginpixel": false,
    "parent": "hbox474020740336169",
    "pf": "popIBBPConfirmOTP",
    "spa": {
        "@class": "com.kony.gen.viz.model.container.property.vbox.SPAVBoxProperty"
    },
    "templateType": "forms",
    "wType": "VBox",
    "widgetalignment": 1
}