{
    "DNDConfig": null,
    "_enabled_": false,
    "_margin_": [
        0,
        0,
        0,
        0
    ],
    "_orientation_": 1,
    "_padding_": [
        0,
        0,
        0,
        0
    ],
    "_percent_": true,
    "_position_": 1,
    "_resize_": true,
    "_skin_": "sdaf482aa7084882b4e1aaddb141606c",
    "allboxes": [],
    "android": {
        "@class": "com.kony.gen.viz.model.container.property.hbox.AndroidHBoxProperty",
        "_margin_": [
            0,
            0,
            0,
            0
        ],
        "_padding_": [
            4,
            4,
            4,
            4
        ],
        "_position_": 1,
        "margin": [
            0,
            0,
            0,
            0
        ],
        "marginInPixel": false,
        "padding": [
            4,
            4,
            4,
            4
        ],
        "paddingInPixel": false,
        "position": 1,
        "render": true
    },
    "borderCollapse": false,
    "canUpdateUI": true,
    "children": [
        "btnSearchRecipeints",
        "textbox247327209467957"
    ],
    "containerweight": 100,
    "focusskin": "sdaf482aa7084882b4e1aaddb141606c",
    "id": "hbox101086657956678",
    "info": null,
    "iphone": {
        "@class": "com.kony.gen.viz.model.container.property.hbox.IPhoneHBoxProperty",
        "_margin_": [
            0,
            0,
            0,
            0
        ],
        "_padding_": [
            16,
            10,
            20,
            10
        ],
        "_position_": 1,
        "margin": [
            0,
            0,
            0,
            0
        ],
        "marginInPixel": false,
        "padding": [
            16,
            10,
            20,
            10
        ],
        "paddingInPixel": true,
        "position": 1,
        "render": true
    },
    "isvisible": true,
    "kuid": "p2kwiet2012247634475",
    "layoutalignment": 3,
    "margininpixel": false,
    "name": "kony.ui.Box",
    "paddinginpixel": false,
    "parent": "sboxRight",
    "pf": "frmMyRecipients",
    "spa": {
        "@class": "com.kony.gen.viz.model.container.property.hbox.SPAHBoxProperty"
    },
    "spaan": {
        "@class": "com.kony.gen.viz.model.container.property.hbox.SPAAndroidHBoxProperty",
        "_margin_": [
            0,
            0,
            0,
            0
        ],
        "_padding_": [
            3,
            5,
            0,
            5
        ],
        "margin": [
            0,
            0,
            0,
            0
        ],
        "marginInPixel": false,
        "padding": [
            3,
            5,
            0,
            5
        ],
        "paddingInPixel": false,
        "render": true
    },
    "spabb": {
        "@class": "com.kony.gen.viz.model.container.property.hbox.SPABBHBoxProperty",
        "_margin_": [
            0,
            0,
            0,
            0
        ],
        "_padding_": [
            3,
            2,
            0,
            2
        ],
        "margin": [
            0,
            0,
            0,
            0
        ],
        "marginInPixel": false,
        "padding": [
            3,
            2,
            0,
            2
        ],
        "paddingInPixel": false,
        "render": true
    },
    "spaip": {
        "@class": "com.kony.gen.viz.model.container.property.hbox.SPAIPhoneHBoxProperty",
        "_margin_": [
            0,
            0,
            0,
            0
        ],
        "_padding_": [
            3,
            2,
            0,
            2
        ],
        "margin": [
            0,
            0,
            0,
            0
        ],
        "marginInPixel": false,
        "padding": [
            3,
            2,
            0,
            2
        ],
        "paddingInPixel": false,
        "render": true
    },
    "spawinphone8": {
        "@class": "com.kony.gen.viz.model.container.property.hbox.SPAWinPhone8HBoxProperty",
        "render": true
    },
    "templateType": "forms",
    "wType": "HBox",
    "widgetalignment": 1,
    "winphone8": {
        "@class": "com.kony.gen.viz.model.container.property.hbox.WinPhone8HBoxProperty",
        "_margin_": [
            0,
            0,
            0,
            0
        ],
        "_padding_": [
            1,
            1,
            1,
            1
        ],
        "_position_": 1,
        "margin": [
            0,
            0,
            0,
            0
        ],
        "marginInPixel": true,
        "padding": [
            1,
            1,
            1,
            1
        ],
        "paddingInPixel": true,
        "position": 1,
        "psp": {
            "enableCache": false
        },
        "render": true
    }
}