{
    "DNDConfig": null,
    "_enabled_": false,
    "_margin_": [
        0,
        1,
        0,
        1
    ],
    "_padding_": [
        0,
        3,
        0,
        3
    ],
    "_skin_": "sa6f7538b14c4d06ac2718858633411c",
    "_text_": "Button",
    "canUpdateUI": true,
    "containerId": true,
    "containerweight": 4,
    "contentalignment": 5,
    "desktopweb": {
        "@class": "com.kony.gen.viz.model.component.property.button.DesktopWebButtonProperty",
        "displayText": false,
        "render": true
    },
    "displaytext": false,
    "focusskin": "sa6f7538b14c4d06ac2718858633411c",
    "hexpand": true,
    "id": "btnRadioYes",
    "ide_onClick": "p2kwiet2012247643396_btnRadioYes_onClick_seq0",
    "info": null,
    "isSegmentChild": true,
    "isvisible": true,
    "kiosk": {
        "@class": "com.kony.gen.viz.model.component.property.button.KioskButtonProperty",
        "render": true
    },
    "kuid": "p2kwiet2012247643383",
    "margininpixel": false,
    "name": "kony.ui.Button",
    "paddinginpixel": false,
    "parent": "hbox201224764752",
    "pf": "hbox201224764752",
    "spa": {
        "@class": "com.kony.gen.viz.model.component.property.button.SPAButtonProperty",
        "displayText": true
    },
    "vexpand": false,
    "wType": "Button",
    "widgetalignment": 2
}