{
    "DNDConfig": null,
    "_enabled_": false,
    "_margin_": [
        0,
        0,
        0,
        0
    ],
    "_padding_": [
        0,
        0,
        0,
        0
    ],
    "_skin_": "sfcc80d0c4c84ec88c40b536edd562e5",
    "_text_": "",
    "canUpdateUI": true,
    "containerweight": 97,
    "contentalignment": 4,
    "desktopweb": {
        "@class": "com.kony.gen.viz.model.component.property.link.DesktopWebLinkProperty",
        "_padding_": [
            5,
            2,
            0,
            0
        ],
        "padding": [
            5,
            2,
            0,
            0
        ],
        "paddingInPixel": false,
        "render": true
    },
    "focusskin": "s448600326824d79a6940df1dbfd429c",
    "hexpand": true,
    "id": "linkMore3",
    "ide_onClick": "p2kwiet2012247646206_linkMore3_onClick_seq0",
    "info": null,
    "isvisible": true,
    "kiosk": {
        "@class": "com.kony.gen.viz.model.component.property.link.KioskLinkProperty",
        "render": true
    },
    "kuid": "p2kwiet2012247646183",
    "margininpixel": false,
    "name": "kony.ui.Link",
    "paddinginpixel": false,
    "parent": "hbxLink3",
    "pf": "frmIBOpenNewSavingsCareAcc",
    "spa": {
        "@class": "com.kony.gen.viz.model.component.property.link.SPALinkProperty"
    },
    "texti18n": "keyAddMoreBenfi",
    "vexpand": false,
    "wType": "Link",
    "widgetalignment": 4
}