{
    "@class": "com.kony.gen.viz.model.container.KVizVBox",
    "DNDConfig": null,
    "_margin_": [
        0,
        0,
        0,
        0
    ],
    "_orientation_": 2,
    "_padding_": [
        0,
        0,
        0,
        0
    ],
    "_percent_": true,
    "_position_": 3,
    "_skin_": "s0e13ed4077f481ab090dae6b2e595ed",
    "allboxes": [],
    "canUpdateUI": true,
    "children": [
        "CopylineSepWatchSiri0eb81760eeb7f42",
        "lblQuickBalanceHeader2",
        "CopylineSepWatchSiri0ef47fd2e46634a"
    ],
    "containerweight": 100,
    "contextmenu": null,
    "id": "CopyVBox0b35c480c3f1f43",
    "info": null,
    "isvisible": true,
    "kuid": "a6fe75fb9a324083b526ae4f8b93a9b4",
    "layouttype": 0,
    "name": "kony.ui.Box",
    "paddInPixel": [
        0,
        0,
        0,
        0
    ],
    "parent": "CopyhboxQBIphone0fd15edd9ec964f",
    "pf": "frmMBQuickBalanceSetting",
    "templateType": "forms",
    "wType": "VBox",
    "widgetalignment": 1
}