{
    "DNDConfig": null,
    "_enabled_": false,
    "_margin_": [
        0,
        0,
        0,
        0
    ],
    "_padding_": [
        1,
        1,
        1,
        1
    ],
    "_render_": true,
    "_skin_": "s688c60858d445ef8c33593247e4e3a7",
    "_text_": "Show Quickbalance on Apple Watch and Siri",
    "_wrapping_": 2,
    "android": {
        "@class": "com.kony.gen.viz.model.component.property.label.AndroidLabelProperty",
        "_margin_": [
            4,
            1,
            3,
            1
        ],
        "margin": [
            4,
            1,
            3,
            1
        ],
        "marginInPixel": false,
        "psp": {
            "textCopyable": false
        },
        "render": false
    },
    "canUpdateUI": true,
    "containerweight": 100,
    "contentalignment": 4,
    "hexpand": true,
    "id": "CopylblQuickBalanceText0aecf93a5150142",
    "info": null,
    "iphone": {
        "@class": "com.kony.gen.viz.model.component.property.label.IPhoneLabelProperty",
        "_margin_": [
            4,
            3,
            3,
            1
        ],
        "_padding_": [
            1,
            1,
            1,
            0
        ],
        "margin": [
            4,
            3,
            3,
            1
        ],
        "marginInPixel": false,
        "padding": [
            1,
            1,
            1,
            0
        ],
        "paddingInPixel": false,
        "psp": {
            "textCopyable": false,
            "wrapping": 2
        },
        "render": true
    },
    "isvisible": true,
    "kuid": "f69806870bca4f318a29f647c6e5f99b",
    "margininpixel": false,
    "name": "kony.ui.Label",
    "paddInPixel": [
        7.42,
        7.42,
        7.42,
        0
    ],
    "paddinginpixel": false,
    "parent": "CopyhbxQuickBalanceText0i4ebb8ec2baa44",
    "pf": "frmMBQuickBalanceSetting",
    "spa": {
        "@class": "com.kony.gen.viz.model.component.property.label.SPALabelProperty",
        "psp": {
            "textCopyable": false
        }
    },
    "spaan": {
        "@class": "com.kony.gen.viz.model.component.property.label.SPAAndroidLabelProperty",
        "_margin_": [
            3,
            3,
            3,
            1
        ],
        "margin": [
            3,
            3,
            3,
            1
        ],
        "marginInPixel": false,
        "render": false
    },
    "spabb": {
        "@class": "com.kony.gen.viz.model.component.property.label.SPABBLabelProperty",
        "render": false
    },
    "spaip": {
        "@class": "com.kony.gen.viz.model.component.property.label.SPAIPhoneLabelProperty",
        "_margin_": [
            3,
            3,
            3,
            1
        ],
        "margin": [
            3,
            3,
            3,
            1
        ],
        "marginInPixel": false,
        "render": false
    },
    "spawinphone8": {
        "@class": "com.kony.gen.viz.model.component.property.label.SPAWinPhone8LabelProperty",
        "render": false
    },
    "tooltip": "",
    "vexpand": false,
    "wType": "Label",
    "widgetalignment": 8,
    "winphone8": {
        "@class": "com.kony.gen.viz.model.component.property.label.WinPhone8LabelProperty",
        "_margin_": [
            1,
            1,
            1,
            1
        ],
        "margin": [
            1,
            1,
            1,
            1
        ],
        "marginInPixel": true,
        "psp": {
            "enableCache": false
        },
        "render": false
    }
}