{
    "@class": "com.kony.gen.viz.model.container.KVizHBox",
    "DNDConfig": null,
    "_margin_": [
        0,
        0,
        0,
        0
    ],
    "_orientation_": 1,
    "_padding_": [
        0,
        4,
        0,
        4
    ],
    "_percent_": true,
    "_position_": 3,
    "_render_": true,
    "_skin_": "s3240d32b9a74cc78d1e0768cd2cdf1b",
    "allboxes": [],
    "android": {
        "render": false
    },
    "canUpdateUI": true,
    "children": [
        "lblSiri",
        "switchSiri"
    ],
    "containerweight": 100,
    "contextmenu": null,
    "id": "hboxSiri",
    "info": null,
    "iphone": {
        "render": true
    },
    "isvisible": true,
    "kuid": "jeaf70d0714a482abdc8f6991e16905c",
    "layouttype": 0,
    "name": "kony.ui.Box",
    "paddinginpixel": false,
    "parent": "VBox0hb31ec4212e64f",
    "pf": "frmMBQuickBalanceSetting",
    "spaan": {
        "render": false
    },
    "spabb": {
        "render": false
    },
    "spaip": {
        "render": false
    },
    "spawinphone8": {
        "render": false
    },
    "wType": "HBox",
    "widgetalignment": 1,
    "winphone8": {
        "render": false
    }
}