{
    "@class": "com.kony.gen.viz.model.component.KVizButton",
    "DNDConfig": null,
    "__markedForDelete__": true,
    "__parentReadjusting__": false,
    "_height_": {
        "type": "string",
        "value": "100%"
    },
    "_left_": {
        "type": "string",
        "value": "0.00%"
    },
    "_margin_": [
        6,
        6,
        6,
        6
    ],
    "_padding_": [
        0,
        0,
        0,
        0
    ],
    "_skin_": "s4eb12896177453185df578b9df58f15",
    "_text_": "",
    "_top_": {
        "type": "string",
        "value": "0.04%"
    },
    "_width_": {
        "type": "string",
        "value": "50%"
    },
    "canUpdateUI": true,
    "containerweight": 100,
    "contentalignment": 5,
    "displaytext": true,
    "focusskin": "s4eb12896177453185df578b9df58f15",
    "id": "btnDonateOnce",
    "info": null,
    "iphone": {
        "psp": {
            "showProgressIndicator": false
        }
    },
    "isvisible": true,
    "kuid": "gdbb88a54f6449708312dff10058c9fb",
    "name": "kony.ui.Button",
    "parent": "FlexContainerRoundCorners",
    "pf": "frmDonationSelectAmount",
    "showprogressindicator": false,
    "texti18n": "MB_eDGiveOnceBtn",
    "wType": "Button",
    "zindex": 1
}