{
    "@class": "com.kony.gen.viz.model.component.KVizButton",
    "DNDConfig": null,
    "__parentReadjusting__": false,
    "_height_": {
        "type": "string",
        "value": "4%"
    },
    "_left_": {
        "type": "string",
        "value": "74dp"
    },
    "_margin_": [
        6,
        6,
        6,
        6
    ],
    "_padding_": [
        0,
        0,
        0,
        0
    ],
    "_skin_": "sc46518eadce41dd81943a0f979a82bd",
    "_text_": "",
    "_top_": {
        "type": "string",
        "value": "90.82%"
    },
    "_width_": {
        "type": "string",
        "value": "22.00%"
    },
    "canUpdateUI": true,
    "centerx": {
        "type": "string",
        "value": "50%"
    },
    "containerweight": 100,
    "contentalignment": 5,
    "displaytext": true,
    "focusskin": "sc46518eadce41dd81943a0f979a82bd",
    "id": "btnLess",
    "info": null,
    "iphone": {
        "psp": {
            "showProgressIndicator": false
        }
    },
    "isvisible": true,
    "kuid": "fcf60baf671b49a2a6d24cfb6e114f0b",
    "name": "kony.ui.Button",
    "parent": "flexFoundationDetails",
    "pf": "frmDonationSelectAmount",
    "showprogressindicator": false,
    "texti18n": "MB_eDLessBtn",
    "wType": "Button",
    "zindex": 10
}