{
    "DNDConfig": null,
    "_enabled_": false,
    "_margin_": [
        0,
        2,
        0,
        2
    ],
    "_padding_": [
        0,
        0,
        0,
        0
    ],
    "_skin_": "s7d02bf2516c487c811aa027abb2252c",
    "_text_": "Top Up",
    "android": {
        "@class": "com.kony.gen.viz.model.component.property.button.AndroidButtonProperty",
        "_margin_": [
            0,
            2,
            0,
            2
        ],
        "_padding_": [
            0,
            0,
            0,
            0
        ],
        "displayText": true,
        "margin": [
            0,
            2,
            0,
            2
        ],
        "marginInPixel": false,
        "padding": [
            0,
            0,
            0,
            0
        ],
        "paddingInPixel": false,
        "render": true
    },
    "canUpdateUI": true,
    "containerweight": 20,
    "contentalignment": 5,
    "displaytext": true,
    "focusskin": "s7d02bf2516c487c811aa027abb2252c",
    "hexpand": true,
    "id": "BtnTopUp",
    "ide_onClick": "p2kwiet2012247626480_BtnTopUp_onClick_seq0",
    "info": null,
    "iphone": {
        "@class": "com.kony.gen.viz.model.component.property.button.IPhoneButtonProperty",
        "_margin_": [
            0,
            2,
            2,
            2
        ],
        "_padding_": [
            0,
            0,
            0,
            0
        ],
        "displayText": true,
        "margin": [
            0,
            2,
            2,
            2
        ],
        "marginInPixel": false,
        "padding": [
            0,
            0,
            0,
            0
        ],
        "paddingInPixel": true,
        "psp": {
            "glowEffect": false
        },
        "render": true
    },
    "isvisible": false,
    "kuid": "p2kwiet2012247626354",
    "margininpixel": false,
    "name": "kony.ui.Button",
    "paddinginpixel": false,
    "parent": "hbxOnHandClick",
    "pf": "frmAccountDetailsMBold",
    "spa": {
        "@class": "com.kony.gen.viz.model.component.property.button.SPAButtonProperty",
        "displayText": true
    },
    "spaan": {
        "@class": "com.kony.gen.viz.model.component.property.button.SPAAndroidButtonProperty",
        "_margin_": [
            0,
            2,
            8,
            2
        ],
        "_padding_": [
            2,
            0,
            2,
            0
        ],
        "margin": [
            0,
            2,
            8,
            2
        ],
        "marginInPixel": false,
        "padding": [
            2,
            0,
            2,
            0
        ],
        "paddingInPixel": false,
        "render": true
    },
    "spabb": {
        "@class": "com.kony.gen.viz.model.component.property.button.SPABBButtonProperty",
        "_margin_": [
            0,
            2,
            8,
            2
        ],
        "_padding_": [
            0,
            0,
            0,
            0
        ],
        "margin": [
            0,
            2,
            8,
            2
        ],
        "marginInPixel": false,
        "padding": [
            0,
            0,
            0,
            0
        ],
        "paddingInPixel": false,
        "render": true
    },
    "spaip": {
        "@class": "com.kony.gen.viz.model.component.property.button.SPAIPhoneButtonProperty",
        "_margin_": [
            0,
            2,
            8,
            2
        ],
        "_padding_": [
            2,
            0,
            2,
            0
        ],
        "margin": [
            0,
            2,
            8,
            2
        ],
        "marginInPixel": false,
        "padding": [
            2,
            0,
            2,
            0
        ],
        "paddingInPixel": false,
        "render": true
    },
    "spawinphone8": {
        "@class": "com.kony.gen.viz.model.component.property.button.SPAWinPhone8ButtonProperty",
        "render": true
    },
    "vexpand": false,
    "wType": "Button",
    "widgetalignment": 6,
    "winphone8": {
        "@class": "com.kony.gen.viz.model.component.property.button.WinPhone8ButtonProperty",
        "_margin_": [
            0,
            2,
            0,
            2
        ],
        "_padding_": [
            0,
            0,
            0,
            0
        ],
        "displayText": true,
        "margin": [
            0,
            2,
            0,
            2
        ],
        "marginInPixel": false,
        "padding": [
            0,
            0,
            0,
            0
        ],
        "paddingInPixel": true,
        "psp": {
            "enableCache": false
        },
        "render": true
    }
}