{
    "DNDConfig": null,
    "_enabled_": false,
    "_margin_": [
        0,
        0,
        0,
        0
    ],
    "_padding_": [
        0,
        0,
        0,
        0
    ],
    "_skin_": "se39e501cfe64726ae2d7ba051c4ac7e",
    "_text_": "",
    "android": {
        "@class": "com.kony.gen.viz.model.component.property.link.AndroidLinkProperty",
        "render": true
    },
    "canUpdateUI": true,
    "containerweight": 100,
    "contentalignment": 5,
    "focusskin": "se39e501cfe64726ae2d7ba051c4ac7e",
    "hexpand": true,
    "id": "linkDreamSaving",
    "ide_onClick": "p2kwiet2012247626480_linkDreamSaving_onClick_seq0",
    "info": null,
    "iphone": {
        "@class": "com.kony.gen.viz.model.component.property.link.IPhoneLinkProperty",
        "_margin_": [
            1,
            1,
            1,
            1
        ],
        "margin": [
            1,
            1,
            1,
            1
        ],
        "marginInPixel": true,
        "psp": {
            "glowEffect": false
        },
        "render": true
    },
    "isvisible": false,
    "kuid": "p2kwiet2012247626449",
    "margininpixel": false,
    "name": "kony.ui.Link",
    "paddinginpixel": false,
    "parent": "sboxRight",
    "pf": "frmAccountDetailsMBold",
    "spa": {
        "@class": "com.kony.gen.viz.model.component.property.link.SPALinkProperty"
    },
    "spaan": {
        "@class": "com.kony.gen.viz.model.component.property.link.SPAAndroidLinkProperty",
        "render": true
    },
    "spabb": {
        "@class": "com.kony.gen.viz.model.component.property.link.SPABBLinkProperty",
        "render": true
    },
    "spaip": {
        "@class": "com.kony.gen.viz.model.component.property.link.SPAIPhoneLinkProperty",
        "render": true
    },
    "spawinphone8": {
        "@class": "com.kony.gen.viz.model.component.property.link.SPAWinPhone8LinkProperty",
        "render": true
    },
    "texti18n": "keyviewDream",
    "vexpand": false,
    "wType": "Link",
    "widgetalignment": 5,
    "winphone8": {
        "@class": "com.kony.gen.viz.model.component.property.link.WinPhone8LinkProperty",
        "_margin_": [
            1,
            1,
            1,
            1
        ],
        "margin": [
            1,
            1,
            1,
            1
        ],
        "marginInPixel": true,
        "psp": {
            "enableCache": false
        },
        "render": true
    }
}