{
    "DNDConfig": null,
    "_enabled_": false,
    "_margin_": [
        0,
        5,
        0,
        0
    ],
    "_orientation_": 2,
    "_padding_": [
        0,
        0,
        0,
        0
    ],
    "_position_": 3,
    "_resize_": true,
    "_skin_": "s97cc6c86bf047e2b52aaaa0fedee429",
    "allboxes": [],
    "borderCollapse": false,
    "canUpdateUI": true,
    "children": [
        "label476047582115259",
        "label476047582115267",
        "image2476047582115292",
        "label476047582115269",
        "richtext475034688127909",
        "lblno",
        "btnConfirm1"
    ],
    "containerweight": 50,
    "desktopweb": {
        "@class": "com.kony.gen.viz.model.container.property.vbox.DesktopWebVBoxProperty",
        "_margin_": [
            0,
            5,
            0,
            0
        ],
        "_padding_": [
            4,
            0,
            5,
            0
        ],
        "margin": [
            0,
            5,
            0,
            0
        ],
        "marginInPixel": false,
        "padding": [
            4,
            0,
            5,
            0
        ],
        "paddingInPixel": false,
        "render": true
    },
    "id": "vbox476047582115626",
    "info": null,
    "isvisible": true,
    "kiosk": {
        "@class": "com.kony.gen.viz.model.container.property.vbox.KioskVBoxProperty",
        "render": true
    },
    "kuid": "p2kwiet2012247638090",
    "layouttype": 0,
    "margininpixel": false,
    "name": "kony.ui.Box",
    "paddinginpixel": false,
    "parent": "hbox47422915159897",
    "pf": "frmApplyMBviaIBStep1",
    "spa": {
        "@class": "com.kony.gen.viz.model.container.property.vbox.SPAVBoxProperty"
    },
    "templateType": "forms",
    "wType": "VBox",
    "widgetalignment": 1
}