{
    "@class": "com.kony.gen.viz.model.container.KVizVBox",
    "DNDConfig": null,
    "_margin_": [
        0,
        0,
        0,
        0
    ],
    "_orientation_": 2,
    "_padding_": [
        0,
        0,
        0,
        0
    ],
    "_percent_": true,
    "_position_": 3,
    "_skin_": "s0e13ed4077f481ab090dae6b2e595ed",
    "allboxes": [],
    "canUpdateUI": true,
    "children": [
        "CopyHBox0g38bb404c08340"
    ],
    "containerId": true,
    "containerweight": 3,
    "contextmenu": null,
    "donotUpdateContainerWeight": false,
    "id": "CopyVBox0ed67521e562046",
    "info": null,
    "iscustomlayout": false,
    "isvisible": true,
    "kuid": "b15269ea45f74f28bdc46890b62ccc9e",
    "layouttype": 0,
    "name": "kony.ui.Box",
    "paddInPixel": [
        0,
        0,
        0,
        0
    ],
    "parent": "hbxSliderTopBrass",
    "pf": "segSliderTopbrass",
    "retaincontentalignment": false,
    "retainflexpositionproperties": false,
    "templateType": "forms",
    "wType": "VBox",
    "widgetalignment": 1
}