{
    "@class": "com.kony.gen.viz.model.container.KVizHBox",
    "DNDConfig": null,
    "_margin_": [
        0,
        0,
        0,
        0
    ],
    "_orientation_": 1,
    "_padding_": [
        0,
        0,
        0,
        0
    ],
    "_percent_": true,
    "_position_": 3,
    "_skin_": "s3240d32b9a74cc78d1e0768cd2cdf1b",
    "allboxes": [],
    "canUpdateUI": true,
    "children": [
        "CopyLabel0cf11c070c15849"
    ],
    "containerId": true,
    "containerweight": 100,
    "contextmenu": null,
    "id": "CopyHBox0g38bb404c08340",
    "info": null,
    "iscustomlayout": false,
    "isvisible": true,
    "kuid": "g355b7f0b7834bf593e87fb112bb99de",
    "layouttype": 0,
    "name": "kony.ui.Box",
    "parent": "CopyVBox0ed67521e562046",
    "pf": "segSliderTopbrass",
    "retaincontentalignment": false,
    "retainflexpositionproperties": false,
    "wType": "HBox",
    "widgetalignment": 1
}