{
    "DNDConfig": null,
    "_enabled_": false,
    "_orientation_": 1,
    "_padding_": [
        2,
        2,
        2,
        2
    ],
    "_percent_": true,
    "_position_": 3,
    "_resize_": true,
    "_skin_": "sad44653502a418085173b48180861d8",
    "allboxes": [],
    "borderCollapse": false,
    "canUpdateUI": true,
    "children": [
        "vbox476047582115273"
    ],
    "containerweight": 100,
    "desktopweb": {
        "@class": "com.kony.gen.viz.model.container.property.hbox.DesktopWebHBoxProperty",
        "_margin_": [
            0,
            0,
            0,
            5
        ],
        "_padding_": [
            2,
            2,
            2,
            2
        ],
        "_position_": 3,
        "margin": [
            0,
            0,
            0,
            5
        ],
        "marginInPixel": false,
        "padding": [
            2,
            2,
            2,
            2
        ],
        "paddingInPixel": false,
        "position": 3,
        "render": true
    },
    "focusskin": "sad44653502a418085173b48180861d8",
    "id": "hbox476047582115271",
    "info": null,
    "isvisible": true,
    "kiosk": {
        "@class": "com.kony.gen.viz.model.container.property.hbox.KioskHBoxProperty",
        "_position_": 3,
        "position": 3,
        "render": true
    },
    "kuid": "p2kwiet2012247641128",
    "layoutalignment": 3,
    "layouttype": 0,
    "name": "kony.ui.Box",
    "paddinginpixel": false,
    "parent": "vbox507353026213308",
    "pf": "frmIBCMConfirmation",
    "spa": {
        "@class": "com.kony.gen.viz.model.container.property.hbox.SPAHBoxProperty"
    },
    "templateType": "forms",
    "wType": "HBox",
    "widgetalignment": 1
}