{
    "@class": "com.kony.gen.viz.model.container.KVizVBox",
    "DNDConfig": null,
    "_margin_": [
        0,
        0,
        0,
        0
    ],
    "_orientation_": 2,
    "_padding_": [
        0,
        0,
        0,
        0
    ],
    "_percent_": true,
    "_position_": 3,
    "_skin_": "s687a8f7545b470b824dee150f1e8984",
    "allboxes": [],
    "canUpdateUI": true,
    "children": [
        "hboxMainSlider"
    ],
    "containerId": true,
    "containerweight": 94,
    "contextmenu": null,
    "donotUpdateContainerWeight": false,
    "id": "vBoxSliderMain",
    "info": null,
    "iscustomlayout": false,
    "isvisible": true,
    "kuid": "h85ec029e5b041ebb23022261903c480",
    "layouttype": 0,
    "name": "kony.ui.Box",
    "paddInPixel": [
        0,
        0,
        0,
        0
    ],
    "parent": "hbxSliderDefaultVisa",
    "pf": "segSliderNew4",
    "retaincontentalignment": false,
    "retainflexpositionproperties": false,
    "templateType": "forms",
    "wType": "VBox",
    "widgetalignment": 1
}