{
    "DNDConfig": null,
    "_enabled_": false,
    "_orientation_": 1,
    "_percent_": true,
    "_position_": 3,
    "_resize_": true,
    "_skin_": "sb2d5d2645ee42b4926624992e1bd796",
    "allboxes": [],
    "android": {
        "@class": "com.kony.gen.viz.model.container.property.hbox.AndroidHBoxProperty",
        "_margin_": [
            3,
            0,
            3,
            0
        ],
        "_padding_": [
            2,
            0,
            3,
            0
        ],
        "_position_": 3,
        "margin": [
            3,
            0,
            3,
            0
        ],
        "marginInPixel": false,
        "padding": [
            2,
            0,
            3,
            0
        ],
        "paddingInPixel": false,
        "position": 3,
        "render": true
    },
    "borderCollapse": false,
    "canUpdateUI": true,
    "children": [
        "lblODMyDream",
        "txtODMyDream"
    ],
    "containerweight": 100,
    "focusskin": "sb2d5d2645ee42b4926624992e1bd796",
    "id": "hbxODMyDream",
    "info": null,
    "iphone": {
        "@class": "com.kony.gen.viz.model.container.property.hbox.IPhoneHBoxProperty",
        "_margin_": [
            3,
            0,
            3,
            0
        ],
        "_padding_": [
            3,
            0,
            3,
            0
        ],
        "_position_": 3,
        "margin": [
            3,
            0,
            3,
            0
        ],
        "marginInPixel": false,
        "padding": [
            3,
            0,
            3,
            0
        ],
        "paddingInPixel": false,
        "position": 3,
        "render": true
    },
    "isvisible": true,
    "kuid": "p2kwiet2012247635750",
    "layoutalignment": 3,
    "name": "kony.ui.Box",
    "parent": "sboxRight",
    "pf": "frmOpenAcDreamSaving",
    "spa": {
        "@class": "com.kony.gen.viz.model.container.property.hbox.SPAHBoxProperty"
    },
    "spaan": {
        "@class": "com.kony.gen.viz.model.container.property.hbox.SPAAndroidHBoxProperty",
        "_margin_": [
            3,
            1,
            3,
            0
        ],
        "_padding_": [
            0,
            0,
            0,
            0
        ],
        "margin": [
            3,
            1,
            3,
            0
        ],
        "marginInPixel": false,
        "padding": [
            0,
            0,
            0,
            0
        ],
        "paddingInPixel": false,
        "render": true
    },
    "spabb": {
        "@class": "com.kony.gen.viz.model.container.property.hbox.SPABBHBoxProperty",
        "_margin_": [
            3,
            1,
            3,
            3
        ],
        "_padding_": [
            0,
            0,
            0,
            0
        ],
        "margin": [
            3,
            1,
            3,
            3
        ],
        "marginInPixel": false,
        "padding": [
            0,
            0,
            0,
            0
        ],
        "paddingInPixel": false,
        "render": true
    },
    "spaip": {
        "@class": "com.kony.gen.viz.model.container.property.hbox.SPAIPhoneHBoxProperty",
        "_margin_": [
            3,
            1,
            3,
            0
        ],
        "_padding_": [
            0,
            0,
            0,
            0
        ],
        "margin": [
            3,
            1,
            3,
            0
        ],
        "marginInPixel": false,
        "padding": [
            0,
            0,
            0,
            0
        ],
        "paddingInPixel": false,
        "render": true
    },
    "spawinphone8": {
        "@class": "com.kony.gen.viz.model.container.property.hbox.SPAWinPhone8HBoxProperty",
        "_margin_": [
            3,
            1,
            3,
            3
        ],
        "margin": [
            3,
            1,
            3,
            3
        ],
        "marginInPixel": false,
        "render": true
    },
    "templateType": "forms",
    "wType": "HBox",
    "widgetalignment": 1,
    "winphone8": {
        "@class": "com.kony.gen.viz.model.container.property.hbox.WinPhone8HBoxProperty",
        "_position_": 3,
        "position": 3,
        "psp": {
            "enableCache": false
        },
        "render": true
    }
}