{
    "DNDConfig": null,
    "_enabled_": false,
    "_margin_": [
        0,
        0,
        0,
        0
    ],
    "_padding_": [
        0,
        0,
        0,
        0
    ],
    "_placeholder_": "Please Enter Amount",
    "_skin_": "s91e421e131a4b398da60a4cf43cb486",
    "_text_": "",
    "android": {
        "@class": "com.kony.gen.viz.model.component.property.textbox2.AndroidTextBox2Property",
        "_padding_": [
            1,
            0,
            0,
            0
        ],
        "autoFilter": false,
        "containerHeightMode": 1,
        "ide_onBeginEditing": "p2kwiet2012247635762_txtODTargetAmt_Android_onBeginEditing_seq0",
        "ide_onEndEditing": "p2kwiet2012247635762_txtODTargetAmt_Android_onEndEditing_seq0",
        "keyBoardStyle": "number",
        "padding": [
            1,
            0,
            0,
            0
        ],
        "paddingInPixel": false,
        "psp": {
            "keyboardActionLabel": 12
        },
        "render": true,
        "viewType": "default"
    },
    "autocapitalize": "none",
    "autocomplete": false,
    "autocorrect": false,
    "autofilter": false,
    "canUpdateUI": true,
    "containerheightmode": 1,
    "containerheightreference": 1,
    "containerweight": 100,
    "contentalignment": 4,
    "focusskin": "s81e25bd50564a9e8ca777b7ae0137e8",
    "hexpand": true,
    "id": "txtODTargetAmt",
    "ide_onDone": "p2kwiet2012247635762_txtODTargetAmt_onDone_seq0",
    "ide_onTextChange": "p2kwiet2012247635762_txtODTargetAmt_onTextChange_seq0",
    "info": null,
    "iphone": {
        "@class": "com.kony.gen.viz.model.component.property.textbox2.IPhoneTextBox2Property",
        "_padding_": [
            0,
            0,
            0,
            0
        ],
        "autoCorrect": false,
        "containerHeightMode": 3,
        "ide_onBeginEditing": "p2kwiet2012247635762_txtODTargetAmt_iPhone_onBeginEditing_seq0",
        "ide_onEndEditing": "p2kwiet2012247635762_txtODTargetAmt_iPhone_onEndEditing_seq0",
        "padding": [
            0,
            0,
            0,
            0
        ],
        "paddingInPixel": false,
        "psp": {
            "closeButtonText": "Done",
            "keyboardActionLabel": 2,
            "pasteboardType": 1,
            "showClearButton": true,
            "showCloseButton": true,
            "showProgressIndicator": true
        },
        "render": true,
        "viewType": "default"
    },
    "isvisible": true,
    "keyboardstyle": "number",
    "keyboardtype": "A",
    "kuid": "p2kwiet2012247635730",
    "margininpixel": false,
    "mode": "N",
    "name": "kony.ui.TextBox2",
    "paddinginpixel": false,
    "parent": "vbox47505874738354",
    "pf": "frmOpenAcDreamSaving",
    "placeholderi18n": "keyTargetAmt",
    "placeholderskin": "s1610dfe304c4e7297b7c35bc12fd85d",
    "securetextentry": false,
    "spa": {
        "@class": "com.kony.gen.viz.model.component.property.textbox2.SPATextBox2Property",
        "autoCorrect": false,
        "containerHeightMode": 3,
        "ide_onBeginEditing": "p2kwiet2012247635762_txtODTargetAmt_SPA_onBeginEditing_seq0",
        "ide_onEndEditing": "p2kwiet2012247635762_txtODTargetAmt_SPA_onEndEditing_seq0"
    },
    "spaan": {
        "@class": "com.kony.gen.viz.model.component.property.textbox2.SPAAndroidTextBox2Property",
        "_padding_": [
            0,
            2,
            0,
            2
        ],
        "padding": [
            0,
            2,
            0,
            2
        ],
        "paddingInPixel": false,
        "render": true
    },
    "spabb": {
        "@class": "com.kony.gen.viz.model.component.property.textbox2.SPABBTextBox2Property",
        "render": true
    },
    "spaip": {
        "@class": "com.kony.gen.viz.model.component.property.textbox2.SPAIPhoneTextBox2Property",
        "_padding_": [
            0,
            2,
            0,
            2
        ],
        "padding": [
            0,
            2,
            0,
            2
        ],
        "paddingInPixel": false,
        "render": true
    },
    "spawinphone8": {
        "@class": "com.kony.gen.viz.model.component.property.textbox2.SPAWinPhone8TextBox2Property",
        "render": true
    },
    "textinputmode": "N",
    "vexpand": false,
    "viewtype": "default",
    "wType": "TextField",
    "widgetalignment": 5,
    "winphone8": {
        "@class": "com.kony.gen.viz.model.component.property.textbox2.WinPhone8TextBox2Property",
        "_padding_": [
            0,
            0,
            0,
            0
        ],
        "autoFilter": false,
        "containerHeightMode": 1,
        "padding": [
            0,
            0,
            0,
            0
        ],
        "paddingInPixel": false,
        "psp": {
            "enableCache": false
        },
        "render": true
    }
}