{
    "@class": "com.kony.gen.viz.model.component.KVizLabel",
    "DNDConfig": null,
    "__parentReadjusting__": false,
    "_height_": {
        "type": "ref",
        "value": "preferred"
    },
    "_margin_": [
        1,
        1,
        1,
        1
    ],
    "_padding_": [
        0,
        0,
        0,
        0
    ],
    "_skin_": "s2f9de6079df4be9a4c84599576a43ae",
    "_text_": "Login to complete QR Payment",
    "_top_": {
        "type": "string",
        "value": "120dp"
    },
    "_width_": {
        "type": "ref",
        "value": "preferred"
    },
    "_wrapping_": 2,
    "android": {
        "textStyle": {
            "letterSpacing": 0,
            "strikeThrough": false
        }
    },
    "canUpdateUI": true,
    "centerx": {
        "type": "string",
        "value": "50%"
    },
    "containerweight": 100,
    "contentalignment": 4,
    "id": "LabelLoginForQR",
    "info": null,
    "ipad": {
        "psp": {
            "wrapping": 2
        }
    },
    "iphone": {
        "psp": {
            "wrapping": 2
        }
    },
    "isvisible": false,
    "kuid": "d3b5023804244e56a0a4298cdca8a707",
    "name": "kony.ui.Label",
    "parent": "frmMBPreLoginAccessesPin",
    "pf": "frmMBPreLoginAccessesPin",
    "textstyle": {},
    "tooltip": "",
    "wType": "Label",
    "zindex": 1
}