{
    "DNDConfig": null,
    "_enabled_": false,
    "_margin_": [
        2,
        2,
        2,
        2
    ],
    "_padding_": [
        0,
        0,
        0,
        0
    ],
    "_skin_": "sc9a51591a9b418595992cb9ea7679ee",
    "_text_": "",
    "canUpdateUI": true,
    "containerweight": 7,
    "contentalignment": 5,
    "desktopweb": {
        "@class": "com.kony.gen.viz.model.component.property.button.DesktopWebButtonProperty",
        "_margin_": [
            0,
            2,
            0,
            2
        ],
        "_padding_": [
            0,
            8,
            0,
            0
        ],
        "displayText": true,
        "margin": [
            0,
            2,
            0,
            2
        ],
        "marginInPixel": false,
        "padding": [
            0,
            8,
            0,
            0
        ],
        "paddingInPixel": false,
        "render": true
    },
    "displaytext": true,
    "focusskin": "sc9a51591a9b418595992cb9ea7679ee",
    "hexpand": true,
    "id": "btnfav",
    "ide_onClick": "p2kwiet2012247652096_btnfav_onClick_seq0",
    "info": null,
    "isvisible": true,
    "kiosk": {
        "@class": "com.kony.gen.viz.model.component.property.button.KioskButtonProperty",
        "render": true
    },
    "kuid": "p2kwiet2012247652076",
    "margininpixel": false,
    "name": "kony.ui.Button",
    "paddinginpixel": false,
    "parent": "hBoxBank",
    "pf": "IBReceipentsFavoriteAccntTemplate",
    "spa": {
        "@class": "com.kony.gen.viz.model.component.property.button.SPAButtonProperty",
        "displayText": true
    },
    "vexpand": false,
    "wType": "Button",
    "widgetalignment": 5
}