{
    "DNDConfig": null,
    "__parentReadjusting__": false,
    "_height_": {
        "type": "string",
        "value": "90%"
    },
    "_left_": {
        "type": "string",
        "value": "2%"
    },
    "_margin_": [
        0,
        0,
        0,
        0
    ],
    "_orientation_": 6,
    "_padding_": [
        0,
        0,
        0,
        0
    ],
    "_percent_": true,
    "_skin_": "s8e4b6b210a549949cbc8da443bf7856",
    "_top_": {
        "type": "string",
        "value": "5%"
    },
    "_width_": {
        "type": "string",
        "value": "20%"
    },
    "allboxes": [],
    "autogrowmode": 0,
    "canUpdateUI": true,
    "children": [
        "SwipeImageTopUp",
        "SwipeLabelTopUp"
    ],
    "clipbounds": true,
    "containerweight": 100,
    "enablescrolling": true,
    "id": "SwipeContainerTopUp",
    "ide_onClick": "AS_FlexContainer_c9c10bcc329c4eabb62a36f1cb1d8867",
    "info": null,
    "isvisible": true,
    "kuid": "b86f1f0f5a8640aea661548dff935b32",
    "layouttype": 2,
    "name": "kony.ui.FlexContainer",
    "parent": "SwipeContainerTemp",
    "pf": "frmAccountSummaryLanding",
    "snapgridsize": 10,
    "snaptogrid": true,
    "wType": "FlexContainer",
    "widgetalignment": 1,
    "zindex": 1
}