{
    "DNDConfig": null,
    "__parentReadjusting__": false,
    "_height_": {
        "type": "string",
        "value": "81%"
    },
    "_left_": {
        "type": "string",
        "value": "0dp"
    },
    "_margin_": [
        0,
        0,
        0,
        0
    ],
    "_padding_": [
        0,
        0,
        0,
        0
    ],
    "_skin_": "sa9b4191a4cb4af596e6333712d6b61f",
    "_top_": {
        "type": "string",
        "value": "8%"
    },
    "_width_": {
        "type": "string",
        "value": "100%"
    },
    "allboxes": [],
    "allowhorizontalbounce": false,
    "allowverticalbounce": true,
    "android": {
        "@class": "com.kony.gen.viz.model.container.property.scrollflexcontainer.AndroidScrollFlexContainerProperty",
        "render": true
    },
    "bounces": true,
    "canUpdateUI": true,
    "children": [
        "hbxImgHeader",
        "lblTandC",
        "FlexCheckAgree",
        "hbxImgTail"
    ],
    "containerweight": 100,
    "contentoffset": {},
    "contentsize": {},
    "defaultunit": 2,
    "enablescrolling": true,
    "horizontalscrollindicator": false,
    "id": "FlexScroll",
    "iphone": {
        "@class": "com.kony.gen.viz.model.container.property.scrollflexcontainer.IPhoneScrollFlexContainerProperty",
        "psp": {
            "bouncesZoom": true,
            "maxZoomScale": 1,
            "minZoomScale": 1,
            "zoomScale": 1
        },
        "render": true
    },
    "isvisible": true,
    "kuid": "p2kwiet2012247633256",
    "layouttype": 4,
    "margininpixel": false,
    "name": "kony.ui.FlexScrollContainer",
    "paddinginpixel": false,
    "pagingenabled": false,
    "parent": "frmMBSoGooodProdBrief",
    "pf": "frmMBSoGooodProdBrief",
    "scrolldirection": 2,
    "spa": {
        "@class": "com.kony.gen.viz.model.container.property.scrollflexcontainer.SPAScrollFlexContainerProperty"
    },
    "spaan": {
        "@class": "com.kony.gen.viz.model.container.property.scrollflexcontainer.SPAAndroidScrollFlexContainerProperty",
        "render": true
    },
    "spabb": {
        "@class": "com.kony.gen.viz.model.container.property.scrollflexcontainer.SPABBScrollFlexContainerProperty",
        "render": false
    },
    "spaip": {
        "@class": "com.kony.gen.viz.model.container.property.scrollflexcontainer.SPAIPhoneScrollFlexContainerProperty",
        "render": true
    },
    "spawinphone8": {
        "@class": "com.kony.gen.viz.model.container.property.scrollflexcontainer.SPAWinPhone8ScrollFlexContainerProperty",
        "render": true
    },
    "verticalscrollindicator": true,
    "wType": "FlexScrollContainer",
    "widgetalignment": 1,
    "winphone8": {
        "@class": "com.kony.gen.viz.model.container.property.scrollflexcontainer.WinPhone8ScrollFlexContainerProperty",
        "psp": {
            "enableCache": false
        },
        "render": true
    },
    "zindex": 1
}