{
    "DNDConfig": null,
    "_enabled_": false,
    "_margin_": [
        0,
        0,
        0,
        0
    ],
    "_orientation_": 1,
    "_padding_": [
        1,
        1,
        1,
        1
    ],
    "_percent_": true,
    "_position_": 3,
    "_resize_": true,
    "_skin_": "s67c274d5f8d4023a38621ba91fe3f13",
    "allboxes": [],
    "borderCollapse": false,
    "canUpdateUI": true,
    "children": [
        "btnhistory",
        "btncalender",
        "btnfuture"
    ],
    "containerweight": 100,
    "desktopweb": {
        "@class": "com.kony.gen.viz.model.container.property.hbox.DesktopWebHBoxProperty",
        "_padding_": [
            2,
            2,
            2,
            2
        ],
        "_position_": 3,
        "padding": [
            2,
            2,
            2,
            2
        ],
        "paddingInPixel": false,
        "position": 3,
        "render": true
    },
    "focusskin": "s67c274d5f8d4023a38621ba91fe3f13",
    "id": "hbxBtns",
    "info": null,
    "isvisible": true,
    "kuid": "p2kwiet2012247644255",
    "layoutalignment": 3,
    "layouttype": 0,
    "margininpixel": false,
    "name": "kony.ui.Box",
    "paddinginpixel": false,
    "parent": "vbxXferMiddleRight",
    "pf": "frmIBMyActivities",
    "spa": {
        "@class": "com.kony.gen.viz.model.container.property.hbox.SPAHBoxProperty"
    },
    "templateType": "forms",
    "wType": "HBox",
    "widgetalignment": 1
}