{
    "DNDConfig": null,
    "_enabled_": false,
    "_margin_": [
        2,
        2,
        2,
        2
    ],
    "_padding_": [
        1,
        1,
        1,
        1
    ],
    "_skin_": "s1576c487d154b718a2012ba3ba0c50c",
    "_text_": "",
    "_wrapping_": 2,
    "canUpdateUI": true,
    "containerweight": 100,
    "contentalignment": 5,
    "desktopweb": {
        "@class": "com.kony.gen.viz.model.component.property.label.DesktopWebLabelProperty",
        "_margin_": [
            0,
            5,
            0,
            0
        ],
        "contentAlignment": 5,
        "margin": [
            0,
            5,
            0,
            0
        ],
        "marginInPixel": false,
        "psp": {
            "textCopyable": false
        },
        "render": true
    },
    "hexpand": true,
    "id": "lblNoActivities",
    "info": null,
    "isvisible": false,
    "kuid": "p2kwiet2012247644542",
    "margininpixel": false,
    "name": "kony.ui.Label",
    "paddinginpixel": false,
    "parent": "vboxTxnsMain",
    "pf": "frmIBMyActivities",
    "spa": {
        "@class": "com.kony.gen.viz.model.component.property.label.SPALabelProperty",
        "psp": {
            "textCopyable": false
        }
    },
    "texti18n": "keyCalendarNoActivitiesForTxnType",
    "tooltip": "",
    "vexpand": true,
    "wType": "Label",
    "widgetalignment": 5
}