{
    "@class": "com.kony.gen.viz.model.component.KVizButton",
    "DNDConfig": null,
    "__parentReadjusting__": false,
    "_height_": {
        "type": "string",
        "value": "100%"
    },
    "_margin_": [
        6,
        6,
        6,
        6
    ],
    "_padding_": [
        0,
        0,
        0,
        0
    ],
    "_skin_": "s8f1d8dffc714ea0b1897344572a7cef",
    "_text_": "Miss.",
    "_top_": {
        "type": "string",
        "value": "0dp"
    },
    "_width_": {
        "type": "string",
        "value": "34%"
    },
    "activeNativeBorderCornerRadiusControl": "topRightControl",
    "canUpdateUI": true,
    "containerweight": 100,
    "contentalignment": 5,
    "displaytext": true,
    "focusskin": "s8f1d8dffc714ea0b1897344572a7cef",
    "id": "btnMiss",
    "info": null,
    "iphone": {
        "psp": {
            "showProgressIndicator": false
        }
    },
    "isvisible": true,
    "kuid": "aea5b80387a04e6ba2b91abddf414eb3",
    "name": "kony.ui.Button",
    "parent": "flxSalutation",
    "pf": "frmMBeKYCPersonalInform",
    "showprogressindicator": false,
    "wType": "Button",
    "zindex": 1
}