{
    "DNDConfig": null,
    "_enabled_": false,
    "_margin_": [
        0,
        0,
        0,
        0
    ],
    "_orientation_": 2,
    "_padding_": [
        1,
        1,
        1,
        0
    ],
    "_position_": 3,
    "_resize_": true,
    "_skin_": "sd8830aa54674b7c88e2bc24ab3f9828",
    "allboxes": [],
    "borderCollapse": false,
    "canUpdateUI": true,
    "children": [
        "hbox866854059301778",
        "hboxPdfPrintEmail",
        "hboxImg",
        "lblCongrats",
        "hbxOASCTitle",
        "hbxOASCNicNam",
        "hbxOASCActNumVal",
        "hbxOASCActName",
        "hbxOASCBranch",
        "hbxOASCOpenAct",
        "hbxOASCIntRate",
        "hbxOASCOpenDate",
        "hbxOASCTranRefNo",
        "lblOAPayIntAck",
        "linOATDAck1",
        "hboxBenificiariesList",
        "hboxNoBenificiaryMessage",
        "hbox866854059250067",
        "hbox47505967399619",
        "hbxOpenActNotify",
        "hbxAdv",
        "hbox866854059250344"
    ],
    "containerweight": 50,
    "desktopweb": {
        "@class": "com.kony.gen.viz.model.container.property.vbox.DesktopWebVBoxProperty",
        "_padding_": [
            2,
            2,
            2,
            0
        ],
        "padding": [
            2,
            2,
            2,
            0
        ],
        "paddingInPixel": false,
        "render": true
    },
    "id": "vboxMiddle",
    "info": null,
    "isvisible": true,
    "kiosk": {
        "@class": "com.kony.gen.viz.model.container.property.vbox.KioskVBoxProperty",
        "render": true
    },
    "kuid": "p2kwiet2012247646282",
    "layouttype": 0,
    "margininpixel": false,
    "name": "kony.ui.Box",
    "paddinginpixel": false,
    "parent": "hbxBPMiddleRight",
    "pf": "frmIBOpenNewSavingsCareAccComplete",
    "spa": {
        "@class": "com.kony.gen.viz.model.container.property.vbox.SPAVBoxProperty"
    },
    "templateType": "forms",
    "wType": "VBox",
    "widgetalignment": 1
}