{
    "@class": "com.kony.gen.viz.model.container.KVizHBox",
    "DNDConfig": null,
    "_margin_": [
        0,
        0,
        0,
        0
    ],
    "_orientation_": 1,
    "_padding_": [
        0,
        0,
        0,
        0
    ],
    "_percent_": true,
    "_position_": 3,
    "_skin_": "s7d1c9f8be544e4bb0d7eebb672b7628",
    "allboxes": [],
    "canUpdateUI": true,
    "children": [
        "VBox0aa0c797b4dd447"
    ],
    "containerId": true,
    "containerweight": 100,
    "contextmenu": null,
    "disabledSkins": {},
    "focusskin": "s7d1c9f8be544e4bb0d7eebb672b7628",
    "id": "HBox0eb8c8e04c3b447",
    "info": null,
    "iscustomlayout": false,
    "isvisible": true,
    "kuid": "e9ed2f638b6d42d08d1d24c671af83d0",
    "layouttype": 0,
    "name": "kony.ui.Box",
    "parent": "vbxSlider",
    "pf": "segSliderNew1",
    "retaincontentalignment": false,
    "retainflexpositionproperties": false,
    "wType": "HBox",
    "widgetalignment": 1
}