{
    "@class": "com.kony.gen.viz.model.container.KVizHBox",
    "DNDConfig": null,
    "_margin_": [
        0,
        0,
        0,
        0
    ],
    "_orientation_": 1,
    "_padding_": [
        0,
        0,
        0,
        0
    ],
    "_percent_": true,
    "_position_": 3,
    "_skin_": "s9923e6468564aabbcabde41f0d41863",
    "allboxes": [],
    "canUpdateUI": true,
    "children": [
        "vbxSlider"
    ],
    "containerId": true,
    "containerweight": 100,
    "contextmenu": null,
    "id": "hboxMainSlider",
    "info": null,
    "iscustomlayout": false,
    "isvisible": true,
    "kuid": "fe7e7e1de59d47a6bbed93ca78552bd0",
    "layouttype": 0,
    "name": "kony.ui.Box",
    "parent": "vBoxSliderMain",
    "pf": "segSliderNew5",
    "retaincontentalignment": false,
    "retainflexpositionproperties": false,
    "templateType": "forms",
    "wType": "HBox",
    "widgetalignment": 1
}