{
    "@class": "com.kony.gen.viz.model.component.KVizImage2",
    "DNDConfig": null,
    "_base64_": null,
    "_margin_": [
        0,
        0,
        0,
        0
    ],
    "_padding_": [
        0,
        0,
        0,
        0
    ],
    "_skin_": "s55d8a5125e74bb0b2eaca75c423dae1",
    "_src_": "new_icon_01.png",
    "canUpdateUI": true,
    "containerId": true,
    "containerweight": 100,
    "context": {
        "channel": "mobile",
        "ispercent": true,
        "platform": "iphone",
        "templateType": "segments",
        "topLevelBox": false
    },
    "id": "img1",
    "imagescalemode": 1,
    "imagewhenfailed": "",
    "imagewhiledownloading": "new_icon_01.png",
    "info": null,
    "invokedProperty": "imageWhileDownloading",
    "ispercent": true,
    "isvisible": true,
    "kuid": "h4047bf64b974948b9256e674518383e",
    "name": "kony.ui.Image2",
    "parent": "HBox0h2ca6d5678eb46",
    "pf": "segSliderNew5",
    "referenceheight": 70,
    "referencewidth": 70,
    "srcType": 1,
    "wType": "Image",
    "widgetalignment": 4
}