{
    "DNDConfig": null,
    "_enabled_": false,
    "_margin_": [
        0,
        0,
        0,
        0
    ],
    "_padding_": [
        0,
        3,
        2,
        3
    ],
    "_skin_": "se8b14e75ed14d658bda36aa266aa782",
    "_text_": "",
    "canUpdateUI": true,
    "containerweight": 31,
    "contentalignment": 5,
    "desktopweb": {
        "@class": "com.kony.gen.viz.model.component.property.button.DesktopWebButtonProperty",
        "_margin_": [
            0,
            0,
            2,
            0
        ],
        "_padding_": [
            0,
            0,
            0,
            0
        ],
        "displayText": true,
        "margin": [
            0,
            0,
            2,
            0
        ],
        "marginInPixel": false,
        "padding": [
            0,
            0,
            0,
            0
        ],
        "paddingInPixel": false,
        "render": true
    },
    "displaytext": true,
    "focusskin": "s5acbd7611124b5db2432a29feceb493",
    "hexpand": true,
    "id": "button506459299456960",
    "ide_onClick": "p2kwiet2012247648472_button506459299456960_onClick_seq0",
    "info": null,
    "isvisible": true,
    "kiosk": {
        "@class": "com.kony.gen.viz.model.component.property.button.KioskButtonProperty",
        "_padding_": [
            0,
            3,
            2,
            3
        ],
        "padding": [
            0,
            3,
            2,
            3
        ],
        "paddingInPixel": false,
        "render": true
    },
    "kuid": "p2kwiet2012247648446",
    "margininpixel": false,
    "name": "kony.ui.Button",
    "paddinginpixel": false,
    "parent": "hbox506459299456959",
    "pf": "frmIBTokenActivationPage",
    "spa": {
        "@class": "com.kony.gen.viz.model.component.property.button.SPAButtonProperty",
        "displayText": true
    },
    "texti18n": "keyCancelButton",
    "vexpand": false,
    "wType": "Button",
    "widgetalignment": 6
}