{
    "DNDConfig": null,
    "__parentReadjusting__": false,
    "_bottom_": {
        "type": "string",
        "value": "0%"
    },
    "_height_": {
        "type": "string",
        "value": "100%"
    },
    "_left_": {
        "type": "string",
        "value": "5%"
    },
    "_margin_": [
        0,
        0,
        0,
        0
    ],
    "_orientation_": 6,
    "_padding_": [
        0,
        0,
        0,
        0
    ],
    "_percent_": true,
    "_skin_": "s601cdd9fa3649ca93158b9088d5415b",
    "_width_": {
        "type": "string",
        "value": "42%"
    },
    "allboxes": [],
    "autogrowmode": 0,
    "canUpdateUI": true,
    "children": [
        "lblMooOfficeAddress",
        "tbxMooOfficeAddress",
        "lblMainMooOfficeAddress"
    ],
    "clipbounds": true,
    "containerweight": 100,
    "enablescrolling": true,
    "id": "FlexMooOfficeAddress",
    "info": null,
    "isvisible": true,
    "kuid": "ga9d158938bf4677a3e9bf5aa94389aa",
    "layouttype": 2,
    "name": "kony.ui.FlexContainer",
    "parent": "flxAddressMooOfficeAddress",
    "pf": "frmMBeKYCContactInfo",
    "snapgridsize": 10,
    "snaptogrid": true,
    "wType": "FlexContainer",
    "widgetalignment": 1,
    "zindex": 1
}