{
    "DNDConfig": null,
    "__parentReadjusting__": false,
    "_height_": {
        "type": "ref",
        "value": "preferred"
    },
    "_left_": {
        "type": "string",
        "value": "0%"
    },
    "_margin_": [
        0,
        0,
        0,
        0
    ],
    "_orientation_": 6,
    "_padding_": [
        0,
        0,
        0,
        0
    ],
    "_percent_": true,
    "_skin_": "sc94709174804543bd80078a3378014d",
    "_top_": {
        "type": "string",
        "value": "15dp"
    },
    "_width_": {
        "type": "string",
        "value": "100%"
    },
    "allboxes": [],
    "autogrowmode": 1,
    "canUpdateUI": true,
    "children": [
        "flxAddressMooOfficeAddress",
        "FlexBuildingNoOfficeAddress",
        "FlexSoiOfficeAddress",
        "FlexRoadOfficeAddress",
        "flxSubDistrictOfficeAddress",
        "flxSearchAddressOfficeAddress",
        "flxDistrictOfficeAddress",
        "flxProvinceOfficeAddress",
        "flxZipCodeOfficeAddress",
        "flxCountryOfficeAddress",
        "flxCompanyName2",
        "flxOfficePhoneMain2"
    ],
    "clipbounds": true,
    "containerweight": 100,
    "enablescrolling": true,
    "id": "flxScrollAddressOfficeAddress",
    "info": null,
    "iscustomlayout": false,
    "isvisible": false,
    "kuid": "eb501de2e8e848c588ac7a50f868b4ce",
    "layouttype": 4,
    "name": "kony.ui.FlexContainer",
    "parent": "flxOfficeAddress",
    "pf": "frmMBeKYCContactInfo",
    "retaincontentalignment": false,
    "retainflexpositionproperties": false,
    "snapgridsize": 10,
    "snaptogrid": true,
    "vizProps": {},
    "wType": "FlexContainer",
    "widgetalignment": 1,
    "zindex": 1
}