{
    "@class": "com.kony.gen.viz.model.component.KVizLabel",
    "DNDConfig": null,
    "__parentReadjusting__": false,
    "_height_": {
        "type": "ref",
        "value": "preferred"
    },
    "_left_": {
        "type": "string",
        "value": "4%"
    },
    "_margin_": [
        1,
        1,
        1,
        1
    ],
    "_padding_": [
        0,
        2,
        0,
        0
    ],
    "_skin_": "s8a5bb63303d4c85b0386047e81bdced",
    "_text_": "",
    "_top_": {
        "type": "string",
        "value": "0"
    },
    "_width_": {
        "type": "string",
        "value": "96%"
    },
    "_wrapping_": 2,
    "android": {
        "textStyle": {
            "letterSpacing": 0,
            "strikeThrough": false
        }
    },
    "canUpdateUI": true,
    "containerweight": 100,
    "contentalignment": 4,
    "id": "lblCountryBlack",
    "info": null,
    "ipad": {
        "psp": {
            "wrapping": 2
        }
    },
    "iphone": {
        "psp": {
            "wrapping": 2
        }
    },
    "isvisible": false,
    "kuid": "e9aaac49078b458dbb5b87c698cca282",
    "name": "kony.ui.Label",
    "paddinginpixel": false,
    "parent": "subFlexCountryStatus",
    "pf": "frmMBeKYCContactInfo",
    "texti18n": "Country_Label",
    "textstyle": {},
    "tooltip": "",
    "wType": "Label",
    "zindex": 1
}