{
    "DNDConfig": null,
    "_enabled_": false,
    "_margin_": [
        0,
        0,
        4,
        0
    ],
    "_padding_": [
        0,
        0,
        0,
        0
    ],
    "_skin_": "s58db6f6fa824cd895a755be2072ffab",
    "_text_": "",
    "android": {
        "@class": "com.kony.gen.viz.model.component.property.button.AndroidButtonProperty",
        "_margin_": [
            0,
            0,
            0,
            0
        ],
        "_padding_": [
            0,
            0,
            3,
            0
        ],
        "displayText": true,
        "margin": [
            0,
            0,
            0,
            0
        ],
        "marginInPixel": false,
        "padding": [
            0,
            0,
            3,
            0
        ],
        "paddingInPixel": false,
        "render": true
    },
    "canUpdateUI": true,
    "containerweight": 13,
    "contentalignment": 5,
    "displaytext": true,
    "focusskin": "s58db6f6fa824cd895a755be2072ffab",
    "hexpand": false,
    "id": "btnShow",
    "ide_onClick": "p2kwiet2012247626847_btnShow_onClick_seq0",
    "info": null,
    "iphone": {
        "@class": "com.kony.gen.viz.model.component.property.button.IPhoneButtonProperty",
        "_margin_": [
            0,
            0,
            0,
            2
        ],
        "_padding_": [
            1,
            9,
            0,
            9
        ],
        "displayText": true,
        "margin": [
            0,
            0,
            0,
            2
        ],
        "marginInPixel": false,
        "padding": [
            1,
            9,
            0,
            9
        ],
        "paddingInPixel": true,
        "psp": {
            "glowEffect": false
        },
        "render": true
    },
    "isvisible": true,
    "kuid": "p2kwiet2012247626805",
    "margininpixel": false,
    "name": "kony.ui.Button",
    "paddinginpixel": false,
    "parent": "hbox1010031596105826",
    "pf": "frmAddTopUpToMB",
    "spa": {
        "@class": "com.kony.gen.viz.model.component.property.button.SPAButtonProperty",
        "displayText": true
    },
    "spaan": {
        "@class": "com.kony.gen.viz.model.component.property.button.SPAAndroidButtonProperty",
        "_margin_": [
            0,
            0,
            4,
            0
        ],
        "_padding_": [
            0,
            8,
            6,
            8
        ],
        "margin": [
            0,
            0,
            4,
            0
        ],
        "marginInPixel": false,
        "padding": [
            0,
            8,
            6,
            8
        ],
        "paddingInPixel": false,
        "render": true
    },
    "spabb": {
        "@class": "com.kony.gen.viz.model.component.property.button.SPABBButtonProperty",
        "_margin_": [
            0,
            0,
            4,
            0
        ],
        "_padding_": [
            0,
            8,
            0,
            8
        ],
        "margin": [
            0,
            0,
            4,
            0
        ],
        "marginInPixel": false,
        "padding": [
            0,
            8,
            0,
            8
        ],
        "paddingInPixel": false,
        "render": true
    },
    "spaip": {
        "@class": "com.kony.gen.viz.model.component.property.button.SPAIPhoneButtonProperty",
        "_margin_": [
            0,
            0,
            4,
            0
        ],
        "_padding_": [
            0,
            8,
            6,
            8
        ],
        "margin": [
            0,
            0,
            4,
            0
        ],
        "marginInPixel": false,
        "padding": [
            0,
            8,
            6,
            8
        ],
        "paddingInPixel": false,
        "render": true
    },
    "spawinphone8": {
        "@class": "com.kony.gen.viz.model.component.property.button.SPAWinPhone8ButtonProperty",
        "_margin_": [
            0,
            0,
            4,
            0
        ],
        "margin": [
            0,
            0,
            4,
            0
        ],
        "marginInPixel": false,
        "render": true
    },
    "vexpand": false,
    "wType": "Button",
    "widgetalignment": 6,
    "winphone8": {
        "@class": "com.kony.gen.viz.model.component.property.button.WinPhone8ButtonProperty",
        "_margin_": [
            0,
            0,
            13,
            0
        ],
        "_padding_": [
            1,
            10,
            1,
            10
        ],
        "displayText": true,
        "margin": [
            0,
            0,
            13,
            0
        ],
        "marginInPixel": true,
        "padding": [
            1,
            10,
            1,
            10
        ],
        "paddingInPixel": true,
        "psp": {
            "enableCache": false
        },
        "render": true
    }
}