{
    "DNDConfig": null,
    "_enabled_": false,
    "_margin_": [
        0,
        0,
        0,
        0
    ],
    "_padding_": [
        0,
        3,
        0,
        3
    ],
    "_skin_": "sc8d22a7369440d298a3997385353e11",
    "_text_": "",
    "canUpdateUI": true,
    "containerweight": 11,
    "contentalignment": 5,
    "desktopweb": {
        "@class": "com.kony.gen.viz.model.component.property.button.DesktopWebButtonProperty",
        "_margin_": [
            3,
            35,
            0,
            0
        ],
        "_padding_": [
            0,
            0,
            0,
            0
        ],
        "contentAlignment": 5,
        "displayText": true,
        "margin": [
            3,
            35,
            0,
            0
        ],
        "marginInPixel": false,
        "padding": [
            0,
            0,
            0,
            0
        ],
        "paddingInPixel": false,
        "psp": {
            "hoverSkin": "s25d7e126ce6427698928eb02e5684e5"
        },
        "render": true
    },
    "displaytext": true,
    "focusskin": "s25d7e126ce6427698928eb02e5684e5",
    "hexpand": true,
    "id": "btnsubmit",
    "ide_onClick": "p2kwiet2012247640665_btnsubmit_onClick_seq0",
    "info": null,
    "isvisible": true,
    "kuid": "p2kwiet2012247640620",
    "margininpixel": false,
    "name": "kony.ui.Button",
    "paddinginpixel": false,
    "parent": "hbxslider",
    "pf": "frmIBChequeServiceViewReturnedCheque",
    "spa": {
        "@class": "com.kony.gen.viz.model.component.property.button.SPAButtonProperty",
        "displayText": true
    },
    "texti18n": "MyActivitiesIB_Submit",
    "vexpand": false,
    "wType": "Button",
    "widgetalignment": 5
}