{
    "DNDConfig": null,
    "_data_": [
        {
            "column1": {
                "lbltransid": {
                    "skin": "sdff89237eda49a5b5ec44f82b073273",
                    "text": ""
                }
            },
            "column2": {
                "lbltransid": {
                    "skin": "sdff89237eda49a5b5ec44f82b073273",
                    "text": ""
                }
            },
            "column4": {
                "lbltransid": {
                    "skin": "sdff89237eda49a5b5ec44f82b073273",
                    "text": ""
                }
            },
            "column5": {},
            "column6": {}
        },
        {
            "column1": {},
            "column2": {},
            "column4": {},
            "column5": {},
            "column6": {}
        }
    ],
    "_enabled_": false,
    "_margin_": [
        0,
        0,
        0,
        0
    ],
    "_padding_": [
        0,
        0,
        0,
        0
    ],
    "_text_": "",
    "canUpdateUI": true,
    "cellBorder": "thin solid #5c115c",
    "columnheadersconfig": [
        {
            "columnContentAlignment": 5,
            "columnDataTemplate": "p2kwiet2012247652404",
            "columnHeaderTemplate": {
                "data": {
                    "btnsort": {
                        "skin": "sd8d2436d8c7442d90ccc608375cfbdc",
                        "text": ""
                    },
                    "lbldate": {
                        "i18nkey": "keyIBPostDate",
                        "skin": "s1cea515e85b4b3b98c5c8cd183bcc10",
                        "text": ""
                    }
                },
                "template": "p2kwiet2012247652404"
            },
            "columnHeaderText": "IBMyActivitiesH3",
            "columnID": "column1",
            "columnType": "template",
            "columnWidthInPercentage": 0,
            "ide_onClick": "p2kwiet2012247640665_dgfullstmt_column1_onClick_seq0",
            "isColumnSortable": true,
            "kuid": "columndata201224764511"
        },
        {
            "columnContentAlignment": 5,
            "columnDataTemplate": "p2kwiet2012247652370",
            "columnHeaderTemplate": {
                "data": {
                    "lbltransid": {
                        "i18nkey": "lblChequeNoIB",
                        "skin": "s1cea515e85b4b3b98c5c8cd183bcc10",
                        "text": ""
                    }
                },
                "template": "p2kwiet2012247652370"
            },
            "columnHeaderText": "IBMyActivitiesFTC2",
            "columnID": "column2",
            "columnType": "template",
            "columnWidthInPercentage": 0,
            "isColumnSortable": true,
            "kuid": "columndata201224764513"
        },
        {
            "columnContentAlignment": 5,
            "columnDataTemplate": "p2kwiet2012247652370",
            "columnHeaderTemplate": {
                "data": {
                    "lbltransid": {
                        "i18nkey": "keyBankName",
                        "skin": "s1cea515e85b4b3b98c5c8cd183bcc10",
                        "text": ""
                    }
                },
                "template": "p2kwiet2012247652370"
            },
            "columnHeaderText": "IBMyActivitiesFTC2",
            "columnID": "column4",
            "columnType": "template",
            "columnWidthInPercentage": 0,
            "isColumnSortable": true,
            "kuid": "columndata201224764515"
        },
        {
            "columnContentAlignment": 5,
            "columnDataTemplate": "p2kwiet2012247652374",
            "columnHeaderTemplate": {
                "data": {
                    "lbltransid": {
                        "i18nkey": "MyActivitiesIB_Amount",
                        "skin": "s1cea515e85b4b3b98c5c8cd183bcc10",
                        "text": ""
                    }
                },
                "template": "p2kwiet2012247652374"
            },
            "columnHeaderText": "IBMyActivitiesFTC3",
            "columnID": "column5",
            "columnType": "template",
            "columnWidthInPercentage": 0,
            "isColumnSortable": true,
            "kuid": "columndata201224764517"
        },
        {
            "columnContentAlignment": 5,
            "columnDataTemplate": "p2kwiet2012247652370",
            "columnHeaderTemplate": {
                "data": {
                    "lbltransid": {
                        "i18nkey": "MyActivitiesIB_Reason",
                        "skin": "s1cea515e85b4b3b98c5c8cd183bcc10",
                        "text": ""
                    }
                },
                "template": "p2kwiet2012247652370"
            },
            "columnHeaderText": "IBMyActivitiesFTC2",
            "columnID": "column6",
            "columnType": "template",
            "columnWidthInPercentage": 0,
            "isColumnSortable": true,
            "kuid": "columndata201224764519"
        }
    ],
    "columnids": [
        "col1",
        "col2",
        "col3"
    ],
    "columntype": [
        "text",
        "text",
        "text"
    ],
    "containerweight": 100,
    "contentalignment": 1,
    "context": {
        "channel": "mobile",
        "formID": "NewForm2013722173539288",
        "platform": "iphone",
        "templateType": "forms",
        "topLevelBox": null
    },
    "counter": 5,
    "desktopweb": {
        "@class": "com.kony.gen.viz.model.component.property.table.DesktopWebTableProperty",
        "_margin_": [
            0,
            0,
            0,
            0
        ],
        "_padding_": [
            0,
            0,
            0,
            0
        ],
        "margin": [
            0,
            0,
            0,
            0
        ],
        "marginInPixel": false,
        "padding": [
            0,
            0,
            0,
            0
        ],
        "paddingInPixel": false,
        "psp": {
            "dockingHeader": false,
            "enableScrollBar": "0"
        },
        "render": true
    },
    "focusedindex": null,
    "focuseditem": null,
    "focusskin": "dgIBgrey",
    "gridlinecolor": "5c115c",
    "gridlinestyle": "solid",
    "headerskin": "s6ca9a3f012249ca9e5140369fd3e290",
    "hexpand": true,
    "id": "dgfullstmt",
    "info": null,
    "ismultiselect": false,
    "isvisible": true,
    "kuid": "p2kwiet2012247640661",
    "margininpixel": false,
    "name": "kony.ui.DataGrid",
    "paddinginpixel": false,
    "parent": "vbxXferMiddleRight",
    "pf": "frmIBChequeServiceViewReturnedCheque",
    "rowalternateskin": "s095c5a1e9e643f68412e0f56c38671a",
    "rowcount": 4,
    "rowfocusskin": "s0f013db827e4c5e96185dcb5c324e92",
    "rownormalskin": "s169b00af8914b5a921c0aa83241afd3",
    "selectedcellindex": null,
    "selectedcellitem": null,
    "selectedindex": null,
    "selectedindices": null,
    "selecteditem": null,
    "selecteditems": null,
    "showcolumnheaders": true,
    "spa": {
        "@class": "com.kony.gen.viz.model.component.property.table.SPATableProperty"
    },
    "vexpand": false,
    "wType": "DataGrid",
    "widgetalignment": 5
}