{
    "@class": "com.kony.gen.viz.model.container.KVizVBox",
    "DNDConfig": null,
    "_margin_": [
        0,
        0,
        0,
        0
    ],
    "_orientation_": 2,
    "_padding_": [
        0,
        0,
        0,
        0
    ],
    "_percent_": true,
    "_position_": 3,
    "_skin_": "s0e13ed4077f481ab090dae6b2e595ed",
    "allboxes": [],
    "canUpdateUI": true,
    "children": [
        "HBox0e35981f95c4248",
        "HBox0a379582dedc348"
    ],
    "containerId": true,
    "containerweight": 34,
    "contextmenu": null,
    "id": "VBox0c66a53cc99e74f",
    "info": null,
    "isSegmentChild": true,
    "iscustomlayout": false,
    "isvisible": true,
    "kuid": "c4cc7e516d394166812f9f39981c82d1",
    "layouttype": 0,
    "name": "kony.ui.Box",
    "paddInPixel": [
        0,
        0,
        0,
        0
    ],
    "parent": "hbxRadioBtn",
    "pf": "vbox201224764603",
    "retaincontentalignment": false,
    "retainflexpositionproperties": false,
    "wType": "VBox",
    "widgetalignment": 1
}