{
    "DNDConfig": null,
    "_enabled_": false,
    "_margin_": [
        2,
        0,
        2,
        0
    ],
    "_orientation_": 2,
    "_padding_": [
        0,
        0,
        0,
        0
    ],
    "_position_": 3,
    "_resize_": true,
    "_skin_": "sd8830aa54674b7c88e2bc24ab3f9828",
    "allboxes": [],
    "borderCollapse": false,
    "canUpdateUI": true,
    "children": [
        "label449290336722095",
        "hbox447413534513776",
        "lblAllHidden",
        "hbox44557018542145",
        "button474201253135915"
    ],
    "containerweight": 50,
    "desktopweb": {
        "@class": "com.kony.gen.viz.model.container.property.vbox.DesktopWebVBoxProperty",
        "_padding_": [
            0,
            0,
            2,
            0
        ],
        "padding": [
            0,
            0,
            2,
            0
        ],
        "paddingInPixel": false,
        "render": true
    },
    "id": "vbox474969373109364",
    "ide_onClick": "p2kwiet2012247639197_vbox474969373109364_onClick_seq0",
    "info": null,
    "isvisible": true,
    "kiosk": {
        "@class": "com.kony.gen.viz.model.container.property.vbox.KioskVBoxProperty",
        "render": true
    },
    "kuid": "p2kwiet2012247639192",
    "layouttype": 0,
    "margininpixel": false,
    "name": "kony.ui.Box",
    "paddinginpixel": false,
    "parent": "hbox450064933452914",
    "pf": "frmIBBankAssuranceSummary",
    "spa": {
        "@class": "com.kony.gen.viz.model.container.property.vbox.SPAVBoxProperty"
    },
    "templateType": "forms",
    "wType": "VBox",
    "widgetalignment": 1
}