{
  "android": {
    "background_image": "btnlightgreybg.png",
    "bg_type": "image",
    "font_name": "DBOzoneX",
    "font_size": 200,
    "isForked": false
  },
  "androidwearos": {
    "font_name": "default",
    "font_size": 200,
    "isForked": false
  },
  "applicableblockedUIWidget": "Button",
  "background_color": "eeeeeeff",
  "bg_type": "one",
  "blockedimgURL": "",
  "border_color": "eeeeeeff",
  "border_radius": 10,
  "border_style": "custom",
  "border_type": 0,
  "border_width": 1,
  "bottom_left_border_color": "000000ff",
  "bottom_left_border_radius": 10,
  "bottom_left_border_width": 0,
  "bottom_right_border_color": "000000ff",
  "bottom_right_border_radius": 10,
  "bottom_right_border_width": 0,
  "desktopweb": {
    "applicableblockedUIWidget": "Button",
    "background_left_image": "btnbluethree.png",
    "background_style": "vg",
    "bg_type": "image",
    "blockedimgURL": "",
    "border_color": "000000ff",
    "border_radius": 0,
    "border_style": "plain",
    "border_type": 0,
    "border_width": 0,
    "bottom_left_border_color": "000000ff",
    "bottom_left_border_radius": 10,
    "bottom_left_border_width": 0,
    "bottom_right_border_color": "000000ff",
    "bottom_right_border_radius": 10,
    "bottom_right_border_width": 0,
    "font_color": "ffffffff",
    "font_name": "DB Ozone X",
    "font_size": 200,
    "font_weight": "normal",
    "isForked": false,
    "top_left_border_color": "000000ff",
    "top_left_border_radius": 10,
    "top_left_border_width": 0,
    "top_right_border_color": "000000ff",
    "top_right_border_radius": 10,
    "top_right_border_width": 0,
    "vizChannel": "desktopweb",
    "wType": "Button"
  },
  "fontSizeInPx": false,
  "font_color": "007abcff",
  "font_size": 200,
  "font_weight": "normal",
  "gridLineColor": "0000000",
  "ipad": {
    "font_name": "System",
    "font_size": 200,
    "isForked": false
  },
  "iphone": {
    "background_image": "btnlightgreybg.png",
    "bg_type": "image",
    "font_name": "DBOzoneX",
    "font_size": 200,
    "isForked": false
  },
  "isDefaultSkin": false,
  "isForked": false,
  "kiosk": {
    "font_name": "None",
    "font_size": 200,
    "isForked": false
  },
  "kuid": "s1d13f25f1b142c49f0324b12b8efbda",
  "shadow": {
    "br": 0,
    "color": "000000",
    "inner": false,
    "x": 0,
    "y": 0
  },
  "spaan": {
    "font_name": "Helvetica",
    "font_size": 200,
    "isForked": false
  },
  "spaandroidtablet": {
    "font_name": "Helvetica",
    "font_size": 200,
    "isForked": false
  },
  "spabb": {
    "font_name": "Helvetica",
    "font_size": 200,
    "isForked": false
  },
  "spaip": {
    "font_name": "Helvetica",
    "font_size": 200,
    "isForked": false
  },
  "spaipad": {
    "font_name": "Helvetica",
    "font_size": 200,
    "isForked": false
  },
  "spawindowstablet": {
    "font_name": "Helvetica",
    "font_size": 200,
    "isForked": false
  },
  "spawinphone8": {
    "font_name": "Helvetica",
    "font_size": 200,
    "isForked": false
  },
  "tabrcandroid": {
    "font_name": "default",
    "font_size": 200,
    "isForked": false
  },
  "text_shadow": {
    "br": 0,
    "color": "000000",
    "x": 0,
    "y": 0
  },
  "top_left_border_color": "000000ff",
  "top_left_border_radius": 10,
  "top_left_border_width": 0,
  "top_right_border_color": "000000ff",
  "top_right_border_radius": 10,
  "top_right_border_width": 0,
  "vizChannel": "default",
  "wType": "Button",
  "watchos": {
    "font_name": "System",
    "font_size": 200,
    "isForked": false
  },
  "windows8": {
    "font_name": "None",
    "font_size": 200,
    "isForked": false
  },
  "winphone8": {
    "font_name": "None",
    "font_size": 200,
    "isForked": false
  }
}