{
    "applicableblockedUIWidget": "Button",
    "background_color": "ffffff00",
    "background_style": "vg",
    "bg_type": "one",
    "blockedimgURL": "",
    "border_color": "000000ff",
    "border_radius": 0,
    "border_style": "plain",
    "border_type": 0,
    "border_width": 0,
    "bottom_left_border_color": "000000ff",
    "bottom_left_border_radius": 10,
    "bottom_left_border_width": 0,
    "bottom_right_border_color": "000000ff",
    "bottom_right_border_radius": 10,
    "bottom_right_border_width": 0,
    "desktopweb": {
        "customCSS": "width:72px; height: 24px; margin: 0!important; padding: 0!important; text-align: center; vertical-align: middle; font: normal 20px 'DB Ozone X Med'; color:#FFFFFF; background-color: #007ABC; -webkit-border-radius:5px; -moz-border-radius:5px; -o-border-radius:5px; border-radius:5px; cursor:pointer; outline:0 none; border: 0 none; -webkit-appearance:none; -moz-appearance:none;",
        "isCustomCSSEnabled": true,
        "isForked": true
    },
    "font_color": "000000ff",
    "font_size": 100,
    "font_weight": "normal",
    "gridLineColor": "0000000",
    "id": "btnIB24px",
    "isForked": false,
    "kuid": "sc8d22a7369440d298a3997385353e11",
    "shadow": {
        "br": 0,
        "color": "000000",
        "inner": false,
        "x": 0,
        "y": 0
    },
    "spaan": {
        "customCSS": "width:72px; height: 24px; margin: 0!important; padding: 0!important; text-align: center; vertical-align: middle; font: normal 20px 'DB Ozone X Med'; color:#FFFFFF; background-color: #007ABC; -webkit-border-radius:5px; -moz-border-radius:5px; -o-border-radius:5px; border-radius:5px; cursor:pointer; outline:0 none; border: 0 none; -webkit-appearance:none; -moz-appearance:none;",
        "isCustomCSSEnabled": true,
        "isForked": true
    },
    "spaandroidtablet": {
        "customCSS": "width:72px; height: 24px; margin: 0!important; padding: 0!important; text-align: center; vertical-align: middle; font: normal 20px 'DB Ozone X Med'; color:#FFFFFF; background-color: #007ABC; -webkit-border-radius:5px; -moz-border-radius:5px; -o-border-radius:5px; border-radius:5px; cursor:pointer; outline:0 none; border: 0 none; -webkit-appearance:none; -moz-appearance:none;",
        "isCustomCSSEnabled": true,
        "isForked": true
    },
    "spabb": {
        "customCSS": "width:72px; height: 24px; margin: 0!important; padding: 0!important; text-align: center; vertical-align: middle; font: normal 20px 'DB Ozone X Med'; color:#FFFFFF; background-color: #007ABC; -webkit-border-radius:5px; -moz-border-radius:5px; -o-border-radius:5px; border-radius:5px; cursor:pointer; outline:0 none; border: 0 none; -webkit-appearance:none; -moz-appearance:none;",
        "isCustomCSSEnabled": true,
        "isForked": true
    },
    "spaip": {
        "customCSS": "width:72px; height: 24px; margin: 0!important; padding: 0!important; text-align: center; vertical-align: middle; font: normal 20px 'DB Ozone X Med'; color:#FFFFFF; background-color: #007ABC; -webkit-border-radius:5px; -moz-border-radius:5px; -o-border-radius:5px; border-radius:5px; cursor:pointer; outline:0 none; border: 0 none; -webkit-appearance:none; -moz-appearance:none;",
        "isCustomCSSEnabled": true,
        "isForked": true
    },
    "spaipad": {
        "customCSS": "width:72px; height: 24px; margin: 0!important; padding: 0!important; text-align: center; vertical-align: middle; font: normal 20px 'DB Ozone X Med'; color:#FFFFFF; background-color: #007ABC; -webkit-border-radius:5px; -moz-border-radius:5px; -o-border-radius:5px; border-radius:5px; cursor:pointer; outline:0 none; border: 0 none; -webkit-appearance:none; -moz-appearance:none;",
        "isCustomCSSEnabled": true,
        "isForked": true
    },
    "spawindowstablet": {
        "customCSS": "width:72px; height: 24px; margin: 0!important; padding: 0!important; text-align: center; vertical-align: middle; font: normal 20px 'DB Ozone X Med'; color:#FFFFFF; background-color: #007ABC; -webkit-border-radius:5px; -moz-border-radius:5px; -o-border-radius:5px; border-radius:5px; cursor:pointer; outline:0 none; border: 0 none; -webkit-appearance:none; -moz-appearance:none;",
        "isCustomCSSEnabled": true,
        "isForked": true
    },
    "spawinphone8": {
        "customCSS": "width:72px; height: 24px; margin: 0!important; padding: 0!important; text-align: center; vertical-align: middle; font: normal 20px 'DB Ozone X Med'; color:#FFFFFF; background-color: #007ABC; -webkit-border-radius:5px; -moz-border-radius:5px; -o-border-radius:5px; border-radius:5px; cursor:pointer; outline:0 none; border: 0 none; -webkit-appearance:none; -moz-appearance:none;",
        "isCustomCSSEnabled": true,
        "isForked": true
    },
    "text_shadow": {
        "br": 0,
        "color": "000000",
        "x": 0,
        "y": 0
    },
    "top_left_border_color": "000000ff",
    "top_left_border_radius": 10,
    "top_left_border_width": 0,
    "top_right_border_color": "000000ff",
    "top_right_border_radius": 10,
    "top_right_border_width": 0,
    "use_native": "false",
    "vizChannel": "default",
    "wType": "Button"
}