{
    "android": {
        "applicableblockedUIWidget": "Button",
        "background_color": "ffffff00",
        "background_style": "vg",
        "bg_type": "one",
        "blockedimgURL": "",
        "border_color": "000000ff",
        "border_radius": 0,
        "border_style": "plain",
        "border_type": 0,
        "border_width": 0,
        "bottom_left_border_color": "000000ff",
        "bottom_left_border_radius": 10,
        "bottom_left_border_width": 0,
        "bottom_right_border_color": "000000ff",
        "bottom_right_border_radius": 10,
        "bottom_right_border_width": 0,
        "font_color": "000000ff",
        "font_name": "DBOzoneX",
        "font_size": 100,
        "font_weight": "normal",
        "isForked": false,
        "top_left_border_color": "000000ff",
        "top_left_border_radius": 10,
        "top_left_border_width": 0,
        "top_right_border_color": "000000ff",
        "top_right_border_radius": 10,
        "top_right_border_width": 0,
        "vizChannel": "android",
        "wType": "Button"
    },
    "applicableblockedUIWidget": "Button",
    "background_color": "ffffff00",
    "background_style": "vg",
    "bg_type": "one",
    "blockedimgURL": "",
    "border_color": "000000ff",
    "border_radius": 0,
    "border_style": "plain",
    "border_type": 0,
    "border_width": 0,
    "bottom_left_border_color": "000000ff",
    "bottom_left_border_radius": 10,
    "bottom_left_border_width": 0,
    "bottom_right_border_color": "000000ff",
    "bottom_right_border_radius": 10,
    "bottom_right_border_width": 0,
    "desktopweb": {
        "applicableblockedUIWidget": "Button",
        "backgroundSize": false,
        "background_image": "bg_btn_125.png",
        "background_style": "vg",
        "bg_type": "image",
        "blockedimgURL": "",
        "border_color": "000000ff",
        "border_radius": 0,
        "border_style": "plain",
        "border_type": 0,
        "border_width": 0,
        "bottom_left_border_color": "000000ff",
        "bottom_left_border_radius": 10,
        "bottom_left_border_style": "plain",
        "bottom_left_border_width": 0,
        "bottom_right_border_color": "000000ff",
        "bottom_right_border_radius": 10,
        "bottom_right_border_style": "plain",
        "bottom_right_border_width": 0,
        "customCSS": "width:125px; height: 30px; margin: 0; padding: 0; text-align: center; vertical-align: middle; font: normal 24px 'DB Ozone X'; color:#FFFFFF; background: #007ABC; -webkit-border-radius: 5px; -moz-border-radius: 5px; -o-border-radius: 5px; border-radius:5px;cursor:pointer;outline:0 none;border:0 none;-webkit-appearance: none;",
        "font_color": "ffffffff",
        "font_name": "DB Ozone X",
        "font_size": 125,
        "font_weight": "normal",
        "gridLineColor": "0000000",
        "id": "btnIB125",
        "isCustomCSSEnabled": true,
        "isForked": true,
        "psp": {},
        "repeatImageHorizontally": false,
        "repeatImageVertically": false,
        "shadow": {
            "br": 0,
            "color": "000000",
            "inner": false,
            "x": 0,
            "y": 0
        },
        "text_shadow": {
            "br": 0,
            "color": "000000",
            "x": 0,
            "y": 0
        },
        "top_left_border_color": "000000ff",
        "top_left_border_radius": 10,
        "top_left_border_style": "plain",
        "top_left_border_width": 0,
        "top_right_border_color": "000000ff",
        "top_right_border_radius": 10,
        "top_right_border_style": "plain",
        "top_right_border_width": 0,
        "use_native": "false",
        "vizChannel": "desktopweb",
        "wType": "Button"
    },
    "font_color": "000000ff",
    "font_size": 100,
    "font_weight": "normal",
    "gridLineColor": "0000000",
    "id": "btnIB125",
    "iphone": {
        "applicableblockedUIWidget": "Button",
        "background_color": "ffffff00",
        "background_style": "vg",
        "bg_type": "one",
        "blockedimgURL": "",
        "border_color": "000000ff",
        "border_radius": 0,
        "border_style": "plain",
        "border_type": 0,
        "border_width": 0,
        "bottom_left_border_color": "000000ff",
        "bottom_left_border_radius": 10,
        "bottom_left_border_width": 0,
        "bottom_right_border_color": "000000ff",
        "bottom_right_border_radius": 10,
        "bottom_right_border_width": 0,
        "font_color": "000000ff",
        "font_name": "DBOzoneX",
        "font_size": 100,
        "font_weight": "normal",
        "isForked": false,
        "top_left_border_color": "000000ff",
        "top_left_border_radius": 10,
        "top_left_border_width": 0,
        "top_right_border_color": "000000ff",
        "top_right_border_radius": 10,
        "top_right_border_width": 0,
        "vizChannel": "iphone",
        "wType": "Button"
    },
    "isForked": false,
    "kuid": "s837b7d010a34344a18ad40920f91899",
    "shadow": {
        "br": 0,
        "color": "000000",
        "inner": false,
        "x": 0,
        "y": 0
    },
    "spaan": {
        "applicableblockedUIWidget": "Button",
        "background_color": "ffffff00",
        "background_style": "vg",
        "bg_type": "one",
        "blockedimgURL": "",
        "border_color": "000000ff",
        "border_radius": 0,
        "border_style": "plain",
        "border_type": 0,
        "border_width": 0,
        "bottom_left_border_color": "000000ff",
        "bottom_left_border_radius": 10,
        "bottom_left_border_width": 0,
        "bottom_right_border_color": "000000ff",
        "bottom_right_border_radius": 10,
        "bottom_right_border_width": 0,
        "customCSS": "width:125px; height: 30px; margin: 0; padding: 0; text-align: center; vertical-align: middle; font: normal 24px 'DB Ozone X'; color:#FFFFFF; background: #007ABC; -webkit-border-radius: 5px; -moz-border-radius: 5px; -o-border-radius: 5px; border-radius:5px;cursor:pointer;outline:0 none;border:0 none;-webkit-appearance: none;",
        "font_color": "000000ff",
        "font_name": "DBOzoneX",
        "font_size": 100,
        "font_weight": "normal",
        "isCustomCSSEnabled": true,
        "isForked": true,
        "top_left_border_color": "000000ff",
        "top_left_border_radius": 10,
        "top_left_border_width": 0,
        "top_right_border_color": "000000ff",
        "top_right_border_radius": 10,
        "top_right_border_width": 0,
        "vizChannel": "spaan",
        "wType": "Button"
    },
    "spaandroidtablet": {
        "customCSS": "width:125px; height: 30px; margin: 0; padding: 0; text-align: center; vertical-align: middle; font: normal 24px 'DB Ozone X'; color:#FFFFFF; background: #007ABC; -webkit-border-radius: 5px; -moz-border-radius: 5px; -o-border-radius: 5px; border-radius:5px;cursor:pointer;outline:0 none;border:0 none;-webkit-appearance: none;",
        "isCustomCSSEnabled": true,
        "isForked": true
    },
    "spabb": {
        "applicableblockedUIWidget": "Button",
        "background_color": "ffffff00",
        "background_style": "vg",
        "bg_type": "one",
        "blockedimgURL": "",
        "border_color": "000000ff",
        "border_radius": 0,
        "border_style": "plain",
        "border_type": 0,
        "border_width": 0,
        "bottom_left_border_color": "000000ff",
        "bottom_left_border_radius": 10,
        "bottom_left_border_width": 0,
        "bottom_right_border_color": "000000ff",
        "bottom_right_border_radius": 10,
        "bottom_right_border_width": 0,
        "customCSS": "width:125px; height: 30px; margin: 0; padding: 0; text-align: center; vertical-align: middle; font: normal 24px 'DB Ozone X'; color:#FFFFFF; background: #007ABC; -webkit-border-radius: 5px; -moz-border-radius: 5px; -o-border-radius: 5px; border-radius:5px;cursor:pointer;outline:0 none;border:0 none;-webkit-appearance: none;",
        "font_color": "000000ff",
        "font_name": "DBOzoneX",
        "font_size": 100,
        "font_weight": "normal",
        "isCustomCSSEnabled": true,
        "isForked": true,
        "top_left_border_color": "000000ff",
        "top_left_border_radius": 10,
        "top_left_border_width": 0,
        "top_right_border_color": "000000ff",
        "top_right_border_radius": 10,
        "top_right_border_width": 0,
        "vizChannel": "spabb",
        "wType": "Button"
    },
    "spaip": {
        "applicableblockedUIWidget": "Button",
        "background_color": "ffffff00",
        "background_style": "vg",
        "bg_type": "one",
        "blockedimgURL": "",
        "border_color": "000000ff",
        "border_radius": 0,
        "border_style": "plain",
        "border_type": 0,
        "border_width": 0,
        "bottom_left_border_color": "000000ff",
        "bottom_left_border_radius": 10,
        "bottom_left_border_width": 0,
        "bottom_right_border_color": "000000ff",
        "bottom_right_border_radius": 10,
        "bottom_right_border_width": 0,
        "customCSS": "width:125px; height: 30px; margin: 0; padding: 0; text-align: center; vertical-align: middle; font: normal 24px 'DB Ozone X'; color:#FFFFFF; background: #007ABC; -webkit-border-radius: 5px; -moz-border-radius: 5px; -o-border-radius: 5px; border-radius:5px;cursor:pointer;outline:0 none;border:0 none;-webkit-appearance: none;",
        "font_color": "000000ff",
        "font_name": "DBOzoneX",
        "font_size": 100,
        "font_weight": "normal",
        "isCustomCSSEnabled": true,
        "isForked": true,
        "top_left_border_color": "000000ff",
        "top_left_border_radius": 10,
        "top_left_border_width": 0,
        "top_right_border_color": "000000ff",
        "top_right_border_radius": 10,
        "top_right_border_width": 0,
        "vizChannel": "spaip",
        "wType": "Button"
    },
    "spaipad": {
        "customCSS": "width:125px; height: 30px; margin: 0; padding: 0; text-align: center; vertical-align: middle; font: normal 24px 'DB Ozone X'; color:#FFFFFF; background: #007ABC; -webkit-border-radius: 5px; -moz-border-radius: 5px; -o-border-radius: 5px; border-radius:5px;cursor:pointer;outline:0 none;border:0 none;-webkit-appearance: none;",
        "isCustomCSSEnabled": true,
        "isForked": true
    },
    "spawindowstablet": {
        "customCSS": "width:125px; height: 30px; margin: 0; padding: 0; text-align: center; vertical-align: middle; font: normal 24px 'DB Ozone X'; color:#FFFFFF; background: #007ABC; -webkit-border-radius: 5px; -moz-border-radius: 5px; -o-border-radius: 5px; border-radius:5px;cursor:pointer;outline:0 none;border:0 none;-webkit-appearance: none;",
        "isCustomCSSEnabled": true,
        "isForked": true
    },
    "spawinphone8": {
        "customCSS": "width:125px; height: 30px; margin: 0; padding: 0; text-align: center; vertical-align: middle; font: normal 24px 'DB Ozone X'; color:#FFFFFF; background: #007ABC; -webkit-border-radius: 5px; -moz-border-radius: 5px; -o-border-radius: 5px; border-radius:5px;cursor:pointer;outline:0 none;border:0 none;-webkit-appearance: none;",
        "isCustomCSSEnabled": true,
        "isForked": true
    },
    "text_shadow": {
        "br": 0,
        "color": "000000",
        "x": 0,
        "y": 0
    },
    "top_left_border_color": "000000ff",
    "top_left_border_radius": 10,
    "top_left_border_width": 0,
    "top_right_border_color": "000000ff",
    "top_right_border_radius": 10,
    "top_right_border_width": 0,
    "use_native": "false",
    "vizChannel": "default",
    "wType": "Button"
}