{
  "applicableblockedUIWidget": "Button",
  "background_color": "0994dbff",
  "bg_type": "one",
  "blockedimgURL": "",
  "border_color": "ffffffff",
  "border_style": "plain",
  "border_type": 0,
  "border_width": 0,
  "bottom_left_border_color": "000000ff",
  "bottom_left_border_radius": 10,
  "bottom_left_border_width": 0,
  "bottom_right_border_color": "000000ff",
  "bottom_right_border_radius": 10,
  "bottom_right_border_width": 0,
  "desktopweb": {
    "bottom_left_border_color": "ffffffff",
    "bottom_left_border_style": "plain",
    "bottom_left_border_width": 0,
    "bottom_right_border_color": "ffffffff",
    "bottom_right_border_style": "plain",
    "bottom_right_border_width": 0,
    "customCSS": "width: 100%!important; height: 35px; margin: 0; padding: 0; text-align: center; vertical-align: middle; font: normal 24px 'DB Ozone X'; color:#FFFFFF; background: #0994DB; -webkit-border-radius: 5px; -moz-border-radius: 5px; -o-border-radius: 5px; border-radius:5px;cursor:pointer;outline:0 none;border:0 none;-webkit-appearance: none;",
    "isCustomCSSEnabled": true,
    "isForked": true,
    "shadow": {
      "br": 0,
      "color": "000000",
      "inner": false,
      "x": 0,
      "y": 0
    },
    "text_shadow": {
      "br": 0,
      "color": "000000",
      "x": 0,
      "y": 0
    },
    "top_left_border_color": "ffffffff",
    "top_left_border_style": "plain",
    "top_left_border_width": 0,
    "top_right_border_color": "ffffffff",
    "top_right_border_style": "plain",
    "top_right_border_width": 0
  },
  "font_color": "ffffffff",
  "font_size": 148,
  "font_style": "normal",
  "font_weight": "normal",
  "gridLineColor": "0000000",
  "isDefaultSkin": false,
  "isForked": false,
  "kuid": "s81982e27f644ab49f10a0d832c90553",
  "spaan": {
    "bottom_left_border_color": "ffffffff",
    "bottom_left_border_style": "plain",
    "bottom_left_border_width": 0,
    "bottom_right_border_color": "ffffffff",
    "bottom_right_border_style": "plain",
    "bottom_right_border_width": 0,
    "customCSS": "width: 100%!important; height: 35px; margin: 0; padding: 0; text-align: center; vertical-align: middle; font: normal 24px 'DB Ozone X'; color:#FFFFFF; background: #0994DB; -webkit-border-radius: 5px; -moz-border-radius: 5px; -o-border-radius: 5px; border-radius:5px;cursor:pointer;outline:0 none;border:0 none;-webkit-appearance: none;",
    "isForked": true,
    "top_left_border_color": "ffffffff",
    "top_left_border_style": "plain",
    "top_left_border_width": 0,
    "top_right_border_color": "ffffffff",
    "top_right_border_style": "plain",
    "top_right_border_width": 0
  },
  "spaandroidtablet": {
    "bottom_left_border_color": "ffffffff",
    "bottom_left_border_style": "plain",
    "bottom_left_border_width": 0,
    "bottom_right_border_color": "ffffffff",
    "bottom_right_border_style": "plain",
    "bottom_right_border_width": 0,
    "customCSS": "width: 100%!important; height: 35px; margin: 0; padding: 0; text-align: center; vertical-align: middle; font: normal 24px 'DB Ozone X'; color:#FFFFFF; background: #0994DB; -webkit-border-radius: 5px; -moz-border-radius: 5px; -o-border-radius: 5px; border-radius:5px;cursor:pointer;outline:0 none;border:0 none;-webkit-appearance: none;",
    "isForked": true,
    "top_left_border_color": "ffffffff",
    "top_left_border_style": "plain",
    "top_left_border_width": 0,
    "top_right_border_color": "ffffffff",
    "top_right_border_style": "plain",
    "top_right_border_width": 0
  },
  "spabb": {
    "bottom_left_border_color": "ffffffff",
    "bottom_left_border_style": "plain",
    "bottom_left_border_width": 0,
    "bottom_right_border_color": "ffffffff",
    "bottom_right_border_style": "plain",
    "bottom_right_border_width": 0,
    "customCSS": "width: 100%!important; height: 35px; margin: 0; padding: 0; text-align: center; vertical-align: middle; font: normal 24px 'DB Ozone X'; color:#FFFFFF; background: #0994DB; -webkit-border-radius: 5px; -moz-border-radius: 5px; -o-border-radius: 5px; border-radius:5px;cursor:pointer;outline:0 none;border:0 none;-webkit-appearance: none;",
    "isForked": true,
    "top_left_border_color": "ffffffff",
    "top_left_border_style": "plain",
    "top_left_border_width": 0,
    "top_right_border_color": "ffffffff",
    "top_right_border_style": "plain",
    "top_right_border_width": 0
  },
  "spaip": {
    "bottom_left_border_color": "ffffffff",
    "bottom_left_border_style": "plain",
    "bottom_left_border_width": 0,
    "bottom_right_border_color": "ffffffff",
    "bottom_right_border_style": "plain",
    "bottom_right_border_width": 0,
    "customCSS": "width: 100%!important; height: 35px; margin: 0; padding: 0; text-align: center; vertical-align: middle; font: normal 24px 'DB Ozone X'; color:#FFFFFF; background: #0994DB; -webkit-border-radius: 5px; -moz-border-radius: 5px; -o-border-radius: 5px; border-radius:5px;cursor:pointer;outline:0 none;border:0 none;-webkit-appearance: none;",
    "isForked": true,
    "top_left_border_color": "ffffffff",
    "top_left_border_style": "plain",
    "top_left_border_width": 0,
    "top_right_border_color": "ffffffff",
    "top_right_border_style": "plain",
    "top_right_border_width": 0
  },
  "spaipad": {
    "bottom_left_border_color": "ffffffff",
    "bottom_left_border_style": "plain",
    "bottom_left_border_width": 0,
    "bottom_right_border_color": "ffffffff",
    "bottom_right_border_style": "plain",
    "bottom_right_border_width": 0,
    "customCSS": "width: 100%!important; height: 35px; margin: 0; padding: 0; text-align: center; vertical-align: middle; font: normal 24px 'DB Ozone X'; color:#FFFFFF; background: #0994DB; -webkit-border-radius: 5px; -moz-border-radius: 5px; -o-border-radius: 5px; border-radius:5px;cursor:pointer;outline:0 none;border:0 none;-webkit-appearance: none;",
    "isForked": true,
    "top_left_border_color": "ffffffff",
    "top_left_border_style": "plain",
    "top_left_border_width": 0,
    "top_right_border_color": "ffffffff",
    "top_right_border_style": "plain",
    "top_right_border_width": 0
  },
  "spawindowstablet": {
    "bottom_left_border_color": "ffffffff",
    "bottom_left_border_style": "plain",
    "bottom_left_border_width": 0,
    "bottom_right_border_color": "ffffffff",
    "bottom_right_border_style": "plain",
    "bottom_right_border_width": 0,
    "customCSS": "width: 100%!important; height: 35px; margin: 0; padding: 0; text-align: center; vertical-align: middle; font: normal 24px 'DB Ozone X'; color:#FFFFFF; background: #0994DB; -webkit-border-radius: 5px; -moz-border-radius: 5px; -o-border-radius: 5px; border-radius:5px;cursor:pointer;outline:0 none;border:0 none;-webkit-appearance: none;",
    "isForked": true,
    "top_left_border_color": "ffffffff",
    "top_left_border_style": "plain",
    "top_left_border_width": 0,
    "top_right_border_color": "ffffffff",
    "top_right_border_style": "plain",
    "top_right_border_width": 0
  },
  "spawinphone8": {
    "bottom_left_border_color": "ffffffff",
    "bottom_left_border_style": "plain",
    "bottom_left_border_width": 0,
    "bottom_right_border_color": "ffffffff",
    "bottom_right_border_style": "plain",
    "bottom_right_border_width": 0,
    "customCSS": "width: 100%!important; height: 35px; margin: 0; padding: 0; text-align: center; vertical-align: middle; font: normal 24px 'DB Ozone X'; color:#FFFFFF; background: #0994DB; -webkit-border-radius: 5px; -moz-border-radius: 5px; -o-border-radius: 5px; border-radius:5px;cursor:pointer;outline:0 none;border:0 none;-webkit-appearance: none;",
    "isForked": true,
    "top_left_border_color": "ffffffff",
    "top_left_border_style": "plain",
    "top_left_border_width": 0,
    "top_right_border_color": "ffffffff",
    "top_right_border_style": "plain",
    "top_right_border_width": 0
  },
  "top_left_border_color": "000000ff",
  "top_left_border_radius": 10,
  "top_left_border_width": 0,
  "top_right_border_color": "000000ff",
  "top_right_border_radius": 10,
  "top_right_border_width": 0,
  "vizChannel": "default",
  "wType": "Button"
}