{
  "applicableblockedUIWidget": "Button",
  "background_color": "ffffff00",
  "background_style": "vg",
  "bg_type": "one",
  "blockedimgURL": "",
  "border_color": "000000ff",
  "border_radius": 0,
  "border_style": "plain",
  "border_type": 0,
  "border_width": 0,
  "bottom_left_border_color": "000000ff",
  "bottom_left_border_radius": 10,
  "bottom_left_border_width": 0,
  "bottom_right_border_color": "000000ff",
  "bottom_right_border_radius": 10,
  "bottom_right_border_width": 0,
  "desktopweb": {
    "applicableblockedUIWidget": "Button",
    "backgroundSize": false,
    "background_image": "bg_btn_sky_158.png",
    "bg_type": "image",
    "blockedimgURL": "",
    "border_color": "000000ff",
    "border_style": "plain",
    "border_type": 0,
    "border_width": 0,
    "bottom_left_border_color": "000000ff",
    "bottom_left_border_style": "plain",
    "bottom_left_border_width": 0,
    "bottom_right_border_color": "000000ff",
    "bottom_right_border_style": "plain",
    "bottom_right_border_width": 0,
    "customCSS": "width: 158px!important; height: 35px; margin: 0; padding: 0; text-align: center; vertical-align: middle; font: normal 24px 'DB Ozone X'; color:#007abc; background:#FFFFFF; -webkit-border-radius: 5px; -moz-border-radius: 5px; -o-border-radius: 5px; border-radius:5px;cursor:pointer;outline:0 none;border:1px #007abc solid;-webkit-appearance: none;",
    "font_color": "ffffffff",
    "font_name": "DB Ozone X",
    "font_size": 150,
    "font_weight": "normal",
    "gridLineColor": "0000000",
    "isCustomCSSEnabled": true,
    "isForked": true,
    "psp": {},
    "repeatImageHorizontally": false,
    "repeatImageVertically": false,
    "shadow": {
      "br": 0,
      "color": "000000",
      "inner": false,
      "x": 0,
      "y": 0
    },
    "text_shadow": {
      "br": 0,
      "color": "000000",
      "x": 0,
      "y": 0
    },
    "top_left_border_color": "000000ff",
    "top_left_border_style": "plain",
    "top_left_border_width": 0,
    "top_right_border_color": "000000ff",
    "top_right_border_style": "plain",
    "top_right_border_width": 0,
    "vizChannel": "desktopweb",
    "wType": "Button"
  },
  "font_color": "000000ff",
  "font_size": 100,
  "font_weight": "normal",
  "gridLineColor": "0000000",
  "isDefaultSkin": false,
  "isForked": false,
  "kuid": "se41fbd5429844cfacf8b327c0a802b4",
  "shadow": {
    "br": 0,
    "color": "000000",
    "inner": false,
    "x": 0,
    "y": 0
  },
  "text_shadow": {
    "br": 0,
    "color": "000000",
    "x": 0,
    "y": 0
  },
  "top_left_border_color": "000000ff",
  "top_left_border_radius": 10,
  "top_left_border_width": 0,
  "top_right_border_color": "000000ff",
  "top_right_border_radius": 10,
  "top_right_border_width": 0,
  "use_native": "false",
  "vizChannel": "default",
  "wType": "Button"
}