{
    "applicableblockedUIWidget": "Button",
    "background_color": "ffffff00",
    "background_style": "vg",
    "bg_type": "one",
    "blockedimgURL": "",
    "border_color": "000000ff",
    "border_radius": 0,
    "border_style": "plain",
    "border_type": 0,
    "border_width": 0,
    "bottom_left_border_color": "000000ff",
    "bottom_left_border_radius": 10,
    "bottom_left_border_width": 0,
    "bottom_right_border_color": "000000ff",
    "bottom_right_border_radius": 10,
    "bottom_right_border_width": 0,
    "desktopweb": {
        "customCSS": "width: 77px!important; height: 24px!important; margin: 0 1px 0 0!important; padding: 0; text-align: center; vertical-align: middle; font: normal 16px 'DB Ozone X'; color:#333333; background: #dedede; -webkit-border-radius:5px 0 0 5px; -moz-border-radius:5px 0 0 5px; -o-border-radius:5px 0 0 5px; border-radius:5px 0 0 5px;cursor:pointer;outline:0 none;-webkit-appearance: none;",
        "isCustomCSSEnabled": true,
        "isForked": true
    },
    "font_color": "000000ff",
    "font_size": 100,
    "font_weight": "normal",
    "gridLineColor": "0000000",
    "id": "btnIBTab3LeftNrml77px",
    "isForked": false,
    "kuid": "se217c023e8c47fface3067a877a38ee",
    "shadow": {
        "br": 0,
        "color": "000000",
        "inner": false,
        "x": 0,
        "y": 0
    },
    "spaan": {
        "customCSS": "width: 77px!important; height: 24px!important; margin: 0 1px 0 0!important; padding: 0; text-align: center; vertical-align: middle; font: normal 16px 'DB Ozone X'; color:#333333; background: #dedede; -webkit-border-radius:5px 0 0 5px; -moz-border-radius:5px 0 0 5px; -o-border-radius:5px 0 0 5px; border-radius:5px 0 0 5px;cursor:pointer;outline:0 none;-webkit-appearance: none;",
        "isCustomCSSEnabled": true,
        "isForked": true
    },
    "spaandroidtablet": {
        "customCSS": "width: 77px!important; height: 24px!important; margin: 0 1px 0 0!important; padding: 0; text-align: center; vertical-align: middle; font: normal 16px 'DB Ozone X'; color:#333333; background: #dedede; -webkit-border-radius:5px 0 0 5px; -moz-border-radius:5px 0 0 5px; -o-border-radius:5px 0 0 5px; border-radius:5px 0 0 5px;cursor:pointer;outline:0 none;-webkit-appearance: none;",
        "isCustomCSSEnabled": true,
        "isForked": true
    },
    "spabb": {
        "customCSS": "width: 77px!important; height: 24px!important; margin: 0 1px 0 0!important; padding: 0; text-align: center; vertical-align: middle; font: normal 16px 'DB Ozone X'; color:#333333; background: #dedede; -webkit-border-radius:5px 0 0 5px; -moz-border-radius:5px 0 0 5px; -o-border-radius:5px 0 0 5px; border-radius:5px 0 0 5px;cursor:pointer;outline:0 none;-webkit-appearance: none;",
        "isCustomCSSEnabled": true,
        "isForked": true
    },
    "spaip": {
        "customCSS": "width: 77px!important; height: 24px!important; margin: 0 1px 0 0!important; padding: 0; text-align: center; vertical-align: middle; font: normal 16px 'DB Ozone X'; color:#333333; background: #dedede; -webkit-border-radius:5px 0 0 5px; -moz-border-radius:5px 0 0 5px; -o-border-radius:5px 0 0 5px; border-radius:5px 0 0 5px;cursor:pointer;outline:0 none;-webkit-appearance: none;",
        "isCustomCSSEnabled": true,
        "isForked": true
    },
    "spaipad": {
        "customCSS": "width: 77px!important; height: 24px!important; margin: 0 1px 0 0!important; padding: 0; text-align: center; vertical-align: middle; font: normal 16px 'DB Ozone X'; color:#333333; background: #dedede; -webkit-border-radius:5px 0 0 5px; -moz-border-radius:5px 0 0 5px; -o-border-radius:5px 0 0 5px; border-radius:5px 0 0 5px;cursor:pointer;outline:0 none;-webkit-appearance: none;",
        "isCustomCSSEnabled": true,
        "isForked": true
    },
    "spawindowstablet": {
        "customCSS": "width: 77px!important; height: 24px!important; margin: 0 1px 0 0!important; padding: 0; text-align: center; vertical-align: middle; font: normal 16px 'DB Ozone X'; color:#333333; background: #dedede; -webkit-border-radius:5px 0 0 5px; -moz-border-radius:5px 0 0 5px; -o-border-radius:5px 0 0 5px; border-radius:5px 0 0 5px;cursor:pointer;outline:0 none;-webkit-appearance: none;",
        "isCustomCSSEnabled": true,
        "isForked": true
    },
    "spawinphone8": {
        "customCSS": "width: 77px!important; height: 24px!important; margin: 0 1px 0 0!important; padding: 0; text-align: center; vertical-align: middle; font: normal 16px 'DB Ozone X'; color:#333333; background: #dedede; -webkit-border-radius:5px 0 0 5px; -moz-border-radius:5px 0 0 5px; -o-border-radius:5px 0 0 5px; border-radius:5px 0 0 5px;cursor:pointer;outline:0 none;-webkit-appearance: none;",
        "isCustomCSSEnabled": true,
        "isForked": true
    },
    "text_shadow": {
        "br": 0,
        "color": "000000",
        "x": 0,
        "y": 0
    },
    "top_left_border_color": "000000ff",
    "top_left_border_radius": 10,
    "top_left_border_width": 0,
    "top_right_border_color": "000000ff",
    "top_right_border_radius": 10,
    "top_right_border_width": 0,
    "use_native": "false",
    "vizChannel": "default",
    "wType": "Button"
}