{
  "applicableblockedUIWidget": "Button",
  "background_color": "007abcff",
  "bg_type": "one",
  "blockedimgURL": "",
  "border_color": "ffffffff",
  "border_style": "plain",
  "border_type": 0,
  "border_width": 0,
  "bottom_left_border_color": "000000ff",
  "bottom_left_border_radius": 10,
  "bottom_left_border_width": 0,
  "bottom_right_border_color": "000000ff",
  "bottom_right_border_radius": 10,
  "bottom_right_border_width": 0,
  "desktopweb": {
    "border_type": 0,
    "bottom_left_border_color": "00588fb2",
    "bottom_left_border_style": "plain",
    "bottom_left_border_width": "1",
    "bottom_right_border_color": "00588fb2",
    "bottom_right_border_style": "plain",
    "bottom_right_border_width": "1",
    "font_name": "DB Ozone X",
    "isForked": true,
    "shadow": {
      "br": 0,
      "color": "000000",
      "inner": false,
      "x": 0,
      "y": 0
    },
    "text_shadow": {
      "br": 0,
      "color": "000000",
      "x": 0,
      "y": 0
    },
    "top_left_border_color": "00588fb2",
    "top_left_border_style": "plain",
    "top_left_border_width": "1",
    "top_right_border_color": "00588fb2",
    "top_right_border_style": "plain",
    "top_right_border_width": "1"
  },
  "fontSizeInPx": false,
  "font_color": "ffffffff",
  "font_size": 128,
  "font_style": "normal",
  "font_weight": "normal",
  "gridLineColor": "0000000",
  "isDefaultSkin": false,
  "isForked": false,
  "kuid": "sf227e0f29174f0fad3744cc099738c2",
  "spaan": {
    "border_type": 0,
    "bottom_left_border_color": "00588fb2",
    "bottom_left_border_style": "plain",
    "bottom_left_border_width": "1",
    "bottom_right_border_color": "00588fb2",
    "bottom_right_border_style": "plain",
    "bottom_right_border_width": "1",
    "isForked": true,
    "top_left_border_color": "00588fb2",
    "top_left_border_style": "plain",
    "top_left_border_width": "1",
    "top_right_border_color": "00588fb2",
    "top_right_border_style": "plain",
    "top_right_border_width": "1"
  },
  "spaandroidtablet": {
    "border_type": 0,
    "bottom_left_border_color": "00588fb2",
    "bottom_left_border_style": "plain",
    "bottom_left_border_width": "1",
    "bottom_right_border_color": "00588fb2",
    "bottom_right_border_style": "plain",
    "bottom_right_border_width": "1",
    "isForked": true,
    "top_left_border_color": "00588fb2",
    "top_left_border_style": "plain",
    "top_left_border_width": "1",
    "top_right_border_color": "00588fb2",
    "top_right_border_style": "plain",
    "top_right_border_width": "1"
  },
  "spabb": {
    "border_type": 0,
    "bottom_left_border_color": "00588fb2",
    "bottom_left_border_style": "plain",
    "bottom_left_border_width": "1",
    "bottom_right_border_color": "00588fb2",
    "bottom_right_border_style": "plain",
    "bottom_right_border_width": "1",
    "isForked": true,
    "top_left_border_color": "00588fb2",
    "top_left_border_style": "plain",
    "top_left_border_width": "1",
    "top_right_border_color": "00588fb2",
    "top_right_border_style": "plain",
    "top_right_border_width": "1"
  },
  "spaip": {
    "border_type": 0,
    "bottom_left_border_color": "00588fb2",
    "bottom_left_border_style": "plain",
    "bottom_left_border_width": "1",
    "bottom_right_border_color": "00588fb2",
    "bottom_right_border_style": "plain",
    "bottom_right_border_width": "1",
    "isForked": true,
    "top_left_border_color": "00588fb2",
    "top_left_border_style": "plain",
    "top_left_border_width": "1",
    "top_right_border_color": "00588fb2",
    "top_right_border_style": "plain",
    "top_right_border_width": "1"
  },
  "spaipad": {
    "border_type": 0,
    "bottom_left_border_color": "00588fb2",
    "bottom_left_border_style": "plain",
    "bottom_left_border_width": "1",
    "bottom_right_border_color": "00588fb2",
    "bottom_right_border_style": "plain",
    "bottom_right_border_width": "1",
    "isForked": true,
    "top_left_border_color": "00588fb2",
    "top_left_border_style": "plain",
    "top_left_border_width": "1",
    "top_right_border_color": "00588fb2",
    "top_right_border_style": "plain",
    "top_right_border_width": "1"
  },
  "spawindowstablet": {
    "border_type": 0,
    "bottom_left_border_color": "00588fb2",
    "bottom_left_border_style": "plain",
    "bottom_left_border_width": "1",
    "bottom_right_border_color": "00588fb2",
    "bottom_right_border_style": "plain",
    "bottom_right_border_width": "1",
    "isForked": true,
    "top_left_border_color": "00588fb2",
    "top_left_border_style": "plain",
    "top_left_border_width": "1",
    "top_right_border_color": "00588fb2",
    "top_right_border_style": "plain",
    "top_right_border_width": "1"
  },
  "spawinphone8": {
    "border_type": 0,
    "bottom_left_border_color": "00588fb2",
    "bottom_left_border_style": "plain",
    "bottom_left_border_width": "1",
    "bottom_right_border_color": "00588fb2",
    "bottom_right_border_style": "plain",
    "bottom_right_border_width": "1",
    "isForked": true,
    "top_left_border_color": "00588fb2",
    "top_left_border_style": "plain",
    "top_left_border_width": "1",
    "top_right_border_color": "00588fb2",
    "top_right_border_style": "plain",
    "top_right_border_width": "1"
  },
  "top_left_border_color": "000000ff",
  "top_left_border_radius": 10,
  "top_left_border_width": 0,
  "top_right_border_color": "000000ff",
  "top_right_border_radius": 10,
  "top_right_border_width": 0,
  "vizChannel": "default",
  "wType": "Button"
}