{
    "applicableblockedUIWidget": "Button",
    "background_color": "2780c0ff",
    "background_style": "vg",
    "bg_type": "one",
    "blockedimgURL": "",
    "border_color": "000000ff",
    "border_radius": 0,
    "border_style": "plain",
    "border_type": 0,
    "border_width": 0,
    "bottom_left_border_color": "000000ff",
    "bottom_left_border_radius": 10,
    "bottom_left_border_width": 0,
    "bottom_right_border_color": "000000ff",
    "bottom_right_border_radius": 10,
    "bottom_right_border_width": 0,
    "desktopweb": {
        "applicableblockedUIWidget": "Button",
        "backgroundSize": false,
        "background_image": "bg_blue80.png",
        "background_style": "vg",
        "bg_type": "image",
        "blockedimgURL": "",
        "border_color": "000000ff",
        "border_radius": 0,
        "border_style": "plain",
        "border_type": 0,
        "border_width": 0,
        "bottom_left_border_color": "2780c0ff",
        "bottom_left_border_radius": 5,
        "bottom_left_border_style": "rc",
        "bottom_left_border_width": 1,
        "bottom_right_border_color": "2780c0ff",
        "bottom_right_border_radius": 5,
        "bottom_right_border_style": "rc",
        "bottom_right_border_width": 1,
        "customCSS": " font:normal 18px DB Ozone X; color: #ffffff; background: #007abc; width: 80px !important; height: 30px !important; -webkit-border-radius: 5px; -moz-border-radius: 5px; -o-border-radius: 5px; border-radius: 5px;",
        "font_color": "ffffffff",
        "font_name": "DB Ozone X",
        "font_size": 112,
        "font_weight": "normal",
        "gridLineColor": "0000000",
        "id": "btnIBBlue80",
        "isCustomCSSEnabled": true,
        "isForked": true,
        "psp": {},
        "repeatImageHorizontally": false,
        "repeatImageVertically": false,
        "shadow": {
            "br": 0,
            "color": "000000",
            "inner": false,
            "x": 0,
            "y": 0
        },
        "text_shadow": {
            "br": 0,
            "color": "000000",
            "x": 0,
            "y": 0
        },
        "top_left_border_color": "2780c0ff",
        "top_left_border_radius": 5,
        "top_left_border_style": "rc",
        "top_left_border_width": 1,
        "top_right_border_color": "2780c0ff",
        "top_right_border_radius": 5,
        "top_right_border_style": "rc",
        "top_right_border_width": 1,
        "use_native": "false",
        "vizChannel": "desktopweb",
        "wType": "Button"
    },
    "font_color": "ffffffff",
    "font_size": 100,
    "font_weight": "normal",
    "gridLineColor": "0000000",
    "id": "btnIBBlue80",
    "isForked": false,
    "kuid": "s3308e4752b64b4a9ba41959240ed52e",
    "shadow": {
        "br": 0,
        "color": "000000",
        "inner": false,
        "x": 0,
        "y": 0
    },
    "text_shadow": {
        "br": 0,
        "color": "000000",
        "x": 0,
        "y": 0
    },
    "top_left_border_color": "000000ff",
    "top_left_border_radius": 10,
    "top_left_border_width": 0,
    "top_right_border_color": "000000ff",
    "top_right_border_radius": 10,
    "top_right_border_width": 0,
    "use_native": "false",
    "vizChannel": "default",
    "wType": "Button"
}