{
  "applicableblockedUIWidget": "Button",
  "background_image": "combo_downarrow_small.png",
  "background_left_image": "combo_downarrow.png",
  "bg_type": "image",
  "blockedimgURL": "",
  "border_color": "000000ff",
  "border_style": "plain",
  "border_type": 0,
  "border_width": 0,
  "bottom_left_border_color": "000000ff",
  "bottom_left_border_radius": 10,
  "bottom_left_border_width": 0,
  "bottom_right_border_color": "000000ff",
  "bottom_right_border_radius": 10,
  "bottom_right_border_width": 0,
  "font_color": "bebebeff",
  "font_size": 100,
  "font_weight": "normal",
  "gridLineColor": "0000000",
  "ipad": {
    "background_image": "combo_downarrow_small.png",
    "bg_type": "image",
    "isForked": true
  },
  "iphone": {
    "applicableblockedUIWidget": "Button",
    "background_image": "combo_downarrow_small.png",
    "bg_type": "image",
    "blockedimgURL": "",
    "border_color": "000000ff",
    "border_style": "plain",
    "border_type": 0,
    "border_width": 0,
    "bottom_left_border_color": "000000ff",
    "bottom_left_border_radius": 10,
    "bottom_left_border_width": 0,
    "bottom_right_border_color": "000000ff",
    "bottom_right_border_radius": 10,
    "bottom_right_border_width": 0,
    "font_color": "979797ff",
    "font_name": "DBOzoneX",
    "font_size": 142,
    "font_weight": "normal",
    "gridLineColor": "0000000",
    "isCustomCSSEnabled": false,
    "isForked": true,
    "psp": {},
    "shadow": {
      "br": 0,
      "color": "000000",
      "inner": false,
      "x": 0,
      "y": 0
    },
    "text_shadow": {
      "br": 0,
      "color": "000000",
      "x": 0,
      "y": 0
    },
    "top_left_border_color": "000000ff",
    "top_left_border_radius": 10,
    "top_left_border_width": 0,
    "top_right_border_color": "000000ff",
    "top_right_border_radius": 10,
    "top_right_border_width": 0,
    "vizChannel": "iphone",
    "wType": "ComboBox"
  },
  "isDefaultSkin": false,
  "isForked": false,
  "kuid": "s9f88be6ae1e473e9392e8d724bd5351",
  "shadow": {
    "br": 0,
    "color": "000000",
    "inner": false,
    "x": 0,
    "y": 0
  },
  "text_shadow": {
    "br": 0,
    "color": "000000",
    "x": 0,
    "y": 0
  },
  "top_left_border_color": "000000ff",
  "top_left_border_radius": 10,
  "top_left_border_width": 0,
  "top_right_border_color": "000000ff",
  "top_right_border_radius": 10,
  "top_right_border_width": 0,
  "vizChannel": "default",
  "wType": "ComboBox"
}