{
  "android": {
    "font_name": "DB Ozone X Med",
    "font_size": 90,
    "isForked": false
  },
  "background_color": "00000000",
  "bg_type": "one",
  "border_color": "424242ff",
  "border_style": "plain",
  "border_type": 0,
  "border_width": 0,
  "desktopweb": {
    "font_name": "Andale Mono",
    "font_size": 90,
    "isForked": false
  },
  "fontSizeInPx": false,
  "font_color": "ffffffff",
  "font_name": "System",
  "font_size": 90,
  "font_style": "normal",
  "font_weight": "normal",
  "ipad": {
    "font_name": "AmericanTypewriter",
    "font_size": 90,
    "isForked": false
  },
  "iphone": {
    "font_name": "AmericanTypewriter",
    "font_size": 90,
    "isForked": false
  },
  "isDefaultSkin": false,
  "kiosk": {
    "font_name": "GenericMonospace",
    "font_size": 90,
    "isForked": false
  },
  "kuid": "s677850fda654c02a7f851dcc0062897",
  "spaan": {
    "font_name": "Andale Mono",
    "font_size": 90,
    "isForked": false
  },
  "spaandroidtablet": {
    "font_name": "Andale Mono",
    "font_size": 90,
    "isForked": false
  },
  "spabb": {
    "font_name": "Andale Mono",
    "font_size": 90,
    "isForked": false
  },
  "spaip": {
    "font_name": "Andale Mono",
    "font_size": 90,
    "isForked": false
  },
  "spaipad": {
    "font_name": "Andale Mono",
    "font_size": 90,
    "isForked": false
  },
  "spawindowstablet": {
    "font_name": "Andale Mono",
    "font_size": 90,
    "isForked": false
  },
  "spawinphone8": {
    "font_name": "Andale Mono",
    "font_size": 90,
    "isForked": false
  },
  "tabrcandroid": {
    "font_name": "default",
    "font_size": 90,
    "isForked": false
  },
  "wType": "Label",
  "watchos": {
    "font_name": "System",
    "font_size": 90,
    "isForked": false
  },
  "windows8": {
    "font_name": "GenericMonospace",
    "font_size": 90,
    "isForked": false
  },
  "winphone8": {
    "font_name": "GenericMonospace",
    "font_size": 90,
    "isForked": false
  }
}