{
  "applicableblockedUIWidget": "Button",
  "background_color": "fffffffc",
  "bg_type": "one",
  "border_color": "0000001e",
  "border_style": "plain",
  "border_type": 0,
  "border_width": 0,
  "isDefaultSkin": false,
  "isForked": false,
  "kuid": "sf9cfc3344184781a48f036e28eb552b",
  "wType": "FlexContainer"
}