{
  "android": {
    "applicableblockedUIWidget": "Button",
    "background_color": "ffffffff",
    "background_style": "vg",
    "bg_type": "one",
    "border_color": "ffffffff",
    "border_radius": 0,
    "border_style": "plain",
    "border_type": 0,
    "border_width": 1,
    "font_color": "007abcff",
    "font_name": "DBOzoneX",
    "font_size": 171,
    "font_weight": "normal",
    "isForked": true,
    "text_shadow": {
      "br": 0,
      "color": "000000",
      "x": 0,
      "y": 0
    },
    "wType": "TextField"
  },
  "applicableblockedUIWidget": "Button",
  "background_color": "ffffffff",
  "background_style": "vg",
  "bg_type": "one",
  "border_color": "ffffffff",
  "border_radius": 0,
  "border_style": "plain",
  "border_type": 0,
  "border_width": 1,
  "font_color": "007abcff",
  "font_size": 171,
  "font_weight": "normal",
  "iphone": {
    "applicableblockedUIWidget": "Button",
    "background_color": "ffffffff",
    "background_style": "vg",
    "bg_type": "one",
    "border_color": "ffffffff",
    "border_radius": 0,
    "border_style": "plain",
    "border_type": 0,
    "border_width": 1,
    "font_color": "007abcff",
    "font_name": "DBOzoneX",
    "font_size": 171,
    "isForked": true,
    "wType": "TextField"
  },
  "isDefaultSkin": false,
  "isForked": false,
  "kuid": "se8a0a0c43aa4529848d6dd9aa28ed60",
  "spaan": {
    "applicableblockedUIWidget": "Button",
    "background_color": "ffffffff",
    "background_style": "vg",
    "bg_type": "one",
    "bottom_left_border_color": "000000ff",
    "bottom_left_border_radius": 10,
    "bottom_left_border_width": 0,
    "bottom_right_border_color": "000000ff",
    "bottom_right_border_radius": 10,
    "bottom_right_border_width": 0,
    "font_color": "007abcff",
    "font_name": "DBOzoneX",
    "font_size": 171,
    "font_weight": "normal",
    "isForked": false,
    "top_left_border_color": "000000ff",
    "top_left_border_radius": 10,
    "top_left_border_width": 0,
    "top_right_border_color": "000000ff",
    "top_right_border_radius": 10,
    "top_right_border_width": 0,
    "wType": "TextField"
  },
  "spabb": {
    "applicableblockedUIWidget": "Button",
    "background_color": "ffffffff",
    "background_style": "vg",
    "bg_type": "one",
    "bottom_left_border_color": "000000ff",
    "bottom_left_border_radius": 10,
    "bottom_left_border_width": 0,
    "bottom_right_border_color": "000000ff",
    "bottom_right_border_radius": 10,
    "bottom_right_border_width": 0,
    "font_color": "007abcff",
    "font_name": "DBOzoneX",
    "font_size": 171,
    "font_weight": "normal",
    "isForked": false,
    "top_left_border_color": "000000ff",
    "top_left_border_radius": 10,
    "top_left_border_width": 0,
    "top_right_border_color": "000000ff",
    "top_right_border_radius": 10,
    "top_right_border_width": 0,
    "wType": "TextField"
  },
  "spaip": {
    "applicableblockedUIWidget": "Button",
    "background_color": "ffffffff",
    "background_style": "vg",
    "bg_type": "one",
    "bottom_left_border_color": "000000ff",
    "bottom_left_border_radius": 10,
    "bottom_left_border_width": 0,
    "bottom_right_border_color": "000000ff",
    "bottom_right_border_radius": 10,
    "bottom_right_border_width": 0,
    "font_color": "007abcff",
    "font_name": "DBOzoneX",
    "font_size": 171,
    "font_weight": "normal",
    "isForked": false,
    "top_left_border_color": "000000ff",
    "top_left_border_radius": 10,
    "top_left_border_width": 0,
    "top_right_border_color": "000000ff",
    "top_right_border_radius": 10,
    "top_right_border_width": 0,
    "wType": "TextField"
  },
  "text_shadow": {
    "br": 0,
    "color": "000000",
    "x": 0,
    "y": 0
  },
  "wType": "TextField"
}