{
  "background_color": "ffffffff",
  "bg_type": "one",
  "border_color": "f5970aff",
  "border_style": "rc",
  "border_type": 0,
  "border_width": 1,
  "font_color": "424242ff",
  "font_name": "Helvetica",
  "font_size": 215,
  "font_style": "normal",
  "font_weight": "normal",
  "isDefaultSkin": false,
  "kuid": "s2a14f3085fe4f8ea145860eafaa34f3",
  "wType": "Label"
}