{
  "background_color": "000000cc",
  "bg_type": "one",
  "border_color": "8c8c8bff",
  "border_style": "plain",
  "border_type": 0,
  "border_width": 100,
  "font_color": "424242ff",
  "font_name": "Helvetica",
  "font_size": 215,
  "font_style": "normal",
  "font_weight": "normal",
  "isDefaultSkin": false,
  "kuid": "s01ea2bffb5249e69e03ee444045e1be",
  "wType": "Label"
}