{
  "background_color": "0af570ff",
  "bg_type": "one",
  "border_color": "0af570ff",
  "border_style": "rc",
  "border_type": 0,
  "border_width": 5,
  "font_color": "424242ff",
  "font_name": "Helvetica",
  "font_size": 215,
  "font_style": "normal",
  "font_weight": "normal",
  "isDefaultSkin": false,
  "kuid": "s50d3a7b9a7e461795bf829b73b81831",
  "wType": "Label"
}