{
  "background_color": "ffffffff",
  "bg_type": "one",
  "border_color": "0000003f",
  "border_style": "plain",
  "border_type": 0,
  "border_width": 0,
  "isDefaultSkin": false,
  "kuid": "s9faa331010f4fb4aed0a59074302143",
  "wType": "FlexContainer"
}