{
  "applicableblockedUIWidget": "Button",
  "background_color": "00000000",
  "bg_type": "one",
  "border_color": "0000001e",
  "border_style": "plain",
  "border_type": 0,
  "border_width": 0,
  "isDefaultSkin": false,
  "isForked": false,
  "kuid": "se68780aa5214417b5243e3c85c547ab",
  "wType": "FlexContainer"
}