{
  "background_color": "00000000",
  "bg_type": "one",
  "border_color": "b0afacff",
  "border_style": "plain",
  "border_type": 0,
  "border_width": 8,
  "font_color": "424242ff",
  "font_name": "Helvetica",
  "font_size": 215,
  "font_style": "normal",
  "font_weight": "normal",
  "isDefaultSkin": false,
  "kuid": "s90ee73ca70d4f5c8a418b925ecc0827",
  "wType": "Label"
}