{
  "background_color": "b0afacff",
  "bg_type": "one",
  "border_color": "b0afacff",
  "border_style": "rc",
  "border_type": 0,
  "border_width": 5,
  "font_color": "424242ff",
  "font_name": "Helvetica",
  "font_size": 215,
  "font_style": "normal",
  "font_weight": "normal",
  "isDefaultSkin": false,
  "kuid": "s59d2d77d1f148ca998a36bd9c466ec2",
  "wType": "Label"
}