{
  "android": {
    "isForked": true
  },
  "background_color": "d1376dff",
  "bg_type": "one",
  "border_color": "d1376dff",
  "border_radius": 100,
  "border_style": "custom",
  "border_type": 0,
  "border_width": 1,
  "iphone": {
    "isForked": true
  },
  "isDefaultSkin": false,
  "kuid": "sc0b1fd32db54c9b956ee3c3bf0163eb",
  "spaan": {
    "bottom_left_border_color": "007abcff",
    "bottom_left_border_style": "plain",
    "bottom_left_border_width": 1,
    "bottom_right_border_color": "007abcff",
    "bottom_right_border_style": "plain",
    "bottom_right_border_width": 1,
    "isForked": true,
    "top_left_border_color": "007abcff",
    "top_left_border_style": "plain",
    "top_left_border_width": 1,
    "top_right_border_color": "007abcff",
    "top_right_border_style": "plain",
    "top_right_border_width": 1
  },
  "spaip": {
    "bottom_left_border_color": "007abcff",
    "bottom_left_border_style": "plain",
    "bottom_left_border_width": 1,
    "bottom_right_border_color": "007abcff",
    "bottom_right_border_style": "plain",
    "bottom_right_border_width": 1,
    "isForked": true,
    "top_left_border_color": "007abcff",
    "top_left_border_style": "plain",
    "top_left_border_width": 1,
    "top_right_border_color": "007abcff",
    "top_right_border_style": "plain",
    "top_right_border_width": 1
  },
  "spawinphone8": {
    "bottom_left_border_color": "007abcff",
    "bottom_left_border_style": "plain",
    "bottom_left_border_width": 1,
    "bottom_right_border_color": "007abcff",
    "bottom_right_border_style": "plain",
    "bottom_right_border_width": 1,
    "isForked": true,
    "top_left_border_color": "007abcff",
    "top_left_border_style": "plain",
    "top_left_border_width": 1,
    "top_right_border_color": "007abcff",
    "top_right_border_style": "plain",
    "top_right_border_width": 1
  },
  "wType": "FlexContainer",
  "winphone8": {
    "isForked": true
  }
}