{
    "applicableblockedUIWidget": "Button",
    "background_color": "ffffff00",
    "background_style": "vg",
    "bg_type": "one",
    "blockedimgURL": "",
    "border_color": "000000ff",
    "border_radius": 0,
    "border_style": "plain",
    "border_type": 0,
    "border_width": 0,
    "bottom_left_border_color": "000000ff",
    "bottom_left_border_radius": 10,
    "bottom_left_border_width": 0,
    "bottom_right_border_color": "000000ff",
    "bottom_right_border_radius": 10,
    "bottom_right_border_width": 0,
    "desktopweb": {
        "customCSS": ".footerLinkSTFoc { display:inline-block;     font:normal 18px/20px 'DB Ozone X Med';     color:#FFFFFF;     text-align:left;     background:url(./images/sitetour.png) left center no-repeat;     padding:0 0 0 20px!important;    outline:0 none;     border:0 none;     cursor:pointer; text-decoration:underline; }",
        "isCustomCSSEnabled": true,
        "isForked": true
    },
    "font_color": "000000ff",
    "font_size": 100,
    "font_weight": "normal",
    "gridLineColor": "0000000",
    "id": "footerLinkSTFoc",
    "isForked": false,
    "kuid": "sea5a915a73d4e05b0144fd187e24378",
    "shadow": {
        "br": 0,
        "color": "000000",
        "inner": false,
        "x": 0,
        "y": 0
    },
    "spaan": {
        "customCSS": ".footerLinkSTFoc { display:inline-block;     font:normal 18px/20px 'DB Ozone X Med';     color:#FFFFFF;     text-align:left;     background:url(./images/sitetour.png) left center no-repeat;     padding:0 0 0 20px!important;    outline:0 none;     border:0 none;     cursor:pointer; text-decoration:underline; }",
        "isCustomCSSEnabled": true,
        "isForked": true
    },
    "spaandroidtablet": {
        "customCSS": ".footerLinkSTFoc { display:inline-block;     font:normal 18px/20px 'DB Ozone X Med';     color:#FFFFFF;     text-align:left;     background:url(./images/sitetour.png) left center no-repeat;     padding:0 0 0 20px!important;    outline:0 none;     border:0 none;     cursor:pointer; text-decoration:underline; }",
        "isCustomCSSEnabled": true,
        "isForked": true
    },
    "spabb": {
        "customCSS": ".footerLinkSTFoc { display:inline-block;     font:normal 18px/20px 'DB Ozone X Med';     color:#FFFFFF;     text-align:left;     background:url(./images/sitetour.png) left center no-repeat;     padding:0 0 0 20px!important;    outline:0 none;     border:0 none;     cursor:pointer; text-decoration:underline; }",
        "isCustomCSSEnabled": true,
        "isForked": true
    },
    "spaip": {
        "customCSS": ".footerLinkSTFoc { display:inline-block;     font:normal 18px/20px 'DB Ozone X Med';     color:#FFFFFF;     text-align:left;     background:url(./images/sitetour.png) left center no-repeat;     padding:0 0 0 20px!important;    outline:0 none;     border:0 none;     cursor:pointer; text-decoration:underline; }",
        "isCustomCSSEnabled": true,
        "isForked": true
    },
    "spaipad": {
        "customCSS": ".footerLinkSTFoc { display:inline-block;     font:normal 18px/20px 'DB Ozone X Med';     color:#FFFFFF;     text-align:left;     background:url(./images/sitetour.png) left center no-repeat;     padding:0 0 0 20px!important;    outline:0 none;     border:0 none;     cursor:pointer; text-decoration:underline; }",
        "isCustomCSSEnabled": true,
        "isForked": true
    },
    "spawindowstablet": {
        "customCSS": ".footerLinkSTFoc { display:inline-block;     font:normal 18px/20px 'DB Ozone X Med';     color:#FFFFFF;     text-align:left;     background:url(./images/sitetour.png) left center no-repeat;     padding:0 0 0 20px!important;    outline:0 none;     border:0 none;     cursor:pointer; text-decoration:underline; }",
        "isCustomCSSEnabled": true,
        "isForked": true
    },
    "spawinphone8": {
        "customCSS": ".footerLinkSTFoc { display:inline-block;     font:normal 18px/20px 'DB Ozone X Med';     color:#FFFFFF;     text-align:left;     background:url(./images/sitetour.png) left center no-repeat;     padding:0 0 0 20px!important;    outline:0 none;     border:0 none;     cursor:pointer; text-decoration:underline; }",
        "isCustomCSSEnabled": true,
        "isForked": true
    },
    "text_shadow": {
        "br": 0,
        "color": "000000",
        "x": 0,
        "y": 0
    },
    "top_left_border_color": "000000ff",
    "top_left_border_radius": 10,
    "top_left_border_width": 0,
    "top_right_border_color": "000000ff",
    "top_right_border_radius": 10,
    "top_right_border_width": 0,
    "use_native": "false",
    "vizChannel": "default",
    "wType": "Link"
}