{
    "applicableblockedUIWidget": "Button",
    "background_color": "ffffff00",
    "background_style": "vg",
    "bg_type": "one",
    "blockedimgURL": "",
    "border_color": "000000ff",
    "border_radius": 0,
    "border_style": "plain",
    "border_type": 0,
    "border_width": 0,
    "bottom_left_border_color": "000000ff",
    "bottom_left_border_radius": 10,
    "bottom_left_border_width": 0,
    "bottom_right_border_color": "000000ff",
    "bottom_right_border_radius": 10,
    "bottom_right_border_width": 0,
    "desktopweb": {
        "customCSS": ".footerLinkWebChat { display:inline-block;     font:normal 18px/48px 'DB Ozone X Med';     color:#FFFFFF;     text-align:left;     background:url(./images/icon_webchat.png) left center no-repeat;     padding:0 0 0 20px!important;     margin:0!important;  outline:0 none;     border:0 none;     cursor:pointer; }",
        "isCustomCSSEnabled": true,
        "isForked": true
    },
    "font_color": "000000ff",
    "font_size": 100,
    "font_weight": "normal",
    "gridLineColor": "0000000",
    "id": "footerLinkWebChat",
    "isForked": false,
    "kuid": "sad4fcc694304c99893ad3f72fd46250",
    "shadow": {
        "br": 0,
        "color": "000000",
        "inner": false,
        "x": 0,
        "y": 0
    },
    "spaan": {
        "customCSS": ".footerLinkWebChat { display:inline-block;     font:normal 18px/48px 'DB Ozone X Med';     color:#FFFFFF;     text-align:left;     background:url(./images/icon_webchat.png) left center no-repeat;     padding:0 0 0 20px!important;     margin:0!important;  outline:0 none;     border:0 none;     cursor:pointer; }",
        "isCustomCSSEnabled": true,
        "isForked": true
    },
    "spaandroidtablet": {
        "customCSS": ".footerLinkWebChat { display:inline-block;     font:normal 18px/48px 'DB Ozone X Med';     color:#FFFFFF;     text-align:left;     background:url(./images/icon_webchat.png) left center no-repeat;     padding:0 0 0 20px!important;     margin:0!important;  outline:0 none;     border:0 none;     cursor:pointer; }",
        "isCustomCSSEnabled": true,
        "isForked": true
    },
    "spabb": {
        "customCSS": ".footerLinkWebChat { display:inline-block;     font:normal 18px/48px 'DB Ozone X Med';     color:#FFFFFF;     text-align:left;     background:url(./images/icon_webchat.png) left center no-repeat;     padding:0 0 0 20px!important;     margin:0!important;  outline:0 none;     border:0 none;     cursor:pointer; }",
        "isCustomCSSEnabled": true,
        "isForked": true
    },
    "spaip": {
        "customCSS": ".footerLinkWebChat { display:inline-block;     font:normal 18px/48px 'DB Ozone X Med';     color:#FFFFFF;     text-align:left;     background:url(./images/icon_webchat.png) left center no-repeat;     padding:0 0 0 20px!important;     margin:0!important;  outline:0 none;     border:0 none;     cursor:pointer; }",
        "isCustomCSSEnabled": true,
        "isForked": true
    },
    "spaipad": {
        "customCSS": ".footerLinkWebChat { display:inline-block;     font:normal 18px/48px 'DB Ozone X Med';     color:#FFFFFF;     text-align:left;     background:url(./images/icon_webchat.png) left center no-repeat;     padding:0 0 0 20px!important;     margin:0!important;  outline:0 none;     border:0 none;     cursor:pointer; }",
        "isCustomCSSEnabled": true,
        "isForked": true
    },
    "spawindowstablet": {
        "customCSS": ".footerLinkWebChat { display:inline-block;     font:normal 18px/48px 'DB Ozone X Med';     color:#FFFFFF;     text-align:left;     background:url(./images/icon_webchat.png) left center no-repeat;     padding:0 0 0 20px!important;     margin:0!important;  outline:0 none;     border:0 none;     cursor:pointer; }",
        "isCustomCSSEnabled": true,
        "isForked": true
    },
    "spawinphone8": {
        "customCSS": ".footerLinkWebChat { display:inline-block;     font:normal 18px/48px 'DB Ozone X Med';     color:#FFFFFF;     text-align:left;     background:url(./images/icon_webchat.png) left center no-repeat;     padding:0 0 0 20px!important;     margin:0!important;  outline:0 none;     border:0 none;     cursor:pointer; }",
        "isCustomCSSEnabled": true,
        "isForked": true
    },
    "text_shadow": {
        "br": 0,
        "color": "000000",
        "x": 0,
        "y": 0
    },
    "top_left_border_color": "000000ff",
    "top_left_border_radius": 10,
    "top_left_border_width": 0,
    "top_right_border_color": "000000ff",
    "top_right_border_radius": 10,
    "top_right_border_width": 0,
    "use_native": "false",
    "vizChannel": "default",
    "wType": "Link"
}