{
  "android": {
    "isForked": true
  },
  "applicableblockedUIWidget": "Button",
  "background_color": "000000ff",
  "bg_type": "one",
  "blockedimgURL": "",
  "border_color": "000000ff",
  "border_style": "plain",
  "border_type": 0,
  "border_width": 0,
  "bottom_left_border_color": "000000ff",
  "bottom_left_border_radius": 10,
  "bottom_left_border_width": 0,
  "bottom_right_border_color": "000000ff",
  "bottom_right_border_radius": 10,
  "bottom_right_border_width": 0,
  "font_color": "000000ff",
  "font_size": 100,
  "font_weight": "normal",
  "gridLineColor": "0000000",
  "iphone": {
    "isForked": true
  },
  "isDefaultSkin": false,
  "isForked": false,
  "kuid": "s00e9b5c02f64cdcb9101aac4cc87152",
  "shadow": {
    "br": 0,
    "color": "000000",
    "inner": true,
    "x": 0,
    "y": 0
  },
  "text_shadow": {
    "br": 0,
    "color": "000000",
    "x": 0,
    "y": 0
  },
  "top_left_border_color": "000000ff",
  "top_left_border_radius": 10,
  "top_left_border_width": 0,
  "top_right_border_color": "000000ff",
  "top_right_border_radius": 10,
  "top_right_border_width": 0,
  "vizChannel": "default",
  "wType": "Form"
}