{
  "background_color": "00000000",
  "bg_type": "one",
  "border_color": "f0f0f099",
  "border_style": "plain",
  "border_type": 0,
  "border_width": 2,
  "isDefaultSkin": false,
  "kuid": "s5624afccf324b58b2415102d7c05af4",
  "wType": "HBox"
}