{
  "applicableblockedUIWidget": "Button",
  "background_color": "ffffffff",
  "bg_type": "one",
  "blockedimgURL": "",
  "border_color": "cce2f1ff",
  "border_style": "plain",
  "border_type": 0,
  "border_width": 1,
  "bottom_left_border_color": "000000ff",
  "bottom_left_border_radius": 10,
  "bottom_left_border_width": 0,
  "bottom_right_border_color": "000000ff",
  "bottom_right_border_radius": 10,
  "bottom_right_border_width": 0,
  "desktopweb": {
    "bottom_left_border_color": "cce2f1ff",
    "bottom_left_border_style": "plain",
    "bottom_left_border_width": "1",
    "bottom_right_border_color": "cce2f1ff",
    "bottom_right_border_style": "plain",
    "bottom_right_border_width": "1",
    "isForked": true,
    "top_left_border_color": "cce2f1ff",
    "top_left_border_style": "plain",
    "top_left_border_width": "0",
    "top_right_border_color": "cce2f1ff",
    "top_right_border_style": "plain",
    "top_right_border_width": "1"
  },
  "font_color": "000000ff",
  "font_size": 100,
  "font_weight": "normal",
  "gridLineColor": "0000000",
  "isDefaultSkin": false,
  "isForked": false,
  "kiosk": {
    "isForked": true
  },
  "kuid": "se5753c758864cea9ba9dbbb1dd5cd7c",
  "shadow": {
    "br": 0,
    "color": "000000",
    "inner": false,
    "x": 0,
    "y": 0
  },
  "spaan": {
    "bottom_left_border_color": "cce2f1ff",
    "bottom_left_border_style": "plain",
    "bottom_left_border_width": "1",
    "bottom_right_border_color": "cce2f1ff",
    "bottom_right_border_style": "plain",
    "bottom_right_border_width": "1",
    "isForked": true,
    "top_left_border_color": "cce2f1ff",
    "top_left_border_style": "plain",
    "top_left_border_width": "0",
    "top_right_border_color": "cce2f1ff",
    "top_right_border_style": "plain",
    "top_right_border_width": "1"
  },
  "spaandroidtablet": {
    "bottom_left_border_color": "cce2f1ff",
    "bottom_left_border_style": "plain",
    "bottom_left_border_width": "1",
    "bottom_right_border_color": "cce2f1ff",
    "bottom_right_border_style": "plain",
    "bottom_right_border_width": "1",
    "isForked": true,
    "top_left_border_color": "cce2f1ff",
    "top_left_border_style": "plain",
    "top_left_border_width": "0",
    "top_right_border_color": "cce2f1ff",
    "top_right_border_style": "plain",
    "top_right_border_width": "1"
  },
  "spabb": {
    "bottom_left_border_color": "cce2f1ff",
    "bottom_left_border_style": "plain",
    "bottom_left_border_width": "1",
    "bottom_right_border_color": "cce2f1ff",
    "bottom_right_border_style": "plain",
    "bottom_right_border_width": "1",
    "isForked": true,
    "top_left_border_color": "cce2f1ff",
    "top_left_border_style": "plain",
    "top_left_border_width": "0",
    "top_right_border_color": "cce2f1ff",
    "top_right_border_style": "plain",
    "top_right_border_width": "1"
  },
  "spaip": {
    "bottom_left_border_color": "cce2f1ff",
    "bottom_left_border_style": "plain",
    "bottom_left_border_width": "1",
    "bottom_right_border_color": "cce2f1ff",
    "bottom_right_border_style": "plain",
    "bottom_right_border_width": "1",
    "isForked": true,
    "top_left_border_color": "cce2f1ff",
    "top_left_border_style": "plain",
    "top_left_border_width": "0",
    "top_right_border_color": "cce2f1ff",
    "top_right_border_style": "plain",
    "top_right_border_width": "1"
  },
  "spaipad": {
    "bottom_left_border_color": "cce2f1ff",
    "bottom_left_border_style": "plain",
    "bottom_left_border_width": "1",
    "bottom_right_border_color": "cce2f1ff",
    "bottom_right_border_style": "plain",
    "bottom_right_border_width": "1",
    "isForked": true,
    "top_left_border_color": "cce2f1ff",
    "top_left_border_style": "plain",
    "top_left_border_width": "0",
    "top_right_border_color": "cce2f1ff",
    "top_right_border_style": "plain",
    "top_right_border_width": "1"
  },
  "spawindowstablet": {
    "bottom_left_border_color": "cce2f1ff",
    "bottom_left_border_style": "plain",
    "bottom_left_border_width": "1",
    "bottom_right_border_color": "cce2f1ff",
    "bottom_right_border_style": "plain",
    "bottom_right_border_width": "1",
    "isForked": true,
    "top_left_border_color": "cce2f1ff",
    "top_left_border_style": "plain",
    "top_left_border_width": "0",
    "top_right_border_color": "cce2f1ff",
    "top_right_border_style": "plain",
    "top_right_border_width": "1"
  },
  "spawinphone8": {
    "bottom_left_border_color": "cce2f1ff",
    "bottom_left_border_style": "plain",
    "bottom_left_border_width": "1",
    "bottom_right_border_color": "cce2f1ff",
    "bottom_right_border_style": "plain",
    "bottom_right_border_width": "1",
    "isForked": true,
    "top_left_border_color": "cce2f1ff",
    "top_left_border_style": "plain",
    "top_left_border_width": "0",
    "top_right_border_color": "cce2f1ff",
    "top_right_border_style": "plain",
    "top_right_border_width": "1"
  },
  "text_shadow": {
    "br": 0,
    "color": "000000",
    "x": 0,
    "y": 0
  },
  "top_left_border_color": "000000ff",
  "top_left_border_radius": 10,
  "top_left_border_width": 0,
  "top_right_border_color": "000000ff",
  "top_right_border_radius": 10,
  "top_right_border_width": 0,
  "vizChannel": "default",
  "wType": "HBox"
}