{
    "applicableblockedUIWidget": "Button",
    "background_color": "ffffff00",
    "background_style": "vg",
    "bg_type": "one",
    "blockedimgURL": "",
    "border_color": "000000ff",
    "border_radius": 0,
    "border_style": "plain",
    "border_type": 0,
    "border_width": 0,
    "bottom_left_border_color": "000000ff",
    "bottom_left_border_radius": 10,
    "bottom_left_border_width": 0,
    "bottom_right_border_color": "000000ff",
    "bottom_right_border_radius": 10,
    "bottom_right_border_width": 0,
    "desktopweb": {
        "customCSS": "margin: 0%; padding: 3% 0px; width: 320px!important; background: none repeat scroll 0px 0px #ddedfa!important;cursor:pointer!important",
        "isCustomCSSEnabled": true,
        "isForked": true
    },
    "font_color": "000000ff",
    "font_size": 100,
    "font_weight": "normal",
    "gridLineColor": "0000000",
    "id": "hbxlightbluepointer",
    "isForked": false,
    "kuid": "sf61c0e350ad416186d5c1a0b234cf24",
    "shadow": {
        "br": 0,
        "color": "000000",
        "inner": false,
        "x": 0,
        "y": 0
    },
    "spaan": {
        "customCSS": "margin: 0%; padding: 3% 0px; width: 320px!important; background: none repeat scroll 0px 0px #ddedfa!important;cursor:pointer!important",
        "isCustomCSSEnabled": true,
        "isForked": true
    },
    "spaandroidtablet": {
        "customCSS": "margin: 0%; padding: 3% 0px; width: 320px!important; background: none repeat scroll 0px 0px #ddedfa!important;cursor:pointer!important",
        "isCustomCSSEnabled": true,
        "isForked": true
    },
    "spabb": {
        "customCSS": "margin: 0%; padding: 3% 0px; width: 320px!important; background: none repeat scroll 0px 0px #ddedfa!important;cursor:pointer!important",
        "isCustomCSSEnabled": true,
        "isForked": true
    },
    "spaip": {
        "customCSS": "margin: 0%; padding: 3% 0px; width: 320px!important; background: none repeat scroll 0px 0px #ddedfa!important;cursor:pointer!important",
        "isCustomCSSEnabled": true,
        "isForked": true
    },
    "spaipad": {
        "customCSS": "margin: 0%; padding: 3% 0px; width: 320px!important; background: none repeat scroll 0px 0px #ddedfa!important;cursor:pointer!important",
        "isCustomCSSEnabled": true,
        "isForked": true
    },
    "spawindowstablet": {
        "customCSS": "margin: 0%; padding: 3% 0px; width: 320px!important; background: none repeat scroll 0px 0px #ddedfa!important;cursor:pointer!important",
        "isCustomCSSEnabled": true,
        "isForked": true
    },
    "spawinphone8": {
        "customCSS": "margin: 0%; padding: 3% 0px; width: 320px!important; background: none repeat scroll 0px 0px #ddedfa!important;cursor:pointer!important",
        "isCustomCSSEnabled": true,
        "isForked": true
    },
    "text_shadow": {
        "br": 0,
        "color": "000000",
        "x": 0,
        "y": 0
    },
    "top_left_border_color": "000000ff",
    "top_left_border_radius": 10,
    "top_left_border_width": 0,
    "top_right_border_color": "000000ff",
    "top_right_border_radius": 10,
    "top_right_border_width": 0,
    "use_native": "false",
    "vizChannel": "default",
    "wType": "HBox"
}