{
    "android": {
        "applicableblockedUIWidget": "Button",
        "background_color": "ce0221ff",
        "background_style": "vg",
        "bg_type": "one",
        "blockedimgURL": "",
        "border_color": "ff0000ff",
        "border_radius": 0,
        "border_style": "rc",
        "border_type": 0,
        "border_width": 1,
        "bottom_left_border_color": "000000ff",
        "bottom_left_border_radius": 10,
        "bottom_left_border_width": 0,
        "bottom_right_border_color": "000000ff",
        "bottom_right_border_radius": 10,
        "bottom_right_border_width": 0,
        "font_color": "ffffffff",
        "font_name": "DBOzoneX-Bold",
        "font_size": 100,
        "font_weight": "normal",
        "gridLineColor": "0000000",
        "id": "lblBadgeRed",
        "isCustomCSSEnabled": false,
        "isForked": true,
        "psp": {},
        "shadow": {
            "br": 0,
            "color": "000000",
            "inner": false,
            "x": 0,
            "y": 0
        },
        "text_shadow": {
            "br": 0,
            "color": "000000",
            "x": 0,
            "y": 0
        },
        "top_left_border_color": "000000ff",
        "top_left_border_radius": 10,
        "top_left_border_width": 0,
        "top_right_border_color": "000000ff",
        "top_right_border_radius": 10,
        "top_right_border_width": 0,
        "use_native": "false",
        "vizChannel": "android",
        "wType": "Label"
    },
    "applicableblockedUIWidget": "Button",
    "background_color": "ce0221ff",
    "background_style": "vg",
    "bg_type": "one",
    "blockedimgURL": "",
    "border_color": "000000ff",
    "border_radius": 0,
    "border_style": "plain",
    "border_type": 0,
    "border_width": 0,
    "bottom_left_border_color": "000000ff",
    "bottom_left_border_radius": 10,
    "bottom_left_border_width": 0,
    "bottom_right_border_color": "000000ff",
    "bottom_right_border_radius": 10,
    "bottom_right_border_width": 0,
    "font_color": "ffffffff",
    "font_size": 100,
    "font_weight": "normal",
    "gridLineColor": "0000000",
    "id": "lblBadgeRed",
    "iphone": {
        "applicableblockedUIWidget": "Button",
        "background_color": "ce0221ff",
        "background_style": "vg",
        "bg_type": "one",
        "blockedimgURL": "",
        "border_color": "ff0000ff",
        "border_radius": 0,
        "border_style": "rc",
        "border_type": 0,
        "border_width": 1,
        "bottom_left_border_color": "000000ff",
        "bottom_left_border_radius": 10,
        "bottom_left_border_width": 0,
        "bottom_right_border_color": "000000ff",
        "bottom_right_border_radius": 10,
        "bottom_right_border_width": 0,
        "font_color": "ffffffff",
        "font_name": "DBOzoneX-Bold",
        "font_size": 100,
        "font_weight": "normal",
        "gridLineColor": "0000000",
        "id": "lblBadgeRed",
        "isCustomCSSEnabled": false,
        "isForked": true,
        "psp": {},
        "shadow": {
            "br": 0,
            "color": "000000",
            "inner": false,
            "x": 0,
            "y": 0
        },
        "text_shadow": {
            "br": 0,
            "color": "000000",
            "x": 0,
            "y": 0
        },
        "top_left_border_color": "000000ff",
        "top_left_border_radius": 10,
        "top_left_border_width": 0,
        "top_right_border_color": "000000ff",
        "top_right_border_radius": 10,
        "top_right_border_width": 0,
        "use_native": "false",
        "vizChannel": "iphone",
        "wType": "Label"
    },
    "isForked": false,
    "kuid": "sb892c67b1d0440db30dde8b87e8c18f",
    "shadow": {
        "br": 0,
        "color": "000000",
        "inner": false,
        "x": 0,
        "y": 0
    },
    "spaan": {
        "applicableblockedUIWidget": "Button",
        "backgroundSize": false,
        "background_color": "ce0221ff",
        "background_style": "vg",
        "bg_type": "one",
        "blockedimgURL": "",
        "border_color": "ff0000ff",
        "border_radius": 0,
        "border_style": "plain",
        "border_type": 0,
        "border_width": 1,
        "bottom_left_border_color": "ff0000ff",
        "bottom_left_border_radius": 10,
        "bottom_left_border_width": 1,
        "bottom_right_border_color": "ff0000ff",
        "bottom_right_border_radius": 10,
        "bottom_right_border_width": 1,
        "enableRetinaImage": false,
        "font_color": "ffffffff",
        "font_name": "DBOzoneX-Bold",
        "font_size": 100,
        "font_weight": "normal",
        "gridLineColor": "0000000",
        "id": "lblBadgeRed",
        "isCustomCSSEnabled": false,
        "isForked": true,
        "psp": {},
        "repeatImageHorizontally": false,
        "repeatImageVertically": false,
        "shadow": {
            "br": 0,
            "color": "000000",
            "inner": false,
            "x": 0,
            "y": 0
        },
        "text_shadow": {
            "br": 0,
            "color": "000000",
            "x": 0,
            "y": 0
        },
        "top_left_border_color": "ff0000ff",
        "top_left_border_radius": 10,
        "top_left_border_width": 1,
        "top_right_border_color": "ff0000ff",
        "top_right_border_radius": 10,
        "top_right_border_width": 1,
        "use_native": "false",
        "vizChannel": "spaan",
        "wType": "Label"
    },
    "spabb": {
        "applicableblockedUIWidget": "Button",
        "background_color": "ce0221ff",
        "background_style": "vg",
        "bg_type": "one",
        "blockedimgURL": "",
        "border_color": "000000ff",
        "border_radius": 0,
        "border_style": "plain",
        "border_type": 0,
        "border_width": 0,
        "bottom_left_border_color": "000000ff",
        "bottom_left_border_radius": 10,
        "bottom_left_border_width": 0,
        "bottom_right_border_color": "000000ff",
        "bottom_right_border_radius": 10,
        "bottom_right_border_width": 0,
        "font_color": "ffffffff",
        "font_name": "DBOzoneX-Bold",
        "font_size": 100,
        "font_weight": "normal",
        "isForked": false,
        "top_left_border_color": "000000ff",
        "top_left_border_radius": 10,
        "top_left_border_width": 0,
        "top_right_border_color": "000000ff",
        "top_right_border_radius": 10,
        "top_right_border_width": 0,
        "vizChannel": "spabb",
        "wType": "Label"
    },
    "spaip": {
        "applicableblockedUIWidget": "Button",
        "backgroundSize": false,
        "background_color": "ce0221ff",
        "background_style": "vg",
        "bg_type": "one",
        "blockedimgURL": "",
        "border_color": "ff0000ff",
        "border_radius": 0,
        "border_style": "plain",
        "border_type": 0,
        "border_width": 1,
        "bottom_left_border_color": "ff0000ff",
        "bottom_left_border_radius": 10,
        "bottom_left_border_width": 1,
        "bottom_right_border_color": "ff0000ff",
        "bottom_right_border_radius": 10,
        "bottom_right_border_width": 1,
        "enableRetinaImage": false,
        "font_color": "ffffffff",
        "font_name": "DBOzoneX-Bold",
        "font_size": 100,
        "font_weight": "normal",
        "gridLineColor": "0000000",
        "id": "lblBadgeRed",
        "isCustomCSSEnabled": false,
        "isForked": true,
        "psp": {},
        "repeatImageHorizontally": false,
        "repeatImageVertically": false,
        "repeatRetinaImage": false,
        "shadow": {
            "br": 0,
            "color": "000000",
            "inner": false,
            "x": 0,
            "y": 0
        },
        "text_shadow": {
            "br": 0,
            "color": "000000",
            "x": 0,
            "y": 0
        },
        "top_left_border_color": "ff0000ff",
        "top_left_border_radius": 10,
        "top_left_border_width": 1,
        "top_right_border_color": "ff0000ff",
        "top_right_border_radius": 10,
        "top_right_border_width": 1,
        "use_native": "false",
        "vizChannel": "spaip",
        "wType": "Label"
    },
    "text_shadow": {
        "br": 0,
        "color": "000000",
        "x": 0,
        "y": 0
    },
    "top_left_border_color": "000000ff",
    "top_left_border_radius": 10,
    "top_left_border_width": 0,
    "top_right_border_color": "000000ff",
    "top_right_border_radius": 10,
    "top_right_border_width": 0,
    "use_native": "false",
    "vizChannel": "default",
    "wType": "Label"
}