{
  "android": {
    "font_name": "DBOzoneX-Medium"
  },
  "applicableblockedUIWidget": "Button",
  "background_color": "00000000",
  "background_style": "vg",
  "bg_type": "one",
  "blockedimgURL": "",
  "border_color": "424242ff",
  "border_radius": 0,
  "border_style": "plain",
  "border_type": 0,
  "border_width": 0,
  "bottom_left_border_color": "000000ff",
  "bottom_left_border_radius": 10,
  "bottom_left_border_width": 0,
  "bottom_right_border_color": "000000ff",
  "bottom_right_border_radius": 10,
  "bottom_right_border_width": 0,
  "desktopweb": {
    "font_name": "Andale Mono"
  },
  "font_color": "007abcff",
  "font_size": 142,
  "font_style": "normal",
  "font_weight": "normal",
  "gridLineColor": "0000000",
  "ipad": {
    "font_name": "AmericanTypewriter"
  },
  "iphone": {
    "font_name": "DBOzoneX-Medium"
  },
  "isForked": false,
  "kiosk": {
    "font_name": "GenericMonospace"
  },
  "kuid": "s356f078e8f54b488164aa71a331e201",
  "shadow": {
    "br": 0,
    "color": "000000",
    "inner": false,
    "x": 0,
    "y": 0
  },
  "spaan": {
    "font_name": "Andale Mono"
  },
  "spaandroidtablet": {
    "font_name": "Andale Mono"
  },
  "spabb": {
    "font_name": "Andale Mono"
  },
  "spaip": {
    "font_name": "Andale Mono"
  },
  "spaipad": {
    "font_name": "Andale Mono"
  },
  "spawindowstablet": {
    "font_name": "Andale Mono"
  },
  "spawinphone8": {
    "font_name": "Andale Mono"
  },
  "tabrcandroid": {
    "font_name": "default"
  },
  "text_shadow": {
    "br": 0,
    "color": "000000",
    "x": 0,
    "y": 0
  },
  "top_left_border_color": "000000ff",
  "top_left_border_radius": 10,
  "top_left_border_width": 0,
  "top_right_border_color": "000000ff",
  "top_right_border_radius": 10,
  "top_right_border_width": 0,
  "vizChannel": "default",
  "wType": "Label",
  "watchos": {
    "font_name": "Arial"
  },
  "windows8": {
    "font_name": "GenericMonospace"
  },
  "winphone8": {
    "font_name": "GenericMonospace"
  }
}