{
  "android": {
    "applicableblockedUIWidget": "Button",
    "background_color": "00acff00",
    "background_style": "vg",
    "bg_type": "one",
    "blockedimgURL": "",
    "border_color": "000000ff",
    "border_radius": 0,
    "border_style": "plain",
    "border_type": 0,
    "border_width": 0,
    "bottom_left_border_color": "000000ff",
    "bottom_left_border_radius": 10,
    "bottom_left_border_width": 0,
    "bottom_right_border_color": "000000ff",
    "bottom_right_border_radius": 10,
    "bottom_right_border_width": 0,
    "font_color": "0099e3ff",
    "font_name": "DBOzoneX-Bold",
    "font_size": 142,
    "font_weight": "normal",
    "isForked": false,
    "top_left_border_color": "000000ff",
    "top_left_border_radius": 10,
    "top_left_border_width": 0,
    "top_right_border_color": "000000ff",
    "top_right_border_radius": 10,
    "top_right_border_width": 0,
    "vizChannel": "android",
    "wType": "Label"
  },
  "applicableblockedUIWidget": "Button",
  "background_color": "00acff00",
  "bg_type": "one",
  "blockedimgURL": "",
  "border_color": "000000ff",
  "border_style": "plain",
  "border_type": 0,
  "border_width": 0,
  "bottom_left_border_color": "000000ff",
  "bottom_left_border_radius": 10,
  "bottom_left_border_width": 0,
  "bottom_right_border_color": "000000ff",
  "bottom_right_border_radius": 10,
  "bottom_right_border_width": 0,
  "desktopweb": {
    "font_size": 142,
    "isForked": false
  },
  "fontSizeInPx": false,
  "font_color": "0099e3ff",
  "font_size": 142,
  "font_weight": "normal",
  "gridLineColor": "0000000",
  "ipad": {
    "font_size": 142,
    "isForked": false
  },
  "iphone": {
    "applicableblockedUIWidget": "Button",
    "background_color": "00acff00",
    "background_style": "vg",
    "bg_type": "one",
    "blockedimgURL": "",
    "border_color": "000000ff",
    "border_radius": 0,
    "border_style": "plain",
    "border_type": 0,
    "border_width": 0,
    "bottom_left_border_color": "000000ff",
    "bottom_left_border_radius": 10,
    "bottom_left_border_width": 0,
    "bottom_right_border_color": "000000ff",
    "bottom_right_border_radius": 10,
    "bottom_right_border_width": 0,
    "font_color": "0099e3ff",
    "font_name": "DBOzoneX-Bold",
    "font_size": 142,
    "font_weight": "normal",
    "isForked": false,
    "top_left_border_color": "000000ff",
    "top_left_border_radius": 10,
    "top_left_border_width": 0,
    "top_right_border_color": "000000ff",
    "top_right_border_radius": 10,
    "top_right_border_width": 0,
    "vizChannel": "iphone",
    "wType": "Label"
  },
  "isDefaultSkin": false,
  "isForked": false,
  "kiosk": {
    "font_size": 142,
    "isForked": false
  },
  "kuid": "s952f885adc94f2caaef9fd674212da7",
  "shadow": {
    "br": 0,
    "color": "000000",
    "inner": false,
    "x": 0,
    "y": 0
  },
  "spaan": {
    "applicableblockedUIWidget": "Button",
    "backgroundSize": false,
    "background_color": "00acff00",
    "background_style": "vg",
    "bg_type": "one",
    "blockedimgURL": "",
    "border_color": "000000ff",
    "border_radius": 0,
    "border_style": "plain",
    "border_type": 0,
    "border_width": 0,
    "bottom_left_border_color": "000000ff",
    "bottom_left_border_radius": 10,
    "bottom_left_border_style": "plain",
    "bottom_left_border_width": 0,
    "bottom_right_border_color": "000000ff",
    "bottom_right_border_radius": 10,
    "bottom_right_border_style": "plain",
    "bottom_right_border_width": 0,
    "customCSS": ".lblBlueNormal { font:normal 16px 'DB Ozone X'; color:#007abc; vertical-align:bottom; }",
    "enableRetinaImage": false,
    "font_color": "0099e3ff",
    "font_name": "DBOzoneX-Bold",
    "font_size": 114,
    "font_weight": "normal",
    "gridLineColor": "0000000",
    "isCustomCSSEnabled": true,
    "isForked": true,
    "psp": {},
    "repeatImageHorizontally": false,
    "repeatImageVertically": false,
    "shadow": {
      "br": 0,
      "color": "000000",
      "inner": false,
      "x": 0,
      "y": 0
    },
    "text_shadow": {
      "br": 0,
      "color": "000000",
      "x": 0,
      "y": 0
    },
    "top_left_border_color": "000000ff",
    "top_left_border_radius": 10,
    "top_left_border_style": "plain",
    "top_left_border_width": 0,
    "top_right_border_color": "000000ff",
    "top_right_border_radius": 10,
    "top_right_border_style": "plain",
    "top_right_border_width": 0,
    "use_native": "false",
    "vizChannel": "spaan",
    "wType": "Label"
  },
  "spaandroidtablet": {
    "font_size": 142,
    "isForked": false
  },
  "spabb": {
    "applicableblockedUIWidget": "Button",
    "background_color": "00acff00",
    "background_style": "vg",
    "bg_type": "one",
    "blockedimgURL": "",
    "border_color": "000000ff",
    "border_radius": 0,
    "border_style": "plain",
    "border_type": 0,
    "border_width": 0,
    "bottom_left_border_color": "000000ff",
    "bottom_left_border_radius": 10,
    "bottom_left_border_width": 0,
    "bottom_right_border_color": "000000ff",
    "bottom_right_border_radius": 10,
    "bottom_right_border_width": 0,
    "font_color": "0099e3ff",
    "font_name": "DBOzoneX-Bold",
    "font_size": 142,
    "font_weight": "normal",
    "isForked": false,
    "top_left_border_color": "000000ff",
    "top_left_border_radius": 10,
    "top_left_border_width": 0,
    "top_right_border_color": "000000ff",
    "top_right_border_radius": 10,
    "top_right_border_width": 0,
    "vizChannel": "spabb",
    "wType": "Label"
  },
  "spaip": {
    "applicableblockedUIWidget": "Button",
    "backgroundSize": false,
    "background_color": "00acff00",
    "background_style": "vg",
    "bg_type": "one",
    "blockedimgURL": "",
    "border_color": "000000ff",
    "border_radius": 0,
    "border_style": "plain",
    "border_type": 0,
    "border_width": 0,
    "bottom_left_border_color": "000000ff",
    "bottom_left_border_radius": 10,
    "bottom_left_border_style": "plain",
    "bottom_left_border_width": 0,
    "bottom_right_border_color": "000000ff",
    "bottom_right_border_radius": 10,
    "bottom_right_border_style": "plain",
    "bottom_right_border_width": 0,
    "customCSS": ".lblBlueNormal { font:normal 16px 'DB Ozone X'; color:#007abc; vertical-align:bottom; }",
    "enableRetinaImage": false,
    "font_color": "0099e3ff",
    "font_name": "DBOzoneX-Bold",
    "font_size": 114,
    "font_weight": "normal",
    "gridLineColor": "0000000",
    "isCustomCSSEnabled": true,
    "isForked": true,
    "psp": {},
    "repeatImageHorizontally": false,
    "repeatImageVertically": false,
    "repeatRetinaImage": false,
    "shadow": {
      "br": 0,
      "color": "000000",
      "inner": false,
      "x": 0,
      "y": 0
    },
    "text_shadow": {
      "br": 0,
      "color": "000000",
      "x": 0,
      "y": 0
    },
    "top_left_border_color": "000000ff",
    "top_left_border_radius": 10,
    "top_left_border_style": "plain",
    "top_left_border_width": 0,
    "top_right_border_color": "000000ff",
    "top_right_border_radius": 10,
    "top_right_border_style": "plain",
    "top_right_border_width": 0,
    "use_native": "false",
    "vizChannel": "spaip",
    "wType": "Label"
  },
  "spaipad": {
    "font_size": 142,
    "isForked": false
  },
  "spawindowstablet": {
    "font_size": 142,
    "isForked": false
  },
  "spawinphone8": {
    "font_size": 142,
    "isForked": false
  },
  "tabrcandroid": {
    "font_size": 142,
    "isForked": false
  },
  "text_shadow": {
    "br": 0,
    "color": "000000",
    "x": 0,
    "y": 0
  },
  "top_left_border_color": "000000ff",
  "top_left_border_radius": 10,
  "top_left_border_width": 0,
  "top_right_border_color": "000000ff",
  "top_right_border_radius": 10,
  "top_right_border_width": 0,
  "vizChannel": "default",
  "wType": "Label",
  "watchos": {
    "font_size": 142,
    "isForked": false
  },
  "windows8": {
    "font_size": 142,
    "isForked": false
  },
  "winphone8": {
    "font_size": 142,
    "isForked": false
  }
}