{
  "android": {
    "applicableblockedUIWidget": "Button",
    "background_color": "f4f4f4ff",
    "bg_type": "one",
    "blockedimgURL": "",
    "border_color": "f4f4f4ff",
    "border_style": "cr",
    "border_type": 0,
    "border_width": 1,
    "bottom_left_border_color": "000000ff",
    "bottom_left_border_radius": 10,
    "bottom_left_border_width": 0,
    "bottom_right_border_color": "000000ff",
    "bottom_right_border_radius": 10,
    "bottom_right_border_width": 0,
    "font_color": "007abcff",
    "font_name": "DBOzoneX",
    "font_size": 171,
    "font_weight": "normal",
    "gridLineColor": "0000000",
    "isCustomCSSEnabled": false,
    "isForked": true,
    "psp": {},
    "shadow": {
      "br": 0,
      "color": "000000",
      "inner": false,
      "x": 0,
      "y": 0
    },
    "text_shadow": {
      "br": 0,
      "color": "000000",
      "x": 0,
      "y": 0
    },
    "top_left_border_color": "000000ff",
    "top_left_border_radius": 10,
    "top_left_border_width": 0,
    "top_right_border_color": "000000ff",
    "top_right_border_radius": 10,
    "top_right_border_width": 0,
    "vizChannel": "android",
    "wType": "Label"
  },
  "androidwearos": {
    "background_color": "f4f4f4ff",
    "bg_type": "one",
    "border_color": "f4f4f4ff",
    "border_style": "cr",
    "border_type": 0,
    "border_width": 1,
    "font_color": "333333ff",
    "isForked": true
  },
  "applicableblockedUIWidget": "Button",
  "background_color": "f4f4f4ff",
  "bg_type": "one",
  "blockedimgURL": "",
  "border_color": "000000ff",
  "border_style": "rc",
  "border_type": 0,
  "border_width": 0,
  "bottom_left_border_color": "000000ff",
  "bottom_left_border_radius": 10,
  "bottom_left_border_width": 0,
  "bottom_right_border_color": "000000ff",
  "bottom_right_border_radius": 10,
  "bottom_right_border_width": 0,
  "desktopweb": {
    "background_color": "f4f4f4ff",
    "bg_type": "one",
    "bottom_left_border_color": "000000ff",
    "bottom_left_border_style": "plain",
    "bottom_left_border_width": 0,
    "bottom_right_border_color": "000000ff",
    "bottom_right_border_style": "plain",
    "bottom_right_border_width": 0,
    "font_color": "333333ff",
    "isForked": true,
    "top_left_border_color": "000000ff",
    "top_left_border_style": "plain",
    "top_left_border_width": 0,
    "top_right_border_color": "000000ff",
    "top_right_border_style": "plain",
    "top_right_border_width": 0
  },
  "font_color": "007abcff",
  "font_size": 100,
  "font_weight": "normal",
  "gridLineColor": "0000000",
  "ipad": {
    "background_color": "f4f4f4ff",
    "bg_type": "one",
    "border_color": "f4f4f4ff",
    "border_style": "cr",
    "border_type": 0,
    "border_width": 1,
    "font_color": "333333ff",
    "isForked": true
  },
  "iphone": {
    "applicableblockedUIWidget": "Button",
    "background_color": "f4f4f4ff",
    "bg_type": "one",
    "blockedimgURL": "",
    "border_color": "f4f4f4ff",
    "border_style": "cr",
    "border_type": 0,
    "border_width": 1,
    "bottom_left_border_color": "000000ff",
    "bottom_left_border_radius": 10,
    "bottom_left_border_width": 0,
    "bottom_right_border_color": "000000ff",
    "bottom_right_border_radius": 10,
    "bottom_right_border_width": 0,
    "font_color": "007abcff",
    "font_name": "DBOzoneX",
    "font_size": 171,
    "font_weight": "normal",
    "gridLineColor": "0000000",
    "isCustomCSSEnabled": false,
    "isForked": true,
    "psp": {},
    "shadow": {
      "br": 0,
      "color": "000000",
      "inner": false,
      "x": 0,
      "y": 0
    },
    "text_shadow": {
      "br": 0,
      "color": "000000",
      "x": 0,
      "y": 0
    },
    "top_left_border_color": "000000ff",
    "top_left_border_radius": 10,
    "top_left_border_width": 0,
    "top_right_border_color": "000000ff",
    "top_right_border_radius": 10,
    "top_right_border_width": 0,
    "vizChannel": "iphone",
    "wType": "Label"
  },
  "isDefaultSkin": false,
  "isForked": false,
  "kiosk": {
    "background_color": "f4f4f4ff",
    "bg_type": "one",
    "border_color": "f4f4f4ff",
    "border_style": "rc",
    "border_type": 0,
    "border_width": 1,
    "font_color": "333333ff",
    "isForked": true
  },
  "kuid": "sdcd5a5c0c314b8ba447d557f1ed76e6",
  "shadow": {
    "br": 0,
    "color": "000000",
    "inner": false,
    "x": 0,
    "y": 0
  },
  "spaan": {
    "applicableblockedUIWidget": "Button",
    "background_color": "f4f4f4ff",
    "bg_type": "one",
    "blockedimgURL": "",
    "border_color": "000000ff",
    "border_style": "plain",
    "border_type": 0,
    "border_width": 0,
    "bottom_left_border_color": "000000ff",
    "bottom_left_border_radius": 10,
    "bottom_left_border_width": 0,
    "bottom_right_border_color": "000000ff",
    "bottom_right_border_radius": 10,
    "bottom_right_border_width": 0,
    "font_color": "333333ff",
    "font_size": 100,
    "font_weight": "normal",
    "gridLineColor": "0000000",
    "isCustomCSSEnabled": false,
    "isForked": true,
    "psp": {},
    "shadow": {
      "br": 0,
      "color": "000000",
      "inner": false,
      "x": 0,
      "y": 0
    },
    "text_shadow": {
      "br": 0,
      "color": "000000",
      "x": 0,
      "y": 0
    },
    "top_left_border_color": "000000ff",
    "top_left_border_radius": 10,
    "top_left_border_width": 0,
    "top_right_border_color": "000000ff",
    "top_right_border_radius": 10,
    "top_right_border_width": 0,
    "vizChannel": "spaan",
    "wType": "Label"
  },
  "spaandroidtablet": {
    "background_color": "f4f4f4ff",
    "bg_type": "one",
    "bottom_left_border_color": "000000ff",
    "bottom_left_border_style": "plain",
    "bottom_left_border_width": 0,
    "bottom_right_border_color": "000000ff",
    "bottom_right_border_style": "plain",
    "bottom_right_border_width": 0,
    "font_color": "333333ff",
    "isForked": true,
    "top_left_border_color": "000000ff",
    "top_left_border_style": "plain",
    "top_left_border_width": 0,
    "top_right_border_color": "000000ff",
    "top_right_border_style": "plain",
    "top_right_border_width": 0
  },
  "spabb": {
    "background_color": "f4f4f4ff",
    "bg_type": "one",
    "bottom_left_border_color": "000000ff",
    "bottom_left_border_style": "plain",
    "bottom_left_border_width": 0,
    "bottom_right_border_color": "000000ff",
    "bottom_right_border_style": "plain",
    "bottom_right_border_width": 0,
    "font_color": "333333ff",
    "isForked": true,
    "top_left_border_color": "000000ff",
    "top_left_border_style": "plain",
    "top_left_border_width": 0,
    "top_right_border_color": "000000ff",
    "top_right_border_style": "plain",
    "top_right_border_width": 0
  },
  "spaip": {
    "applicableblockedUIWidget": "Button",
    "background_color": "f4f4f4ff",
    "bg_type": "one",
    "blockedimgURL": "",
    "border_color": "000000ff",
    "border_style": "plain",
    "border_type": 0,
    "border_width": 0,
    "bottom_left_border_color": "000000ff",
    "bottom_left_border_radius": 10,
    "bottom_left_border_width": 0,
    "bottom_right_border_color": "000000ff",
    "bottom_right_border_radius": 10,
    "bottom_right_border_width": 0,
    "font_color": "333333ff",
    "font_size": 100,
    "font_weight": "normal",
    "gridLineColor": "0000000",
    "isCustomCSSEnabled": false,
    "isForked": true,
    "psp": {},
    "shadow": {
      "br": 0,
      "color": "000000",
      "inner": false,
      "x": 0,
      "y": 0
    },
    "text_shadow": {
      "br": 0,
      "color": "000000",
      "x": 0,
      "y": 0
    },
    "top_left_border_color": "000000ff",
    "top_left_border_radius": 10,
    "top_left_border_width": 0,
    "top_right_border_color": "000000ff",
    "top_right_border_radius": 10,
    "top_right_border_width": 0,
    "vizChannel": "spaip",
    "wType": "Label"
  },
  "spaipad": {
    "background_color": "f4f4f4ff",
    "bg_type": "one",
    "bottom_left_border_color": "000000ff",
    "bottom_left_border_style": "plain",
    "bottom_left_border_width": 0,
    "bottom_right_border_color": "000000ff",
    "bottom_right_border_style": "plain",
    "bottom_right_border_width": 0,
    "font_color": "333333ff",
    "isForked": true,
    "top_left_border_color": "000000ff",
    "top_left_border_style": "plain",
    "top_left_border_width": 0,
    "top_right_border_color": "000000ff",
    "top_right_border_style": "plain",
    "top_right_border_width": 0
  },
  "spawindowstablet": {
    "background_color": "f4f4f4ff",
    "bg_type": "one",
    "bottom_left_border_color": "000000ff",
    "bottom_left_border_style": "plain",
    "bottom_left_border_width": 0,
    "bottom_right_border_color": "000000ff",
    "bottom_right_border_style": "plain",
    "bottom_right_border_width": 0,
    "font_color": "333333ff",
    "isForked": true,
    "top_left_border_color": "000000ff",
    "top_left_border_style": "plain",
    "top_left_border_width": 0,
    "top_right_border_color": "000000ff",
    "top_right_border_style": "plain",
    "top_right_border_width": 0
  },
  "spawinphone8": {
    "background_color": "f4f4f4ff",
    "bg_type": "one",
    "bottom_left_border_color": "000000ff",
    "bottom_left_border_style": "plain",
    "bottom_left_border_width": 0,
    "bottom_right_border_color": "000000ff",
    "bottom_right_border_style": "plain",
    "bottom_right_border_width": 0,
    "font_color": "333333ff",
    "isForked": true,
    "top_left_border_color": "000000ff",
    "top_left_border_style": "plain",
    "top_left_border_width": 0,
    "top_right_border_color": "000000ff",
    "top_right_border_style": "plain",
    "top_right_border_width": 0
  },
  "tabrcandroid": {
    "background_color": "f4f4f4ff",
    "bg_type": "one",
    "border_color": "f4f4f4ff",
    "border_style": "cr",
    "border_type": 0,
    "border_width": 1,
    "font_color": "333333ff",
    "isForked": true
  },
  "text_shadow": {
    "br": 0,
    "color": "000000",
    "x": 0,
    "y": 0
  },
  "top_left_border_color": "000000ff",
  "top_left_border_radius": 10,
  "top_left_border_width": 0,
  "top_right_border_color": "000000ff",
  "top_right_border_radius": 10,
  "top_right_border_width": 0,
  "vizChannel": "default",
  "wType": "Label",
  "watchos": {
    "font_color": "333333ff",
    "isForked": true
  },
  "windows8": {
    "background_color": "f4f4f4ff",
    "bg_type": "one",
    "border_color": "f4f4f4ff",
    "border_style": "rc",
    "border_type": 0,
    "border_width": 1,
    "font_color": "333333ff",
    "isForked": true
  },
  "winphone8": {
    "background_color": "f4f4f4ff",
    "bg_type": "one",
    "border_color": "f4f4f4ff",
    "border_style": "rc",
    "border_type": 0,
    "border_width": 1,
    "font_color": "333333ff",
    "isForked": true
  }
}