{
    "applicableblockedUIWidget": "Button",
    "background_color": "ffffff00",
    "background_style": "vg",
    "bg_type": "one",
    "blockedimgURL": "",
    "border_color": "000000ff",
    "border_radius": 0,
    "border_style": "plain",
    "border_type": 0,
    "border_width": 0,
    "bottom_left_border_color": "000000ff",
    "bottom_left_border_radius": 10,
    "bottom_left_border_width": 0,
    "bottom_right_border_color": "000000ff",
    "bottom_right_border_radius": 10,
    "bottom_right_border_width": 0,
    "desktopweb": {
        "applicableblockedUIWidget": "Button",
        "backgroundSize": false,
        "background_color": "ffffff00",
        "background_style": "vg",
        "bg_type": "one",
        "blockedimgURL": "",
        "border_color": "000000ff",
        "border_radius": 0,
        "border_style": "plain",
        "border_type": 0,
        "border_width": 0,
        "bottom_left_border_color": "000000ff",
        "bottom_left_border_radius": 10,
        "bottom_left_border_style": "plain",
        "bottom_left_border_width": 0,
        "bottom_right_border_color": "000000ff",
        "bottom_right_border_radius": 10,
        "bottom_right_border_style": "plain",
        "bottom_right_border_width": 0,
        "customCSS": ".lblstepgray { font:normal 26px/26px 'DB Ozone X Med'; color:#FFFFFF; background-color:#CCCCCC!important; width:24px!important; height:24px!important; text-align:center!important; display:block!important; margin:0 auto!important; padding:0!important; -webkit-border-radius:3px; -moz-border-radius:3px; -o-border-radius:3px; border-radius:3px; }",
        "font_color": "000000ff",
        "font_size": 100,
        "font_weight": "normal",
        "gridLineColor": "0000000",
        "id": "lblstepgray",
        "isCustomCSSEnabled": true,
        "isForked": true,
        "psp": {},
        "repeatImageHorizontally": false,
        "repeatImageVertically": false,
        "shadow": {
            "br": 0,
            "color": "000000",
            "inner": false,
            "x": 0,
            "y": 0
        },
        "text_shadow": {
            "br": 0,
            "color": "000000",
            "x": 0,
            "y": 0
        },
        "top_left_border_color": "000000ff",
        "top_left_border_radius": 10,
        "top_left_border_style": "plain",
        "top_left_border_width": 0,
        "top_right_border_color": "000000ff",
        "top_right_border_radius": 10,
        "top_right_border_style": "plain",
        "top_right_border_width": 0,
        "use_native": "false",
        "vizChannel": "desktopweb",
        "wType": "Label"
    },
    "font_color": "000000ff",
    "font_size": 100,
    "font_weight": "normal",
    "gridLineColor": "0000000",
    "id": "lblstepgray",
    "isForked": false,
    "kuid": "s8095bab14404c969cd3675af1614168",
    "shadow": {
        "br": 0,
        "color": "000000",
        "inner": false,
        "x": 0,
        "y": 0
    },
    "spaan": {
        "customCSS": ".lblstepgray { font:normal 26px 'DB Ozone X Med'; color:#FFFFFF; background-color:#CCCCCC!important width:24px!important; height:24px!important; text-align:center!important; display:block!important; margin:0 auto!important; padding:0!important; }",
        "isCustomCSSEnabled": true,
        "isForked": true
    },
    "spaandroidtablet": {
        "customCSS": ".lblstepgray { font:normal 26px 'DB Ozone X Med'; color:#FFFFFF; background-color:#CCCCCC!important width:24px!important; height:24px!important; text-align:center!important; display:block!important; margin:0 auto!important; padding:0!important; }",
        "isCustomCSSEnabled": true,
        "isForked": true
    },
    "spabb": {
        "customCSS": ".lblstepgray { font:normal 26px 'DB Ozone X Med'; color:#FFFFFF; background-color:#CCCCCC!important width:24px!important; height:24px!important; text-align:center!important; display:block!important; margin:0 auto!important; padding:0!important; }",
        "isCustomCSSEnabled": true,
        "isForked": true
    },
    "spaip": {
        "customCSS": ".lblstepgray { font:normal 26px 'DB Ozone X Med'; color:#FFFFFF; background-color:#CCCCCC!important width:24px!important; height:24px!important; text-align:center!important; display:block!important; margin:0 auto!important; padding:0!important; }",
        "isCustomCSSEnabled": true,
        "isForked": true
    },
    "spaipad": {
        "customCSS": ".lblstepgray { font:normal 26px 'DB Ozone X Med'; color:#FFFFFF; background-color:#CCCCCC!important width:24px!important; height:24px!important; text-align:center!important; display:block!important; margin:0 auto!important; padding:0!important; }",
        "isCustomCSSEnabled": true,
        "isForked": true
    },
    "spawindowstablet": {
        "customCSS": ".lblstepgray { font:normal 26px 'DB Ozone X Med'; color:#FFFFFF; background-color:#CCCCCC!important width:24px!important; height:24px!important; text-align:center!important; display:block!important; margin:0 auto!important; padding:0!important; }",
        "isCustomCSSEnabled": true,
        "isForked": true
    },
    "spawinphone8": {
        "customCSS": ".lblstepgray { font:normal 26px 'DB Ozone X Med'; color:#FFFFFF; background-color:#CCCCCC!important width:24px!important; height:24px!important; text-align:center!important; display:block!important; margin:0 auto!important; padding:0!important; }",
        "isCustomCSSEnabled": true,
        "isForked": true
    },
    "text_shadow": {
        "br": 0,
        "color": "000000",
        "x": 0,
        "y": 0
    },
    "top_left_border_color": "000000ff",
    "top_left_border_radius": 10,
    "top_left_border_width": 0,
    "top_right_border_color": "000000ff",
    "top_right_border_radius": 10,
    "top_right_border_width": 0,
    "use_native": "false",
    "vizChannel": "default",
    "wType": "Label"
}