{
  "applicableblockedUIWidget": "Button",
  "background_color": "03a552ff",
  "bg_type": "one",
  "blockedimgURL": "",
  "border_color": "000000ff",
  "border_style": "plain",
  "border_type": 0,
  "border_width": 0,
  "bottom_left_border_color": "000000ff",
  "bottom_left_border_radius": 10,
  "bottom_left_border_width": 0,
  "bottom_right_border_color": "000000ff",
  "bottom_right_border_radius": 10,
  "bottom_right_border_width": 0,
  "desktopweb": {
    "customCSS": "color: #c0c0c0!important;width:320px!important; ",
    "isCustomCSSEnabled": true,
    "isForked": true
  },
  "font_color": "000000ff",
  "font_size": 100,
  "font_weight": "normal",
  "gridLineColor": "0000000",
  "isDefaultSkin": false,
  "isForked": false,
  "kuid": "s9fdf1bf0928431caf3e9ec2d40e4812",
  "shadow": {
    "br": 0,
    "color": "000000",
    "inner": false,
    "x": 0,
    "y": 0
  },
  "spaan": {
    "customCSS": "color: #c0c0c0!important;width:320px!important; ",
    "isCustomCSSEnabled": true,
    "isForked": true
  },
  "spaandroidtablet": {
    "customCSS": "color: #c0c0c0!important;width:320px!important; ",
    "isCustomCSSEnabled": true,
    "isForked": true
  },
  "spabb": {
    "customCSS": "color: #c0c0c0!important;width:320px!important; ",
    "isCustomCSSEnabled": true,
    "isForked": true
  },
  "spaip": {
    "customCSS": "color: #c0c0c0!important;width:320px!important; ",
    "isCustomCSSEnabled": true,
    "isForked": true
  },
  "spaipad": {
    "customCSS": "color: #c0c0c0!important;width:320px!important; ",
    "isCustomCSSEnabled": true,
    "isForked": true
  },
  "spawindowstablet": {
    "customCSS": "color: #c0c0c0!important;width:320px!important; ",
    "isCustomCSSEnabled": true,
    "isForked": true
  },
  "spawinphone8": {
    "customCSS": "color: #c0c0c0!important;width:320px!important; ",
    "isCustomCSSEnabled": true,
    "isForked": true
  },
  "text_shadow": {
    "br": 0,
    "color": "000000",
    "x": 0,
    "y": 0
  },
  "top_left_border_color": "000000ff",
  "top_left_border_radius": 10,
  "top_left_border_width": 0,
  "top_right_border_color": "000000ff",
  "top_right_border_radius": 10,
  "top_right_border_width": 0,
  "vizChannel": "default",
  "wType": "Line"
}