{
    "background_color": "ffffff00",
    "bg_type": "one",
    "border_color": "000000ff",
    "border_style": "plain",
    "border_type": 0,
    "border_width": 0,
    "font_color": "000000ff",
    "font_size": 100,
    "font_style": "normal",
    "font_weight": "normal",
    "isDefaultSkin": true,
    "kuid": "s74407cc01df451c9a740ebe48f853eb",
    "wType": "Image"
}