{
    "background_color": "ffffff00",
    "bg_type": "one",
    "border_color": "000000ff",
    "border_style": "plain",
    "border_type": 0,
    "border_width": 0,
    "font_color": "000000ff",
    "font_size": 100,
    "font_style": "normal",
    "font_weight": "normal",
    "isDefaultSkin": true,
    "kuid": "sfa2c075619e4ee3add4d8c1a67f8fc6",
    "wType": "Calendar"
}