{
    "background_color": "00000000",
    "bg_type": "one",
    "border_color": "000000ff",
    "border_radius": 0,
    "border_style": "plain",
    "border_width": 0,
    "font_color": "000000ff",
    "font_name": "Helvetica",
    "font_size": 156,
    "font_style": "normal",
    "font_weight": "normal",
    "isDefaultSkin": true,
    "kuid": "s99a298049f14c0c90b8d1ea61487389",
    "wType": "Video"
}