{
  "android": {
    "font_name": "TMBfont",
    "font_size": 180,
    "isForked": false
  },
  "androidwearos": {
    "font_name": "Helvetica",
    "font_size": 180,
    "isForked": false
  },
  "background_color": "03a552ff",
  "bg_type": "one",
  "border_color": "42424200",
  "border_radius": 100,
  "border_style": "custom",
  "border_type": 0,
  "border_width": 1,
  "desktopweb": {
    "font_name": "Helvetica",
    "font_size": 180,
    "isForked": false
  },
  "fontSizeInPx": false,
  "font_color": "ffffffff",
  "font_name": "Helvetica",
  "font_size": 180,
  "font_style": "normal",
  "font_weight": "normal",
  "ipad": {
    "font_name": "Helvetica",
    "font_size": 180,
    "isForked": false
  },
  "iphone": {
    "font_name": "TMBfont",
    "font_size": 180,
    "isForked": false
  },
  "isDefaultSkin": false,
  "kiosk": {
    "font_name": "GenericMonospace",
    "font_size": 180,
    "isForked": false
  },
  "kuid": "s5970f77f9b84a72836580da29037aec",
  "spaan": {
    "font_name": "Helvetica",
    "font_size": 180,
    "isForked": false
  },
  "spaandroidtablet": {
    "font_name": "Helvetica",
    "font_size": 180,
    "isForked": false
  },
  "spabb": {
    "font_name": "Helvetica",
    "font_size": 180,
    "isForked": false
  },
  "spaip": {
    "font_name": "Helvetica",
    "font_size": 180,
    "isForked": false
  },
  "spaipad": {
    "font_name": "Helvetica",
    "font_size": 180,
    "isForked": false
  },
  "spawindowstablet": {
    "font_name": "Helvetica",
    "font_size": 180,
    "isForked": false
  },
  "spawinphone8": {
    "font_name": "Helvetica",
    "font_size": 180,
    "isForked": false
  },
  "tabrcandroid": {
    "font_name": "Helvetica",
    "font_size": 180,
    "isForked": false
  },
  "wType": "Label",
  "watchos": {
    "font_name": "Helvetica",
    "font_size": 180,
    "isForked": false
  },
  "windows8": {
    "font_name": "GenericMonospace",
    "font_size": 180,
    "isForked": false
  },
  "winphone8": {
    "font_name": "GenericMonospace",
    "font_size": 180,
    "isForked": false
  }
}