{
  "android": {
    "font_name": "TMBfont",
    "font_size": 140,
    "isForked": false
  },
  "androidwearos": {
    "font_size": 140,
    "isForked": false
  },
  "background_color": "ffffffff",
  "bg_type": "one",
  "border_color": "ffffffff",
  "border_style": "plain",
  "border_type": 0,
  "border_width": 0,
  "desktopweb": {
    "font_name": "Helvetica",
    "font_size": 140,
    "isForked": false
  },
  "fontSizeInPx": false,
  "font_color": "9b9b9bcc",
  "font_name": "Helvetica",
  "font_size": 140,
  "font_style": "normal",
  "font_weight": "normal",
  "ipad": {
    "font_name": "Helvetica",
    "font_size": 140,
    "isForked": false
  },
  "iphone": {
    "font_name": "TMBfont",
    "font_size": 140,
    "isForked": false
  },
  "isDefaultSkin": false,
  "kiosk": {
    "font_name": "GenericMonospace",
    "font_size": 140,
    "isForked": false
  },
  "kuid": "s08675d5967a43eca27f2b5f5762ec5c",
  "spaan": {
    "font_name": "Helvetica",
    "font_size": 140,
    "isForked": false
  },
  "spaandroidtablet": {
    "font_name": "Helvetica",
    "font_size": 140,
    "isForked": false
  },
  "spabb": {
    "font_name": "Helvetica",
    "font_size": 140,
    "isForked": false
  },
  "spaip": {
    "font_name": "Helvetica",
    "font_size": 140,
    "isForked": false
  },
  "spaipad": {
    "font_name": "Helvetica",
    "font_size": 140,
    "isForked": false
  },
  "spawindowstablet": {
    "font_name": "Helvetica",
    "font_size": 140,
    "isForked": false
  },
  "spawinphone8": {
    "font_name": "Helvetica",
    "font_size": 140,
    "isForked": false
  },
  "tabrcandroid": {
    "font_name": "Helvetica",
    "font_size": 140,
    "isForked": false
  },
  "wType": "Label",
  "watchos": {
    "font_name": "Helvetica",
    "font_size": 140,
    "isForked": false
  },
  "windows8": {
    "font_name": "GenericMonospace",
    "font_size": 140,
    "isForked": false
  },
  "winphone8": {
    "font_name": "GenericMonospace",
    "font_size": 140,
    "isForked": false
  }
}