{
  "background_color": "ffffffff",
  "bg_type": "one",
  "border_color": "007abcff",
  "border_radius": 100,
  "border_style": "custom",
  "border_type": 0,
  "border_width": 1,
  "isDefaultSkin": false,
  "kuid": "s75df0c6619e467cb825069055552c29",
  "wType": "FlexContainer"
}