{
  "android": {
    "isForked": true
  },
  "background_color": "80b6dbff",
  "bg_type": "one",
  "border_color": "000000ff",
  "border_style": "plain",
  "border_type": 0,
  "border_width": 0,
  "font_color": "000000ff",
  "font_name": "Helvetica",
  "font_size": 118,
  "font_style": "normal",
  "font_weight": "normal",
  "ipad": {
    "isForked": true
  },
  "iphone": {
    "isForked": true
  },
  "isDefaultSkin": false,
  "kuid": "s5af7247b3e34660803adf76155b5d6b",
  "wType": "Slider"
}