{
  "android": {
    "font_size": 38,
    "isForked": false
  },
  "applicableblockedUIWidget": "Button",
  "background_color": "0f7d99ff",
  "bg_type": "one",
  "blockedimgURL": "",
  "border_color": "ffffffff",
  "border_style": "plain",
  "border_type": 0,
  "border_width": 0,
  "bottom_left_border_color": "000000ff",
  "bottom_left_border_radius": 10,
  "bottom_left_border_width": 0,
  "bottom_right_border_color": "000000ff",
  "bottom_right_border_radius": 10,
  "bottom_right_border_width": 0,
  "desktopweb": {
    "font_name": "DB Ozone X",
    "font_size": 100,
    "isForked": false
  },
  "fontSizeInPx": true,
  "font_color": "ffffffff",
  "font_size": 100,
  "font_style": "normal",
  "font_weight": "normal",
  "gridLineColor": "0000000",
  "ipad": {
    "font_size": 57,
    "isForked": false
  },
  "iphone": {
    "font_size": 57,
    "isForked": false
  },
  "isForked": false,
  "kiosk": {
    "font_size": 100,
    "isForked": false
  },
  "kuid": "sb03125d6967435d9bab3829bc2d31d6",
  "shadow": {
    "br": 0,
    "color": "000000",
    "inner": false,
    "x": 0,
    "y": 0
  },
  "spaan": {
    "font_size": 107,
    "isForked": false
  },
  "spaandroidtablet": {
    "font_size": 100,
    "isForked": false
  },
  "spabb": {
    "font_size": 133,
    "isForked": false
  },
  "spaip": {
    "font_size": 133,
    "isForked": false
  },
  "spaipad": {
    "font_size": 94,
    "isForked": false
  },
  "spawindowstablet": {
    "font_size": 133,
    "isForked": false
  },
  "spawinphone8": {
    "font_size": 133,
    "isForked": false
  },
  "tabrcandroid": {
    "font_size": 95,
    "isForked": false
  },
  "text_shadow": {
    "br": 0,
    "color": "000000",
    "x": 0,
    "y": 0
  },
  "top_left_border_color": "000000ff",
  "top_left_border_radius": 10,
  "top_left_border_width": 0,
  "top_right_border_color": "000000ff",
  "top_right_border_radius": 10,
  "top_right_border_width": 0,
  "vizChannel": "default",
  "wType": "Button",
  "watchos": {
    "font_size": 57,
    "isForked": false
  },
  "windows8": {
    "font_size": 39,
    "isForked": false
  },
  "winphone8": {
    "font_size": 53,
    "isForked": false
  }
}