{
    "background_color": "000000",
    "bg_type": "one",
    "border_color": "ffffffff",
    "isDefaultSkin": true,
    "kuid": "sab6ddeb2a5c4e318ec7ab86b058c488",
    "wType": "WatchDynamicNotificationForm"
}