{
  "android": {
    "font_name": "DBOzoneX",
    "font_size": 114,
    "isForked": false
  },
  "applicableblockedUIWidget": "Button",
  "background_color": "c414c400",
  "bg_type": "one",
  "blockedimgURL": "",
  "border_color": "424242ff",
  "border_style": "plain",
  "border_type": 0,
  "border_width": 0,
  "bottom_left_border_color": "000000ff",
  "bottom_left_border_radius": 10,
  "bottom_left_border_width": 0,
  "bottom_right_border_color": "000000ff",
  "bottom_right_border_radius": 10,
  "bottom_right_border_width": 0,
  "desktopweb": {
    "font_name": "Andale Mono",
    "font_size": 114,
    "isForked": false
  },
  "fontSizeInPx": false,
  "font_color": "ffffffff",
  "font_size": 114,
  "font_style": "normal",
  "font_weight": "normal",
  "gridLineColor": "0000000",
  "ipad": {
    "font_name": "AmericanTypewriter",
    "font_size": 114,
    "isForked": false
  },
  "iphone": {
    "font_name": "DBOzoneX",
    "font_size": 114,
    "isForked": false
  },
  "isDefaultSkin": false,
  "isForked": false,
  "kiosk": {
    "font_name": "GenericMonospace",
    "font_size": 114,
    "isForked": false
  },
  "kuid": "s5f2b5bd852a4a7b9c0ee2f7abb55313",
  "shadow": {
    "br": 0,
    "color": "000000",
    "inner": false,
    "x": 0,
    "y": 0
  },
  "spaan": {
    "font_name": "Andale Mono",
    "font_size": 114,
    "isForked": false
  },
  "spaandroidtablet": {
    "font_name": "Andale Mono",
    "font_size": 114,
    "isForked": false
  },
  "spabb": {
    "font_name": "Andale Mono",
    "font_size": 114,
    "isForked": false
  },
  "spaip": {
    "font_name": "Andale Mono",
    "font_size": 114,
    "isForked": false
  },
  "spaipad": {
    "font_name": "Andale Mono",
    "font_size": 114,
    "isForked": false
  },
  "spawindowstablet": {
    "font_name": "Andale Mono",
    "font_size": 114,
    "isForked": false
  },
  "spawinphone8": {
    "font_name": "Andale Mono",
    "font_size": 114,
    "isForked": false
  },
  "tabrcandroid": {
    "font_name": "default",
    "font_size": 114,
    "isForked": false
  },
  "text_shadow": {
    "br": 0,
    "color": "000000",
    "x": 0,
    "y": 0
  },
  "top_left_border_color": "000000ff",
  "top_left_border_radius": 10,
  "top_left_border_width": 0,
  "top_right_border_color": "000000ff",
  "top_right_border_radius": 10,
  "top_right_border_width": 0,
  "vizChannel": "default",
  "wType": "Label",
  "watchos": {
    "font_name": "Arial",
    "font_size": 114,
    "isForked": false
  },
  "windows8": {
    "font_name": "GenericMonospace",
    "font_size": 114,
    "isForked": false
  },
  "winphone8": {
    "font_name": "GenericMonospace",
    "font_size": 114,
    "isForked": false
  }
}