{
    "applicableblockedUIWidget": "Button",
    "background_color": "ffffff00",
    "background_style": "vg",
    "bg_type": "one",
    "blockedimgURL": "",
    "border_color": "000000ff",
    "border_radius": 0,
    "border_style": "plain",
    "border_type": 0,
    "border_width": 0,
    "bottom_left_border_color": "000000ff",
    "bottom_left_border_radius": 10,
    "bottom_left_border_width": 0,
    "bottom_right_border_color": "000000ff",
    "bottom_right_border_radius": 10,
    "bottom_right_border_width": 0,
    "desktopweb": {
        "customCSS": "height:39px; border:0 none; border-bottom:solid 1px #bebebe; font:normal 20px 'DB Ozone X Med'; color:#FFFFFF; background:transparent!important; padding:0 10px!important; -webkit-appearance:none; -moz-appearance:none; outline:0 none!important;",
        "isCustomCSSEnabled": true,
        "isForked": true
    },
    "font_color": "000000ff",
    "font_size": 100,
    "font_weight": "normal",
    "gridLineColor": "0000000",
    "id": "textboxSTS",
    "isForked": false,
    "kuid": "saf9628ddd7a44418b7f152aac4a6a3b",
    "shadow": {
        "br": 0,
        "color": "000000",
        "inner": false,
        "x": 0,
        "y": 0
    },
    "spaan": {
        "customCSS": "height:39px; border:0 none; border-bottom:solid 1px #bebebe; font:normal 20px 'DB Ozone X Med'; color:#FFFFFF; background:transparent!important; padding:0 10px!important; -webkit-appearance:none; -moz-appearance:none; outline:0 none!important;",
        "isCustomCSSEnabled": true,
        "isForked": true
    },
    "spaandroidtablet": {
        "customCSS": "height:39px; border:0 none; border-bottom:solid 1px #bebebe; font:normal 20px 'DB Ozone X Med'; color:#FFFFFF; background:transparent!important; padding:0 10px!important; -webkit-appearance:none; -moz-appearance:none; outline:0 none!important;",
        "isCustomCSSEnabled": true,
        "isForked": true
    },
    "spabb": {
        "customCSS": "height:39px; border:0 none; border-bottom:solid 1px #bebebe; font:normal 20px 'DB Ozone X Med'; color:#FFFFFF; background:transparent!important; padding:0 10px!important; -webkit-appearance:none; -moz-appearance:none; outline:0 none!important;",
        "isCustomCSSEnabled": true,
        "isForked": true
    },
    "spaip": {
        "customCSS": "height:39px; border:0 none; border-bottom:solid 1px #bebebe; font:normal 20px 'DB Ozone X Med'; color:#FFFFFF; background:transparent!important; padding:0 10px!important; -webkit-appearance:none; -moz-appearance:none; outline:0 none!important;",
        "isCustomCSSEnabled": true,
        "isForked": true
    },
    "spaipad": {
        "customCSS": "height:39px; border:0 none; border-bottom:solid 1px #bebebe; font:normal 20px 'DB Ozone X Med'; color:#FFFFFF; background:transparent!important; padding:0 10px!important; -webkit-appearance:none; -moz-appearance:none; outline:0 none!important;",
        "isCustomCSSEnabled": true,
        "isForked": true
    },
    "spawindowstablet": {
        "customCSS": "height:39px; border:0 none; border-bottom:solid 1px #bebebe; font:normal 20px 'DB Ozone X Med'; color:#FFFFFF; background:transparent!important; padding:0 10px!important; -webkit-appearance:none; -moz-appearance:none; outline:0 none!important;",
        "isCustomCSSEnabled": true,
        "isForked": true
    },
    "spawinphone8": {
        "customCSS": "height:39px; border:0 none; border-bottom:solid 1px #bebebe; font:normal 20px 'DB Ozone X Med'; color:#FFFFFF; background:transparent!important; padding:0 10px!important; -webkit-appearance:none; -moz-appearance:none; outline:0 none!important;",
        "isCustomCSSEnabled": true,
        "isForked": true
    },
    "text_shadow": {
        "br": 0,
        "color": "000000",
        "x": 0,
        "y": 0
    },
    "top_left_border_color": "000000ff",
    "top_left_border_radius": 10,
    "top_left_border_width": 0,
    "top_right_border_color": "000000ff",
    "top_right_border_radius": 10,
    "top_right_border_width": 0,
    "use_native": "false",
    "vizChannel": "default",
    "wType": "TextField"
}