{
    "applicableblockedUIWidget": "Button",
    "background_color": "ffffff00",
    "background_style": "vg",
    "bg_type": "one",
    "blockedimgURL": "",
    "border_color": "000000ff",
    "border_radius": 0,
    "border_style": "plain",
    "border_type": 0,
    "border_width": 0,
    "bottom_left_border_color": "000000ff",
    "bottom_left_border_radius": 10,
    "bottom_left_border_width": 0,
    "bottom_right_border_color": "000000ff",
    "bottom_right_border_radius": 10,
    "bottom_right_border_width": 0,
    "desktopweb": {
        "applicableblockedUIWidget": "Button",
        "backgroundSize": false,
        "background_color": "ffffff00",
        "background_style": "vg",
        "bg_type": "one",
        "blockedimgURL": "",
        "border_color": "000000ff",
        "border_radius": 0,
        "border_style": "plain",
        "border_type": 0,
        "border_width": 0,
        "bottom_left_border_color": "000000ff",
        "bottom_left_border_radius": 10,
        "bottom_left_border_style": "plain",
        "bottom_left_border_width": 0,
        "bottom_right_border_color": "000000ff",
        "bottom_right_border_radius": 10,
        "bottom_right_border_style": "plain",
        "bottom_right_border_width": 0,
        "customCSS": "font: normal 20.0px 'DB Ozone X Med'; overflow: auto!important; outline: 0 none; color: rgb(151, 151, 151); padding: 2px 0px 0px 2px;background-color: rgb(221, 237, 250);",
        "font_color": "000000ff",
        "font_size": 100,
        "font_weight": "normal",
        "gridLineColor": "0000000",
        "id": "txtAreaIBNoScrollFocus",
        "isCustomCSSEnabled": true,
        "isForked": true,
        "psp": {},
        "repeatImageHorizontally": false,
        "repeatImageVertically": false,
        "shadow": {
            "br": 0,
            "color": "000000",
            "inner": false,
            "x": 0,
            "y": 0
        },
        "text_shadow": {
            "br": 0,
            "color": "000000",
            "x": 0,
            "y": 0
        },
        "top_left_border_color": "000000ff",
        "top_left_border_radius": 10,
        "top_left_border_style": "plain",
        "top_left_border_width": 0,
        "top_right_border_color": "000000ff",
        "top_right_border_radius": 10,
        "top_right_border_style": "plain",
        "top_right_border_width": 0,
        "use_native": "false",
        "vizChannel": "desktopweb",
        "wType": "TextArea"
    },
    "font_color": "000000ff",
    "font_size": 100,
    "font_weight": "normal",
    "gridLineColor": "0000000",
    "id": "txtAreaIBNoScrollFocus",
    "isForked": false,
    "kuid": "s9a3eac2a571479eb712da186314a22f",
    "shadow": {
        "br": 0,
        "color": "000000",
        "inner": false,
        "x": 0,
        "y": 0
    },
    "spaan": {
        "customCSS": "font: normal 20.0px 'DB Ozone X Med'; overflow: auto!important; outline: 0 none; color: rgb(151, 151, 151); padding: 2px 0px 0px 10px;background-color: rgb(221, 237, 250);border-bottom:1px solid rgb(192,192,192);",
        "isCustomCSSEnabled": true,
        "isForked": true
    },
    "spaandroidtablet": {
        "customCSS": "font: normal 20.0px 'DB Ozone X Med'; overflow: auto!important; outline: 0 none; color: rgb(151, 151, 151); padding: 2px 0px 0px 10px;background-color: rgb(221, 237, 250);border-bottom:1px solid rgb(192,192,192);",
        "isCustomCSSEnabled": true,
        "isForked": true
    },
    "spabb": {
        "customCSS": "font: normal 20.0px 'DB Ozone X Med'; overflow: auto!important; outline: 0 none; color: rgb(151, 151, 151); padding: 2px 0px 0px 10px;background-color: rgb(221, 237, 250);border-bottom:1px solid rgb(192,192,192);",
        "isCustomCSSEnabled": true,
        "isForked": true
    },
    "spaip": {
        "customCSS": "font: normal 20.0px 'DB Ozone X Med'; overflow: auto!important; outline: 0 none; color: rgb(151, 151, 151); padding: 2px 0px 0px 10px;background-color: rgb(221, 237, 250);border-bottom:1px solid rgb(192,192,192);",
        "isCustomCSSEnabled": true,
        "isForked": true
    },
    "spaipad": {
        "customCSS": "font: normal 20.0px 'DB Ozone X Med'; overflow: auto!important; outline: 0 none; color: rgb(151, 151, 151); padding: 2px 0px 0px 10px;background-color: rgb(221, 237, 250);border-bottom:1px solid rgb(192,192,192);",
        "isCustomCSSEnabled": true,
        "isForked": true
    },
    "spawindowstablet": {
        "customCSS": "font: normal 20.0px 'DB Ozone X Med'; overflow: auto!important; outline: 0 none; color: rgb(151, 151, 151); padding: 2px 0px 0px 10px;background-color: rgb(221, 237, 250);border-bottom:1px solid rgb(192,192,192);",
        "isCustomCSSEnabled": true,
        "isForked": true
    },
    "spawinphone8": {
        "customCSS": "font: normal 20.0px 'DB Ozone X Med'; overflow: auto!important; outline: 0 none; color: rgb(151, 151, 151); padding: 2px 0px 0px 10px;background-color: rgb(221, 237, 250);border-bottom:1px solid rgb(192,192,192);",
        "isCustomCSSEnabled": true,
        "isForked": true
    },
    "text_shadow": {
        "br": 0,
        "color": "000000",
        "x": 0,
        "y": 0
    },
    "top_left_border_color": "000000ff",
    "top_left_border_radius": 10,
    "top_left_border_width": 0,
    "top_right_border_color": "000000ff",
    "top_right_border_radius": 10,
    "top_right_border_width": 0,
    "use_native": "false",
    "vizChannel": "default",
    "wType": "TextArea"
}