{
  "android": {
    "font_name": "Helvetica",
    "font_size": 150,
    "isForked": false
  },
  "background_color": "00000019",
  "bg_type": "one",
  "border_color": "282828ff",
  "border_style": "plain",
  "border_type": 0,
  "border_width": 0,
  "desktopweb": {
    "font_name": "DB Ozone X",
    "font_size": 150,
    "isForked": false
  },
  "fontSizeInPx": false,
  "font_color": "007abcff",
  "font_name": "Helvetica",
  "font_size": 150,
  "font_style": "normal",
  "font_weight": "normal",
  "ipad": {
    "font_name": "Helvetica",
    "font_size": 150,
    "isForked": false
  },
  "iphone": {
    "font_name": "Helvetica",
    "font_size": 150,
    "isForked": false
  },
  "isDefaultSkin": false,
  "kiosk": {
    "font_name": "GenericMonospace",
    "font_size": 150,
    "isForked": false
  },
  "kuid": "s4d14933936b4ba497623537c020390a",
  "spaan": {
    "font_name": "Helvetica",
    "font_size": 150,
    "isForked": false
  },
  "spaandroidtablet": {
    "font_name": "Helvetica",
    "font_size": 150,
    "isForked": false
  },
  "spabb": {
    "font_name": "Helvetica",
    "font_size": 150,
    "isForked": false
  },
  "spaip": {
    "font_name": "Helvetica",
    "font_size": 150,
    "isForked": false
  },
  "spaipad": {
    "font_name": "Helvetica",
    "font_size": 150,
    "isForked": false
  },
  "spawindowstablet": {
    "font_name": "Helvetica",
    "font_size": 150,
    "isForked": false
  },
  "spawinphone8": {
    "font_name": "Helvetica",
    "font_size": 150,
    "isForked": false
  },
  "tabrcandroid": {
    "font_name": "Helvetica",
    "font_size": 150,
    "isForked": false
  },
  "wType": "TextField",
  "watchos": {
    "font_name": "Helvetica",
    "font_size": 150,
    "isForked": false
  },
  "windows8": {
    "font_name": "GenericMonospace",
    "font_size": 150,
    "isForked": false
  },
  "winphone8": {
    "font_name": "GenericMonospace",
    "font_size": 150,
    "isForked": false
  }
}