{
  "background_color": "ffffff00",
  "bg_type": "one",
  "border_color": "b3b3b3ff",
  "border_radius": 10,
  "border_style": "custom",
  "border_type": 0,
  "border_width": 1,
  "isDefaultSkin": false,
  "kuid": "s1d003235ba44abb9dfdf5953e3600a0",
  "wType": "VBox"
}