{
    "applicableblockedUIWidget": "Button",
    "background_color": "ffffff00",
    "background_style": "vg",
    "bg_type": "one",
    "blockedimgURL": "",
    "border_color": "000000ff",
    "border_radius": 0,
    "border_style": "plain",
    "border_type": 0,
    "border_width": 0,
    "bottom_left_border_color": "000000ff",
    "bottom_left_border_radius": 10,
    "bottom_left_border_width": 0,
    "bottom_right_border_color": "000000ff",
    "bottom_right_border_radius": 10,
    "bottom_right_border_width": 0,
    "desktopweb": {
        "applicableblockedUIWidget": "Button",
        "backgroundSize": false,
        "background_color": "ffffff00",
        "background_style": "vg",
        "bg_type": "one",
        "blockedimgURL": "",
        "border_color": "000000ff",
        "border_radius": 0,
        "border_style": "plain",
        "border_type": 0,
        "border_width": 0,
        "bottom_left_border_color": "000000ff",
        "bottom_left_border_radius": 10,
        "bottom_left_border_style": "plain",
        "bottom_left_border_width": 0,
        "bottom_right_border_color": "000000ff",
        "bottom_right_border_radius": 10,
        "bottom_right_border_style": "plain",
        "bottom_right_border_width": 0,
        "customCSS": "table#frmIBExchangeRates_dataGridExgRates { border-style: solid!important; border-color: #d0d4d9!important; border-width: 0 0 1px 1px!important; } #frmIBExchangeRates_dataGridExgRates th { background-color: #EEEEEE!important; } #frmIBExchangeRates_dataGridExgRates td, #frmIBExchangeRates_dataGridExgRates th { border-style: solid!important; border-color: #d0d4d9!important; border-width: 0 1px 0 0!important; padding: 5px!important; } table#frmIBExchangeRates_dataGridExgRates tr:nth-child(2n+2) td { background:#f4f4f4!important; }  table#frmIBExchangeRates_dataGridExgRates td img { width:20px!important; height:20px!important; } #__MainContainer form {background-color:rgba(23,72,102,0.4);}  #__MainContainer form#popupIBLoading { background-color:transparent; } input { outline:0 none!important; } input[type=button] { -webkit-appearance:none; -moz-appearance:none; outline:0 none!important; cursor:pointer; } * { -webkit-font-smoothing: antialiased; } input[type=text]:focus { background-color:#ddedf9!important; color:#979797!important; } select option { font:normal 20px 'DB Ozone X Med', Arial!important; color:#000000; background-color:#FFFFFF; } @media screen and (min-width:0\\0) { input[type=text].kheight { min-height:auto!important; } select option { background-color:transparent; }  } table#frmIBAccntFullStatement_dgfullstmt { border-style: solid!important; border-color: #d0d4d9!important; border-width: 0 0 1px 1px!important; } #frmIBAccntFullStatement_dgfullstmt th { background-color: #EEEEEE!important; } #frmIBAccntFullStatement_dgfullstmt td, #frmIBAccntFullStatement_dgfullstmt th { border-style: solid!important; border-color: #d0d4d9!important; border-width: 0 1px 0 0!important; padding: 5px!important; } table#frmIBAccntFullStatement_dgfullstmt tr:nth-child(2n+2) td { background:#f4f4f4!important; } table#frmIBAccntFullStatement_dgfullstmt td img { width:20px!important; height:20px!important; } table#frmIBMFAcctFullStatement_dgfullstmt { border-style: solid!important; border-color: #d0d4d9!important; border-width: 0 0 1px 1px!important; } #frmIBMFAcctFullStatement_dgfullstmt th { background-color: #EEEEEE!important; } #frmIBMFAcctFullStatement_dgfullstmt td, #frmIBMFAcctFullStatement_dgfullstmt th { border-style: solid!important; border-color: #d0d4d9!important; border-width: 0 1px 0 0!important; padding: 5px!important; } table#frmIBMFAcctFullStatement_dgfullstmt tr:nth-child(2n+2) td { background:#f4f4f4!important; } table#frmIBMFAcctFullStatement_dgfullstmt td img { width:20px!important; height:20px!important; } table#frmIBMFAcctOrderToBProceed_dgOrder { border-style: solid!important; border-color: #d0d4d9!important; border-width: 0 0 1px 1px!important; } #frmIBMFAcctOrderToBProceed_dgOrder th { background-color: #EEEEEE!important; } #frmIBMFAcctOrderToBProceed_dgOrder td, #frmIBMFAcctOrderToBProceed_dgOrder th { border-style: solid!important; border-color: #d0d4d9!important; border-width: 0 1px 0 0!important; padding: 5px!important; } table#frmIBMFAcctOrderToBProceed_dgOrder tr:nth-child(2n+2) td { background:#f4f4f4!important; } table#frmIBMFAcctOrderToBProceed_dgOrder td img { width:20px!important; height:20px!important; } table#frmIBAccntFullStatement_dgdeposit { border-style: solid!important; border-color: #d0d4d9!important; border-width: 0 0 1px 1px!important; } #frmIBAccntFullStatement_dgdeposit th { background-color: #EEEEEE!important; } #frmIBAccntFullStatement_dgdeposit td, #frmIBAccntFullStatement_dgdeposit th { border-style: solid!important; border-color: #d0d4d9!important; border-width: 0 1px 0 0!important; padding: 5px!important; } table#frmIBAccntFullStatement_dgdeposit tr:nth-child(2n+2) td { background:#f4f4f4!important; } table#frmIBAccntFullStatement_dgdeposit td img { width:20px!important; height:20px!important; } table#frmIBAccntFullStatement_dgloan { border-style: solid!important; border-color: #d0d4d9!important; border-width: 0 0 1px 1px!important; } #frmIBAccntFullStatement_dgloan th { background-color: #EEEEEE!important; } #frmIBAccntFullStatement_dgloan td, #frmIBAccntFullStatement_dgloan th { border-style: solid!important; border-color: #d0d4d9!important; border-width: 0 1px 0 0!important; padding: 5px!important; } table#frmIBAccntFullStatement_dgloan tr:nth-child(2n+2) td { background:#f4f4f4!important; } table#frmIBAccntFullStatement_dgloan td img { width:20px!important; height:20px!important; } table#frmIBMyActivities_datagridhistory, table#frmIBDateSlider_datagridhistory { border-style: solid!important; border-color: #d0d4d9!important; border-width: 0 0 1px 1px!important; } #frmIBMyActivities_datagridhistory th,#frmIBDateSlider_datagridhistory th { background-color: #EEEEEE!important; } #frmIBMyActivities_datagridhistory td, #frmIBMyActivities_datagridhistory th ,#frmIBDateSlider_datagridhistory td, #frmIBDateSlider_datagridhistory th { border-style: solid!important; border-color: #d0d4d9!important; border-width: 0 1px 0 0!important; padding: 5px!important; } table#frmIBMyActivities_datagridhistory tr:nth-child(2n+2) td, table#frmIBDateSlider_datagridhistory tr:nth-child(2n+2) td{ background:#f4f4f4!important; } table#frmIBMyActivities_datagridFT { border-style: solid!important; border-color: #d0d4d9!important; border-width: 0 0 1px 1px!important; } #frmIBMyActivities_datagridFT th { background-color: #EEEEEE!important; } #frmIBMyActivities_datagridFT td, #frmIBMyActivities_datagridFT th { border-style: solid!important; border-color: #d0d4d9!important; border-width: 0 1px 0 0!important; padding: 5px!important; } table#frmIBMyActivities_datagridFT tr:nth-child(2n+2) td { background:#f4f4f4!important; } table#frmIBMyActivities_datagridFT td img { width:20px!important; height:20px!important; } table#frmIBMyActivities_datagridFT tr:hover td { background-color:#e1eff8!important; cursor:pointer; } .sknVboxMIBCalendar:hover, .sknVboxMIBCalendarSelected:hover { cursor:pointer; } @media only screen and (min-device-width : 768px) and (max-device-width : 1280px) and (orientation : landscape) { body { width:1024px; margin:0 auto; } .popupcontainer { width:100%!important; } .popUp300px { width:30%!important; top:25%!important; left:35%!important; } }.footerLinkFind:hover, .footerLinkER:hover, .footerLinkST:hover,.footerLinkContact:hover, .footerLinkTC:hover, .footerLinkHP:hover, .footerLinkHPNew:hover, .footerLinkSecurity:hover, .linkTaxDoc:hover, .linkCart:hover  { text-decoration:underline; }#__popuplayer { position:fixed!important; left:0!important; top:0!important; width:100%!important; height:100%!important; background-color:rgba(0,0,0,0.7)!important; }.ui-rangeSlider-label-value{font:normal 20px 'DB Ozone X Med'!important;color:#333333;} @media screen and (-ms-high-contrast: active), (-ms-high-contrast: none) { .cbxIBDownArrowGreyNoLineFoc, .cbxIBFindTMB, .cbxIBDownArrowBlue, .cbxIBDownArrowBeepNBillFoc, .cbxIBDropDownArrowGreyNoLineFocus, .cbxIBDownArrowGrey, .cbxIBDownArrowGreyFoc, .cbxIBDownArrowBeepNBill, .cbxIBDownArrowNoLine, .cbxIBFindTMBFoc, .cmbBox, .cbxIBDownArrowGreyNoLine, .cbxIBDropDownArrowGreyNoLine, .cbxIBDownArrowBlueFoc, .cbxIBFindTMBNormal, .cbxIBFindTMBFocNormal, .cbxIBDownArrowNoLineFoc, .cbxIBDownArrowGreyNoLine18px, .cbxIBDropDownArrowGreyNoLineFocus18px, .cbxIBDownArrowGreyNoLineFoc:hover, .cbxIBFindTMB:hover, .cbxIBDownArrowBlue:hover, .cbxIBDownArrowBeepNBillFoc:hover, .cbxIBDropDownArrowGreyNoLineFocus:hover, .cbxIBDownArrowGrey:hover, .cbxIBDownArrowGreyFoc:hover, .cbxIBDownArrowBeepNBill:hover, .cbxIBDownArrowNoLine:hover, .cbxIBFindTMBFoc:hover, .cmbBox:hover, .cbxIBDownArrowGreyNoLine:hover, .cbxIBDropDownArrowGreyNoLine:hover, .cbxIBDownArrowBlueFoc:hover, .cbxIBFindTMBNormal:hover, .cbxIBFindTMBFocNormal:hover, .cbxIBDownArrowNoLineFoc:hover, .cbxIBDownArrowGreyNoLine18px:hover, .cbxIBDropDownArrowGreyNoLineFocus18px:hover { background-position:right center!important; } select::-ms-expand { display:none; } select:hover::-ms-expand { display:none; } select option { background-color:#FFFFFF; } .frmbgpage { -ms-filter: \"progid:DXImageTransform.Microsoft.AlphaImageLoader(src='./images/bg_page.jpg', sizingMethod='scale')\"; } }#frmApplyMBviaIBStep1_richtext475034688127909 a { text-decoration:none!important; display:block; text-align:center; cursor:pointer; } #frmApplyMBviaIBStep1_richtext475034688127909 a:hover { text-decoration:underline!important; } #hbox5036590321206468_lblAccountName.lblIB18pxBlack, #hbox5036590321206468_lblAccountName.lblIB16pxNoMed, #frmIBAccntSummary_lblAccountNameHeader.lblIB20pxBlack, #frmIBAccntSummary_lblCreditCardNo.lblIB16pxBlack, #frmIBMutualFundsSummary_lblAccountNameHeader.lblIB20pxBlack { font-weight:bold!important; } #frmIBForceChangePassword_lblSetInfo.lblIB22pxBlack, #frmIBForceChangePassword_label50285458139.lblIB20pxBlack, #frmIBForceChangePassword_label457342026245215.lblIB22pxBlack, #frmIBForceChangePassword_label457342026245227.lblIB20pxBlack, #frmIBForceChangePassword_label50285458141.lblIB20pxBlack, #frmIBForceChangePassword_lblConfirmPassword.lblIB20pxBlack { font-weight:bold!important; }.linkFullStat:hover, .linkMyActivitiesIcon:hover { text-decoration:underline; } #frmIBPreLogin_segCampaignImage_footer { position: absolute; left: 0; top: 470px; } #frmIBPreLogin_segCampaignImage_footer .kcell { width: 645px; margin: 0 auto 0 auto; padding-left: 0; text-align:center; } #frmIBPreLogin_segCampaignImage_footer span { display: inline-block; width: 10px; height: 10px; text-align:center; } #frmIBPreLogin_segCampaignImage_footer span img { padding:0!important; } #segCampaignImagebox_imgProm_span, #segCampaignImagebox_imgProm_span img { width:645px!important; height:470px!important; }#frmIBPreLogin_vboxLogin { height:470px!important; background-color:#15567f; }#segMenuOptionsbox_lblSegData:hover{font:normal 20px DB Ozone X Med; color: #ffffff; background-image: url(./images/bg_subm_first_over.png); background-repeat : repeat; cursor:pointer;}  #frmIBMyBillersHome_lblMyBills{margin:0px!important;}#frmIBPostLoginDashboard_link867777585898847:hover{cursor:pointer;text-decoration:underline;} #frmIBPostLoginDashboard_linkMore:hover{cursor:pointer;text-decoration:underline;} #frmIBBeepAndBillList_image22104215170559668_span{margin:100px 0px 0px 20px!important;} #frmIBActivateIBankingStep1_image2507353026211744_span{margin:2px 0px 0px 0px!important;}#frmIBCMMyProfile_hbxListBox:hover{width:320px!important;background-color:#ddedfa;margin:0!important;cursor:pointer!important;}#frmIBPreLogin_hbxActivateImage{background-color:rgb(21,86,127)}#frmIBTopUpConfirmation_label47327596554549 {margin: 0% 0% 0% -3%!important;}#frmIBInboxHome_cmbSortType:hover{background: transparent url(./images/combo_dropdown_foc.png) right center no-repeat!important;}   #frmIBInboxHome_hboxTxnType:hover{border-top: 11px solid #b5d2e6; border-right: 10px solid #b5d2e6;border-bottom: 11px solid #b5d2e6;border-left: 10px solid #b5d2e6;font-size: 0px;width:320px!important; background-color:#ddedfa;} #frmIBBillPaymentConfirm_switch2OTP{max-width:147px!important} .btnIBMenuAboutMe:hover{ background: url(./images/menu_post_about.png) no-repeat;}  .btnIBMenuAboutMeThai:hover{ background: url(./images/menu_th_post_about.png) no-repeat;}  .btnIBMenuTransfer:hover{ background: url(./images/menu_post_transfer.png) no-repeat;}  .btnIBMenuTransferThai:hover{ background: url(./images/menu_th_post_transfer.png) no-repeat;}  .btnIBMenuBillPayment:hover{ background: url(./images/menu_post_billpayment.png) no-repeat;}  .btnIBMenuBillPaymentThai:hover{ background: url(./images/menu_th_post_billpayment.png) no-repeat;}  .btnIBMenuConvenientServices:hover{ background: url(./images/menu_post_services.png) no-repeat; }  .btnIBMenuConvenientServicesThai:hover{background: url(./images/menu_th_post_services.png) no-repeat;}  .btnIBMenuMyAccountSummary:hover{background: url(./images/menu_post_myaccount.png) no-repeat;}  .btnIBMenuMyAccountSummaryThai:hover{background: url(./images/menu_th_post_myaccount.png) no-repeat;}  .btnIBMenuMyActivities:hover{ background: url(./images/menu_post_myactivities.png) no-repeat;}  .btnIBMenuMyActivitiesThai:hover{background: url(./images/menu_th_post_myactivities.png) no-repeat; }  .btnIBMenuMyInbox:hover{ background: url(./images/menu_post_myinbox.png) no-repeat;}  .btnIBMenuMyInboxThai:hover{ background: url(./images/menu_th_post_myinbox.png) no-repeat; }  .btnIBMenuTopUp:hover{background: url(./images/menu_post_topup.png) no-repeat;}  .btnIBMenuTopUpThai:hover{ background: url(./images/menu_th_post_topup.png) no-repeat; }  .btnIBDashboardTransfer:hover{background: url(./images/menu_pre_transfer_focus.png) no-repeat;} .btnIBDashboardBillPayment:hover{background: url(./images/menu_pre_billpayment_focus.png) no-repeat;} .btnIBDashboardAboutMe:hover{background: url(./images/menu_pre_about_focus.png) no-repeat;} .btnIBDashboardMyInbox:hover{background: url(./images/menu_pre_myinbox_focus.png) no-repeat;} .btnIBDashboardConvenientServices:hover{background: url(./images/menu_pre_services_focus.png) no-repeat;} .btnIBDashboardTopUp:hover{background: url(./images/menu_pre_topup_focus.png) no-repeat;} .btnIBDashboardTransferThai:hover{background: url(./images/menu_th_pre_transfer_focus.png) no-repeat;} .btnIBDashboardBillPaymentThai:hover{background: url(./images/menu_th_pre_billpayment_focus.png) no-repeat;} .btnIBDashboardAboutMeThai:hover{background: url(./images/menu_th_pre_about_focus.png) no-repeat;} .btnIBDashboardMyInboxThai:hover{background: url(./images/menu_th_pre_myinbox_focus.png) no-repeat;} .btnIBDashboardConvenientServicesThai:hover{background: url(./images/menu_th_pre_services_focus.png) no-repeat;} .btnIBDashboardTopUpThai:hover{background: url(./images/menu_th_pre_topup_focus.png) no-repeat;}#frmIBChequeServiceConfirmation_btnToken{max-width:147px!important}#frmIBMyTopUpsHome_button477860030164893{max-width:147px!important}#segAccountDetailsbox_lblAccountName.lblIB18pxBlack, #segAccountDetails_lblfundName.lblIB18pxBlack, #MFContent_lblfundName.lblIB18pxBlack, #hbxBASummary_lblPolicyName{ font-weight:bold!important; } #frmIBBillPaymentView_lblEditBPStartDate{padding:0px 0px 0px -4px!important} #frmIBFTrnsrView_lblEditFtStartDate{margin:0px 0px 0px -7px!important;} .footerLinkWebChat:hover { text-decoration:underline; } .footerLinkCallTMB:hover { text-decoration:underline; }#frmIBTopUpViewNEdit_hboxOnlineTP{padding: 3px 0px 3px 10px!important;}#frmIBCMConfirmationPwd_button478902715248432{max-width:147px!important;} #frmIBChequeServiceConfirmation_btnToken{max-width:147px!important;} #frmIBSSApplyCnfrmtn_button506369893806238{max-width:147px!important;}#frmIBBillPaymentLP_txtAreaBPMyNote{background:transparent;}#frmIBMyBillersHome_button477860030164893{max-width:147px!important;}#frmIBBillPaymentLP_hbxImage{height:500px!important;}#frmIBTopUpLandingPage_hbxAmount{padding:7px 0px 7px 10px!important;}#frmIBTopUpLandingPage_hbxAmount:hover{ background-color:#ddedfa;}#frmIBMyActivities_lblFilterBy{padding:5px 0px 0px 11px!important;}#segCnfrmtnStep2box_st2bankLogo_span{width: 28px!important; height: 28px!important;}#frmIBBeepAndBillConfAndComp_btnToken{max-width:147px!important}#frmIBOpenNewSavingsAccConfirmation_btnToken{max-width:147px!important}#frmIBOpenNewSavingsCareAccConfirmation_btnToken{max-width:147px!important}#frmIBOpenNewDreamAccConfirmation_btnToken{max-width:147px!important}#frmIBOpenNewTermDepositAccConfirmation_btnToken{max-width:147px!important}#segPromotionsbox_imgprpic_span, #segPromotionsbox_imgprpic { width:80px!important; height:60px!important; } #segPromImagebox_imgProm_span, #segPromImagebox_imgProm { width:300px!important; height:224px!important; }#frmIBMyBillersHome_hboxBillersScrollContainer > .kwt4 { display:none; } #frmIBPreLogin_hboxCustomerLogin.hboxCmnDrkBlue { height:280px; }#frmIBPreLogin_hboxPreLogin > .kwt34 { width:335px!important; } #frmIBPreLogin_hboxPreLogin > .kwt66 { width:649px!important; }#popIBBillPayFromSummary_btnAddBillCheckBox{cursor:default}",
        "font_color": "000000ff",
        "font_size": 100,
        "font_weight": "normal",
        "gridLineColor": "0000000",
        "id": "zdonotDelete",
        "isCustomCSSEnabled": true,
        "isForked": true,
        "psp": {},
        "repeatImageHorizontally": false,
        "repeatImageVertically": false,
        "shadow": {
            "br": 0,
            "color": "000000",
            "inner": false,
            "x": 0,
            "y": 0
        },
        "text_shadow": {
            "br": 0,
            "color": "000000",
            "x": 0,
            "y": 0
        },
        "top_left_border_color": "000000ff",
        "top_left_border_radius": 10,
        "top_left_border_style": "plain",
        "top_left_border_width": 0,
        "top_right_border_color": "000000ff",
        "top_right_border_radius": 10,
        "top_right_border_style": "plain",
        "top_right_border_width": 0,
        "use_native": "false",
        "vizChannel": "desktopweb",
        "wType": "Label"
    },
    "font_color": "000000ff",
    "font_size": 100,
    "font_weight": "normal",
    "gridLineColor": "0000000",
    "id": "zdonotDelete",
    "isForked": false,
    "kuid": "s08a28a96d51417889953cb9cbed1784",
    "shadow": {
        "br": 0,
        "color": "000000",
        "inner": false,
        "x": 0,
        "y": 0
    },
    "text_shadow": {
        "br": 0,
        "color": "000000",
        "x": 0,
        "y": 0
    },
    "top_left_border_color": "000000ff",
    "top_left_border_radius": 10,
    "top_left_border_width": 0,
    "top_right_border_color": "000000ff",
    "top_right_border_radius": 10,
    "top_right_border_width": 0,
    "use_native": "false",
    "vizChannel": "default",
    "wType": "Label"
}