{
    "DNDConfig": null,
    "_enabled_": false,
    "_margin_": [
        0,
        0,
        0,
        0
    ],
    "_padding_": [
        0,
        0,
        0,
        0
    ],
    "_skin_": "sd28f30f06eb40f2b30670f93812edcb",
    "_text_": "",
    "canUpdateUI": true,
    "containerweight": 100,
    "contentalignment": 4,
    "desktopweb": {
        "@class": "com.kony.gen.viz.model.component.property.combobox.DesktopWebComboBoxProperty",
        "_padding_": [
            0,
            0,
            0,
            0
        ],
        "padding": [
            0,
            0,
            0,
            0
        ],
        "paddingInPixel": false,
        "psp": {
            "autoSuggest": false,
            "hoverSkin": "sa36e519ae9343d99d88f557a36b29eb",
            "viewType": 0
        },
        "render": true
    },
    "focusskin": "sa36e519ae9343d99d88f557a36b29eb",
    "hexpand": true,
    "id": "btnDistrict",
    "ide_onSelection": "p2kwiet2012247639145_btnDistrict_onSelection_seq0",
    "info": null,
    "isvisible": true,
    "kiosk": {
        "@class": "com.kony.gen.viz.model.component.property.combobox.KioskComboBoxProperty",
        "_padding_": [
            0,
            0,
            0,
            0
        ],
        "padding": [
            0,
            0,
            0,
            0
        ],
        "paddingInPixel": false,
        "render": true
    },
    "kuid": "p2kwiet2012247639113",
    "margininpixel": false,
    "masterdata": [
        [
            "1",
            "District",
            "FindTMB_District"
        ]
    ],
    "name": "kony.ui.ComboBox",
    "paddinginpixel": false,
    "parent": "hbox864857911129881",
    "pf": "frmIBATMBranch",
    "selectedkey": "",
    "selectedkeyvalue": [],
    "spa": {
        "@class": "com.kony.gen.viz.model.component.property.combobox.SPAComboBoxProperty"
    },
    "vexpand": false,
    "wType": "ComboBox",
    "widgetalignment": 5
}