{
    "DNDConfig": null,
    "_enabled_": false,
    "_margin_": [
        1,
        2,
        0,
        0
    ],
    "_padding_": [
        0,
        0,
        2,
        0
    ],
    "_skin_": "sb466eb3b1734d3cadcdae54c97bd924",
    "_text_": "",
    "canUpdateUI": true,
    "containerweight": 100,
    "contentalignment": 6,
    "desktopweb": {
        "@class": "com.kony.gen.viz.model.component.property.button.DesktopWebButtonProperty",
        "_margin_": [
            1,
            2,
            0,
            0
        ],
        "_padding_": [
            0,
            0,
            2,
            0
        ],
        "displayText": true,
        "margin": [
            1,
            2,
            0,
            0
        ],
        "marginInPixel": false,
        "padding": [
            0,
            0,
            2,
            0
        ],
        "paddingInPixel": false,
        "render": true
    },
    "displaytext": true,
    "focusskin": "sb466eb3b1734d3cadcdae54c97bd924",
    "hexpand": true,
    "id": "button8675986833615",
    "ide_onClick": "p2kwiet2012247639145_button8675986833615_onClick_seq0",
    "info": null,
    "isvisible": true,
    "kiosk": {
        "@class": "com.kony.gen.viz.model.component.property.button.KioskButtonProperty",
        "_margin_": [
            1,
            0,
            0,
            0
        ],
        "_padding_": [
            0,
            0,
            2,
            0
        ],
        "margin": [
            1,
            0,
            0,
            0
        ],
        "marginInPixel": false,
        "padding": [
            0,
            0,
            2,
            0
        ],
        "paddingInPixel": false,
        "render": true
    },
    "kuid": "p2kwiet2012247639137",
    "margininpixel": false,
    "name": "kony.ui.Button",
    "paddinginpixel": false,
    "parent": "vbox86759868329168",
    "pf": "frmIBATMBranch",
    "spa": {
        "@class": "com.kony.gen.viz.model.component.property.button.SPAButtonProperty",
        "displayText": true
    },
    "texti18n": "FindTMB_GetDirections",
    "vexpand": false,
    "wType": "Button",
    "widgetalignment": 4
}