{
    "DNDConfig": null,
    "_enabled_": false,
    "_margin_": [
        0,
        0,
        0,
        0
    ],
    "_mode_": 1,
    "_padding_": [
        0,
        0,
        0,
        0
    ],
    "_text_": "Google map key is not defined in application properties",
    "calloutTemplateId": "p2kwiet2012247652425",
    "calloutwidth": 80,
    "canUpdateUI": true,
    "containerheightreference": 1,
    "containerweight": 100,
    "contentalignment": 5,
    "desktopweb": {
        "@class": "com.kony.gen.viz.model.component.property.map.DesktopWebMapProperty",
        "_margin_": [
            0,
            0,
            0,
            0
        ],
        "_mode_": 1,
        "mapSource": "non-native",
        "margin": [
            0,
            0,
            0,
            0
        ],
        "marginInPixel": false,
        "mode": 1,
        "render": true
    },
    "hexpand": true,
    "id": "mapATMBranch",
    "ide_onPinClick": "p2kwiet2012247639145_mapATMBranch_onPinClick_seq0",
    "info": null,
    "isvisible": true,
    "kiosk": {
        "@class": "com.kony.gen.viz.model.component.property.map.KioskMapProperty",
        "_margin_": [
            0,
            0,
            0,
            0
        ],
        "_mode_": 1,
        "margin": [
            0,
            0,
            0,
            0
        ],
        "marginInPixel": false,
        "mode": 1,
        "render": true,
        "zoomLevel": 2
    },
    "kuid": "p2kwiet2012247639120",
    "locationdata": [
        {
            "desc": "Phoenix infocity, Gachibowli",
            "lat": "17.447326",
            "lon": "78.371358",
            "name": "KonyLabs(New)"
        },
        {
            "desc": "Mindspace, Hitech City",
            "lat": "17.441839",
            "lon": "78.380928",
            "name": "KonyLabs(Old)"
        },
        {
            "desc": "Jaihind Enclave, Madhapur",
            "lat": "17.450378",
            "lon": "78.388398",
            "name": "My Residence"
        }
    ],
    "mapsource": "non-native",
    "mapsrc": "non-native",
    "margininpixel": false,
    "name": "kony.ui.Map",
    "paddinginpixel": false,
    "parent": "scrollbox864947284161797",
    "pf": "frmIBATMBranch",
    "provider": "google",
    "screenlevelwidget": true,
    "spa": {
        "@class": "com.kony.gen.viz.model.component.property.map.SPAMapProperty",
        "_mode_": 1,
        "mapSource": "non-native",
        "mode": 1
    },
    "vexpand": false,
    "wType": "Map",
    "widgetalignment": 5,
    "zoomlevel": 5
}