{
    "@class": "com.kony.gen.viz.model.container.KVizHBox",
    "DNDConfig": null,
    "_margin_": [
        0,
        0,
        0,
        0
    ],
    "_orientation_": 1,
    "_padding_": [
        0,
        0,
        0,
        0
    ],
    "_percent_": true,
    "_position_": 3,
    "_skin_": "s3240d32b9a74cc78d1e0768cd2cdf1b",
    "allboxes": [],
    "canUpdateUI": true,
    "children": [
        "img1"
    ],
    "containerId": true,
    "containerweight": 100,
    "contextmenu": null,
    "id": "HBox0h2ca6d5678eb46",
    "info": null,
    "iscustomlayout": false,
    "isvisible": true,
    "kuid": "c90b76f3b1e14e5ebdd3a1c33bc9ecae",
    "layouttype": 0,
    "name": "kony.ui.Box",
    "parent": "vbox474284988575751",
    "pf": "segSliderSoSmart",
    "retaincontentalignment": false,
    "retainflexpositionproperties": false,
    "templateType": "forms",
    "wType": "HBox",
    "widgetalignment": 1
}