{
    "@class": "com.kony.gen.viz.model.component.KVizButton",
    "DNDConfig": null,
    "_margin_": [
        0,
        1,
        0,
        1
    ],
    "_padding_": [
        2,
        2,
        2,
        2
    ],
    "_skin_": "s79822a23a114b70b6a9a9389e690e70",
    "_text_": "Pay Now",
    "canUpdateUI": true,
    "containerweight": 100,
    "contentalignment": 5,
    "displaytext": true,
    "focusskin": "s79822a23a114b70b6a9a9389e690e70",
    "id": "btnpayNow",
    "info": null,
    "isvisible": true,
    "kuid": "jb22fc04802e48efaa0661164d2a0452",
    "margininpixel": false,
    "name": "kony.ui.Button",
    "paddinginpixel": false,
    "parent": "VBox0a1cc6355d00343",
    "pf": "popUpPushNotification",
    "wType": "Button"
}