{
    "@class": "com.kony.gen.viz.model.component.KVizLine",
    "DNDConfig": null,
    "__markedForDelete__": true,
    "_margin_": [
        0,
        0,
        0,
        0
    ],
    "_padding_": [
        0,
        0,
        0,
        0
    ],
    "_skin_": "sd979001a5854b76bdf1ba13a95d0b8f",
    "_thickness_": 1,
    "canUpdateUI": true,
    "containerWeightLocked": false,
    "containerweight": 100,
    "id": "CopyLine0hbb95df7a4054b",
    "info": null,
    "isvisible": true,
    "kuid": "h1bb2c45a1914d4eba0f0a5c2e5255de",
    "name": "kony.ui.Line",
    "parent": "VBox0g3d54f8d10e746",
    "pf": "popUpPushNotification",
    "wType": "Line"
}