{
    "@class": "com.kony.gen.viz.model.component.KVizLabel",
    "DNDConfig": null,
    "__markedForDelete__": true,
    "_margin_": [
        1,
        5,
        1,
        0
    ],
    "_padding_": [
        0,
        0,
        0,
        0
    ],
    "_skin_": "s06cb330a4ed48f2929b12056a2c556a",
    "_text_": "",
    "_wrapping_": 2,
    "android": {
        "textStyle": {
            "letterSpacing": 0,
            "strikeThrough": false
        }
    },
    "canUpdateUI": true,
    "containerweight": 100,
    "contentalignment": 4,
    "id": "lblamount",
    "info": null,
    "ipad": {
        "psp": {
            "wrapping": 2
        }
    },
    "iphone": {
        "psp": {
            "wrapping": 2
        }
    },
    "isvisible": true,
    "kuid": "f992547bfef94e5a8ee1a0d5b1c2972b",
    "margininpixel": false,
    "name": "kony.ui.Label",
    "parent": "CopyVBox0e5c5f4c6bf644e",
    "pf": "popUpPushNotification",
    "tooltip": "",
    "wType": "Label"
}