{
    "@class": "com.kony.gen.viz.model.component.KVizLine",
    "DNDConfig": null,
    "_margin_": [
        0,
        0,
        0,
        0
    ],
    "_padding_": [
        0,
        0,
        0,
        0
    ],
    "_skin_": "sd979001a5854b76bdf1ba13a95d0b8f",
    "_thickness_": 1,
    "canUpdateUI": true,
    "containerWeightLocked": false,
    "containerweight": 100,
    "id": "Line0f1899b63d61d49",
    "info": null,
    "isvisible": false,
    "kuid": "iea20ca7af2843efb7c13cf286f7163d",
    "name": "kony.ui.Line",
    "parent": "VBox0a1cc6355d00343",
    "pf": "popUpPushNotification",
    "wType": "Line"
}