{
    "DNDConfig": null,
    "__parentReadjusting__": false,
    "_height_": {
        "type": "string",
        "value": "100%"
    },
    "_left_": {
        "type": "string",
        "value": "0dp"
    },
    "_margin_": [
        0,
        0,
        0,
        0
    ],
    "_orientation_": 6,
    "_padding_": [
        0,
        0,
        0,
        0
    ],
    "_percent_": true,
    "_skin_": "sb934b39ede349e781de38ada308d556",
    "_top_": {
        "type": "string",
        "value": "0dp"
    },
    "_width_": {
        "type": "string",
        "value": "100%"
    },
    "allboxes": [],
    "allowhorizontalbounce": false,
    "allowverticalbounce": true,
    "android": {
        "render": true
    },
    "bounces": true,
    "canUpdateUI": true,
    "children": [
        "lblIntroStep1",
        "lblPersonalIdentification",
        "lblPersonalIdentificationSub",
        "lblPersonalIdentificationSub2",
        "FlexContainer0cd2267b78bc54d",
        "lblIntroStep2",
        "lblRegistration",
        "lblRegistrationSub",
        "CopyFlexContainer0b2d45385d60245",
        "lblIntroStep3",
        "lblAuthentication",
        "lblAuthenticationSub",
        "lblexpiryDays"
    ],
    "clipbounds": true,
    "containerweight": 0,
    "decelerat": false,
    "defaultunit": 2,
    "dragg": false,
    "enablescrolling": true,
    "horizontalscrollindicator": true,
    "id": "flxSubheader",
    "info": null,
    "iphone": {
        "render": true
    },
    "iscustomlayout": false,
    "isvisible": true,
    "kuid": "ffa02181b2db482d933893f1c2d6749e",
    "layouttype": 4,
    "name": "kony.ui.FlexScrollContainer",
    "pagingenabled": false,
    "parent": "flexBodyScroll",
    "pf": "frmMBeKYCIntroduction",
    "retaincontentalignment": false,
    "retainflexpositionproperties": false,
    "scrolldirection": 2,
    "spa": {},
    "spaan": {
        "render": true
    },
    "spabb": {
        "render": false
    },
    "spaip": {
        "render": true
    },
    "spawinphone8": {
        "render": true
    },
    "track": false,
    "verticalscrollindicator": true,
    "vizProps": {},
    "wType": "FlexScrollContainer",
    "widgetalignment": 1,
    "winphone8": {
        "render": true
    },
    "zindex": 1
}