{
    "DNDConfig": null,
    "_enabled_": false,
    "_margin_": [
        0,
        0,
        0,
        0
    ],
    "_mode_": 1,
    "_padding_": [
        0,
        0,
        0,
        0
    ],
    "_text_": "Google map key is not defined in application properties",
    "android": {
        "@class": "com.kony.gen.viz.model.component.property.map.AndroidMapProperty",
        "_margin_": [
            0,
            0,
            0,
            0
        ],
        "_mode_": 1,
        "margin": [
            0,
            0,
            0,
            0
        ],
        "marginInPixel": false,
        "mode": 1,
        "psp": {
            "showZoomControl": true
        },
        "render": true,
        "zoomLevel": 15
    },
    "calloutTemplateId": "p2kwiet2012247652415",
    "calloutwidth": 80,
    "canUpdateUI": true,
    "containerheightreference": 1,
    "containerweight": 100,
    "contentalignment": 5,
    "defaultpinimage": "default:locator_pin.png",
    "hexpand": true,
    "id": "mapATMBranch",
    "ide_onPinClick": "p2kwiet2012247627099_mapATMBranch_onPinClick_seq0",
    "ide_onSelection": "p2kwiet2012247627099_mapATMBranch_onSelection_seq0",
    "info": null,
    "iphone": {
        "@class": "com.kony.gen.viz.model.component.property.map.IPhoneMapProperty",
        "_margin_": [
            1,
            1,
            1,
            1
        ],
        "_mode_": 1,
        "margin": [
            1,
            1,
            1,
            1
        ],
        "marginInPixel": true,
        "mode": 1,
        "psp": {
            "showCurrentLocation": "circle"
        },
        "render": true,
        "zoomLevel": 14
    },
    "isvisible": true,
    "kuid": "p2kwiet2012247627094",
    "locationdata": [
        {
            "desc": "Phoenix infocity, Gachibowli",
            "lat": "17.447326",
            "lon": "78.371358",
            "name": "KonyLabs(New)"
        },
        {
            "desc": "Mindspace, Hitech City",
            "lat": "17.441839",
            "lon": "78.380928",
            "name": "KonyLabs(Old)"
        },
        {
            "desc": "Jaihind Enclave, Madhapur",
            "lat": "17.450378",
            "lon": "78.388398",
            "name": "My Residence"
        }
    ],
    "mapsource": "non-native",
    "mapsrc": "non-native",
    "margininpixel": false,
    "name": "kony.ui.Map",
    "paddinginpixel": false,
    "parent": "sboxRight",
    "pf": "frmATMBranch",
    "provider": "google",
    "screenlevelwidget": true,
    "spa": {
        "@class": "com.kony.gen.viz.model.component.property.map.SPAMapProperty",
        "_mode_": 1,
        "mapSource": "non-native",
        "mode": 1
    },
    "spaan": {
        "@class": "com.kony.gen.viz.model.component.property.map.SPAAndroidMapProperty",
        "render": true
    },
    "spabb": {
        "@class": "com.kony.gen.viz.model.component.property.map.SPABBMapProperty",
        "render": true
    },
    "spaip": {
        "@class": "com.kony.gen.viz.model.component.property.map.SPAIPhoneMapProperty",
        "render": true
    },
    "spawinphone8": {
        "@class": "com.kony.gen.viz.model.component.property.map.SPAWinPhone8MapProperty",
        "render": true
    },
    "vexpand": false,
    "wType": "Map",
    "widgetalignment": 5,
    "winphone8": {
        "@class": "com.kony.gen.viz.model.component.property.map.WinPhone8MapProperty",
        "_margin_": [
            1,
            1,
            1,
            1
        ],
        "_mode_": 1,
        "margin": [
            1,
            1,
            1,
            1
        ],
        "marginInPixel": true,
        "mode": 1,
        "psp": {
            "enableCache": false
        },
        "render": true,
        "zoomLevel": "1"
    },
    "zoomlevel": 15
}