{
    "@class": "com.kony.gen.viz.model.container.KVizSegment2",
    "DNDConfig": null,
    "__parentReadjusting__": false,
    "_data_": [
        {
            "fundShortName": {
                "@class": "com.viz.ide.model.segment.SimpleTextSegmentData",
                "text": "Label"
            },
            "imgLogo": {
                "@class": "com.viz.ide.model.segment.ImageSegmentData",
                "src": "tmbam.png"
            },
            "lblinvestmentValue": {
                "@class": "com.viz.ide.model.segment.SimpleTextSegmentData",
                "text": "Label"
            },
            "lblinvestmentValueDecimal": {
                "@class": "com.viz.ide.model.segment.SimpleTextSegmentData",
                "text": ".00B"
            },
            "lblunRealizedPLValue": {
                "@class": "com.viz.ide.model.segment.SimpleTextSegmentData",
                "text": "Label"
            },
            "lblunitHolderNumber": {
                "@class": "com.viz.ide.model.segment.SimpleTextSegmentData",
                "text": "Label"
            }
        }
    ],
    "_height_": {
        "type": "ref",
        "value": "preferred"
    },
    "_indicator_": "none",
    "_left_": {
        "type": "string",
        "value": "0dp"
    },
    "_margin_": [
        0,
        0,
        0,
        0
    ],
    "_orientation_": 2,
    "_padding_": [
        0,
        0,
        0,
        0
    ],
    "_top_": {
        "type": "string",
        "value": "0dp"
    },
    "_width_": {
        "type": "string",
        "value": "100%"
    },
    "autogrowmode": 1,
    "canUpdateUI": true,
    "containerweight": 100,
    "counter": "00",
    "disabledSkins": {
        "rowFocusSkin": "s009bc538a8e4cf18a5af25fd740374b",
        "rowSkin": "s01e0182a4d14a4da5e4e707eafeea1b"
    },
    "focusedindex": null,
    "focuseditem": null,
    "generatedtemplate": "g91af7e2fd694e3a982500f7ed1899ab",
    "groupcells": false,
    "hasSections": false,
    "hiddencolumns": {
        "fundCode": "text",
        "fundHouseCode": "text",
        "fundShortName": "text"
    },
    "id": "segAccountDetails",
    "ide_onRowClick": "AS_Segment_fbae1f5e402045afba2e79489ff1c4a1",
    "info": null,
    "ipad": {
        "psp": {
            "indicator": "rowselect"
        }
    },
    "iphone": {
        "psp": {
            "indicator": "none",
            "showProgressIndicator": false
        }
    },
    "isvisible": true,
    "kuid": "dcd0df5c2da14a079b40db096abe6a9d",
    "masterdata": {},
    "name": "kony.ui.SegmentedUI2",
    "needpageindicator": true,
    "pageoffdotimage": "pageoffdot.png",
    "pageondotimage": "pageondot.png",
    "paginationconfig": {
        "position": "bottom"
    },
    "parent": "FlexContainer0h48c16212eca49",
    "pf": "frmMFSummary",
    "retainselection": false,
    "rowTemplateId": "ea56e996c4ea4699b7451a6d4680cf27",
    "rowcounter": 0,
    "rowtemplate": "FlexContainer0a0a6eb59808442",
    "screenlevelwidget": false,
    "seccounter": 0,
    "sectionheaderskin": "s8bfadf7251c4abfa23d31af10ef7493",
    "selectedRows": null,
    "selectedState": false,
    "selectedindex": null,
    "selectedindices": null,
    "selecteditems": null,
    "selectedsectionindex": 0,
    "selectionbehavior": "default",
    "separatorcolor": "00588f46",
    "separatorrequired": true,
    "separatorthickness": 1,
    "showprogressindicator": false,
    "showscrollbars": false,
    "viewtype": "tableview",
    "wType": "Segment",
    "widgetalignment": 5,
    "widgetdatamap": {
        "CopyFlexContainer0hf177076f6824d": "CopyFlexContainer0hf177076f6824d",
        "CopyFlexContainer0ie4ce21c668143": "CopyFlexContainer0ie4ce21c668143",
        "FlexContainer0a0a6eb59808442": "FlexContainer0a0a6eb59808442",
        "FlexContainer0caf6901683a842": "FlexContainer0caf6901683a842",
        "FlexContainer0db073f391e2a44": "FlexContainer0db073f391e2a44",
        "FlexContainer0g160fe60c2d14f": "FlexContainer0g160fe60c2d14f",
        "fundShortName": "fundShortName",
        "imgLogo": "imgLogo",
        "lblinvestmentValue": "lblinvestmentValue",
        "lblinvestmentValueDecimal": "lblinvestmentValueDecimal",
        "lblunRealizedPLValue": "lblunRealizedPLValue",
        "lblunitHolderNumber": "lblunitHolderNumber"
    },
    "zindex": 1
}