{
    "DNDConfig": null,
    "__parentReadjusting__": false,
    "_height_": {
        "type": "string",
        "value": "26dp"
    },
    "_left_": {
        "type": "string",
        "value": "20dp"
    },
    "_margin_": [
        0,
        0,
        0,
        0
    ],
    "_orientation_": 6,
    "_padding_": [
        0,
        0,
        0,
        0
    ],
    "_percent_": true,
    "_skin_": "sb6449ce1dc141718cc9bad90e9a7a4e",
    "_width_": {
        "type": "string",
        "value": "26dp"
    },
    "allboxes": [],
    "autogrowmode": 0,
    "canUpdateUI": true,
    "centery": {
        "type": "string",
        "value": "50%"
    },
    "children": [
        "lblWorkingCircle"
    ],
    "clipbounds": true,
    "containerweight": 100,
    "enablescrolling": true,
    "id": "flxWorkingCirle",
    "info": null,
    "isvisible": true,
    "kuid": "d6d85d69ebad4dfbb27253c5ac75a3b9",
    "layouttype": 2,
    "name": "kony.ui.FlexContainer",
    "parent": "flexWorkInfo",
    "pf": "frmLoanApplicationForm",
    "snapgridsize": 10,
    "snaptogrid": true,
    "wType": "FlexContainer",
    "widgetalignment": 1,
    "zindex": 1
}