{
    "@class": "com.kony.gen.viz.model.component.KVizLabel",
    "DNDConfig": null,
    "__parentReadjusting__": false,
    "_height_": {
        "type": "string",
        "value": "13.28%"
    },
    "_left_": {
        "type": "string",
        "value": "5.49%"
    },
    "_margin_": [
        1,
        1,
        1,
        1
    ],
    "_padding_": [
        0,
        0,
        0,
        0
    ],
    "_skin_": "s7841a04af654d96a8cf95255092c496",
    "_text_": "Status 1%",
    "_top_": {
        "type": "string",
        "value": "30.64%"
    },
    "_width_": {
        "type": "string",
        "value": "85.35%"
    },
    "_wrapping_": 2,
    "android": {
        "textStyle": {
            "letterSpacing": 0,
            "strikeThrough": false
        }
    },
    "canUpdateUI": true,
    "containerweight": 100,
    "contentalignment": 1,
    "id": "lblSubPrdDesc",
    "info": null,
    "ipad": {
        "psp": {
            "wrapping": 2
        }
    },
    "iphone": {
        "psp": {
            "wrapping": 2
        }
    },
    "isvisible": true,
    "kuid": "ac6f6b6804fb4897b383ac316b899ce5",
    "name": "kony.ui.Label",
    "parent": "FlexContainer0a00ba3825f1c49",
    "pf": "frmLoanApplicationForm",
    "textstyle": {},
    "tooltip": "",
    "wType": "Label",
    "zindex": 1
}