{
    "DNDConfig": null,
    "_enabled_": false,
    "_margin_": [
        0,
        0,
        0,
        0
    ],
    "_padding_": [
        0,
        0,
        0,
        0
    ],
    "_skin_": "saf8a666f3fd4fe0a576a52820fc03d5",
    "_text_": "",
    "canUpdateUI": true,
    "containerweight": 89,
    "contentalignment": 4,
    "desktopweb": {
        "@class": "com.kony.gen.viz.model.component.property.link.DesktopWebLinkProperty",
        "render": true
    },
    "focusskin": "sbd654ac8cf34fbb92e60ec551f40d26",
    "hexpand": true,
    "id": "link508395714289050",
    "ide_onClick": "p2kwiet2012247640786_link508395714289050_onClick_seq0",
    "info": null,
    "isvisible": true,
    "kiosk": {
        "@class": "com.kony.gen.viz.model.component.property.link.KioskLinkProperty",
        "render": true
    },
    "kuid": "p2kwiet2012247640778",
    "margininpixel": false,
    "name": "kony.ui.Link",
    "paddinginpixel": false,
    "parent": "hbxReqLink",
    "pf": "frmIBCMChgMobNoTxnLimit",
    "spa": {
        "@class": "com.kony.gen.viz.model.component.property.link.SPALinkProperty"
    },
    "texti18n": "keyRequestHistory",
    "vexpand": false,
    "wType": "Link",
    "widgetalignment": 2
}