{
    "DNDConfig": null,
    "_enabled_": false,
    "_margin_": [
        0,
        0,
        0,
        0
    ],
    "_padding_": [
        0,
        0,
        0,
        0
    ],
    "_skin_": "sb2ecf8fe47b424285e5fd432160850f",
    "_text_": "Weekly",
    "android": {
        "@class": "com.kony.gen.viz.model.component.property.button.AndroidButtonProperty",
        "displayText": true,
        "render": true
    },
    "canUpdateUI": true,
    "containerweight": 21,
    "contentalignment": 5,
    "displaytext": true,
    "focusskin": "s17b79e311774569ae367fb1779efbc5",
    "hexpand": true,
    "id": "btnWeekly",
    "ide_onClick": "p2kwiet2012247631467_btnWeekly_onClick_seq0",
    "info": null,
    "iphone": {
        "@class": "com.kony.gen.viz.model.component.property.button.IPhoneButtonProperty",
        "_padding_": [
            0,
            0,
            0,
            0
        ],
        "displayText": true,
        "padding": [
            0,
            0,
            0,
            0
        ],
        "paddingInPixel": true,
        "psp": {
            "glowEffect": false
        },
        "render": true
    },
    "isvisible": true,
    "kuid": "p2kwiet2012247631452",
    "margininpixel": false,
    "name": "kony.ui.Button",
    "paddinginpixel": false,
    "parent": "hbox1010778103168070",
    "pf": "frmMBFtSchedule",
    "spa": {
        "@class": "com.kony.gen.viz.model.component.property.button.SPAButtonProperty",
        "displayText": true
    },
    "spaan": {
        "@class": "com.kony.gen.viz.model.component.property.button.SPAAndroidButtonProperty",
        "_padding_": [
            0,
            6,
            0,
            7
        ],
        "padding": [
            0,
            6,
            0,
            7
        ],
        "paddingInPixel": false,
        "render": true
    },
    "spabb": {
        "@class": "com.kony.gen.viz.model.component.property.button.SPABBButtonProperty",
        "_padding_": [
            0,
            7,
            0,
            7
        ],
        "padding": [
            0,
            7,
            0,
            7
        ],
        "paddingInPixel": false,
        "render": true
    },
    "spaip": {
        "@class": "com.kony.gen.viz.model.component.property.button.SPAIPhoneButtonProperty",
        "_padding_": [
            0,
            8,
            0,
            8
        ],
        "padding": [
            0,
            8,
            0,
            8
        ],
        "paddingInPixel": false,
        "render": true
    },
    "spawinphone8": {
        "@class": "com.kony.gen.viz.model.component.property.button.SPAWinPhone8ButtonProperty",
        "_padding_": [
            0,
            7,
            0,
            7
        ],
        "padding": [
            0,
            7,
            0,
            7
        ],
        "paddingInPixel": false,
        "render": true
    },
    "texti18n": "keyWeekly",
    "vexpand": false,
    "wType": "Button",
    "widgetalignment": 5,
    "winphone8": {
        "@class": "com.kony.gen.viz.model.component.property.button.WinPhone8ButtonProperty",
        "_padding_": [
            1,
            10,
            1,
            10
        ],
        "displayText": true,
        "padding": [
            1,
            10,
            1,
            10
        ],
        "paddingInPixel": true,
        "psp": {
            "enableCache": false
        },
        "render": true
    }
}