{
    "@class": "com.kony.gen.viz.model.container.KVizSegment2",
    "DNDConfig": null,
    "__parentReadjusting__": false,
    "_bounces_": false,
    "_data_": [
        [
            {
                "lblDate": {
                    "@class": "com.viz.ide.model.segment.SimpleTextSegmentData",
                    "text": "dd/mm/yyyy"
                }
            },
            [
                {
                    "imgLogo": {
                        "@class": "com.viz.ide.model.segment.ImageSegmentData",
                        "src": "tmblocation.png"
                    },
                    "imgTime": {
                        "@class": "com.viz.ide.model.segment.ImageSegmentData",
                        "src": "timerunning.png"
                    },
                    "lblReqSource": {
                        "@class": "com.viz.ide.model.segment.SimpleTextSegmentData",
                        "text": "Internet banking"
                    },
                    "lblSourceAccount": {
                        "@class": "com.viz.ide.model.segment.SimpleTextSegmentData",
                        "text": "Cardless withdrawal for 500฿ from A/C xx0000"
                    },
                    "lblSourceTime": {
                        "@class": "com.viz.ide.model.segment.SimpleTextSegmentData",
                        "text": "1 hr 45 mins ..."
                    },
                    "lblTime": {
                        "@class": "com.viz.ide.model.segment.SimpleTextSegmentData",
                        "text": "11.24"
                    }
                }
            ]
        ],
        [
            {
                "lblDate": {
                    "@class": "com.viz.ide.model.segment.SimpleTextSegmentData",
                    "text": "dd/mm/yyyy"
                }
            },
            [
                {
                    "imgLogo": {
                        "@class": "com.viz.ide.model.segment.ImageSegmentData",
                        "src": "tmblocation.png"
                    },
                    "imgTime": {
                        "@class": "com.viz.ide.model.segment.ImageSegmentData",
                        "src": "timerunning.png"
                    },
                    "lblReqSource": {
                        "@class": "com.viz.ide.model.segment.SimpleTextSegmentData",
                        "text": "Internet banking"
                    },
                    "lblSourceAccount": {
                        "@class": "com.viz.ide.model.segment.SimpleTextSegmentData",
                        "text": "Cardless withdrawal for 500฿ from A/C xx0000"
                    },
                    "lblSourceTime": {
                        "@class": "com.viz.ide.model.segment.SimpleTextSegmentData",
                        "text": "1 hr 45 mins ..."
                    },
                    "lblTime": {
                        "@class": "com.viz.ide.model.segment.SimpleTextSegmentData",
                        "text": "11.24"
                    }
                }
            ]
        ]
    ],
    "_height_": {
        "type": "ref",
        "value": "preferred"
    },
    "_indicator_": "none",
    "_left_": {
        "type": "number",
        "value": "0"
    },
    "_margin_": [
        0,
        0,
        0,
        0
    ],
    "_orientation_": 2,
    "_padding_": [
        0,
        0,
        0,
        0
    ],
    "_right_": {
        "type": "string",
        "value": "3%"
    },
    "_top_": {
        "type": "string",
        "value": "0"
    },
    "_width_": {
        "type": "string",
        "value": "100%"
    },
    "autogrowmode": 1,
    "canUpdateUI": true,
    "containerweight": 100,
    "counter": "10",
    "focusedindex": null,
    "focuseditem": null,
    "groupcells": false,
    "hasSections": true,
    "hiddencolumns": {
        "IS_ACTIVE": "text",
        "TRANSACTION_REF_ID": "text"
    },
    "id": "segHistoryReq",
    "ide_onRowClick": "AS_Segment_ha0aa5a35c8c43db8afde4ffdcabe2fc",
    "info": null,
    "ipad": {
        "psp": {
            "indicator": "rowselect"
        }
    },
    "iphone": {
        "psp": {
            "bounces": false,
            "indicator": "none"
        }
    },
    "isvisible": true,
    "kuid": "e2f4c3c14dce4f249f888af7e7a4e5d0",
    "masterdata": {},
    "name": "kony.ui.SegmentedUI2",
    "needpageindicator": true,
    "pageoffdotimage": "pageoffdot.png",
    "pageondotimage": "pageondot.png",
    "paginationconfig": {
        "position": "bottom"
    },
    "parent": "flexBody",
    "pf": "frmUVRequestHistoryNew",
    "retainselection": false,
    "rowTemplateId": "d8d61efe7f994410915618c89263817e",
    "rowcounter": 0,
    "rowfocusskin": "s009bc538a8e4cf18a5af25fd740374b",
    "rowskin": "s01e0182a4d14a4da5e4e707eafeea1b",
    "rowtemplate": "flexSourceDtls",
    "screenlevelwidget": false,
    "seccounter": 1,
    "sectionHeaderTemplateId": "j234083fde65431ba5da07aefe5933dd",
    "sectionheaderskin": "s8bfadf7251c4abfa23d31af10ef7493",
    "sectionheadertemplate": "flexActiveReq",
    "selectedRows": null,
    "selectedState": false,
    "selectedindex": null,
    "selectedindices": null,
    "selecteditems": null,
    "selectedsectionindex": 0,
    "selectionbehavior": "default",
    "separatorrequired": false,
    "separatorthickness": 0,
    "showscrollbars": true,
    "viewtype": "tableview",
    "wType": "Segment",
    "widgetalignment": 5,
    "widgetdatamap": {
        "flexActiveReq": "flexActiveReq",
        "flexLine": "flexLine",
        "flexRequestDesc": "flexRequestDesc",
        "flexRequestMainSrc": "flexRequestMainSrc",
        "flexRequestSrcAccount": "flexRequestSrcAccount",
        "flexSourceDtls": "flexSourceDtls",
        "flexTime": "flexTime",
        "imgLogo": "imgLogo",
        "imgTime": "imgTime",
        "lblDate": "lblDate",
        "lblReqSource": "lblReqSource",
        "lblSourceAccount": "lblSourceAccount",
        "lblSourceTime": "lblSourceTime",
        "lblTime": "lblTime"
    },
    "zindex": 1
}