{
    "@class": "com.kony.gen.viz.model.container.KVizSegment2",
    "DNDConfig": null,
    "__parentReadjusting__": false,
    "_bounces_": false,
    "_data_": [
        {
            "CopyLabel0a6ae87640b1b46": {
                "@class": "com.viz.ide.model.segment.SimpleTextSegmentData",
                "i18nkey": "key_CLWR_1",
                "text": ""
            },
            "Label0e0c8fd24d22945": {
                "@class": "com.viz.ide.model.segment.SimpleTextSegmentData",
                "i18nkey": "key_CLWR_Header1",
                "text": ""
            },
            "imageTutorial": {
                "@class": "com.viz.ide.model.segment.ImageSegmentData",
                "src": "clwa1.png"
            },
            "richTextActication": {
                "@class": "com.viz.ide.model.segment.SimpleTextSegmentData",
                "i18nkey": "key_CLWR_1",
                "text": ""
            }
        },
        {
            "CopyLabel0a6ae87640b1b46": {
                "@class": "com.viz.ide.model.segment.SimpleTextSegmentData",
                "i18nkey": "key_CLWR_2",
                "text": ""
            },
            "Label0e0c8fd24d22945": {
                "@class": "com.viz.ide.model.segment.SimpleTextSegmentData",
                "i18nkey": "key_CLWR_Header2",
                "text": ""
            },
            "imageTutorial": {
                "@class": "com.viz.ide.model.segment.ImageSegmentData",
                "src": "clwa2.png"
            },
            "richTextActication": {
                "@class": "com.viz.ide.model.segment.SimpleTextSegmentData",
                "i18nkey": "key_CLWR_2",
                "text": ""
            }
        },
        {
            "CopyLabel0a6ae87640b1b46": {
                "@class": "com.viz.ide.model.segment.SimpleTextSegmentData",
                "i18nkey": "key_CLWR_4",
                "text": ""
            },
            "Label0e0c8fd24d22945": {
                "@class": "com.viz.ide.model.segment.SimpleTextSegmentData",
                "i18nkey": "key_CLWR_Header4",
                "text": ""
            },
            "imageTutorial": {
                "@class": "com.viz.ide.model.segment.ImageSegmentData",
                "src": "clwa4.png"
            },
            "richTextActication": {
                "@class": "com.viz.ide.model.segment.SimpleTextSegmentData",
                "i18nkey": "key_CLWR_4",
                "text": ""
            }
        }
    ],
    "_height_": {
        "type": "string",
        "value": "95%"
    },
    "_indicator_": "none",
    "_left_": {
        "type": "string",
        "value": "0dp"
    },
    "_margin_": [
        0,
        0,
        0,
        0
    ],
    "_orientation_": 2,
    "_padding_": [
        0,
        0,
        0,
        0
    ],
    "_top_": {
        "type": "string",
        "value": "0dp"
    },
    "_width_": {
        "type": "string",
        "value": "100%"
    },
    "autogrowmode": 0,
    "canUpdateUI": true,
    "containerweight": 100,
    "counter": "02",
    "disabledSkins": {},
    "focusedindex": 1,
    "focuseditem": {
        "CopyLabel0a6ae87640b1b46": {
            "@class": "com.viz.ide.model.segment.SimpleTextSegmentData",
            "i18nkey": "key_CLWR_2",
            "text": ""
        },
        "Label0e0c8fd24d22945": {
            "@class": "com.viz.ide.model.segment.SimpleTextSegmentData",
            "i18nkey": "key_CLWR_Header2",
            "text": ""
        },
        "imageTutorial": {
            "@class": "com.viz.ide.model.segment.ImageSegmentData",
            "src": "clwa2.png"
        },
        "richTextActication": {
            "@class": "com.viz.ide.model.segment.SimpleTextSegmentData",
            "i18nkey": "key_CLWR_2",
            "text": ""
        }
    },
    "groupcells": false,
    "hasSections": false,
    "id": "segCardlesswithdrawActivation",
    "ide_onSwipe": "AS_Segment_cde658bf3ef84af5ac4a77b5377be06a",
    "info": null,
    "invokedProperty": "pageOffDotImage",
    "ipad": {
        "psp": {
            "indicator": "rowselect"
        }
    },
    "iphone": {
        "psp": {
            "bounces": false,
            "indicator": "rowselect"
        },
        "viewType": "pageview"
    },
    "isvisible": true,
    "kuid": "cdc4681830004fa182c0ceae79182d75",
    "masterdata": {},
    "name": "kony.ui.SegmentedUI2",
    "needpageindicator": true,
    "pageoffdotimage": "key_default.png",
    "pageondotimage": "key_sel.png",
    "paginationconfig": {
        "position": "bottom",
        "vdistance": 1
    },
    "parent": "flexBody",
    "pf": "frmCardlesswithdrawActivation",
    "retainselection": false,
    "rowTemplateId": "b8b37d4faf42423188d725b9a23d5ea9",
    "rowcounter": 2,
    "rowfocusskin": "sa210dd8f8314cf581d230b3d99ab471",
    "rowskin": "s02d09af8efb47008a962eda1488d0ea",
    "rowtemplate": "FlexContainer0e9010cd523ab4e",
    "screenlevelwidget": false,
    "seccounter": 0,
    "sectionheaderskin": "s8bfadf7251c4abfa23d31af10ef7493",
    "selectedRows": [
        [
            0,
            1
        ]
    ],
    "selectedState": false,
    "selectedindex": [
        0,
        1
    ],
    "selectedindices": [
        [
            0,
            [
                1
            ]
        ]
    ],
    "selecteditems": [
        {
            "CopyLabel0a6ae87640b1b46": {
                "@class": "com.viz.ide.model.segment.SimpleTextSegmentData",
                "i18nkey": "key_CLWR_2",
                "text": ""
            },
            "Label0e0c8fd24d22945": {
                "@class": "com.viz.ide.model.segment.SimpleTextSegmentData",
                "i18nkey": "key_CLWR_Header2",
                "text": ""
            },
            "imageTutorial": {
                "@class": "com.viz.ide.model.segment.ImageSegmentData",
                "src": "clwa2.png"
            },
            "richTextActication": {
                "@class": "com.viz.ide.model.segment.SimpleTextSegmentData",
                "i18nkey": "key_CLWR_2",
                "text": ""
            }
        }
    ],
    "selectedsectionindex": 0,
    "selectionbehavior": "default",
    "separatorrequired": true,
    "separatorthickness": 0,
    "showscrollbars": false,
    "swipeContext": {
        "currentPage": 1,
        "imageWidth": 1008,
        "widthRatio": 0
    },
    "viewtype": "pageview",
    "wType": "Segment",
    "widgetalignment": 5,
    "widgetdatamap": {
        "CopyLabel0a6ae87640b1b46": "CopyLabel0a6ae87640b1b46",
        "FlexContainer0e9010cd523ab4e": "FlexContainer0e9010cd523ab4e",
        "Label0e0c8fd24d22945": "Label0e0c8fd24d22945",
        "imageTutorial": "imageTutorial",
        "richTextActication": "richTextActication"
    },
    "widgetskin": "s86f1ca9377f410eae619ca4c73bc0ff",
    "zindex": 1
}