{
    "@class": "com.kony.gen.viz.model.component.KVizButton",
    "DNDConfig": null,
    "_margin_": [
        0,
        0,
        0,
        0
    ],
    "_padding_": [
        4,
        3,
        4,
        2
    ],
    "_skin_": "sf2bdeb30b2e4ce6acc2cc2fba96562f",
    "_text_": "",
    "canUpdateUI": true,
    "containerweight": 34,
    "contentalignment": 5,
    "displaytext": true,
    "focusskin": "sf2bdeb30b2e4ce6acc2cc2fba96562f",
    "id": "btnClose",
    "info": null,
    "iscustomlayout": false,
    "isvisible": true,
    "kuid": "ie65a73e6722404c8146cbc2625027d0",
    "margininpixel": false,
    "name": "kony.ui.Button",
    "paddInPixel": [
        25.6,
        25.6,
        25.6,
        25.6
    ],
    "paddinginpixel": false,
    "parent": "CopyHBox0af21345f2da445",
    "pf": "popupEnterAccessPin",
    "retaincontentalignment": false,
    "retainflexpositionproperties": false,
    "texti18n": "CAV05_btnCancel",
    "wType": "Button"
}