{
    "@class": "com.kony.gen.viz.model.component.KVizLine",
    "DNDConfig": null,
    "_margin_": [
        0,
        0,
        0,
        0
    ],
    "_padding_": [
        0,
        0,
        0,
        0
    ],
    "_skin_": "s39db7d025404e4b94521036cef4b99f",
    "_thickness_": 1,
    "canUpdateUI": true,
    "containerWeightLocked": true,
    "containerweight": 0,
    "donotUpdateContainerWeight": false,
    "id": "CopyLine0gbb943175bef4f",
    "info": null,
    "iscustomlayout": false,
    "isvisible": true,
    "kuid": "c25414ca501645048f401e459f4d7740",
    "margininpixel": false,
    "name": "kony.ui.Line",
    "paddInPixel": [
        0,
        0,
        0,
        0
    ],
    "parent": "CopyHBox0i6207ef38baf44",
    "pf": "popupEnterAccessPin",
    "retaincontentalignment": false,
    "retainflexpositionproperties": false,
    "wType": "Line"
}