{
    "@class": "com.kony.gen.viz.model.container.KVizHBox",
    "DNDConfig": null,
    "_margin_": [
        0,
        0,
        0,
        0
    ],
    "_orientation_": 1,
    "_padding_": [
        0,
        0,
        0,
        0
    ],
    "_percent_": true,
    "_position_": 3,
    "_skin_": "s8deb07104c94eba80ea34c825d17d2b",
    "allboxes": [],
    "canUpdateUI": true,
    "children": [
        "btnSeven",
        "CopyLine0gbb943175bef4f",
        "btnEight",
        "CopyLine0e18bf55b93c24a",
        "btnNine"
    ],
    "containerweight": 100,
    "contextmenu": null,
    "id": "CopyHBox0i6207ef38baf44",
    "info": null,
    "iscustomlayout": false,
    "isvisible": true,
    "kuid": "ef3df7db0d744c6f9c00e5c1614f998a",
    "layouttype": 0,
    "name": "kony.ui.Box",
    "paddInPixel": [
        0,
        0,
        0,
        0
    ],
    "parent": "VBox0d4887d5ed9a642",
    "pf": "popupEnterAccessPin",
    "retaincontentalignment": false,
    "retainflexpositionproperties": false,
    "vexpand": false,
    "wType": "HBox",
    "widgetalignment": 1
}