{
    "@class": "com.kony.gen.viz.model.component.KVizLine",
    "DNDConfig": null,
    "_margin_": [
        0,
        0,
        0,
        0
    ],
    "_padding_": [
        0,
        0,
        0,
        0
    ],
    "_skin_": "s39db7d025404e4b94521036cef4b99f",
    "_thickness_": 1,
    "canUpdateUI": true,
    "containerWeightLocked": true,
    "containerweight": 0,
    "donotUpdateContainerWeight": false,
    "id": "CopyLine0h7c30ff3817e45",
    "info": null,
    "iscustomlayout": false,
    "isvisible": true,
    "kuid": "h8d813dae70f4607a2522a81235b23d2",
    "name": "kony.ui.Line",
    "paddInPixel": [
        0,
        0,
        0,
        0
    ],
    "parent": "CopyHBox0a9c4e7e709d242",
    "pf": "popupEnterAccessPin",
    "retaincontentalignment": false,
    "retainflexpositionproperties": false,
    "wType": "Line"
}