{
    "@class": "com.kony.gen.viz.model.component.KVizLine",
    "DNDConfig": null,
    "_margin_": [
        0,
        0,
        0,
        0
    ],
    "_padding_": [
        0,
        0,
        0,
        0
    ],
    "_skin_": "s39db7d025404e4b94521036cef4b99f",
    "_thickness_": 1,
    "canUpdateUI": true,
    "containerWeightLocked": true,
    "containerweight": 0,
    "id": "CopyLine0h9c8d47e6d7a4b",
    "info": null,
    "iscustomlayout": false,
    "isvisible": true,
    "kuid": "f2fb12287cbf4fd0abe605e5a82742a9",
    "margininpixel": false,
    "name": "kony.ui.Line",
    "paddInPixel": [
        0,
        0,
        0,
        0
    ],
    "parent": "CopyHBox0ee304082079940",
    "pf": "popupEnterAccessPin",
    "retaincontentalignment": false,
    "retainflexpositionproperties": false,
    "wType": "Line"
}