{
    "@class": "com.kony.gen.viz.model.component.KVizLine",
    "DNDConfig": null,
    "_margin_": [
        0,
        0,
        0,
        0
    ],
    "_padding_": [
        0,
        0,
        0,
        0
    ],
    "_skin_": "s39db7d025404e4b94521036cef4b99f",
    "_thickness_": 1,
    "canUpdateUI": true,
    "containerWeightLocked": true,
    "containerweight": 0,
    "id": "CopyLine0d7d3b85251dd42",
    "info": null,
    "iscustomlayout": false,
    "isvisible": true,
    "kuid": "gc2c6ae76bcf482dab7fd0301cbdff65",
    "name": "kony.ui.Line",
    "paddInPixel": [
        0,
        0,
        0,
        0
    ],
    "parent": "CopyHBox0af21345f2da445",
    "pf": "popupEnterAccessPin",
    "retaincontentalignment": false,
    "retainflexpositionproperties": false,
    "wType": "Line"
}