{
    "@class": "com.kony.gen.viz.model.component.KVizImage2",
    "DNDConfig": null,
    "_base64_": null,
    "_margin_": [
        2,
        0,
        0,
        0
    ],
    "_padding_": [
        0,
        0,
        0,
        0
    ],
    "_skin_": "s55d8a5125e74bb0b2eaca75c423dae1",
    "_src_": "key_default.png",
    "canUpdateUI": true,
    "containerweight": 8,
    "context": {
        "channel": "mobile",
        "formID": "popupEnterAccessPin",
        "ispercent": true,
        "templateType": "popups",
        "topLevelBox": false,
        "toplevel": false
    },
    "donotUpdateContainerWeight": false,
    "id": "imgThree",
    "imagescalemode": 1,
    "info": null,
    "invokedProperty": "src",
    "iscustomlayout": false,
    "ispercent": true,
    "isvisible": true,
    "kuid": "a6633c300e3d4353adeb0443ef725392",
    "margininpixel": false,
    "name": "kony.ui.Image2",
    "paddInPixel": [
        0,
        0,
        0,
        0
    ],
    "paddinginpixel": false,
    "parent": "hboxAccessPinCircles",
    "pf": "popupEnterAccessPin",
    "retaincontentalignment": false,
    "retainflexpositionproperties": false,
    "srcType": 1,
    "wType": "Image",
    "widgetalignment": 5
}