{
    "@class": "com.kony.gen.viz.model.component.KVizLabel",
    "DNDConfig": null,
    "_margin_": [
        0,
        2,
        0,
        0
    ],
    "_padding_": [
        0,
        2,
        0,
        2
    ],
    "_skin_": "s2f9de6079df4be9a4c84599576a43ae",
    "_text_": "",
    "_wrapping_": 2,
    "android": {
        "textStyle": {
            "letterSpacing": 0,
            "strikeThrough": false
        }
    },
    "canUpdateUI": true,
    "containerweight": 100,
    "contentalignment": 5,
    "id": "lblAccessPin",
    "info": null,
    "ipad": {
        "psp": {
            "wrapping": 2
        }
    },
    "iphone": {
        "psp": {
            "wrapping": 2
        }
    },
    "iscustomlayout": false,
    "isvisible": true,
    "kuid": "c67efe16f49140dabed95edb91be9999",
    "margininpixel": false,
    "name": "kony.ui.Label",
    "paddinginpixel": false,
    "parent": "VBox0i1accc0936a54f",
    "pf": "popupEnterAccessPin",
    "retaincontentalignment": false,
    "retainflexpositionproperties": false,
    "texti18n": "enterpin",
    "textstyle": {},
    "tooltip": "",
    "wType": "Label"
}