{
    "@class": "com.kony.gen.viz.model.container.KVizVBox",
    "DNDConfig": null,
    "_margin_": [
        0,
        0,
        0,
        0
    ],
    "_orientation_": 2,
    "_padding_": [
        0,
        0,
        0,
        0
    ],
    "_percent_": true,
    "_position_": 3,
    "_skin_": "s0e13ed4077f481ab090dae6b2e595ed",
    "allboxes": [],
    "canUpdateUI": true,
    "children": [
        "hboxGrey",
        "lblAccessPin",
        "hboxAccessPinCircles",
        "HBox0d3c8b7ce24cd46"
    ],
    "containerweight": 100,
    "contextmenu": null,
    "id": "VBox0i1accc0936a54f",
    "info": null,
    "iscustomlayout": false,
    "isvisible": true,
    "kuid": "e2d0a8620b204c09a04a2200a36e2d06",
    "layouttype": 0,
    "name": "kony.ui.Box",
    "parent": "hboxCircles",
    "pf": "popupEnterAccessPin",
    "retaincontentalignment": false,
    "retainflexpositionproperties": false,
    "wType": "VBox",
    "widgetalignment": 1
}