{
    "DNDConfig": null,
    "_enabled_": false,
    "_margin_": [
        0,
        0,
        0,
        15
    ],
    "_padding_": [
        0,
        0,
        0,
        4
    ],
    "_skin_": "sa39f37649fc4e56950fc9669b7a5787",
    "_text_": "",
    "canUpdateUI": true,
    "containerweight": 3,
    "contentalignment": 6,
    "desktopweb": {
        "@class": "com.kony.gen.viz.model.component.property.button.DesktopWebButtonProperty",
        "_margin_": [
            2,
            0,
            3,
            3
        ],
        "_padding_": [
            0,
            0,
            0,
            2
        ],
        "displayText": true,
        "margin": [
            2,
            0,
            3,
            3
        ],
        "marginInPixel": false,
        "padding": [
            0,
            0,
            0,
            2
        ],
        "paddingInPixel": false,
        "render": true
    },
    "displaytext": true,
    "focusskin": "s6be722788a043a8bb961d1aad4c6fdb",
    "hexpand": true,
    "id": "btnHide",
    "ide_onClick": "p2kwiet2012247639803_btnHide_onClick_seq0",
    "info": null,
    "isvisible": false,
    "kiosk": {
        "@class": "com.kony.gen.viz.model.component.property.button.KioskButtonProperty",
        "_margin_": [
            0,
            0,
            0,
            15
        ],
        "_padding_": [
            0,
            0,
            0,
            4
        ],
        "margin": [
            0,
            0,
            0,
            15
        ],
        "marginInPixel": false,
        "padding": [
            0,
            0,
            0,
            4
        ],
        "paddingInPixel": false,
        "render": true
    },
    "kuid": "p2kwiet2012247639702",
    "margininpixel": false,
    "name": "kony.ui.Button",
    "paddinginpixel": false,
    "parent": "hbxBalanceAfter",
    "pf": "frmIBBillPaymentCompletenow",
    "spa": {
        "@class": "com.kony.gen.viz.model.component.property.button.SPAButtonProperty",
        "displayText": true
    },
    "vexpand": false,
    "wType": "Button",
    "widgetalignment": 6
}