{
    "DNDConfig": null,
    "__parentReadjusting__": false,
    "_height_": {
        "type": "ref",
        "value": "preferred"
    },
    "_left_": {
        "type": "string",
        "value": "0dp"
    },
    "_margin_": [
        0,
        0,
        0,
        0
    ],
    "_padding_": [
        0,
        0,
        0,
        0
    ],
    "_skin_": "sbf9e5654e014734892c5b694d29e735",
    "_top_": {
        "type": "string",
        "value": "0dp"
    },
    "_width_": {
        "type": "string",
        "value": "100%"
    },
    "allboxes": [],
    "allowhorizontalbounce": false,
    "allowverticalbounce": false,
    "android": {
        "@class": "com.kony.gen.viz.model.container.property.scrollflexcontainer.AndroidScrollFlexContainerProperty",
        "render": true
    },
    "bounces": false,
    "canUpdateUI": true,
    "children": [
        "flexContainer761510865415876",
        "richtextTnC"
    ],
    "containerweight": 0,
    "contentoffset": {},
    "contentsize": {},
    "defaultunit": 2,
    "enablescrolling": true,
    "horizontalscrollindicator": true,
    "id": "flexBodyScroll",
    "iphone": {
        "@class": "com.kony.gen.viz.model.container.property.scrollflexcontainer.IPhoneScrollFlexContainerProperty",
        "psp": {
            "bouncesZoom": true,
            "maxZoomScale": 1,
            "minZoomScale": 1,
            "zoomScale": 1
        },
        "render": true
    },
    "isvisible": true,
    "kuid": "d62c4144d5fc4c2f969cf735e0c0a201",
    "layouttype": 4,
    "margininpixel": false,
    "minheight": {
        "type": "string",
        "value": "100%"
    },
    "name": "kony.ui.FlexScrollContainer",
    "paddinginpixel": false,
    "pagingenabled": false,
    "parent": "flxFullBody",
    "pf": "frmMBNewTnCLoan",
    "scrolldirection": 2,
    "spa": {
        "@class": "com.kony.gen.viz.model.container.property.scrollflexcontainer.SPAScrollFlexContainerProperty"
    },
    "spaan": {
        "@class": "com.kony.gen.viz.model.container.property.scrollflexcontainer.SPAAndroidScrollFlexContainerProperty",
        "render": true
    },
    "spabb": {
        "@class": "com.kony.gen.viz.model.container.property.scrollflexcontainer.SPABBScrollFlexContainerProperty",
        "render": false
    },
    "spaip": {
        "@class": "com.kony.gen.viz.model.container.property.scrollflexcontainer.SPAIPhoneScrollFlexContainerProperty",
        "render": true
    },
    "spawinphone8": {
        "@class": "com.kony.gen.viz.model.container.property.scrollflexcontainer.SPAWinPhone8ScrollFlexContainerProperty",
        "render": true
    },
    "verticalscrollindicator": true,
    "wType": "FlexScrollContainer",
    "widgetalignment": 1,
    "winphone8": {
        "@class": "com.kony.gen.viz.model.container.property.scrollflexcontainer.WinPhone8ScrollFlexContainerProperty",
        "psp": {
            "enableCache": false
        },
        "render": true
    },
    "zindex": 1
}