{
    "DNDConfig": null,
    "_data_": [],
    "_enabled_": false,
    "_indicator_": "none",
    "_orientation_": 2,
    "_padding_": [
        0,
        0,
        0,
        0
    ],
    "_skin_": "seg2Normal",
    "canUpdateUI": true,
    "containerheightreference": 1,
    "containerweight": 100,
    "context": {
        "channel": "mobile",
        "formID": "AdvancedWidgetsSegements",
        "templateType": "segments",
        "topLevelBox": false
    },
    "counter": 3,
    "desktopweb": {
        "@class": "com.kony.gen.viz.model.container.property.segment2.DesktopWebSegment2Property",
        "_margin_": [
            0,
            0,
            0,
            0
        ],
        "_padding_": [
            0,
            0,
            0,
            0
        ],
        "margin": [
            0,
            0,
            0,
            0
        ],
        "marginInPixel": false,
        "padding": [
            0,
            0,
            0,
            0
        ],
        "paddingInPixel": false,
        "render": true
    },
    "focusedindex": null,
    "focuseditem": null,
    "groupcells": false,
    "hasSections": false,
    "hiddencolumns": {
        "Favorite": "text",
        "emailId": "text",
        "facebookId": "text",
        "mobileNumber": "text",
        "receipentID": "text"
    },
    "id": "segmentReceipentListing",
    "ide_onRowClick": "p2kwiet2012247645018_segmentReceipentListing_onRowClick_seq0",
    "info": null,
    "isvisible": true,
    "kiosk": {
        "@class": "com.kony.gen.viz.model.container.property.segment2.KioskSegment2Property",
        "render": true
    },
    "kuid": "p2kwiet2012247644957",
    "layoutalignment": 3,
    "layouttype": 0,
    "name": "kony.ui.SegmentedUI2",
    "needpageindicator": true,
    "paddinginpixel": false,
    "paginationconfig": {
        "position": "bottom"
    },
    "parent": "scrollBoxRcList",
    "pf": "frmIBMyReceipentsAddContactFB",
    "retainselection": true,
    "rowTemplateId": "p2kwiet2012247652110",
    "rowcounter": 2,
    "rowfocusskin": "sbbc7f0678bf4c678c40fe82030b9661",
    "rowskin": "s01e0182a4d14a4da5e4e707eafeea1b",
    "rowtemplate": "hbox1010001831100041",
    "screenlevelwidget": true,
    "scrollingevents": false,
    "seccounter": 0,
    "sectionheaderskin": "s9bd6d2f2f8c4fce89dae24cc47abe06",
    "selectedRows": null,
    "selectedState": false,
    "selectedindex": null,
    "selectedindices": null,
    "selecteditems": null,
    "selectedsectionindex": 0,
    "selectionbehavior": "default",
    "selectionbehaviorconfig": {},
    "separatorcolor": "64646400",
    "separatorrequired": false,
    "separatorthickness": 0,
    "showscrollbars": true,
    "spa": {
        "@class": "com.kony.gen.viz.model.container.property.segment2.SPASegment2Property"
    },
    "viewtype": "tableview",
    "wType": "Segment",
    "widgetalignment": 1,
    "widgetdatamap": {
        "IBReceipentsTemplate": "IBReceipentsTemplate",
        "btnfav": "btnfav",
        "hbox1010001831100041": "hbox1010001831100041",
        "hboxSubReceipentData": "hboxSubReceipentData",
        "image210125340641373": "image210125340641373",
        "imgFb": "imgFb",
        "imgMail": "imgMail",
        "imgMobile": "imgMobile",
        "imgNxt": "imgNxt",
        "imgReceipentPic": "imgReceipentPic",
        "lblNumberofAccounts": "lblNumberofAccounts",
        "lblReceipentName": "lblReceipentName",
        "vboxReceipentDetails": "vboxReceipentDetails"
    }
}