{
    "DNDConfig": null,
    "_enabled_": false,
    "_margin_": [
        0,
        0,
        0,
        0
    ],
    "_padding_": [
        0,
        0,
        0,
        0
    ],
    "_placeholder_": "Search",
    "_skin_": "s6258d9f3c124792a82ea6eedb2569ae",
    "_text_": "",
    "autocapitalize": "none",
    "autocomplete": false,
    "autocorrect": false,
    "autofilter": false,
    "canUpdateUI": true,
    "containerheightmode": 1,
    "containerheightreference": 1,
    "containerweight": 91,
    "contentalignment": 4,
    "desktopweb": {
        "@class": "com.kony.gen.viz.model.component.property.textbox2.DesktopWebTextBox2Property",
        "_padding_": [
            0,
            1,
            1,
            1
        ],
        "containerHeightMode": 3,
        "ide_onKeyUp": "p2kwiet2012247645018_tbxSelectRcSearch_DESKTOPWEB_onKeyUp_seq0",
        "padding": [
            0,
            1,
            1,
            1
        ],
        "paddingInPixel": false,
        "psp": {
            "hoverSkin": "s04062962e2b4e4c8644ca2db43f905a"
        },
        "render": true
    },
    "focusskin": "s04062962e2b4e4c8644ca2db43f905a",
    "hexpand": true,
    "id": "tbxSelectRcSearch",
    "ide_onTextChange": "p2kwiet2012247645018_tbxSelectRcSearch_onTextChange_seq0",
    "info": null,
    "isvisible": true,
    "keyboardstyle": "A",
    "keyboardtype": "A",
    "kiosk": {
        "@class": "com.kony.gen.viz.model.component.property.textbox2.KioskTextBox2Property",
        "render": true
    },
    "kuid": "p2kwiet2012247644974",
    "margininpixel": false,
    "mode": "A",
    "name": "kony.ui.TextBox2",
    "paddinginpixel": false,
    "parent": "hboxSelectRcSearchBox",
    "pf": "frmIBMyReceipentsAddContactFB",
    "placeholderi18n": "Receipent_Search",
    "securetextentry": false,
    "spa": {
        "@class": "com.kony.gen.viz.model.component.property.textbox2.SPATextBox2Property",
        "autoCorrect": false,
        "containerHeightMode": 3
    },
    "textinputmode": "A",
    "vexpand": false,
    "viewtype": "default",
    "wType": "TextField",
    "widgetalignment": 5
}