{
    "@class": "com.kony.gen.viz.model.component.KVizButton",
    "DNDConfig": null,
    "__parentReadjusting__": false,
    "_height_": {
        "type": "string",
        "value": "100%"
    },
    "_left_": {
        "type": "string",
        "value": "0.00%"
    },
    "_margin_": [
        6,
        6,
        6,
        6
    ],
    "_padding_": [
        0,
        0,
        0,
        0
    ],
    "_skin_": "se83264d757a4de9937ea2037a117538",
    "_text_": "",
    "_top_": {
        "type": "string",
        "value": "0%"
    },
    "_width_": {
        "type": "string",
        "value": "50%"
    },
    "canUpdateUI": true,
    "containerweight": 100,
    "contentalignment": 5,
    "displaytext": true,
    "focusskin": "se83264d757a4de9937ea2037a117538",
    "id": "btnEmployee",
    "info": null,
    "isvisible": true,
    "kuid": "cad93dd1c55048a38427216d3150dfde",
    "name": "kony.ui.Button",
    "parent": "FlexContainerRoundCorners",
    "pf": "frmCheckList",
    "texti18n": "Employee_title",
    "wType": "Button",
    "zindex": 1
}