{
    "@class": "com.kony.gen.viz.model.component.KVizButton",
    "DNDConfig": null,
    "__parentReadjusting__": false,
    "_height_": {
        "type": "string",
        "value": "100%"
    },
    "_left_": {
        "type": "string",
        "value": "0.00%"
    },
    "_margin_": [
        6,
        6,
        6,
        6
    ],
    "_padding_": [
        0,
        0,
        0,
        0
    ],
    "_skin_": "sa812e9ddb7b43dda860fba234b7f80c",
    "_text_": "",
    "_top_": {
        "type": "string",
        "value": "0%"
    },
    "_width_": {
        "type": "string",
        "value": "50%"
    },
    "canUpdateUI": true,
    "containerweight": 100,
    "contentalignment": 5,
    "displaytext": true,
    "focusskin": "sa812e9ddb7b43dda860fba234b7f80c",
    "id": "btnSelfEmployee",
    "info": null,
    "isvisible": true,
    "kuid": "cb3a568eb1ed4f9f878f0b0e90cf3e2f",
    "name": "kony.ui.Button",
    "parent": "FlexContainerRoundCorners",
    "pf": "frmCheckList",
    "texti18n": "Self_Employed",
    "wType": "Button",
    "zindex": 1
}