{
    "DNDConfig": null,
    "__parentReadjusting__": false,
    "_height_": {
        "type": "ref",
        "value": "preferred"
    },
    "_left_": {
        "type": "string",
        "value": "5%"
    },
    "_margin_": [
        0,
        0,
        0,
        0
    ],
    "_orientation_": 6,
    "_padding_": [
        0,
        0,
        0,
        0
    ],
    "_percent_": true,
    "_skin_": "sd039b0bb2724f9f846c3d4922e5c971",
    "_top_": {
        "type": "string",
        "value": "24dp"
    },
    "_width_": {
        "type": "string",
        "value": "90%"
    },
    "allboxes": [],
    "autogrowmode": 1,
    "canUpdateUI": true,
    "children": [
        "lblPrepraseDocs",
        "btnshowInfo",
        "ImageInfoIcon"
    ],
    "clipbounds": false,
    "containerweight": 100,
    "enablescrolling": true,
    "id": "FlexGroup0e1ca9e9584ad41",
    "info": null,
    "isvisible": true,
    "kuid": "ibf4ea814e78488dbe3008f68257728d",
    "layouttype": 3,
    "name": "kony.ui.FlexContainer",
    "parent": "FlexScrollContainer0bda564969b5044",
    "pf": "frmCheckList",
    "snapgridsize": 10,
    "snaptogrid": true,
    "wType": "FlexContainer",
    "widgetalignment": 1
}