{
    "@class": "com.kony.gen.viz.model.component.KVizRichText",
    "DNDConfig": null,
    "__parentReadjusting__": false,
    "_height_": {
        "type": "ref",
        "value": "preferred"
    },
    "_left_": {
        "type": "number",
        "value": "0"
    },
    "_margin_": [
        0,
        0,
        0,
        0
    ],
    "_padding_": [
        0,
        0,
        0,
        0
    ],
    "_skin_": "s92b0a23a43e435489f406e695c12af9",
    "_text_": "",
    "_top_": {
        "type": "number",
        "value": "0"
    },
    "_width_": {
        "type": "string",
        "value": "100%"
    },
    "_wrapping_": 2,
    "canUpdateUI": true,
    "containerweight": 100,
    "contentalignment": 4,
    "id": "richTxtCheckListHelp",
    "info": null,
    "isvisible": true,
    "kuid": "a02e36e6ae4645bc826a9e00dfff3ebc",
    "name": "kony.ui.RichText",
    "parent": "flxPopupInfo",
    "pf": "frmCheckList",
    "wType": "RichText",
    "widgetalignment": 5,
    "zindex": 1
}