{
    "DNDConfig": null,
    "_enabled_": false,
    "_margin_": [
        0,
        1,
        0,
        2
    ],
    "_orientation_": 1,
    "_padding_": [
        1,
        1,
        1,
        1
    ],
    "_percent_": true,
    "_position_": 3,
    "_resize_": true,
    "_skin_": "s203b13a9bf64e8bb11f0b216e66f26e",
    "allboxes": [],
    "borderCollapse": false,
    "canUpdateUI": true,
    "children": [
        "lblMthlySvngAmt",
        "txtODMnthSavAmt",
        "image24573708914676"
    ],
    "containerweight": 100,
    "desktopweb": {
        "@class": "com.kony.gen.viz.model.container.property.hbox.DesktopWebHBoxProperty",
        "_margin_": [
            0,
            0,
            0,
            0
        ],
        "_padding_": [
            0,
            0,
            0,
            0
        ],
        "_position_": 3,
        "margin": [
            0,
            0,
            0,
            0
        ],
        "marginInPixel": false,
        "padding": [
            0,
            0,
            0,
            0
        ],
        "paddingInPixel": false,
        "position": 3,
        "psp": {
            "hoverSkin": "s7b2ed39a6214f0fa4294f9600e4d5a6"
        },
        "render": true
    },
    "focusskin": "s7b2ed39a6214f0fa4294f9600e4d5a6",
    "id": "hboxMonthlySaving",
    "ide_onClick": "p2kwiet2012247645740_hboxMonthlySaving_onClick_seq0",
    "info": null,
    "isvisible": true,
    "kiosk": {
        "@class": "com.kony.gen.viz.model.container.property.hbox.KioskHBoxProperty",
        "_position_": 3,
        "position": 3,
        "render": true
    },
    "kuid": "p2kwiet2012247645684",
    "layoutalignment": 3,
    "layouttype": 0,
    "margininpixel": false,
    "name": "kony.ui.Box",
    "paddinginpixel": false,
    "parent": "vbox867539252327623",
    "pf": "frmIBOpenNewDreamAcc",
    "spa": {
        "@class": "com.kony.gen.viz.model.container.property.hbox.SPAHBoxProperty"
    },
    "templateType": "forms",
    "wType": "HBox",
    "widgetalignment": 1
}