{
    "DNDConfig": null,
    "_enabled_": false,
    "_margin_": [
        0,
        0,
        1,
        0
    ],
    "_skin_": "s1e9380ac6854372bea0caa099d3dc8b",
    "_text_": "",
    "autocapitalize": "none",
    "autocomplete": false,
    "autocorrect": false,
    "autofilter": false,
    "canUpdateUI": true,
    "containerheightmode": 1,
    "containerheightreference": 1,
    "containerweight": 44,
    "contentalignment": 4,
    "desktopweb": {
        "@class": "com.kony.gen.viz.model.component.property.textbox2.DesktopWebTextBox2Property",
        "_padding_": [
            0,
            0,
            0,
            0
        ],
        "containerHeightMode": 3,
        "ide_onKeyUp": "p2kwiet2012247638053_textbox247428873338513_DESKTOPWEB_onKeyUp_seq0",
        "padding": [
            0,
            0,
            0,
            0
        ],
        "paddingInPixel": false,
        "render": true
    },
    "focusskin": "s1e9380ac6854372bea0caa099d3dc8b",
    "hexpand": true,
    "id": "textbox247428873338513",
    "info": null,
    "isvisible": true,
    "keyboardstyle": "A",
    "keyboardtype": "A",
    "kiosk": {
        "@class": "com.kony.gen.viz.model.component.property.textbox2.KioskTextBox2Property",
        "render": true
    },
    "kuid": "p2kwiet2012247638028",
    "margininpixel": false,
    "maxtextlength": 6,
    "mode": "A",
    "name": "kony.ui.TextBox2",
    "parent": "hbxOTPEntry",
    "pf": "frmApplyMbviaIBConf",
    "securetextentry": false,
    "spa": {
        "@class": "com.kony.gen.viz.model.component.property.textbox2.SPATextBox2Property",
        "autoCorrect": false,
        "containerHeightMode": 3
    },
    "textinputmode": "A",
    "vexpand": false,
    "viewtype": "default",
    "wType": "TextField",
    "widgetalignment": 5
}