{
    "DNDConfig": null,
    "_enabled_": false,
    "_orientation_": 1,
    "_padding_": [
        7,
        3,
        7,
        3
    ],
    "_percent_": true,
    "_position_": 3,
    "_resize_": true,
    "_skin_": "s138ce22f5614639a34ee4f333b26861",
    "allboxes": [],
    "borderCollapse": false,
    "canUpdateUI": true,
    "children": [
        "button1014589649274",
        "button1014589649275",
        "button1014589649276"
    ],
    "containerweight": 100,
    "desktopweb": {
        "@class": "com.kony.gen.viz.model.container.property.hbox.DesktopWebHBoxProperty",
        "_margin_": [
            0,
            3,
            0,
            6
        ],
        "_position_": 3,
        "margin": [
            0,
            3,
            0,
            6
        ],
        "marginInPixel": false,
        "position": 3,
        "render": true
    },
    "id": "hbxBPSave",
    "info": null,
    "isvisible": true,
    "kiosk": {
        "@class": "com.kony.gen.viz.model.container.property.hbox.KioskHBoxProperty",
        "_position_": 3,
        "position": 3,
        "render": true
    },
    "kuid": "p2kwiet2012247647639",
    "layoutalignment": 3,
    "layouttype": 0,
    "name": "kony.ui.Box",
    "paddinginpixel": false,
    "parent": "vbox447417227428995",
    "pf": "frmIBSSApplyCmplete",
    "spa": {
        "@class": "com.kony.gen.viz.model.container.property.hbox.SPAHBoxProperty"
    },
    "templateType": "forms",
    "wType": "HBox",
    "widgetalignment": 1
}