{
    "DNDConfig": null,
    "_enabled_": false,
    "_margin_": [
        0,
        0,
        0,
        0
    ],
    "_padding_": [
        0,
        3,
        0,
        3
    ],
    "_skin_": "s3cf748873284cb49d0fac3bfcd2d1b2",
    "_text_": "Button",
    "canUpdateUI": true,
    "containerweight": 14,
    "contentalignment": 5,
    "desktopweb": {
        "@class": "com.kony.gen.viz.model.component.property.button.DesktopWebButtonProperty",
        "displayText": false,
        "render": true
    },
    "displaytext": false,
    "donotUpdateContainerWeight": false,
    "focusskin": "s6be722788a043a8bb961d1aad4c6fdb",
    "hexpand": true,
    "id": "btnConfirmSecondPin",
    "ide_onClick": "p2kwiet2012247642323_btnConfirmSecondPin_onClick_seq0",
    "info": null,
    "isvisible": true,
    "kiosk": {
        "@class": "com.kony.gen.viz.model.component.property.button.KioskButtonProperty",
        "render": true
    },
    "kuid": "p2kwiet2012247642284",
    "margininpixel": false,
    "name": "kony.ui.Button",
    "paddinginpixel": false,
    "parent": "hbxPinConfirmRender",
    "pf": "frmIBDebitCardActivateAssignPIN",
    "spa": {
        "@class": "com.kony.gen.viz.model.component.property.button.SPAButtonProperty",
        "displayText": false
    },
    "vexpand": false,
    "wType": "Button",
    "widgetalignment": 5
}