{
    "DNDConfig": null,
    "_enabled_": false,
    "_margin_": [
        0,
        0,
        0,
        0
    ],
    "_padding_": [
        0,
        3,
        0,
        3
    ],
    "_skin_": "s3cf748873284cb49d0fac3bfcd2d1b2",
    "_text_": "Button",
    "canUpdateUI": true,
    "containerweight": 14,
    "contentalignment": 5,
    "desktopweb": {
        "@class": "com.kony.gen.viz.model.component.property.button.DesktopWebButtonProperty",
        "displayText": false,
        "render": true
    },
    "displaytext": false,
    "donotUpdateContainerWeight": false,
    "focusskin": "s6be722788a043a8bb961d1aad4c6fdb",
    "hexpand": true,
    "id": "btnConfirmThirdPinNew",
    "ide_onClick": "AS_Button_cd23f8a20f164d8789e418428b811c93",
    "info": null,
    "isvisible": true,
    "kiosk": {
        "@class": "com.kony.gen.viz.model.component.property.button.KioskButtonProperty",
        "render": true
    },
    "kuid": "jbce6d864e5d4cfc824cc3e19699b7fb",
    "margininpixel": false,
    "name": "kony.ui.Button",
    "paddInPixel": [
        0,
        2.7,
        0,
        2.7
    ],
    "paddinginpixel": false,
    "parent": "hbxPinConfirmRenderSixDigit",
    "pf": "frmIBDebitCardActivateAssignPIN",
    "spa": {
        "@class": "com.kony.gen.viz.model.component.property.button.SPAButtonProperty",
        "displayText": false
    },
    "vexpand": false,
    "wType": "Button",
    "widgetalignment": 5
}