{
    "@class": "com.kony.gen.viz.model.component.KVizButton",
    "DNDConfig": null,
    "__parentReadjusting__": false,
    "_height_": {
        "type": "string",
        "value": "100%"
    },
    "_left_": {
        "type": "string",
        "value": "50%"
    },
    "_margin_": [
        6,
        6,
        6,
        6
    ],
    "_padding_": [
        0,
        0,
        0,
        0
    ],
    "_skin_": "s7b820e1ee1243d0b1759fe1dd96e9f5",
    "_text_": "Button",
    "_top_": {
        "type": "string",
        "value": "0dp"
    },
    "_width_": {
        "type": "string",
        "value": "50%"
    },
    "canUpdateUI": true,
    "containerweight": 100,
    "contentalignment": 5,
    "displaytext": true,
    "focusskin": "s7b820e1ee1243d0b1759fe1dd96e9f5",
    "id": "btnConfirm",
    "info": null,
    "iphone": {
        "psp": {
            "showProgressIndicator": false
        }
    },
    "isvisible": true,
    "kuid": "cf418272c9254ca0a9112c9ea1f91287",
    "name": "kony.ui.Button",
    "parent": "flxFooter",
    "pf": "frmApplicationCfrm",
    "texti18n": "MF_RDM_40",
    "wType": "Button",
    "zindex": 1
}