{
    "DNDConfig": null,
    "__parentReadjusting__": false,
    "_height_": {
        "type": "ref",
        "value": "preferred"
    },
    "_left_": {
        "type": "string",
        "value": "0dp"
    },
    "_margin_": [
        0,
        0,
        0,
        0
    ],
    "_orientation_": 6,
    "_padding_": [
        0,
        0,
        0,
        0
    ],
    "_percent_": true,
    "_skin_": "s32e7506de204cd29116c57918149439",
    "_top_": {
        "type": "string",
        "value": "0"
    },
    "_width_": {
        "type": "string",
        "value": "100%"
    },
    "allboxes": [],
    "autogrowmode": 1,
    "canUpdateUI": true,
    "children": [
        "flxOccupation",
        "flxPosition",
        "flxCompany",
        "flxWorkingAddress",
        "flxTelephoneNo",
        "flxExtNo",
        "flxDurationEmploy",
        "flxEmployContract",
        "flxStartDOE",
        "flxEndDOE"
    ],
    "clipbounds": true,
    "containerweight": 100,
    "enablescrolling": true,
    "id": "flxWorkingInfoContainer",
    "info": null,
    "isvisible": true,
    "kuid": "id439e9aaa0a4ffe81d29c5edc123bdf",
    "layouttype": 4,
    "name": "kony.ui.FlexContainer",
    "parent": "flxMainBody",
    "pf": "frmApplicationCfrm",
    "snapgridsize": 10,
    "snaptogrid": true,
    "wType": "FlexContainer",
    "widgetalignment": 1,
    "zindex": 1
}