{
    "DNDConfig": null,
    "_enabled_": false,
    "_margin_": [
        0,
        2,
        0,
        2
    ],
    "_padding_": [
        0,
        0,
        0,
        0
    ],
    "_skin_": "s915283d029a44eca926ebb48a5f6795",
    "_text_": "Take a Photo",
    "accessmode": "public",
    "android": {
        "@class": "com.kony.gen.viz.model.component.property.camera.AndroidCameraProperty",
        "_padding_": [
            0,
            0,
            0,
            0
        ],
        "accessMode": "public",
        "compressionLevel": 100,
        "enableOverlay": false,
        "overlayConfig": {
            "tapAnywhere": false
        },
        "padding": [
            0,
            0,
            0,
            0
        ],
        "paddingInPixel": false,
        "render": true
    },
    "canUpdateUI": true,
    "compressionlevel": 100,
    "containerweight": 100,
    "contentalignment": 5,
    "enableoverlay": false,
    "focusskin": "s915283d029a44eca926ebb48a5f6795",
    "hexpand": true,
    "id": "camera1",
    "ide_onCapture": "p2kwiet2012247650317_camera1_onCapture_seq0",
    "info": null,
    "iphone": {
        "@class": "com.kony.gen.viz.model.component.property.camera.IPhoneCameraProperty",
        "_padding_": [
            0,
            0,
            0,
            0
        ],
        "accessMode": "public",
        "compressionLevel": 100,
        "enableOverlay": false,
        "overlayConfig": {},
        "padding": [
            0,
            0,
            0,
            0
        ],
        "paddingInPixel": true,
        "psp": {
            "captureOrientation": 0,
            "imageFormat": 1,
            "nativeUserInterface": true
        },
        "render": true
    },
    "isvisible": true,
    "kuid": "p2kwiet2012247650314",
    "margininpixel": false,
    "name": "kony.ui.Camera",
    "paddinginpixel": false,
    "parent": "vbox474136033103381",
    "pf": "popUploadPic",
    "scalefactor": 60,
    "spa": {
        "@class": "com.kony.gen.viz.model.component.property.camera.SPACameraProperty"
    },
    "spaan": {
        "@class": "com.kony.gen.viz.model.component.property.camera.SPAAndroidCameraProperty",
        "_padding_": [
            0,
            0,
            0,
            0
        ],
        "padding": [
            0,
            0,
            0,
            0
        ],
        "paddingInPixel": false,
        "render": false
    },
    "spabb": {
        "@class": "com.kony.gen.viz.model.component.property.camera.SPABBCameraProperty",
        "_padding_": [
            0,
            0,
            0,
            0
        ],
        "padding": [
            0,
            0,
            0,
            0
        ],
        "paddingInPixel": false,
        "render": false
    },
    "spaip": {
        "@class": "com.kony.gen.viz.model.component.property.camera.SPAIPhoneCameraProperty",
        "_padding_": [
            0,
            0,
            0,
            0
        ],
        "padding": [
            0,
            0,
            0,
            0
        ],
        "paddingInPixel": false,
        "render": false
    },
    "spawinphone8": {
        "@class": "com.kony.gen.viz.model.component.property.camera.SPAWinPhone8CameraProperty",
        "render": false
    },
    "texti18n": "keyTakeaPhoto",
    "vexpand": false,
    "wType": "Camera",
    "widgetalignment": 5,
    "winphone8": {
        "@class": "com.kony.gen.viz.model.component.property.camera.WinPhone8CameraProperty",
        "_padding_": [
            1,
            1,
            1,
            1
        ],
        "accessMode": "public",
        "enableOverlay": false,
        "overlayConfig": {
            "tapAnywhere": false
        },
        "padding": [
            1,
            1,
            1,
            1
        ],
        "paddingInPixel": true,
        "psp": {
            "enableCache": false,
            "enablePhotoCropFeature": false
        },
        "render": true
    }
}