{
    "@class": "com.kony.gen.viz.model.container.KVizHBox",
    "DNDConfig": null,
    "_margin_": [
        0,
        15,
        0,
        0
    ],
    "_orientation_": 1,
    "_padding_": [
        0,
        0,
        0,
        0
    ],
    "_percent_": true,
    "_position_": 3,
    "_skin_": "s3240d32b9a74cc78d1e0768cd2cdf1b",
    "allboxes": [],
    "canUpdateUI": true,
    "children": [
        "Copyimage0e172113246cf40"
    ],
    "containerweight": 100,
    "contextmenu": null,
    "id": "HBox0a054e0c1b28c46",
    "info": null,
    "isvisible": true,
    "kuid": "b620c1092ba442059fa79b604aa11bc1",
    "layouttype": 0,
    "margininpixel": false,
    "name": "kony.ui.Box",
    "parent": "VBox0faca5c284ebf4c",
    "pf": "frmTransferLanding",
    "vexpand": true,
    "wType": "HBox",
    "widgetalignment": 1
}