{
    "DNDConfig": null,
    "_enabled_": false,
    "_margin_": [
        0,
        0,
        0,
        0
    ],
    "_padding_": [
        0,
        0,
        0,
        0
    ],
    "_placeholder_": "0.00",
    "_skin_": "s952cd9a25d74c4ca9c91d1abc3563a3",
    "_text_": "",
    "android": {
        "@class": "com.kony.gen.viz.model.component.property.textbox2.AndroidTextBox2Property",
        "autoFilter": false,
        "containerHeightMode": 1,
        "ide_onBeginEditing": "p2kwiet2012247637673_txtTranLandAmt_Android_onBeginEditing_seq0",
        "ide_onEndEditing": "p2kwiet2012247637673_txtTranLandAmt_Android_onEndEditing_seq0",
        "psp": {
            "keyboardActionLabel": 1
        },
        "render": true,
        "viewType": "default"
    },
    "autocapitalize": "none",
    "autocomplete": false,
    "autocorrect": false,
    "autofilter": false,
    "canUpdateUI": true,
    "containerheightmode": 1,
    "containerheightreference": 1,
    "containerweight": 100,
    "contentalignment": 4,
    "focusskin": "s952cd9a25d74c4ca9c91d1abc3563a3",
    "hexpand": true,
    "id": "txtTranLandAmt",
    "ide_onDone": "p2kwiet2012247637673_txtTranLandAmt_onDone_seq0",
    "ide_onTextChange": "p2kwiet2012247637673_txtTranLandAmt_onTextChange_seq0",
    "info": null,
    "iphone": {
        "@class": "com.kony.gen.viz.model.component.property.textbox2.IPhoneTextBox2Property",
        "autoCorrect": false,
        "containerHeightMode": 3,
        "ide_onBeginEditing": "p2kwiet2012247637673_txtTranLandAmt_iPhone_onBeginEditing_seq0",
        "ide_onEndEditing": "p2kwiet2012247637673_txtTranLandAmt_iPhone_onEndEditing_seq0",
        "psp": {
            "closeButtonText": "Done",
            "keyboardActionLabel": 1,
            "pasteboardType": 4,
            "showClearButton": true,
            "showCloseButton": true,
            "showProgressIndicator": true
        },
        "render": true,
        "viewType": "default"
    },
    "isvisible": true,
    "keyboardstyle": "number",
    "keyboardtype": "A",
    "kuid": "p2kwiet2012247637623",
    "margininpixel": false,
    "maxtextlength": 14,
    "mode": "N",
    "name": "kony.ui.TextBox2",
    "paddinginpixel": false,
    "parent": "vbxTransferAmt",
    "pf": "frmTransferLanding",
    "placeholderskin": "s952cd9a25d74c4ca9c91d1abc3563a3",
    "securetextentry": false,
    "spa": {
        "@class": "com.kony.gen.viz.model.component.property.textbox2.SPATextBox2Property",
        "autoCorrect": false,
        "containerHeightMode": 3
    },
    "spaan": {
        "@class": "com.kony.gen.viz.model.component.property.textbox2.SPAAndroidTextBox2Property",
        "render": true
    },
    "spabb": {
        "@class": "com.kony.gen.viz.model.component.property.textbox2.SPABBTextBox2Property",
        "render": true
    },
    "spaip": {
        "@class": "com.kony.gen.viz.model.component.property.textbox2.SPAIPhoneTextBox2Property",
        "render": true
    },
    "spawinphone8": {
        "@class": "com.kony.gen.viz.model.component.property.textbox2.SPAWinPhone8TextBox2Property",
        "render": true
    },
    "textinputmode": "N",
    "vexpand": false,
    "viewtype": "default",
    "wType": "TextField",
    "widgetalignment": 4,
    "winphone8": {
        "@class": "com.kony.gen.viz.model.component.property.textbox2.WinPhone8TextBox2Property",
        "autoFilter": false,
        "containerHeightMode": 1,
        "psp": {
            "enableCache": false
        },
        "render": true
    }
}