{
    "DNDConfig": null,
    "_enabled_": false,
    "_orientation_": 1,
    "_percent_": true,
    "_position_": 3,
    "_resize_": true,
    "_skin_": "s3cd729155364efe97d4fcd79c72daf8",
    "allboxes": [],
    "borderCollapse": false,
    "canUpdateUI": true,
    "children": [
        "label867569043342846",
        "image2867569043342847",
        "label867569043342848"
    ],
    "containerweight": 100,
    "desktopweb": {
        "@class": "com.kony.gen.viz.model.container.property.hbox.DesktopWebHBoxProperty",
        "_margin_": [
            0,
            6,
            0,
            5
        ],
        "_padding_": [
            0,
            1,
            0,
            0
        ],
        "_position_": 3,
        "margin": [
            0,
            6,
            0,
            5
        ],
        "marginInPixel": false,
        "padding": [
            0,
            1,
            0,
            0
        ],
        "paddingInPixel": false,
        "position": 3,
        "render": true
    },
    "id": "hbox867569043342839",
    "info": null,
    "isvisible": true,
    "kiosk": {
        "@class": "com.kony.gen.viz.model.container.property.hbox.KioskHBoxProperty",
        "_position_": 3,
        "position": 3,
        "render": true
    },
    "kuid": "p2kwiet2012247645806",
    "layoutalignment": 3,
    "layouttype": 0,
    "name": "kony.ui.Box",
    "parent": "vboxMiddle",
    "pf": "frmIBOpenNewDreamAccComplete",
    "spa": {
        "@class": "com.kony.gen.viz.model.container.property.hbox.SPAHBoxProperty"
    },
    "templateType": "forms",
    "wType": "HBox",
    "widgetalignment": 1
}