{
    "@class": "com.kony.gen.viz.model.component.KVizImage2",
    "DNDConfig": null,
    "__parentReadjusting__": false,
    "_base64_": null,
    "_height_": {
        "type": "string",
        "value": "30dp"
    },
    "_margin_": [
        0,
        0,
        0,
        0
    ],
    "_padding_": [
        0,
        0,
        0,
        0
    ],
    "_right_": {
        "type": "string",
        "value": "20dp"
    },
    "_skin_": "s55d8a5125e74bb0b2eaca75c423dae1",
    "_src_": "icon_plus_1242.png",
    "_width_": {
        "type": "string",
        "value": "30dp"
    },
    "canUpdateUI": true,
    "centery": {
        "type": "string",
        "value": "50%"
    },
    "containerweight": 100,
    "context": {
        "channel": "mobile",
        "formID": "frmStatement",
        "platform": "iphone",
        "templateType": "forms",
        "topLevelBox": null
    },
    "id": "imgAddNew",
    "imagescalemode": 0,
    "info": null,
    "invokedProperty": "src",
    "isvisible": true,
    "kuid": "hf7ca81dd7664dfdb2ca7e464541eb91",
    "name": "kony.ui.Image2",
    "paddinginpixel": false,
    "parent": "flexAddNew",
    "pf": "frmStatement",
    "srcType": 1,
    "vizProps": {
        "lock": true
    },
    "wType": "Image",
    "widgetalignment": 5,
    "zindex": 1
}