{
    "AS_Button_dc402f5293e942be8a42829a74d0fdf2": {
        "id": "AS_Button_dc402f5293e942be8a42829a74d0fdf2",
        "type": "ACTION_SEQUENCE",
        "params": [{
            "datatype": "collection",
            "name": "eventobject"
        }],
        "contextObj": {
            "name": "frmIBMutualFundsPortfolio",
            "type": "forms",
            "platform": null,
            "KUID": "d733009c36ac4080a69ccffa2dad638b"
        },
        "language": "js",
        "actions": [{
            "id": "ADD_SNIPPET_ide_onClick_i2caebcd8317435ab57e8d9dfa793054",
            "type": "ADD_SNIPPET",
            "codeSnippet": "if(gblIsFundCodeNull){ // mki, MIB- 10003 = start\n    showAlert( kony.i18n.getLocalizedString(\"MF_P_ERR_01001\"), kony.i18n.getLocalizedString(\"info\"));\n}\nelse {\n\tonClickRedeemIB();\n}// mki, MIB- 10003 = End\n",
            "callbackType": null
        }]
    }
}