{
    "AS_Button_b1769236dda34646b224708777efc415": {
        "id": "AS_Button_b1769236dda34646b224708777efc415",
        "type": "ACTION_SEQUENCE",
        "params": [{
            "datatype": "collection",
            "name": "eventobject"
        }],
        "contextObj": {
            "name": "QRCodeDisplay",
            "type": "popups",
            "platform": "",
            "KUID": "cc2a9386c99c44e89614dc859eff6bb5"
        },
        "language": "js",
        "actions": [{
            "id": "ADD_SNIPPET__d30bd3b3cf494dcaa9740a99d16b27d7",
            "type": "ADD_SNIPPET",
            "codeSnippet": "QRCodeGeneratorIB();",
            "parentId": null,
            "callbackType": null
        }]
    }
}