{
    "AS_Button_h37fb86896064f4b99c754e819747bc8": {
        "id": "AS_Button_h37fb86896064f4b99c754e819747bc8",
        "type": "ACTION_SEQUENCE",
        "params": [{
            "datatype": "collection",
            "name": "eventobject"
        }],
        "language": "js",
        "actions": [{
            "id": "ADD_SNIPPET_ide_onClick_h8f6648e950c4532aad8f86b3bc7ead4",
            "type": "ADD_SNIPPET",
            "codeSnippet": "onClickViewPortfolio();",
            "callbackType": null
        }]
    }
}