{
    "AS_Button_f8b59bf0e2f648b6b7f80d11e1da7e1e": {
        "id": "AS_Button_f8b59bf0e2f648b6b7f80d11e1da7e1e",
        "type": "ACTION_SEQUENCE",
        "params": [{
            "name": "eventobject",
            "value": "eventobject"
        }],
        "contextObj": {
            "name": "popIBTransferOptions",
            "type": "popups",
            "platform": null,
            "KUID": "h9e45eab184e4346b23b342763834e22"
        },
        "language": "js",
        "actions": [{
            "id": "INVOKE_FUNCTION__ide_onClick_ee36b8295edb4f87bae61abb6dae4623",
            "type": "INVOKE_FUNCTION",
            "sequenceKUID": "onConfirmClickAddFromAccountSummaryPopUp",
            "display": "onConfirmClickAddFromAccountSummaryPopUp",
            "inputparams": [],
            "source": "module"
        }]
    }
}