{
    "AS_Image_c52ec518aac1477c8429cc26169acf13": {
        "id": "AS_Image_c52ec518aac1477c8429cc26169acf13",
        "type": "ACTION_SEQUENCE",
        "params": [{
            "datatype": "collection",
            "name": "eventobject"
        }, {
            "datatype": "string",
            "name": "imagesrc"
        }, {
            "datatype": "boolean",
            "name": "issuccess"
        }],
        "contextObj": {
            "name": "QRCodeDisplay",
            "type": "popups",
            "platform": "",
            "KUID": "cc2a9386c99c44e89614dc859eff6bb5"
        },
        "language": "js",
        "actions": []
    }
}