{
    "AS_Image_a0e79b2cfbb643f69c65aab10d9a6ae1": {
        "id": "AS_Image_a0e79b2cfbb643f69c65aab10d9a6ae1",
        "type": "ACTION_SEQUENCE",
        "params": [{
            "datatype": "collection",
            "name": "eventobject"
        }, {
            "datatype": "string",
            "name": "imagesrc"
        }, {
            "datatype": "boolean",
            "name": "issuccess"
        }],
        "contextObj": {
            "name": "popIBTransferOptions",
            "type": "popups",
            "platform": "",
            "KUID": "h9e45eab184e4346b23b342763834e22"
        },
        "language": "js",
        "actions": []
    }
}