{
    "AS_TextField_d56547b1ea62472d8948f730e2998330": {
        "id": "AS_TextField_d56547b1ea62472d8948f730e2998330",
        "type": "ACTION_SEQUENCE",
        "params": [{
            "name": "eventobject",
            "value": "eventobject"
        }, {
            "name": "changedtext",
            "value": "changedtext"
        }],
        "language": "js",
        "actions": [{
            "id": "INVOKE_FUNCTION__ide_onKeyUp_df6f63bde76c44249f40e3083a4ecc83",
            "type": "INVOKE_FUNCTION",
            "sequenceKUID": "dontAllowNonNeumaric",
            "display": "dontAllowNonNeumaric",
            "inputparams": [{
                "name": "textbozId",
                "value": "frmIBTransferNowConfirmation.tbxToken"
            }],
            "source": "module"
        }]
    }
}