{
    "AS_TextField_ff30a8b5d3f4466da8f36772c15a0116": {
        "id": "AS_TextField_ff30a8b5d3f4466da8f36772c15a0116",
        "type": "ACTION_SEQUENCE",
        "params": [{
            "name": "eventobject",
            "value": "eventobject"
        }, {
            "name": "changedtext",
            "value": "changedtext"
        }],
        "contextObj": {
            "name": "frmIBPreLogin",
            "type": "forms",
            "platform": "",
            "KUID": "p2kwiet2012247647397"
        },
        "language": "js",
        "actions": []
    }
}