{
    "AS_VBox_g40e7eabaa9a4ed4825126b31dfc3ac5": {
        "id": "AS_VBox_g40e7eabaa9a4ed4825126b31dfc3ac5",
        "type": "ACTION_SEQUENCE",
        "params": [{
            "datatype": "collection",
            "name": "eventobject"
        }],
        "contextObj": {
            "name": "frmIBTransferCustomWidgetLP",
            "type": "forms",
            "platform": "",
            "KUID": "p2kwiet2012247649384"
        },
        "language": "js",
        "actions": []
    }
}