{
    "AS_Form_jbbdd52b71be4b738b129d800f93e58a": {
        "id": "AS_Form_jbbdd52b71be4b738b129d800f93e58a",
        "type": "ACTION_SEQUENCE",
        "name": "frmIBMFSuitExpiry_postShow",
        "params": [{
            "name": "eventobject",
            "datatype": "collection"
        }],
        "contextObj": {
            "name": "frmIBMFSuitExpiry",
            "type": "forms",
            "platform": null,
            "KUID": "d1a761b22bd545e0847364ca84f8c41a"
        },
        "language": "js",
        "actions": [{
            "id": "NAMED_ACTION___ide_postShow_bcd65a13cbd54c0cb63e258d1004d889",
            "type": "NAMED_ACTION",
            "sequenceKUID": "AS_NamedActions_ec5785c44af14a65bc06c9d185002707",
            "display": "addMenuIBAction",
            "inputparams": [],
            "callbackType": null,
            "disabled": null,
            "isMasterInstanceAction": null
        }, {
            "id": "INVOKE_FUNCTION___df9ffb8bb70f45708e6219baa450cf1c",
            "type": "INVOKE_FUNCTION",
            "sequenceKUID": "setFocusOnBtnAccountSum",
            "display": "setFocusOnBtnAccountSum",
            "inputparams": [{
                "name": "currentFormId",
                "value": "kony.application.getCurrentForm()"
            }],
            "parentId": null,
            "callbackType": null,
            "disabled": null,
            "source": "module"
        }]
    }
}