{
    "AS_HBox_i63b1f293668427f972b7501b50819b1": {
        "id": "AS_HBox_i63b1f293668427f972b7501b50819b1",
        "type": "ACTION_SEQUENCE",
        "name": "frmIBMFSelPurchaseFundsEntry_onSelectFundHouse",
        "params": [{
            "datatype": "collection",
            "name": "eventobject"
        }],
        "contextObj": {
            "name": "frmIBMFSelPurchaseFundsEntry",
            "type": "forms",
            "platform": "",
            "KUID": "a4c9156f38ff4a00aa6c215dd09045fe"
        },
        "language": "js",
        "actions": [{
            "id": "ADD_SNIPPET__h7f6be45aba0461dba759783975c9c40",
            "type": "ADD_SNIPPET",
            "codeSnippet": "frmIBMFSelPurchaseFundsEntryOnSelectFundHouse();",
            "parentId": null,
            "callbackType": null
        }]
    }
}