{
    "AS_Button_i22acec7b128475f9534a0494396b2ca": {
        "id": "AS_Button_i22acec7b128475f9534a0494396b2ca",
        "type": "ACTION_SEQUENCE",
        "name": "frmIBMFTnC_btnCancel_onClick",
        "params": [{
            "datatype": "collection",
            "name": "eventobject"
        }],
        "contextObj": {
            "name": "frmIBMFTnC",
            "type": "forms",
            "platform": "",
            "KUID": "g0f93308893141da9ff3ce7e00d7a851"
        },
        "language": "js",
        "actions": [{
            "id": "ADD_SNIPPET__gb9619752b1f4783ad65bed721184767",
            "type": "ADD_SNIPPET",
            "codeSnippet": "frmIBMFTnC_onClickBack();",
            "parentId": null,
            "callbackType": null
        }]
    }
}