{
    "AS_TextField_da9729b8e1cb4920aa6be08bc9258b13": {
        "id": "AS_TextField_da9729b8e1cb4920aa6be08bc9258b13",
        "type": "ACTION_SEQUENCE",
        "name": "frmIBMFSelRedeemFund_onEndEditing",
        "params": [{
            "datatype": "collection",
            "name": "eventobject"
        }, {
            "datatype": "string",
            "name": "changedtext"
        }],
        "contextObj": {
            "name": "frmIBMFSelRedeemFund",
            "type": "forms",
            "platform": "",
            "KUID": "ica24d4c3b9c43be8936f80f9c4bb780"
        },
        "language": "js",
        "actions": [{
            "id": "ADD_SNIPPET__aa439a6730674bf69bad2b01a45c6c29",
            "type": "ADD_SNIPPET",
            "codeSnippet": "frmIBMFSelRedeemFundAmountOnEndEditing();",
            "parentId": null,
            "callbackType": null
        }]
    }
}