{
    "AS_HBox_fdfeb23f26b94c31ba7d251b696dfd17": {
        "id": "AS_HBox_fdfeb23f26b94c31ba7d251b696dfd17",
        "type": "ACTION_SEQUENCE",
        "name": "frmIBMFSuitabilityTest_onClick_hbxAnswer4",
        "params": [{
            "datatype": "collection",
            "name": "eventobject"
        }],
        "contextObj": {
            "name": "frmIBMFSuitTest",
            "type": "forms",
            "platform": "",
            "KUID": "ce11c28ff1c040fb8e1e49b18b64505d"
        },
        "language": "js",
        "actions": [{
            "id": "INVOKE_FUNCTION___c8fed7489abc4f2d83cc84aae2392d65",
            "type": "INVOKE_FUNCTION",
            "sequenceKUID": "onClickMFSuitabilityTestAnswer4IB",
            "display": "onClickMFSuitabilityTestAnswer4IB",
            "inputparams": [],
            "parentId": null,
            "callbackType": null,
            "disabled": null,
            "source": "module"
        }]
    }
}