{
    "AS_Button_a3f52a902bcc457b811a418283751acc": {
        "id": "AS_Button_a3f52a902bcc457b811a418283751acc",
        "type": "ACTION_SEQUENCE",
        "name": "frmIBDebitCardActivateAssignPIN_firstConfirm",
        "params": [{
            "name": "eventobject",
            "value": "eventobject"
        }],
        "language": "js",
        "actions": [{
            "id": "INVOKE_FUNCTION__ide_onClick_j56f702c6df34174b73ba24025c38eb4",
            "type": "INVOKE_FUNCTION",
            "sequenceKUID": "toggleKeyPad",
            "display": "toggleKeyPad",
            "inputparams": [{
                "name": "command",
                "value": "true"
            }],
            "source": "module"
        }]
    }
}