{
    "AS_Button_b7b883332219450fa5fd5e6cd285dc7d": {
        "id": "AS_Button_b7b883332219450fa5fd5e6cd285dc7d",
        "type": "ACTION_SEQUENCE",
        "name": "frmIBDebitCardActivateAssignPIN_second",
        "params": [{
            "name": "eventobject",
            "value": "eventobject"
        }],
        "language": "js",
        "actions": [{
            "id": "INVOKE_FUNCTION__ide_onClick_fa9a325f7a0d41e5b9d247ffbbd15658",
            "type": "INVOKE_FUNCTION",
            "sequenceKUID": "toggleKeyPad",
            "display": "toggleKeyPad",
            "inputparams": [{
                "name": "command",
                "value": "false"
            }],
            "source": "module"
        }]
    }
}