{
    "AS_Button_ge361438e97641788a75104059b58b26": {
        "id": "AS_Button_ge361438e97641788a75104059b58b26",
        "type": "ACTION_SEQUENCE",
        "name": "frmIBDebitCardActivateAssignPIN_secondConfirm",
        "params": [{
            "name": "eventobject",
            "value": "eventobject"
        }],
        "language": "js",
        "actions": [{
            "id": "INVOKE_FUNCTION__ide_onClick_eb5dcb2739444bcfa8b7fa69d6ede45c",
            "type": "INVOKE_FUNCTION",
            "sequenceKUID": "toggleKeyPad",
            "display": "toggleKeyPad",
            "inputparams": [{
                "name": "command",
                "value": "true"
            }],
            "source": "module"
        }]
    }
}