{
    "AS_TextField_d9c73f059af64608b1095830e33f797e": {
        "id": "AS_TextField_d9c73f059af64608b1095830e33f797e",
        "type": "ACTION_SEQUENCE",
        "name": "frmIBMFConfirm_tbxOTP_onKeyUp",
        "params": [{
            "datatype": "collection",
            "name": "eventobject"
        }],
        "contextObj": {
            "name": "frmIBMFConfirm",
            "type": "forms",
            "platform": "",
            "KUID": "bca7fa6c02b04946a40079a8f5213034"
        },
        "language": "js",
        "actions": [{
            "id": "INVOKE_FUNCTION___c5cb5617ca4747a89608b397d9c1862f",
            "type": "INVOKE_FUNCTION",
            "sequenceKUID": "dontAllowNonNeumaric",
            "display": "dontAllowNonNeumaric",
            "inputparams": [{
                "name": "textbozId",
                "value": "frmIBMFConfirm.txtBxOTP"
            }],
            "parentId": null,
            "callbackType": null,
            "disabled": null,
            "source": "module"
        }]
    }
}