{
    "AS_Button_fd1ba42b89214712b648c5de5e871df5": {
        "id": "AS_Button_fd1ba42b89214712b648c5de5e871df5",
        "type": "ACTION_SEQUENCE",
        "name": "frmIBMFSelRedeemFund_btnUnit_onClick",
        "params": [{
            "datatype": "collection",
            "name": "eventobject"
        }],
        "contextObj": {
            "name": "frmIBMFSelRedeemFund",
            "type": "forms",
            "platform": "",
            "KUID": "ica24d4c3b9c43be8936f80f9c4bb780"
        },
        "language": "js",
        "actions": [{
            "id": "ADD_SNIPPET__gbfeb11aef4944bb9db369033a89b0a6",
            "type": "ADD_SNIPPET",
            "codeSnippet": "frmIBMFSelRedeemFund_onClickBtnUnit();",
            "parentId": null,
            "callbackType": null
        }]
    }
}