{
    "AS_HBox_a3862b5600fa4585b94c65f81c86ccae": {
        "id": "AS_HBox_a3862b5600fa4585b94c65f81c86ccae",
        "type": "ACTION_SEQUENCE",
        "name": "frmIBMFSuitabilityTest_onClick_hbxAnswer2",
        "params": [{
            "datatype": "collection",
            "name": "eventobject"
        }],
        "contextObj": {
            "name": "frmIBMFSuitTest",
            "type": "forms",
            "platform": "",
            "KUID": "ce11c28ff1c040fb8e1e49b18b64505d"
        },
        "language": "js",
        "actions": [{
            "id": "INVOKE_FUNCTION___e54c8db7e134448d8b1aaf845c72b074",
            "type": "INVOKE_FUNCTION",
            "sequenceKUID": "onClickMFSuitabilityTestAnswer2IB",
            "display": "onClickMFSuitabilityTestAnswer2IB",
            "inputparams": [],
            "parentId": null,
            "callbackType": null,
            "disabled": null,
            "source": "module"
        }]
    }
}