{
    "AS_HBox_b6d5bd448f13429cb30649db171a55c6": {
        "id": "AS_HBox_b6d5bd448f13429cb30649db171a55c6",
        "type": "ACTION_SEQUENCE",
        "name": "frmIBTransferCustomWidgetLP_hboxTransferType",
        "params": [{
            "datatype": "collection",
            "name": "eventobject"
        }],
        "contextObj": {
            "name": "frmIBTransferCustomWidgetLP",
            "type": "forms",
            "platform": "",
            "KUID": "p2kwiet2012247649384"
        },
        "language": "js",
        "actions": [{
            "id": "INVOKE_FUNCTION___ie6c7733bb3644e5a30a7124d6e43458",
            "type": "INVOKE_FUNCTION",
            "sequenceKUID": "onClickTransferType",
            "display": "onClickTransferType",
            "inputparams": [],
            "parentId": null,
            "callbackType": null,
            "disabled": null,
            "source": "module"
        }]
    }
}