{
    "AS_HBox_h430ef0fb0344c4b96a43148de60693d": {
        "id": "AS_HBox_h430ef0fb0344c4b96a43148de60693d",
        "type": "ACTION_SEQUENCE",
        "name": "frmIBMFSuitabilityTest_onClick_hbxAnswer1",
        "params": [{
            "datatype": "collection",
            "name": "eventobject"
        }],
        "contextObj": {
            "name": "frmIBMFSuitTest",
            "type": "forms",
            "platform": "",
            "KUID": "ce11c28ff1c040fb8e1e49b18b64505d"
        },
        "language": "js",
        "actions": [{
            "id": "INVOKE_FUNCTION___acdbd9e0d0da4571a82217ad554dbdc4",
            "type": "INVOKE_FUNCTION",
            "sequenceKUID": "onClickMFSuitabilityTestAnswer1IB",
            "display": "onClickMFSuitabilityTestAnswer1IB",
            "inputparams": [],
            "parentId": null,
            "callbackType": null,
            "disabled": null,
            "source": "module"
        }]
    }
}