{
    "AS_Button_e3b6508ebf204fdd89b25ddabe8b5213": {
        "id": "AS_Button_e3b6508ebf204fdd89b25ddabe8b5213",
        "type": "ACTION_SEQUENCE",
        "name": "onclick_btnMFFundPortfolio_",
        "params": [{
            "datatype": "collection",
            "name": "eventobject"
        }],
        "contextObj": {
            "name": "frmIBMutualFundsPortfolio",
            "type": "forms",
            "platform": "",
            "KUID": "d733009c36ac4080a69ccffa2dad638b"
        },
        "language": "js",
        "actions": [{
            "id": "ADD_SNIPPET__g2863cb9390346cda87e23aeab9541a1",
            "type": "ADD_SNIPPET",
            "codeSnippet": "gblMFPortfolioType = \"PT\";\nfrmIBMutualFundsPortfolio.btnMFFundPortflio.skin = \"skinBtnBlueLeftRoundCorner\";\nfrmIBMutualFundsPortfolio.btnMFAutoSmartPortfolio.skin = \"skinBtnWhiteRightRoundCorner\";\ncallMutualFundsSummary();",
            "parentId": null,
            "callbackType": null
        }]
    }
}