{
    "p2kwiet2012247640009_btnAmtMinimum_onClick_seq0": {
        "id": "p2kwiet2012247640009_btnAmtMinimum_onClick_seq0",
        "type": "ACTION_SEQUENCE",
        "params": [{
            "name": "eventobject",
            "value": "eventobject"
        }],
        "language": "js",
        "actions": [{
            "id": "customcode_onClick_15551201224762027",
            "type": "INVOKE_FUNCTION",
            "sequenceKUID": "eh_frmIBBillPaymentCW_btnAmtMinimum_onClick",
            "display": "eh_frmIBBillPaymentCW_btnAmtMinimum_onClick",
            "inputparams": [],
            "source": "module"
        }]
    }
}