{
    "p2kwiet2012247647022_frmIBPointRedemptionLanding_preshow_seq0": {
        "id": "p2kwiet2012247647022_frmIBPointRedemptionLanding_preshow_seq0",
        "type": "ACTION_SEQUENCE",
        "params": [{
            "name": "eventobject",
            "value": "eventobject"
        }, {
            "name": "neworientation",
            "value": "neworientation"
        }],
        "language": "js",
        "actions": [{
            "id": "customcode_preshow_3916220122476757",
            "type": "INVOKE_FUNCTION",
            "sequenceKUID": "frmIBPointRedemptionLandingPreShow",
            "display": "frmIBPointRedemptionLandingPreShow",
            "inputparams": [],
            "source": "module"
        }]
    }
}