{
    "p2kwiet2012247642497_button474970204318024_onClick_seq0": {
        "id": "p2kwiet2012247642497_button474970204318024_onClick_seq0",
        "type": "ACTION_SEQUENCE",
        "params": [{
            "name": "eventobject",
            "value": "eventobject"
        }],
        "language": "js",
        "actions": [{
            "id": "expression_onClick_47489201224768770",
            "type": "ADD_SNIPPET",
            "codeSnippet": " frmIBDreamSavingMaintenance.label866795318717753.text = kony.i18n.getLocalizedString(\"keyMBMonthlySavingAmnt\");\n frmIBDreamSavingMaintenance.lblOpeningDate.text = kony.i18n.getLocalizedString(\"keyMBOpeningDate\");\n frmIBDreamSavingMaintenance.lblInterestRate.text = kony.i18n.getLocalizedString(\"InterestRate\");\n frmIBDreamSavingMaintenance.lblTranfrEveryMnth.text = kony.i18n.getLocalizedString(\"keyMBTransferEvryMnth\");\n frmIBDreamSavingMaintenance.lblMnthlySavingAmnt.text = kony.i18n.getLocalizedString(\"keyMBMonthlySavingAmnt\");\n frmIBDreamSavingMaintenance.lblBranch.text = kony.i18n.getLocalizedString(\"Branch\");\n frmIBDreamSavingMaintenance.label866795318717737.text = kony.i18n.getLocalizedString(\"keylblAccountDetails\");\n frmIBDreamSavingMaintenance.label866795318717734.text = kony.i18n.getLocalizedString(\"keyMbTargetAmnt\");\n frmIBDreamSavingMaintenance.label866795318717733.text = kony.i18n.getLocalizedString(\"keyMBMydream\");\n frmIBDreamSavingMaintenance.label474288733625.text = kony.i18n.getLocalizedString(\"keylblMyAccount\");"
        }, {
            "id": "navigation_onClick_89638201224764686",
            "type": "NAVIGATE_TO_FORM",
            "formId": "frmIBDreamSavingMaintenance",
            "formKUID": "p2kwiet2012247642558",
            "mappings": {},
            "mappingsOrder": [],
            "parentId": "",
            "enableMappingEditor": true,
            "package": ""
        }]
    }
}