{
    "p2kwiet2012247638483_hbox47589862784779_onClick_seq0": {
        "id": "p2kwiet2012247638483_hbox47589862784779_onClick_seq0",
        "type": "ACTION_SEQUENCE",
        "params": [{
            "name": "eventobject",
            "value": "eventobject"
        }],
        "language": "js",
        "actions": [{
            "id": "customcode_onClick_5091201224765620",
            "type": "INVOKE_FUNCTION",
            "sequenceKUID": "onMenuMyActivitiesClick",
            "display": "onMenuMyActivitiesClick",
            "inputparams": [],
            "source": "module"
        }]
    }
}