{
    "p2kwiet2012247644098_txtAccNum3_DESKTOPWEB_onKeyUp_seq0": {
        "id": "p2kwiet2012247644098_txtAccNum3_DESKTOPWEB_onKeyUp_seq0",
        "type": "ACTION_SEQUENCE",
        "params": [{
            "name": "eventobject",
            "value": "eventobject"
        }, {
            "name": "changedtext",
            "value": "changedtext"
        }],
        "language": "js",
        "actions": [{
            "id": "customcode_onKeyUp_33089201224765616",
            "type": "INVOKE_FUNCTION",
            "sequenceKUID": "foucTabAcnt3",
            "display": "foucTabAcnt3",
            "inputparams": [],
            "source": "module"
        }]
    }
}