{
    "p2kwiet2012247644098_txtNickNAme_DESKTOPWEB_onKeyDown_seq0": {
        "id": "p2kwiet2012247644098_txtNickNAme_DESKTOPWEB_onKeyDown_seq0",
        "type": "ACTION_SEQUENCE",
        "params": [{
            "name": "eventobject",
            "value": "eventobject"
        }, {
            "name": "changedtext",
            "value": "changedtext"
        }],
        "language": "js",
        "actions": [{
            "id": "customcode_onKeyDown_66954201224762301",
            "type": "INVOKE_FUNCTION",
            "sequenceKUID": "DisableCopyPaste",
            "display": "DisableCopyPaste",
            "inputparams": [{
                "name": "e",
                "value": "frmIBMyAccnts.txtNickNAme.text"
            }],
            "source": "module"
        }, {
            "id": "expression_onKeyDown_31746201224766867",
            "type": "ADD_SNIPPET",
            "codeSnippet": "frmIBMyAccnts.hbox447417227858.skin=\"hbxlightblue\";\n frmIBMyAccnts.txtNickNAme.skin=\"txtBoxTransparent\"\n frmIBMyAccnts.hbox447417227858.focusSkin=\"hbxlightblue\";"
        }]
    }
}