{
    "p2kwiet2012247640786_frmIBCMChgMobNoTxnLimit_postshow_seq0": {
        "id": "p2kwiet2012247640786_frmIBCMChgMobNoTxnLimit_postshow_seq0",
        "type": "ACTION_SEQUENCE",
        "params": [{
            "name": "eventobject",
            "value": "eventobject"
        }, {
            "name": "neworientation",
            "value": "neworientation"
        }],
        "language": "js",
        "actions": [{
            "id": "customcode_postshow_64100201224761159",
            "type": "INVOKE_FUNCTION",
            "sequenceKUID": "addIBMenu",
            "display": "addIBMenu",
            "inputparams": [],
            "source": "module"
        }, {
            "id": "customcode_postshow_56609201224767661",
            "type": "INVOKE_FUNCTION",
            "sequenceKUID": "segAboutMeLoad",
            "display": "segAboutMeLoad",
            "inputparams": [],
            "source": "module"
        }, {
            "id": "customcode_postshow_5730820122476521",
            "type": "INVOKE_FUNCTION",
            "sequenceKUID": "pagespecificSubMenu",
            "display": "pagespecificSubMenu",
            "inputparams": [],
            "source": "module"
        }, {
            "id": "customcode_postshow_5674201224767137",
            "type": "INVOKE_FUNCTION",
            "sequenceKUID": "IBCMCommonMyProfilePreShow",
            "display": "IBCMCommonMyProfilePreShow",
            "inputparams": [],
            "source": "module"
        }, {
            "id": "customcode_postshow_3942201224766631",
            "type": "INVOKE_FUNCTION",
            "sequenceKUID": "uploadmyprofilemobile",
            "display": "uploadmyprofilemobile",
            "inputparams": [],
            "source": "module"
        }, {
            "id": "expression_postshow_48183201224769269",
            "type": "ADD_SNIPPET",
            "codeSnippet": "frmIBCMChgMobNoTxnLimit.link508395714289050.hoverSkin=\"lnkMyReqHisFoc\";\n frmIBCMChgMobNoTxnLimit.txtChangeTransactionLimit.setFocus(true);"
        }, {
            "id": "customcode_postshow_60481201224765515",
            "type": "INVOKE_FUNCTION",
            "sequenceKUID": "addNumberCheckListner",
            "display": "addNumberCheckListner",
            "inputparams": [{
                "name": "widjet",
                "value": "\"txtChangeTransactionLimit\""
            }],
            "source": "module"
        }, {
            "id": "customcode_postshow_69392201224769950",
            "type": "INVOKE_FUNCTION",
            "sequenceKUID": "myProfileAnyIDLinkShowHideIB",
            "display": "myProfileAnyIDLinkShowHideIB",
            "inputparams": [],
            "source": "module"
        }]
    }
}