{
    "p2kwiet2012247641953_txtEmail_DESKTOPWEB_onEndEditing_seq0": {
        "id": "p2kwiet2012247641953_txtEmail_DESKTOPWEB_onEndEditing_seq0",
        "type": "ACTION_SEQUENCE",
        "params": [{
            "name": "eventobject",
            "value": "eventobject"
        }, {
            "name": "changedtext",
            "value": "changedtext"
        }],
        "language": "js",
        "actions": [{
            "id": "expression_onEndEditing_15200201224763478",
            "type": "ADD_SNIPPET",
            "codeSnippet": "frmIBCustomerBasicInfo.hbox506339973464992.skin = \"hbxIBbottomborder\""
        }]
    }
}