{
    "p2kwiet2012247641098_button474288733649_onClick_seq0": {
        "id": "p2kwiet2012247641098_button474288733649_onClick_seq0",
        "type": "ACTION_SEQUENCE",
        "params": [{
            "name": "eventobject",
            "value": "eventobject"
        }],
        "language": "js",
        "actions": [{
            "id": "expression_onClick_78705201224761050",
            "type": "ADD_SNIPPET",
            "codeSnippet": "gblEditMobileFromAnyId=false;\n editbuttonflag = \"number\"\n gblMobNoTransLimitFlag = true;\n flagMobNum=\"new\";\n frmIBCMChgMobNoTxnLimit.hbxRequest.setVisibility(false);\n frmIBCMChgMobNoTxnLimit.lblHead.setVisibility(true);\n frmIBCMChgMobNoTxnLimit.hbxChangeMobileNumber.setVisibility(true);\n frmIBCMChgMobNoTxnLimit.arrowrequest.setVisibility(false);\n frmIBCMChgMobNoTxnLimit.ArrowMobNu.setVisibility(true);"
        }, {
            "id": "customcode_onClick_78237201224762130",
            "type": "INVOKE_FUNCTION",
            "sequenceKUID": "getIBEditProfileStatus",
            "display": "getIBEditProfileStatus",
            "inputparams": [],
            "source": "module"
        }]
    }
}