{
    "p2kwiet2012247646290_btnBac_onClick_seq0": {
        "id": "p2kwiet2012247646290_btnBac_onClick_seq0",
        "type": "ACTION_SEQUENCE",
        "params": [{
            "name": "eventobject",
            "value": "eventobject"
        }],
        "language": "js",
        "actions": [{
            "id": "expression_onClick_88894201224761771",
            "type": "ADD_SNIPPET",
            "codeSnippet": "TMBUtil.DestroyForm(frmIBOpenNewSavingsCareAcc)\n TMBUtil.DestroyForm(frmIBOpenNewSavingsCareAccConfirmation)\n TMBUtil.DestroyForm(frmIBOpenNewSavingsCareAccComplete)\n //TMBUtil.DestroyForm(frmIBOpenProdDetnTnC)\n "
        }, {
            "id": "customcode_onClick_81922201224769522",
            "type": "INVOKE_FUNCTION",
            "sequenceKUID": "onclickActivationCompleteStart",
            "display": "onclickActivationCompleteStart",
            "inputparams": [],
            "source": "module"
        }]
    }
}