{
    "p2kwiet2012247651270_linkSiteTour_onClick_seq0": {
        "id": "p2kwiet2012247651270_linkSiteTour_onClick_seq0",
        "type": "ACTION_SEQUENCE",
        "params": [{
            "name": "eventobject",
            "value": "eventobject"
        }],
        "language": "js",
        "actions": [{
            "id": "customcode_onClick_76091201224763789",
            "type": "INVOKE_FUNCTION",
            "sequenceKUID": "showAppTourFormIB",
            "display": "showAppTourFormIB",
            "inputparams": [{
                "name": "eo",
                "value": "eventobject"
            }],
            "source": "module"
        }]
    }
}