{
    "p2kwiet2012247644952_btnAddRcConfConfirm_onClick_seq0": {
        "id": "p2kwiet2012247644952_btnAddRcConfConfirm_onClick_seq0",
        "type": "ACTION_SEQUENCE",
        "params": [{
            "name": "eventobject",
            "value": "eventobject"
        }],
        "language": "js",
        "actions": [{
            "id": "decision_onClick_85804201224765796",
            "type": "IF_CONDITION",
            "conditions": [{
                "leftValueType": "expression",
                "leftValue": "frmIBMyReceipentsAddBankAccnt.hbxOtpBox.isVisible"
            }],
            "criteria": "all"
        }, {
            "id": "decision_onClick_10471201224767783",
            "type": "ELSE_CONDITION",
            "conditions": [],
            "criteria": "all"
        }, {
            "id": "customcode_onClick_4495201224762307",
            "type": "INVOKE_FUNCTION",
            "sequenceKUID": "validateSecurityForTransactionRc",
            "display": "validateSecurityForTransactionRc",
            "inputparams": [{
                "name": "form",
                "value": "frmIBMyReceipentsAddBankAccnt "
            }],
            "parentId": "decision_onClick_85804201224765796",
            "source": "module"
        }, {
            "id": "expression_onClick_81832201224761556",
            "type": "ADD_SNIPPET",
            "codeSnippet": "//frmIBMyReceipentsAddBankAccnt.hbxOtpBox.setVisibility(true);\n //onEditReceipentNextIB()\n saveRecipientDeatils();\n frmIBMyReceipentsAddBankAccnt.hbxOtpBox.setVisibility(true);",
            "parentId": "decision_onClick_10471201224767783"
        }]
    }
}