{
    "p2kwiet2012247643170_frmIBEStatementProdFeature_preshow_seq0": {
        "id": "p2kwiet2012247643170_frmIBEStatementProdFeature_preshow_seq0",
        "type": "ACTION_SEQUENCE",
        "params": [{
            "name": "eventobject",
            "value": "eventobject"
        }, {
            "name": "neworientation",
            "value": "neworientation"
        }],
        "language": "js",
        "actions": [{
            "id": "customcode_preshow_53234201224768521",
            "type": "INVOKE_FUNCTION",
            "sequenceKUID": "frmIBEStatementProdFeaturePreShow",
            "display": "frmIBEStatementProdFeaturePreShow",
            "inputparams": [],
            "source": "module"
        }]
    }
}