{
    "p2kwiet2012247649002_txtAmount_DESKTOPWEB_onBeginEditing_seq0": {
        "id": "p2kwiet2012247649002_txtAmount_DESKTOPWEB_onBeginEditing_seq0",
        "type": "ACTION_SEQUENCE",
        "params": [{
            "name": "eventobject",
            "value": "eventobject"
        }, {
            "name": "changedtext",
            "value": "changedtext"
        }],
        "language": "js",
        "actions": [{
            "id": "expression_onBeginEditing_98511201224761001",
            "type": "ADD_SNIPPET",
            "codeSnippet": "frmIBTopUpLandingPage.hbxAmntExclBillerMethodOne.skin=\"hbxProperFocus40px\";"
        }]
    }
}