{
    "p2kwiet2012247643366_vbox4740477151923676_onClick_seq0": {
        "id": "p2kwiet2012247643366_vbox4740477151923676_onClick_seq0",
        "type": "ACTION_SEQUENCE",
        "params": [{
            "name": "eventobject",
            "value": "eventobject"
        }],
        "language": "js",
        "actions": [{
            "id": "expression_onClick_35603201224764753",
            "type": "ADD_SNIPPET",
            "codeSnippet": "if (frmIBExecutedTransaction.lblBBPaymentValue.isVisible)\n {\n frmIBExecutedTransaction.lblBBPaymentValue.setVisibility(false);\n frmIBExecutedTransaction.lblHide.text= kony.i18n.getLocalizedString(\"keyUnhide\");\n }\n else\n {\n frmIBExecutedTransaction.lblBBPaymentValue.setVisibility(true);\n frmIBExecutedTransaction.lblHide.text= kony.i18n.getLocalizedString(\"Hide\");\n }"
        }]
    }
}