{
    "p2kwiet2012247650990_button44914510567703_onClick_seq0": {
        "id": "p2kwiet2012247650990_button44914510567703_onClick_seq0",
        "type": "ACTION_SEQUENCE",
        "params": [{
            "name": "eventobject",
            "value": "eventobject"
        }],
        "language": "js",
        "actions": [{
            "id": "expression_onClick_5978201224764196",
            "type": "ADD_SNIPPET",
            "codeSnippet": "popupDeleAccnt.dismiss();"
        }]
    }
}