{
    "p2kwiet2012247650922_button44914510567703_onClick_seq0": {
        "id": "p2kwiet2012247650922_button44914510567703_onClick_seq0",
        "type": "ACTION_SEQUENCE",
        "params": [{
            "name": "eventobject",
            "value": "eventobject"
        }],
        "language": "js",
        "actions": [{
            "id": "expression_onClick_22076201224767556",
            "type": "ADD_SNIPPET",
            "codeSnippet": "popupIBMyReceipentsLimit.dismiss();"
        }]
    }
}