{
    "p2kwiet2012247645129_button45737278075169_onClick_seq0": {
        "id": "p2kwiet2012247645129_button45737278075169_onClick_seq0",
        "type": "ACTION_SEQUENCE",
        "params": [{
            "name": "eventobject",
            "value": "eventobject"
        }],
        "language": "js",
        "actions": [{
            "id": "customcode_onClick_67337201224766631",
            "type": "INVOKE_FUNCTION",
            "sequenceKUID": "startOTPValidationService",
            "display": "startOTPValidationService",
            "inputparams": [{
                "name": "otptext",
                "value": "frmIBMyReceipentsAddContactManually.textbox247428873338513.text"
            }],
            "source": "module"
        }]
    }
}