{
    "p2kwiet2012247647951_btnpdf_onClick_seq0": {
        "id": "p2kwiet2012247647951_btnpdf_onClick_seq0",
        "type": "ACTION_SEQUENCE",
        "params": [{
            "name": "eventobject",
            "value": "eventobject"
        }],
        "language": "js",
        "actions": [{
            "id": "expression_onClick_60818201224763276",
            "type": "ADD_SNIPPET",
            "codeSnippet": "onClickDownloadTnC('pdf', 'SendtoSave')"
        }]
    }
}