{
    "p2kwiet2012247644098_tbxAccountName_DESKTOPWEB_onKeyDown_seq0": {
        "id": "p2kwiet2012247644098_tbxAccountName_DESKTOPWEB_onKeyDown_seq0",
        "type": "ACTION_SEQUENCE",
        "params": [{
            "name": "eventobject",
            "value": "eventobject"
        }, {
            "name": "changedtext",
            "value": "changedtext"
        }],
        "language": "js",
        "actions": [{
            "id": "customcode_onKeyDown_29723201224767101",
            "type": "INVOKE_FUNCTION",
            "sequenceKUID": "DisableCopyPaste",
            "display": "DisableCopyPaste",
            "inputparams": [{
                "name": "e",
                "value": "frmIBMyAccnts.txtNickNAme.text"
            }],
            "source": "module"
        }, {
            "id": "expression_onKeyDown_88690201224763225",
            "type": "ADD_SNIPPET",
            "codeSnippet": "frmIBMyAccnts.hbxAccountName.skin=\"hbxlightblue\";\n frmIBMyAccnts.tbxAccountName.skin=\"txtBoxTransparent\"\n frmIBMyAccnts.hbxAccountName.focusSkin=\"hbxlightblue\";"
        }]
    }
}