{
    "p2kwiet2012247644098_tbxAccountName_DESKTOPWEB_onEndEditing_seq0": {
        "id": "p2kwiet2012247644098_tbxAccountName_DESKTOPWEB_onEndEditing_seq0",
        "type": "ACTION_SEQUENCE",
        "params": [{
            "name": "eventobject",
            "value": "eventobject"
        }, {
            "name": "changedtext",
            "value": "changedtext"
        }],
        "language": "js",
        "actions": [{
            "id": "expression_onEndEditing_66159201224765791",
            "type": "ADD_SNIPPET",
            "codeSnippet": "//frmIBMyAccnts.hbxAccountName.skin=\"skin Defaults\";\n \n //frmIBMyAccnts.txtNickNAme.skin=\"skinDefaults\";\n //frmIBMyAccnts.txtNickNAme.skin=txtNormal;\n \n //frmIBMyAccnts.hbox447417227858.skin= hbxIBbottomborder;"
        }]
    }
}