{
    "p2kwiet2012247651147_hbox503599360167_onClick_seq0": {
        "id": "p2kwiet2012247651147_hbox503599360167_onClick_seq0",
        "type": "ACTION_SEQUENCE",
        "params": [{
            "name": "eventobject",
            "value": "eventobject"
        }],
        "language": "js",
        "actions": [{
            "id": "customcode_onClick_69585201224761676",
            "type": "INVOKE_FUNCTION",
            "sequenceKUID": "langchange",
            "display": "langchange",
            "inputparams": [{
                "name": "lang",
                "value": "en_US"
            }],
            "source": "module"
        }]
    }
}