{
    "p2kwiet2012247646632_txtOTP_DESKTOPWEB_onKeyUp_seq0": {
        "id": "p2kwiet2012247646632_txtOTP_DESKTOPWEB_onKeyUp_seq0",
        "type": "ACTION_SEQUENCE",
        "params": [{
            "name": "eventobject",
            "value": "eventobject"
        }, {
            "name": "changedtext",
            "value": "changedtext"
        }],
        "language": "js",
        "actions": [{
            "id": "customcode_onKeyUp_97848201224762561",
            "type": "INVOKE_FUNCTION",
            "sequenceKUID": "dontAllowNonNeumaric",
            "display": "dontAllowNonNeumaric",
            "inputparams": [{
                "name": "textbozId",
                "value": "frmIBOpenNewTermDepositAccConfirmation.txtOTP "
            }],
            "source": "module"
        }]
    }
}