{
    "p2kwiet2012247647951_buttonCancel_onClick_seq0": {
        "id": "p2kwiet2012247647951_buttonCancel_onClick_seq0",
        "type": "ACTION_SEQUENCE",
        "params": [{
            "name": "eventobject",
            "value": "eventobject"
        }],
        "language": "js",
        "actions": [{
            "id": "customcode_onClick_34905201224765306",
            "type": "INVOKE_FUNCTION",
            "sequenceKUID": "onclickActivationCompleteStart",
            "display": "onclickActivationCompleteStart",
            "inputparams": [],
            "source": "module"
        }, {
            "id": "decision_onClick_6000201224765814",
            "type": "IF_CONDITION",
            "conditions": [{
                "leftValueType": "expression",
                "leftValue": "kony.application.getCurrentForm().id != \"frmIBPostLoginDashboard\""
            }],
            "criteria": "all"
        }, {
            "id": "decision_onClick_1960201224765576",
            "type": "ELSE_CONDITION",
            "conditions": [],
            "criteria": "all"
        }, {
            "id": "customcode_onClick_25828201224761806",
            "type": "INVOKE_FUNCTION",
            "sequenceKUID": "menuReset",
            "display": "menuReset",
            "inputparams": [],
            "parentId": "decision_onClick_6000201224765814",
            "source": "module"
        }, {
            "id": "customcode_onClick_42017201224768178",
            "type": "INVOKE_FUNCTION",
            "sequenceKUID": "menuReset2",
            "display": "menuReset2",
            "inputparams": [],
            "parentId": "decision_onClick_1960201224765576",
            "source": "module"
        }]
    }
}