{
    "p2kwiet2012247642762_button1014589649276_onClick_seq0": {
        "id": "p2kwiet2012247642762_button1014589649276_onClick_seq0",
        "type": "ACTION_SEQUENCE",
        "params": [{
            "name": "eventobject",
            "value": "eventobject"
        }],
        "language": "js",
        "actions": [{
            "id": "expression_onClick_9966201224765136",
            "type": "ADD_SNIPPET",
            "codeSnippet": "gblPOWcustNME = frmIBEditFutureTopUpPrecnf.lblTPFromAccNickName.text\n gblPOWtransXN = \"EditFutureTopUP\"\n gblPOWchannel = \"IB\"\n postOnWall() \n requestfromform = \"frmIBEditFutureTopUpPrecnf\""
        }]
    }
}