{
    "p2kwiet2012247640409_btnBPSchedule_onClick_seq0": {
        "id": "p2kwiet2012247640409_btnBPSchedule_onClick_seq0",
        "type": "ACTION_SEQUENCE",
        "params": [{
            "name": "eventobject",
            "value": "eventobject"
        }],
        "language": "js",
        "actions": [{
            "id": "expression_onClick_56494201224762352",
            "type": "ADD_SNIPPET",
            "codeSnippet": "gblTempBPStartOnDate = frmIBBillPaymentView.lblBPStartOnDateVal.text;\n gblTempBPEndOnDate = frmIBBillPaymentView.lblEndOnDateVal.text\n gblTempBPRepeatAs = frmIBBillPaymentView.lblBPRepeatAsVal.text;\n \n "
        }, {
            "id": "customcode_onClick_94038201224765383",
            "type": "INVOKE_FUNCTION",
            "sequenceKUID": "onclickScheduleButton",
            "display": "onclickScheduleButton",
            "inputparams": [],
            "source": "module"
        }]
    }
}