{
    "p2kwiet2012247649002_textarea210136690395040_onTextChange_seq0": {
        "id": "p2kwiet2012247649002_textarea210136690395040_onTextChange_seq0",
        "type": "ACTION_SEQUENCE",
        "params": [{
            "datatype": "collection",
            "name": "eventobject"
        }],
        "language": "js",
        "actions": [{
            "id": "customcode_onTextChange_31455201224763594",
            "type": "INVOKE_FUNCTION",
            "sequenceKUID": "notAllowEmojiChars",
            "display": "notAllowEmojiChars",
            "inputparams": [{
                "name": "eventObj",
                "value": "frmIBTopUpLandingPage.textarea210136690395040"
            }],
            "source": "module"
        }]
    }
}