{
    "p2kwiet2012247645476_btnRight_onClick_seq0": {
        "id": "p2kwiet2012247645476_btnRight_onClick_seq0",
        "type": "ACTION_SEQUENCE",
        "params": [{
            "name": "eventobject",
            "value": "eventobject"
        }],
        "language": "js",
        "actions": [{
            "id": "expression_onClick_56870201224769884",
            "type": "ADD_SNIPPET",
            "codeSnippet": "if(eventobject.skin == \"btnIBNotHomeDelNormal\" || eventobject.skin == \"btnIBNotHomeDelFocus\"){\n if(NotificationHomePageState == false){\n populateNotificationsDeleteStateIB();\n }\n else{\n if(frmIBNotificationHome.segRequestHistory.selectedItems.length == 1)\n var msg =kony.i18n.getLocalizedString(\"keyNotSure\")+\" \"+ frmIBNotificationHome.segRequestHistory.selectedItems.length+\" \"+kony.i18n.getLocalizedString(\"keyMessages\")\n else\n var msg =kony.i18n.getLocalizedString(\"keyNotSure\")+\" \"+ frmIBNotificationHome.segRequestHistory.selectedItems.length+\" \"+kony.i18n.getLocalizedString(\"keyMessages\")\n popUpNotfnDeleteIB.lblNotfnMsg.text = msg;\n popUpNotfnDeleteIB.btnPopDeleteCancel.onClick = popupDeleteCancelIB;\n popUpNotfnDeleteIB.btnPopDeleteYEs.onClick = popupDeleteConfirmIB;\n popUpNotfnDeleteIB.show();\n }\n }\n else if(eventobject.skin == \"btnDeleteActive\"){\n //do nothing\n }"
        }]
    }
}