{
    "p2kwiet2012247641098_txtCurUserID_DESKTOPWEB_onBeginEditing_seq0": {
        "id": "p2kwiet2012247641098_txtCurUserID_DESKTOPWEB_onBeginEditing_seq0",
        "type": "ACTION_SEQUENCE",
        "params": [{
            "name": "eventobject",
            "value": "eventobject"
        }, {
            "name": "changedtext",
            "value": "changedtext"
        }],
        "language": "js",
        "actions": [{
            "id": "expression_onBeginEditing_68279201224766408",
            "type": "ADD_SNIPPET",
            "codeSnippet": "frmIBCMChngUserID.hbox448307264905709.skin = \"hbxIBbottomborderfocus\";\n //frmIBCMChngUserID.hboxBubble.setVisibility(true);\n if(gblCMUserIDRule == 1){\n frmIBCMChngUserID.hbxPopUP.setVisibility(false);\n frmIBCMChngUserID.hbxCancelSave.setVisibility(true);\n gblCMUserIDRule = 0\n }"
        }]
    }
}