{
    "p2kwiet2012247648602_vbox4740477151928985_onClick_seq0": {
        "id": "p2kwiet2012247648602_vbox4740477151928985_onClick_seq0",
        "type": "ACTION_SEQUENCE",
        "params": [{
            "name": "eventobject",
            "value": "eventobject"
        }],
        "language": "js",
        "actions": [{
            "id": "expression_onClick_13736201224769252",
            "type": "ADD_SNIPPET",
            "codeSnippet": "if (frmIBTopUpComplete.lblBBPaymentValue.isVisible)\n {\n frmIBTopUpComplete.lblBBPaymentValue.setVisibility(false);\n frmIBTopUpComplete.lblBalance.setVisibility(false);\n frmIBTopUpComplete.lblHide.text= kony.i18n.getLocalizedString(\"keyUnhide\");\n }\n else\n {\n frmIBTopUpComplete.lblBBPaymentValue.setVisibility(true);\n frmIBTopUpComplete.lblBalance.setVisibility(true);\n frmIBTopUpComplete.lblHide.text=kony.i18n.getLocalizedString(\"keyHideIB\");\n }\n "
        }]
    }
}