{
    "p2kwiet2012247648709_btnCancel_onClick_seq0": {
        "id": "p2kwiet2012247648709_btnCancel_onClick_seq0",
        "type": "ACTION_SEQUENCE",
        "params": [{
            "name": "eventobject",
            "value": "eventobject"
        }],
        "language": "js",
        "actions": [{
            "id": "expression_onClick_5464520122476723",
            "type": "ADD_SNIPPET",
            "codeSnippet": "gblPaynow =true"
        }, {
            "id": "customcode_onClick_47290201224762959",
            "type": "INVOKE_FUNCTION",
            "sequenceKUID": "callTopUpPaymentCustomerAccountServiceIB",
            "display": "callTopUpPaymentCustomerAccountServiceIB",
            "inputparams": [],
            "source": "module"
        }]
    }
}