{
    "p2kwiet2012247649384_frmIBTransferCustomWidgetLP_postshow_seq0": {
        "id": "p2kwiet2012247649384_frmIBTransferCustomWidgetLP_postshow_seq0",
        "type": "ACTION_SEQUENCE",
        "params": [{
            "name": "eventobject",
            "value": "eventobject"
        }, {
            "name": "neworientation",
            "value": "neworientation"
        }],
        "language": "js",
        "actions": [{
            "id": "customcode_postshow_82728201224764765",
            "type": "INVOKE_FUNCTION",
            "sequenceKUID": "ehFrmIBTransferCustomWidgetLP_frmIBTransferCustomWidgetLP_postshow",
            "display": "ehFrmIBTransferCustomWidgetLP_frmIBTransferCustomWidgetLP_postshow",
            "inputparams": [{
                "name": "eventobject",
                "value": " eventobject"
            }, {
                "name": "neworientation",
                "value": " neworientation"
            }],
            "source": "module"
        }]
    }
}