{
    "p2kwiet2012247641578_txtemailvalue_DESKTOPWEB_onBeginEditing_seq0": {
        "id": "p2kwiet2012247641578_txtemailvalue_DESKTOPWEB_onBeginEditing_seq0",
        "type": "ACTION_SEQUENCE",
        "params": [{
            "name": "eventobject",
            "value": "eventobject"
        }, {
            "name": "changedtext",
            "value": "changedtext"
        }],
        "language": "js",
        "actions": [{
            "id": "expression_onBeginEditing_3288201224768388",
            "type": "ADD_SNIPPET",
            "codeSnippet": "frmIBCMEditMyProfile.hbox473275839192817.skin=\"hbxIBbottomborder\";"
        }]
    }
}