{
    "p2kwiet2012247645956_btnKYCBack_onClick_seq0": {
        "id": "p2kwiet2012247645956_btnKYCBack_onClick_seq0",
        "type": "ACTION_SEQUENCE",
        "params": [{
            "name": "eventobject",
            "value": "eventobject"
        }],
        "language": "js",
        "actions": [{
            "id": "customcode_onClick_50680201224763330",
            "type": "INVOKE_FUNCTION",
            "sequenceKUID": "populateDataKYCOccupationInfo",
            "display": "populateDataKYCOccupationInfo",
            "inputparams": [],
            "source": "module"
        }, {
            "id": "navigation_onClick_68692201224768523",
            "type": "NAVIGATE_TO_FORM",
            "formId": "frmIBOpenAccountOccupationKYC",
            "formKUID": "p2kwiet2012247645637",
            "mappings": {},
            "mappingsOrder": [],
            "parentId": "",
            "enableMappingEditor": true,
            "package": ""
        }]
    }
}