{
    "p2kwiet2012247641649_frmIBCMFreqUsedAcnt_postshow_seq0": {
        "id": "p2kwiet2012247641649_frmIBCMFreqUsedAcnt_postshow_seq0",
        "type": "ACTION_SEQUENCE",
        "params": [{
            "name": "eventobject",
            "value": "eventobject"
        }, {
            "name": "neworientation",
            "value": "neworientation"
        }],
        "language": "js",
        "actions": [{
            "id": "customcode_postshow_419201224762124",
            "type": "INVOKE_FUNCTION",
            "sequenceKUID": "addIBMenu",
            "display": "addIBMenu",
            "inputparams": [],
            "source": "module"
        }, {
            "id": "customcode_postshow_6663420122476371",
            "type": "INVOKE_FUNCTION",
            "sequenceKUID": "segAboutMeLoad",
            "display": "segAboutMeLoad",
            "inputparams": [],
            "source": "module"
        }, {
            "id": "customcode_postshow_32965201224765096",
            "type": "INVOKE_FUNCTION",
            "sequenceKUID": "pagespecificSubMenu",
            "display": "pagespecificSubMenu",
            "inputparams": [],
            "source": "module"
        }, {
            "id": "customcode_postshow_35767201224767734",
            "type": "INVOKE_FUNCTION",
            "sequenceKUID": "loadDataFreqUsedAcnt",
            "display": "loadDataFreqUsedAcnt",
            "inputparams": [],
            "source": "module"
        }, {
            "id": "customcode_postshow_92820201224761653",
            "type": "INVOKE_FUNCTION",
            "sequenceKUID": "IBCMCommonMyProfilePreShow",
            "display": "IBCMCommonMyProfilePreShow",
            "inputparams": [],
            "source": "module"
        }]
    }
}