{
    "p2kwiet2012247641649_frmIBCMFreqUsedAcnt_preshow_seq0": {
        "id": "p2kwiet2012247641649_frmIBCMFreqUsedAcnt_preshow_seq0",
        "type": "ACTION_SEQUENCE",
        "params": [{
            "name": "eventobject",
            "value": "eventobject"
        }, {
            "name": "neworientation",
            "value": "neworientation"
        }],
        "language": "js",
        "actions": []
    }
}