{
    "p2kwiet2012247642662_frmIBEditFutureBillPaymentPrecnf_preshow_seq0": {
        "id": "p2kwiet2012247642662_frmIBEditFutureBillPaymentPrecnf_preshow_seq0",
        "type": "ACTION_SEQUENCE",
        "params": [{
            "name": "eventobject",
            "value": "eventobject"
        }, {
            "name": "neworientation",
            "value": "neworientation"
        }],
        "language": "js",
        "actions": [{
            "id": "expression_preshow_39903201224762412",
            "type": "ADD_SNIPPET",
            "codeSnippet": "frmIBEditFutureBillPaymentPrecnf.lblOTPinCurr.text = \"\";\n frmIBEditFutureBillPaymentPrecnf.lblPlsReEnter.text = \"\"; \n "
        }, {
            "id": "expression_preshow_10075201224765116",
            "type": "ADD_SNIPPET",
            "codeSnippet": "frmIBEditFutureBillPaymentPrecnf.hbxAdv.setVisibility(false);\n \n frmIBEditFutureBillPaymentPrecnf.hbxOTP.setVisibility(false);\n frmIBEditFutureBillPaymentPrecnf.hbxEditBtns.setVisibility(false);\n frmIBEditFutureBillPaymentPrecnf.hbxbtnUpdatedReturn.setVisibility(false)\n frmIBEditFutureBillPaymentPrecnf.btnNext.setVisibility(true);\n \n var curFrm = kony.application.getCurrentForm().id;\n if(curFrm == \"frmIBFBLogin\"){\n \n frmIBEditFutureBillPaymentPrecnf.hbxBPCmpletngHdr.setVisibility(true);\n frmIBEditFutureBillPaymentPrecnf.imgComplete.setVisibility(true);\n frmIBEditFutureBillPaymentPrecnf.hbxbtnUpdatedReturn.setVisibility(true);\n frmIBEditFutureBillPaymentPrecnf.hbxBPSave.setVisibility(true);\n frmIBEditFutureBillPaymentPrecnf.hbxBPViewHdr.setVisibility(false);\n frmIBEditFutureBillPaymentPrecnf.hbxOTP.setVisibility(false);\n frmIBEditFutureBillPaymentPrecnf.hbxEditBtns.setVisibility(false);\n \n frmIBEditFutureBillPaymentPrecnf.hbxAdv.setVisibility(true);\n \n frmIBEditFutureBillPaymentPrecnf.btnNext.setVisibility(false);\n \n }\n "
        }]
    }
}