{
    "p2kwiet2012247641578_frmIBCMEditMyProfile_preshow_seq0": {
        "id": "p2kwiet2012247641578_frmIBCMEditMyProfile_preshow_seq0",
        "type": "ACTION_SEQUENCE",
        "params": [{
            "name": "eventobject",
            "value": "eventobject"
        }, {
            "name": "neworientation",
            "value": "neworientation"
        }],
        "language": "js",
        "actions": [{
            "id": "expression_preshow_4137201224763554",
            "type": "ADD_SNIPPET",
            "codeSnippet": "frmIBCMEditMyProfile.lblOTPinCurr.text = \"\";\n frmIBCMEditMyProfile.lblPlsReEnter.text = \"\"; \n "
        }, {
            "id": "expression_preshow_83004201224761595",
            "type": "ADD_SNIPPET",
            "codeSnippet": "frmIBCMEditMyProfile.hbxOtpBox.setVisibility(false);\n frmIBCMEditMyProfile.btnDist.setEnabled(false);\n frmIBCMEditMyProfile.btnSubDist.setEnabled(false);\n frmIBCMEditMyProfile.btnProvince.setEnabled(true);\n frmIBCMEditMyProfile.btnPostalCode.setEnabled(false);\n frmIBCMEditMyProfile.hbxTokenEntry.setVisibility(false);\n frmIBCMEditMyProfile.txtemailvalue.setFocus(true);\n frmIBCMEditMyProfile.image2474288733627.setVisibility(false);\n frmIBCMEditMyProfile.cimgprofpic.setVisibility(false);\n frmIBCMEditMyProfile.imgprofpic.setVisibility(false);\n \n "
        }]
    }
}