{
    "p2kwiet2012247645824_frmIBOpenNewDreamAccComplete_postshow_seq0": {
        "id": "p2kwiet2012247645824_frmIBOpenNewDreamAccComplete_postshow_seq0",
        "type": "ACTION_SEQUENCE",
        "params": [{
            "name": "eventobject",
            "value": "eventobject"
        }, {
            "name": "neworientation",
            "value": "neworientation"
        }],
        "language": "js",
        "actions": [{
            "id": "customcode_postshow_87634201224769416",
            "type": "INVOKE_FUNCTION",
            "sequenceKUID": "addIBMenu",
            "display": "addIBMenu",
            "inputparams": [],
            "source": "module"
        }, {
            "id": "customcode_postshow_89684201224761952",
            "type": "INVOKE_FUNCTION",
            "sequenceKUID": "segConvenientServicesLoad",
            "display": "segConvenientServicesLoad",
            "inputparams": [],
            "source": "module"
        }, {
            "id": "customcode_postshow_56007201224762340",
            "type": "INVOKE_FUNCTION",
            "sequenceKUID": "pagespecificSubMenu",
            "display": "pagespecificSubMenu",
            "inputparams": [],
            "source": "module"
        }, {
            "id": "customcode_postshow_44703201224769723",
            "type": "INVOKE_FUNCTION",
            "sequenceKUID": "campaginService",
            "display": "campaginService",
            "inputparams": [{
                "name": "widgetName",
                "value": "\"imgDreamActCmpAdd\""
            }, {
                "name": "formName",
                "value": "\"frmIBOpenNewDreamAccComplete\""
            }, {
                "name": "appChannel",
                "value": "\"I\""
            }],
            "source": "module"
        }]
    }
}