{
    "p2kwiet2012247638987_btnPrint_onClick_seq0": {
        "id": "p2kwiet2012247638987_btnPrint_onClick_seq0",
        "type": "ACTION_SEQUENCE",
        "params": [{
            "name": "eventobject",
            "value": "eventobject"
        }],
        "language": "js",
        "actions": [{
            "id": "customcode_onClick_34990201224765253",
            "type": "INVOKE_FUNCTION",
            "sequenceKUID": "saveSooGooODCompleteAsPDFImageIB",
            "display": "saveSooGooODCompleteAsPDFImageIB",
            "inputparams": [{
                "name": "filetype",
                "value": "\"print\""
            }],
            "source": "module"
        }]
    }
}