{
    "p2kwiet2012247644952_textbox247428873338513_DESKTOPWEB_onEndEditing_seq0": {
        "id": "p2kwiet2012247644952_textbox247428873338513_DESKTOPWEB_onEndEditing_seq0",
        "type": "ACTION_SEQUENCE",
        "params": [{
            "name": "eventobject",
            "value": "eventobject"
        }, {
            "name": "changedtext",
            "value": "changedtext"
        }],
        "language": "js",
        "actions": [{
            "id": "customcode_onEndEditing_83752201224762725",
            "type": "INVOKE_FUNCTION",
            "sequenceKUID": "OTPhbxBox_skinChange_onEndEditing",
            "display": "OTPhbxBox_skinChange_onEndEditing",
            "inputparams": [{
                "name": "hbxId",
                "value": "frmIBMyReceipentsAddBankAccnt.hbxOTPEntry"
            }],
            "source": "module"
        }]
    }
}