{
    "p2kwiet2012247646667_button47505874736298_onClick_seq0": {
        "id": "p2kwiet2012247646667_button47505874736298_onClick_seq0",
        "type": "ACTION_SEQUENCE",
        "params": [{
            "name": "eventobject",
            "value": "eventobject"
        }],
        "language": "js",
        "actions": [{
            "id": "customcode_onClick_88810201224764947",
            "type": "INVOKE_FUNCTION",
            "sequenceKUID": "passingProdDescTnCEmail",
            "display": "passingProdDescTnCEmail",
            "inputparams": [],
            "source": "module"
        }, {
            "id": "customcode_onClick_83625201224769025",
            "type": "INVOKE_FUNCTION",
            "sequenceKUID": "onClickEmailTnCMBOpenAccount",
            "display": "onClickEmailTnCMBOpenAccount",
            "inputparams": [{
                "name": "tnckeyword",
                "value": "prodDescTnC "
            }, {
                "name": "chnlName",
                "value": "\"Internet Banking\" "
            }, {
                "name": "chnlId",
                "value": "\"01\" "
            }],
            "source": "module"
        }]
    }
}