{
    "p2kwiet2012247638097_frmApplyMBviaIBStep1_postshow_seq0": {
        "id": "p2kwiet2012247638097_frmApplyMBviaIBStep1_postshow_seq0",
        "type": "ACTION_SEQUENCE",
        "params": [{
            "name": "eventobject",
            "value": "eventobject"
        }, {
            "name": "neworientation",
            "value": "neworientation"
        }],
        "language": "js",
        "actions": [{
            "id": "expression_postshow_96554201224763533",
            "type": "ADD_SNIPPET",
            "codeSnippet": "frmApplyMBviaIBStep1.label476047582115269.text = \"xxx-xxx-\" + gblPHONENUMBER.substring(6, 10);"
        }, {
            "id": "customcode_postshow_73725201224767979",
            "type": "INVOKE_FUNCTION",
            "sequenceKUID": "addIBMenu",
            "display": "addIBMenu",
            "inputparams": [],
            "source": "module"
        }, {
            "id": "decision_postshow_92780201224764353",
            "type": "IF_CONDITION",
            "conditions": [{
                "leftValueType": "expression",
                "leftValue": "gblMode == 0"
            }],
            "criteria": "all"
        }, {
            "id": "decision_postshow_28977201224764221",
            "type": "ELSE_CONDITION",
            "conditions": [],
            "criteria": "all"
        }, {
            "id": "customcode_postshow_24076201224767860",
            "type": "INVOKE_FUNCTION",
            "sequenceKUID": "pagespecificSubMenu",
            "display": "pagespecificSubMenu",
            "inputparams": [],
            "source": "module"
        }, {
            "id": "customcode_postshow_57731201224768430",
            "type": "INVOKE_FUNCTION",
            "sequenceKUID": "segConvenientServicesLoad",
            "display": "segConvenientServicesLoad",
            "inputparams": [],
            "parentId": "decision_postshow_92780201224764353",
            "source": "module"
        }, {
            "id": "customcode_postshow_46642201224764053",
            "type": "INVOKE_FUNCTION",
            "sequenceKUID": "segAboutMeLoad",
            "display": "segAboutMeLoad",
            "inputparams": [],
            "parentId": "decision_postshow_28977201224764221",
            "source": "module"
        }]
    }
}