{
    "p2kwiet2012247640979_button473305630173682_onClick_seq0": {
        "id": "p2kwiet2012247640979_button473305630173682_onClick_seq0",
        "type": "ACTION_SEQUENCE",
        "params": [{
            "name": "eventobject",
            "value": "eventobject"
        }],
        "language": "js",
        "actions": [{
            "id": "customcode_onClick_6820122476393",
            "type": "INVOKE_FUNCTION",
            "sequenceKUID": "IBvalidateTransDetailProf",
            "display": "IBvalidateTransDetailProf",
            "inputparams": [],
            "source": "module"
        }]
    }
}