{
    "p2kwiet2012247647593_btnCancel_onClick_seq0": {
        "id": "p2kwiet2012247647593_btnCancel_onClick_seq0",
        "type": "ACTION_SEQUENCE",
        "params": [{
            "name": "eventobject",
            "value": "eventobject"
        }],
        "language": "js",
        "actions": [{
            "id": "expression_onClick_8597620122476193",
            "type": "ADD_SNIPPET",
            "codeSnippet": "frmIBSSSDetails.show();\n \n //frmIBSSApply.destroy();"
        }]
    }
}