{
    "p2kwiet2012247646755_button474230331217991_onClick_seq0": {
        "id": "p2kwiet2012247646755_button474230331217991_onClick_seq0",
        "type": "ACTION_SEQUENCE",
        "params": [{
            "name": "eventobject",
            "value": "eventobject"
        }],
        "language": "js",
        "actions": [{
            "id": "navigation_onClick_55507201224766391",
            "type": "NAVIGATE_TO_FORM",
            "formId": "frmIBOpenProdMailAddress",
            "formKUID": "p2kwiet2012247646698",
            "mappings": {},
            "mappingsOrder": [],
            "parentId": "",
            "enableMappingEditor": true,
            "package": ""
        }]
    }
}