{
    "p2kwiet2012247645018_btnAddFrmfb_onClick_seq0": {
        "id": "p2kwiet2012247645018_btnAddFrmfb_onClick_seq0",
        "type": "ACTION_SEQUENCE",
        "params": [{
            "name": "eventobject",
            "value": "eventobject"
        }],
        "language": "js",
        "actions": [{
            "id": "expression_onClick_86042201224763850",
            "type": "ADD_SNIPPET",
            "codeSnippet": "gblfbSelectionState = 0;\n gblFBIBStateTrack = false;"
        }, {
            "id": "expression_onClick_95355201224768411",
            "type": "ADD_SNIPPET",
            "codeSnippet": "offset = 0;\n frmIBMyReceipentsAddContactFB.linkMore.setVisibility(true);\n frmIBMyReceipentsAddContactFB.segmentSelectRc.removeAll();\n checkAndInvokeFbFriendsListingService();\n frmIBMyReceipentsAddContactFB.hboxTMBSelectRcpnts.setVisibility(true);\n frmIBMyReceipentsAddContactFB.hboxSelectrcpntsConf.setVisibility(false);\n "
        }]
    }
}