{
    "p2kwiet2012247646427_txtTDamount_DESKTOPWEB_onEndEditing_seq0": {
        "id": "p2kwiet2012247646427_txtTDamount_DESKTOPWEB_onEndEditing_seq0",
        "type": "ACTION_SEQUENCE",
        "params": [{
            "name": "eventobject",
            "value": "eventobject"
        }, {
            "name": "changedtext",
            "value": "changedtext"
        }],
        "language": "js",
        "actions": [{
            "id": "expression_onEndEditing_43734201224769533",
            "type": "ADD_SNIPPET",
            "codeSnippet": "frmIBOpenNewTermDepositAcc.txtTDamount.text = autoFormatAmount(frmIBOpenNewTermDepositAcc.txtTDamount.text) \n frmIBOpenNewTermDepositAcc.hbxAmount.skin=\"hbxProper\";"
        }]
    }
}