{
    "p2kwiet2012247649303_txbXferAmountRcvd_DESKTOPWEB_onBeginEditing_seq0": {
        "id": "p2kwiet2012247649303_txbXferAmountRcvd_DESKTOPWEB_onBeginEditing_seq0",
        "type": "ACTION_SEQUENCE",
        "params": [{
            "name": "eventobject",
            "value": "eventobject"
        }, {
            "name": "changedtext",
            "value": "changedtext"
        }],
        "language": "js",
        "actions": [{
            "id": "customcode_onBeginEditing_33496201224764381",
            "type": "INVOKE_FUNCTION",
            "sequenceKUID": "ehFrmIBTranferLP_txbXferAmountRcvd_onBeginEditing",
            "display": "ehFrmIBTranferLP_txbXferAmountRcvd_onBeginEditing",
            "inputparams": [{
                "name": "eventobject",
                "value": " eventobject"
            }, {
                "name": "changedtext",
                "value": " changedtext"
            }],
            "source": "module"
        }]
    }
}