{
    "p2kwiet2012247642497_lblTargetAmntVal_DESKTOPWEB_onKeyUp_seq0": {
        "id": "p2kwiet2012247642497_lblTargetAmntVal_DESKTOPWEB_onKeyUp_seq0",
        "type": "ACTION_SEQUENCE",
        "params": [{
            "name": "eventobject",
            "value": "eventobject"
        }, {
            "name": "changedtext",
            "value": "changedtext"
        }],
        "language": "js",
        "actions": [{
            "id": "expression_onKeyUp_17142201224762617",
            "type": "ADD_SNIPPET",
            "codeSnippet": "dontAllowNonNeumaric(frmIBDreamSAvingEdit.lblTargetAmntVal)"
        }]
    }
}