{
    "p2kwiet2012247644560_button474170747310704_onClick_seq0": {
        "id": "p2kwiet2012247644560_button474170747310704_onClick_seq0",
        "type": "ACTION_SEQUENCE",
        "params": [{
            "name": "eventobject",
            "value": "eventobject"
        }],
        "language": "js",
        "actions": [{
            "id": "expression_onClick_51462201224766244",
            "type": "ADD_SNIPPET",
            "codeSnippet": "frmIBMyActivities.lblactivity.setVisibility(true);\n frmIBMyActivities.hbxBtns.setVisibility(true);"
        }, {
            "id": "customcode_onClick_9692201224761828",
            "type": "INVOKE_FUNCTION",
            "sequenceKUID": "columnHeaderInDGHistory",
            "display": "columnHeaderInDGHistory",
            "inputparams": [],
            "source": "module"
        }, {
            "id": "customcode_onClick_47145201224765545",
            "type": "INVOKE_FUNCTION",
            "sequenceKUID": "btnhistoryOnClick",
            "display": "btnhistoryOnClick",
            "inputparams": [],
            "source": "module"
        }]
    }
}