{
    "p2kwiet2012247649549_frmIBTransferNowCompletion_postshow_seq0": {
        "id": "p2kwiet2012247649549_frmIBTransferNowCompletion_postshow_seq0",
        "type": "ACTION_SEQUENCE",
        "params": [{
            "name": "eventobject",
            "value": "eventobject"
        }, {
            "name": "neworientation",
            "value": "neworientation"
        }],
        "language": "js",
        "actions": [{
            "id": "customcode_postshow_13372201224764120",
            "type": "INVOKE_FUNCTION",
            "sequenceKUID": "addIBMenu",
            "display": "addIBMenu",
            "inputparams": [],
            "source": "module"
        }, {
            "id": "customcode_postshow_43878201224769827",
            "type": "INVOKE_FUNCTION",
            "sequenceKUID": "campaginService",
            "display": "campaginService",
            "inputparams": [{
                "name": "widgetName",
                "value": "'image2101640690016078'"
            }, {
                "name": "formName",
                "value": "'frmIBTransferNowCompletion'"
            }, {
                "name": "appChannel",
                "value": "'I'"
            }],
            "source": "module"
        }, {
            "id": "expression_postshow_43787201224762358",
            "type": "ADD_SNIPPET",
            "codeSnippet": "if (frmIBTransferNowCompletion.lblBal.isVisible)\n {\n \n frmIBTransferNowCompletion.lblHide.text= kony.i18n.getLocalizedString(\"keyHideIB\");\n }\n else\n {\n \n frmIBTransferNowCompletion.lblHide.text=kony.i18n.getLocalizedString(\"keyUnhide\");\n }\n \n \n \n //if(gblPaynow && gblTransSMART==1){\n //frmIBTransferNowCompletion.lblTransferVal.text = GBL_SMART_DATE_FT\n //}"
        }]
    }
}