{
    "p2kwiet2012247644098_tbxAccountName_onDone_seq0": {
        "id": "p2kwiet2012247644098_tbxAccountName_onDone_seq0",
        "type": "ACTION_SEQUENCE",
        "params": [{
            "name": "eventobject",
            "value": "eventobject"
        }, {
            "name": "changedtext",
            "value": "changedtext"
        }],
        "language": "js",
        "actions": [{
            "id": "expression_onDone_52951201224764142",
            "type": "ADD_SNIPPET",
            "codeSnippet": "frmIBMyAccnts.hbxAccountName.skin= \"SkinDefaults\";"
        }]
    }
}