{
    "p2kwiet2012247640786_frmIBCMChgMobNoTxnLimit_preshow_seq0": {
        "id": "p2kwiet2012247640786_frmIBCMChgMobNoTxnLimit_preshow_seq0",
        "type": "ACTION_SEQUENCE",
        "params": [{
            "name": "eventobject",
            "value": "eventobject"
        }, {
            "name": "neworientation",
            "value": "neworientation"
        }],
        "language": "js",
        "actions": [{
            "id": "expression_preshow_89298201224765334",
            "type": "ADD_SNIPPET",
            "codeSnippet": "frmIBCMChgMobNoTxnLimit.lblOTPinCurr.text = \"\";\n frmIBCMChgMobNoTxnLimit.lblPlsReEnter.text = \"\"; \n "
        }, {
            "id": "expression_preshow_37245201224769262",
            "type": "ADD_SNIPPET",
            "codeSnippet": "frmIBCMChgMobNoTxnLimit.hbxTokenEntry.setVisibility(\"false\");\n frmIBCMChgMobNoTxnLimit.image2474288733627.setVisibility(false);"
        }, {
            "id": "customcode_preshow_21326201224768378",
            "type": "INVOKE_FUNCTION",
            "sequenceKUID": "IBPreShowChngeMobNuTransLimit",
            "display": "IBPreShowChngeMobNuTransLimit",
            "inputparams": [],
            "source": "module"
        }]
    }
}