{
    "p2kwiet2012247646528_btnMore_onClick_seq0": {
        "id": "p2kwiet2012247646528_btnMore_onClick_seq0",
        "type": "ACTION_SEQUENCE",
        "params": [{
            "name": "eventobject",
            "value": "eventobject"
        }],
        "language": "js",
        "actions": [{
            "id": "customcode_onClick_38364201224765994",
            "type": "INVOKE_FUNCTION",
            "sequenceKUID": "IBivokeCustActInqForOpenAct",
            "display": "IBivokeCustActInqForOpenAct",
            "inputparams": [],
            "source": "module"
        }]
    }
}