{
    "p2kwiet2012247648472_btnTokenSNoNext_onClick_seq0": {
        "id": "p2kwiet2012247648472_btnTokenSNoNext_onClick_seq0",
        "type": "ACTION_SEQUENCE",
        "params": [{
            "name": "eventobject",
            "value": "eventobject"
        }],
        "language": "js",
        "actions": [{
            "id": "customcode_onClick_13923201224769902",
            "type": "INVOKE_FUNCTION",
            "sequenceKUID": "getTokenActivationCode",
            "display": "getTokenActivationCode",
            "inputparams": [],
            "source": "module"
        }]
    }
}