{
    "p2kwiet2012247641322_btnAnyID_onClick_seq0": {
        "id": "p2kwiet2012247641322_btnAnyID_onClick_seq0",
        "type": "ACTION_SEQUENCE",
        "params": [{
            "name": "eventobject",
            "value": "eventobject"
        }],
        "language": "js",
        "actions": [{
            "id": "customcode_onClick_93319201224768358",
            "type": "INVOKE_FUNCTION",
            "sequenceKUID": "navigatetoAnyIDBrief",
            "display": "navigatetoAnyIDBrief",
            "inputparams": [],
            "source": "module"
        }]
    }
}