{
    "p2kwiet2012247646834_frmIBPointRedemptionComplete_postshow_seq0": {
        "id": "p2kwiet2012247646834_frmIBPointRedemptionComplete_postshow_seq0",
        "type": "ACTION_SEQUENCE",
        "params": [{
            "name": "eventobject",
            "value": "eventobject"
        }, {
            "name": "neworientation",
            "value": "neworientation"
        }],
        "language": "js",
        "actions": [{
            "id": "customcode_postshow_14928201224767070",
            "type": "INVOKE_FUNCTION",
            "sequenceKUID": "addIBMenu",
            "display": "addIBMenu",
            "inputparams": [],
            "source": "module"
        }, {
            "id": "expression_postshow_54876201224769798",
            "type": "ADD_SNIPPET",
            "codeSnippet": "if(kony.i18n.getCurrentLocale() == \"th_TH\")\n frmIBPointRedemptionComplete.btnMenuMyAccountSummary.skin=\"btnIBMenuMyAccountSummaryFocusThai\";\n else\n frmIBPointRedemptionComplete.btnMenuMyAccountSummary.skin=\"btnIBMenuMyAccountSummaryFocus\";\n "
        }]
    }
}