{
    "p2kwiet2012247644098_txtCCNum4_DESKTOPWEB_onKeyDown_seq0": {
        "id": "p2kwiet2012247644098_txtCCNum4_DESKTOPWEB_onKeyDown_seq0",
        "type": "ACTION_SEQUENCE",
        "params": [{
            "name": "eventobject",
            "value": "eventobject"
        }, {
            "name": "changedtext",
            "value": "changedtext"
        }],
        "language": "js",
        "actions": [{
            "id": "customcode_onKeyDown_80531201224764568",
            "type": "INVOKE_FUNCTION",
            "sequenceKUID": "DisableCopyPaste",
            "display": "DisableCopyPaste",
            "inputparams": [{
                "name": "e",
                "value": "frmIBMyAccnts.txtCCNum4.text"
            }],
            "source": "module"
        }]
    }
}