{
    "p2kwiet2012247643079_button506369893806238_onClick_seq0": {
        "id": "p2kwiet2012247643079_button506369893806238_onClick_seq0",
        "type": "ACTION_SEQUENCE",
        "params": [{
            "name": "eventobject",
            "value": "eventobject"
        }],
        "language": "js",
        "actions": [{
            "id": "customcode_onClick_8498201224763720",
            "type": "INVOKE_FUNCTION",
            "sequenceKUID": "IBestmtGenereteOTP",
            "display": "IBestmtGenereteOTP",
            "inputparams": [],
            "source": "module"
        }]
    }
}