{
    "p2kwiet2012247649303_frmIBTranferLP_preshow_seq0": {
        "id": "p2kwiet2012247649303_frmIBTranferLP_preshow_seq0",
        "type": "ACTION_SEQUENCE",
        "params": [{
            "name": "eventobject",
            "value": "eventobject"
        }, {
            "name": "neworientation",
            "value": "neworientation"
        }],
        "language": "js",
        "actions": [{
            "id": "customcode_preshow_8404201224762559",
            "type": "INVOKE_FUNCTION",
            "sequenceKUID": "ehFrmIBTranferLP_frmIBTranferLP_preshow",
            "display": "ehFrmIBTranferLP_frmIBTranferLP_preshow",
            "inputparams": [{
                "name": "eventobject",
                "value": "eventobject"
            }, {
                "name": "neworientation",
                "value": "neworientation"
            }],
            "source": "module"
        }]
    }
}