{
    "p2kwiet2012247644098_txtCCNum3_DESKTOPWEB_onBeginEditing_seq0": {
        "id": "p2kwiet2012247644098_txtCCNum3_DESKTOPWEB_onBeginEditing_seq0",
        "type": "ACTION_SEQUENCE",
        "params": [{
            "name": "eventobject",
            "value": "eventobject"
        }, {
            "name": "changedtext",
            "value": "changedtext"
        }],
        "language": "js",
        "actions": [{
            "id": "expression_onBeginEditing_22994201224761004",
            "type": "ADD_SNIPPET",
            "codeSnippet": "frmIBMyAccnts.txtCCNum3.skin=\"txtBottomBorderFocus\";\n "
        }]
    }
}