{
    "p2kwiet2012247640090_frmIBBillPaymentExecutedTxn_postshow_seq0": {
        "id": "p2kwiet2012247640090_frmIBBillPaymentExecutedTxn_postshow_seq0",
        "type": "ACTION_SEQUENCE",
        "params": [{
            "name": "eventobject",
            "value": "eventobject"
        }, {
            "name": "neworientation",
            "value": "neworientation"
        }],
        "language": "js",
        "actions": [{
            "id": "customcode_postshow_19991201224766667",
            "type": "INVOKE_FUNCTION",
            "sequenceKUID": "addIBMenu",
            "display": "addIBMenu",
            "inputparams": [],
            "source": "module"
        }, {
            "id": "expression_postshow_12707201224767257",
            "type": "ADD_SNIPPET",
            "codeSnippet": "if(kony.i18n.getCurrentLocale()==\"th_TH\"){\n frmIBBillPaymentExecutedTxn.btnMenuMyActivities.skin=\"btnIBMenuMyActivitiesFocusThai\";\n }else{\n frmIBBillPaymentExecutedTxn.btnMenuMyActivities.skin=\"btnIBMenuMyActivitiesFocus\";\n }"
        }]
    }
}