{
    "p2kwiet2012247645129_btnAddFrmfb_onClick_seq0": {
        "id": "p2kwiet2012247645129_btnAddFrmfb_onClick_seq0",
        "type": "ACTION_SEQUENCE",
        "params": [{
            "name": "eventobject",
            "value": "eventobject"
        }],
        "language": "js",
        "actions": [{
            "id": "expression_onClick_2529201224761713",
            "type": "ADD_SNIPPET",
            "codeSnippet": "gblfbSelectionState = 0;\n gblFBIBStateTrack = false;\n recipientAddFromTransfer=false;"
        }, {
            "id": "navigation_onClick_3258201224763232",
            "type": "NAVIGATE_TO_FORM",
            "formId": "frmIBMyReceipentsAddContactFB",
            "formKUID": "p2kwiet2012247645018",
            "mappings": {},
            "mappingsOrder": [],
            "parentId": "",
            "enableMappingEditor": true,
            "package": ""
        }]
    }
}