{
    "p2kwiet2012247642265_datagridhistory_column3_onClick_seq0": {
        "id": "p2kwiet2012247642265_datagridhistory_column3_onClick_seq0",
        "type": "ACTION_SEQUENCE",
        "params": [{
            "name": "eventobject",
            "value": "eventobject"
        }],
        "language": "js",
        "actions": [{
            "id": "customcode_onClick_62764201224768595",
            "type": "INVOKE_FUNCTION",
            "sequenceKUID": "onSortColumn",
            "display": "onSortColumn",
            "inputparams": [{
                "name": "columnid",
                "value": "\"column3\""
            }],
            "source": "module"
        }]
    }
}