{
    "p2kwiet2012247641918_txtUserID_onTextChange_seq0": {
        "id": "p2kwiet2012247641918_txtUserID_onTextChange_seq0",
        "type": "ACTION_SEQUENCE",
        "params": [{
            "name": "eventobject",
            "value": "eventobject"
        }, {
            "name": "changedtext",
            "value": "changedtext"
        }],
        "language": "js",
        "actions": [{
            "id": "expression_onTextChange_77872201224766022",
            "type": "ADD_SNIPPET",
            "codeSnippet": "\n if(frmIBCreateUserID.txtUserID.text.length != 0)\n {\n \n frmIBCreateUserID.vbxRules.setVisibility(false);\n frmIBCreateUserID.hbxUserIDBubble.setVisibility(false);\n }else{\n frmIBCreateUserID.vbxRules.setVisibility(true);\n frmIBCreateUserID.hbxUserIDBubble.setVisibility(true);\n }"
        }]
    }
}