{
    "p2kwiet2012247639145_btnDistrict_onSelection_seq0": {
        "id": "p2kwiet2012247639145_btnDistrict_onSelection_seq0",
        "type": "ACTION_SEQUENCE",
        "params": [{
            "name": "eventobject",
            "value": "eventobject"
        }],
        "language": "js",
        "actions": [{
            "id": "customcode_onSelection_7521820122476766",
            "type": "INVOKE_FUNCTION",
            "sequenceKUID": "onSelectDistrict",
            "display": "onSelectDistrict",
            "inputparams": [],
            "source": "module"
        }]
    }
}