{
    "p2kwiet2012247651174_btnThai_onClick_seq0": {
        "id": "p2kwiet2012247651174_btnThai_onClick_seq0",
        "type": "ACTION_SEQUENCE",
        "params": [{
            "name": "eventobject",
            "value": "eventobject"
        }],
        "language": "js",
        "actions": [{
            "id": "customcode_onClick_67605201224761850",
            "type": "INVOKE_FUNCTION",
            "sequenceKUID": "langchange",
            "display": "langchange",
            "inputparams": [{
                "name": "lang",
                "value": "\"th_TH\""
            }],
            "source": "module"
        }, {
            "id": "expression_onClick_44624201224765797",
            "type": "ADD_SNIPPET",
            "codeSnippet": "hbxIBPreLogin.btnEng.skin = \"btnEngLangOff\";\n hbxIBPreLogin.btnThai.skin = \"btnThaiLangOn\";\n hbxIBPostLogin.btnEng.skin = \"btnEngLangOff\";\n hbxIBPostLogin.btnThai.skin = \"btnThaiLangOn\";"
        }]
    }
}