{
    "p2kwiet2012247646058_btnBac_onClick_seq0": {
        "id": "p2kwiet2012247646058_btnBac_onClick_seq0",
        "type": "ACTION_SEQUENCE",
        "params": [{
            "name": "eventobject",
            "value": "eventobject"
        }],
        "language": "js",
        "actions": [{
            "id": "expression_onClick_4662120122476552",
            "type": "ADD_SNIPPET",
            "codeSnippet": "//TMBUtil.DestroyForm(frmIBOpenProdDetnTnC)\n TMBUtil.DestroyForm(frmIBOpenNewSavingsAcc)\n TMBUtil.DestroyForm(frmIBOpenNewSavingsAccConfirmation)\n \n "
        }, {
            "id": "customcode_onClick_28991201224762929",
            "type": "INVOKE_FUNCTION",
            "sequenceKUID": "onclickActivationCompleteStart",
            "display": "onclickActivationCompleteStart",
            "inputparams": [],
            "source": "module"
        }]
    }
}