{
    "p2kwiet2012247643720_btnCancel_onClick_seq0": {
        "id": "p2kwiet2012247643720_btnCancel_onClick_seq0",
        "type": "ACTION_SEQUENCE",
        "params": [{
            "name": "eventobject",
            "value": "eventobject"
        }],
        "language": "js",
        "actions": [{
            "id": "customcode_onClick_13213201224766408",
            "type": "INVOKE_FUNCTION",
            "sequenceKUID": "ehFrmIBFTrnsrView_btnCancel_onClick",
            "display": "ehFrmIBFTrnsrView_btnCancel_onClick",
            "inputparams": [{
                "name": "eventobject",
                "value": "eventobject"
            }],
            "source": "module"
        }]
    }
}