{
    "p2kwiet2012247645184_btnAddManually_onClick_seq0": {
        "id": "p2kwiet2012247645184_btnAddManually_onClick_seq0",
        "type": "ACTION_SEQUENCE",
        "params": [{
            "name": "eventobject",
            "value": "eventobject"
        }],
        "language": "js",
        "actions": [{
            "id": "expression_onClick_79939201224769912",
            "type": "ADD_SNIPPET",
            "codeSnippet": "gblAdd_Receipent_State = gblNEW_RC_ADDITION;\n clearDataOnRcNewRecipientAdditionForm();\n showLoadingScreenPopup();"
        }, {
            "id": "navigation_onClick_81538201224763173",
            "type": "NAVIGATE_TO_FORM",
            "formId": "frmIBMyReceipentsAddContactManually",
            "formKUID": "p2kwiet2012247645129",
            "mappings": {},
            "mappingsOrder": [],
            "parentId": "",
            "enableMappingEditor": true,
            "package": ""
        }, {
            "id": "expression_onClick_81026201224768720",
            "type": "ADD_SNIPPET",
            "codeSnippet": "dismissLoadingScreenPopup();\n frmIBMyReceipentsAddContactManually.hboxMyRecipient.setVisibility(true);\n frmIBMyReceipentsAddContactManually.hboxMyRecipientDetail.setVisibility(false);\n gblAdd_Receipent_State = gblNEW_RC_ADDITION;"
        }]
    }
}