{
    "p2kwiet2012247638763_frmIBAddMyAccnt_preshow_seq0": {
        "id": "p2kwiet2012247638763_frmIBAddMyAccnt_preshow_seq0",
        "type": "ACTION_SEQUENCE",
        "params": [{
            "name": "eventobject",
            "value": "eventobject"
        }, {
            "name": "neworientation",
            "value": "neworientation"
        }],
        "language": "js",
        "actions": [{
            "id": "expression_preshow_90867201224763566",
            "type": "ADD_SNIPPET",
            "codeSnippet": "frmIBAddMyAccnt.lblOTPinCurr.text = \"\";\n frmIBAddMyAccnt.lblPlsReEnter.text = \"\"; \n "
        }]
    }
}