{
    "p2kwiet2012247649128_btnTPConfirm_onClick_seq0": {
        "id": "p2kwiet2012247649128_btnTPConfirm_onClick_seq0",
        "type": "ACTION_SEQUENCE",
        "params": [{
            "name": "eventobject",
            "value": "eventobject"
        }],
        "language": "js",
        "actions": [{
            "id": "customcode_onClick_39391201224766311",
            "type": "INVOKE_FUNCTION",
            "sequenceKUID": "onClickNextBtnOnEditPage",
            "display": "onClickNextBtnOnEditPage",
            "inputparams": [],
            "source": "module"
        }]
    }
}