{
    "p2kwiet2012247649745_btnMenuMyInbox_onClick_seq0": {
        "id": "p2kwiet2012247649745_btnMenuMyInbox_onClick_seq0",
        "type": "ACTION_SEQUENCE",
        "params": [{
            "name": "eventobject",
            "value": "eventobject"
        }],
        "language": "js",
        "actions": [{
            "id": "customcode_onClick_8909201224761641",
            "type": "INVOKE_FUNCTION",
            "sequenceKUID": "segMyInboxLoad",
            "display": "segMyInboxLoad",
            "inputparams": [],
            "source": "module"
        }, {
            "id": "expression_onClick_59128201224764708",
            "type": "ADD_SNIPPET",
            "codeSnippet": "nameofform = kony.application.getCurrentForm();\n nameofform.btnMenuMyInbox.skin = \"btnIBMenuMyInboxFocus\"\n nameofform.btnMenuMyInbox.hoverSkin = \"btnIBMenuMyInboxFocus\"\n gblMenuSelection = 3;"
        }]
    }
}