{
    "p2kwiet2012247646154_frmIBOpenNewSavingsAccConfirmation_postshow_seq0": {
        "id": "p2kwiet2012247646154_frmIBOpenNewSavingsAccConfirmation_postshow_seq0",
        "type": "ACTION_SEQUENCE",
        "params": [{
            "name": "eventobject",
            "value": "eventobject"
        }, {
            "name": "neworientation",
            "value": "neworientation"
        }],
        "language": "js",
        "actions": [{
            "id": "customcode_postshow_62380201224767021",
            "type": "INVOKE_FUNCTION",
            "sequenceKUID": "addIBMenu",
            "display": "addIBMenu",
            "inputparams": [],
            "source": "module"
        }, {
            "id": "customcode_postshow_6555201224767417",
            "type": "INVOKE_FUNCTION",
            "sequenceKUID": "segConvenientServicesLoad",
            "display": "segConvenientServicesLoad",
            "inputparams": [],
            "source": "module"
        }, {
            "id": "customcode_postshow_27292201224761241",
            "type": "INVOKE_FUNCTION",
            "sequenceKUID": "pagespecificSubMenu",
            "display": "pagespecificSubMenu",
            "inputparams": [],
            "source": "module"
        }, {
            "id": "customcode_postshow_12564201224766320",
            "type": "INVOKE_FUNCTION",
            "sequenceKUID": "UiChangesOnLocaleChange",
            "display": "UiChangesOnLocaleChange",
            "inputparams": [],
            "source": "module"
        }, {
            "id": "customcode_postshow_61615201224763132",
            "type": "INVOKE_FUNCTION",
            "sequenceKUID": "addNumberCheckListner",
            "display": "addNumberCheckListner",
            "inputparams": [{
                "name": "widjet",
                "value": "\"txtOTP\""
            }],
            "source": "module"
        }, {
            "id": "customcode_postshow_58743201224764322",
            "type": "INVOKE_FUNCTION",
            "sequenceKUID": "addNumberCheckListner",
            "display": "addNumberCheckListner",
            "inputparams": [{
                "name": "widjet",
                "value": "\"tbxToken\""
            }],
            "source": "module"
        }]
    }
}