{
    "p2kwiet2012247638763_btnCancelFMA1_onClick_seq0": {
        "id": "p2kwiet2012247638763_btnCancelFMA1_onClick_seq0",
        "type": "ACTION_SEQUENCE",
        "params": [{
            "name": "eventobject",
            "value": "eventobject"
        }],
        "language": "js",
        "actions": [{
            "id": "expression_onClick_67264201224766996",
            "type": "ADD_SNIPPET",
            "codeSnippet": "frmIBMyAccnts.hbxTMBImg.setVisibility(true);\n \n frmIBMyAccnts.hboxAddNewAccnt.setVisibility(false);\n //frmIBMyAccnts.imgArrow.setVisibility(false);\n frmIBMyAccnts.hbxViewAccnt.setVisibility(false);\n //frmIBMyAccnts.arrwImgSeg1.setVisibility(false);\n //frmIBMyAccnts.arrwImgSeg2.setVisibility(false);\n frmIBMyAccnts.cmbobxAccntType.setVisibility(false);\n frmIBMyAccnts.lineComboAccntype.setVisibility(false);\n frmIBMyAccnts.hbxEditAccntNN.setVisibility(false);\n \n \n gblMyAccntAddTmpData.length = 0;\n frmIBAddMyAccnt.segAccntDetails.removeAll();\n \n NON_TMB_ADD = 0;\n \n "
        }, {
            "id": "navigation_onClick_60797201224765091",
            "type": "NAVIGATE_TO_FORM",
            "formId": "frmIBMyAccnts",
            "formKUID": "p2kwiet2012247644098",
            "mappings": {},
            "mappingsOrder": [],
            "parentId": "",
            "enableMappingEditor": true,
            "package": ""
        }]
    }
}