{
    "p2kwiet2012247646698_btnEditAddress_onClick_seq0": {
        "id": "p2kwiet2012247646698_btnEditAddress_onClick_seq0",
        "type": "ACTION_SEQUENCE",
        "params": [{
            "name": "eventobject",
            "value": "eventobject"
        }],
        "language": "js",
        "actions": [{
            "id": "customcode_onClick_24333201224762162",
            "type": "INVOKE_FUNCTION",
            "sequenceKUID": "editAddressForOpenAccount",
            "display": "editAddressForOpenAccount",
            "inputparams": [],
            "source": "module"
        }]
    }
}