{
    "p2kwiet2012247642762_btnTPCancel_onClick_seq0": {
        "id": "p2kwiet2012247642762_btnTPCancel_onClick_seq0",
        "type": "ACTION_SEQUENCE",
        "params": [{
            "name": "eventobject",
            "value": "eventobject"
        }],
        "language": "js",
        "actions": [{
            "id": "customcode_onClick_99821201224769749",
            "type": "INVOKE_FUNCTION",
            "sequenceKUID": "cancelEditFutureTP",
            "display": "cancelEditFutureTP",
            "inputparams": [],
            "source": "module"
        }, {
            "id": "expression_onClick_79561201224762947",
            "type": "ADD_SNIPPET",
            "codeSnippet": "frmIBTopUpViewNEdit.show();"
        }]
    }
}