{
    "p2kwiet2012247643803_btnRight_onClick_seq0": {
        "id": "p2kwiet2012247643803_btnRight_onClick_seq0",
        "type": "ACTION_SEQUENCE",
        "params": [{
            "name": "eventobject",
            "value": "eventobject"
        }],
        "language": "js",
        "actions": [{
            "id": "expression_onClick_9542201224767080",
            "type": "ADD_SNIPPET",
            "codeSnippet": "if(eventobject.skin == \"btnIBNotHomeDelNormal\" || eventobject.skin == \"btnIBNotHomeDelFocus\"){\n if(InboxHomePageState == false){\n populateInboxDeleteStateIB();\n }\n else{\n //deleteNotificationMB();\n var msg = kony.i18n.getLocalizedString(\"keyIBNotificationDeletePart1\")+ \" \" + frmIBInboxHome.segRequestHistory.selectedItems.length + \" \" + kony.i18n.getLocalizedString(\"keyIBNotificationDeletePart2\");\n popUpNotfnDeleteIB.lblNotfnMsg.text = msg;\n popUpNotfnDeleteIB.btnPopDeleteCancel.onClick = popupDeleteCancelInboxIB;\n popUpNotfnDeleteIB.btnPopDeleteYEs.onClick = popupDeleteConfirmInboxIB;\n popUpNotfnDeleteIB.show();\n }\n }\n else if(eventobject.skin == \"btnDeleteActive\"){\n //do nothing\n }"
        }]
    }
}