{
    "p2kwiet2012247643824_frmIBMFAcctFullStatement_postshow_seq0": {
        "id": "p2kwiet2012247643824_frmIBMFAcctFullStatement_postshow_seq0",
        "type": "ACTION_SEQUENCE",
        "params": [{
            "name": "eventobject",
            "value": "eventobject"
        }, {
            "name": "neworientation",
            "value": "neworientation"
        }],
        "language": "js",
        "actions": [{
            "id": "customcode_postshow_30907201224769062",
            "type": "INVOKE_FUNCTION",
            "sequenceKUID": "setFocusOnBtnAccountSum",
            "display": "setFocusOnBtnAccountSum",
            "inputparams": [{
                "name": "currentFormId",
                "value": "kony.application.getCurrentForm()"
            }],
            "source": "module"
        }]
    }
}