{
    "p2kwiet2012247650990_button44747680938122_onClick_seq0": {
        "id": "p2kwiet2012247650990_button44747680938122_onClick_seq0",
        "type": "ACTION_SEQUENCE",
        "params": [{
            "name": "eventobject",
            "value": "eventobject"
        }],
        "language": "js",
        "actions": [{
            "id": "expression_onClick_17876201224769983",
            "type": "ADD_SNIPPET",
            "codeSnippet": "kony.print(\"varFMA --> \"+varFMA + \"varFAMA -->: \"+varFAMA );\n \n \n \n "
        }, {
            "id": "decision_onClick_40563201224763686",
            "type": "IF_CONDITION",
            "conditions": [{
                "leftValueType": "expression",
                "leftValue": "varFMA == true && varFAMA == false"
            }],
            "criteria": "all"
        }, {
            "id": "decision_onClick_32860201224767249",
            "type": "ELSE_CONDITION",
            "conditions": [],
            "criteria": "all"
        }, {
            "id": "expression_onClick_72256201224763099",
            "type": "ADD_SNIPPET",
            "codeSnippet": "frmIBMyAccnts.hbxTMBImg.setVisibility(true);\n \n frmIBMyAccnts.hboxAddNewAccnt.setVisibility(false);\n //frmIBMyAccnts.imgArrow.setVisibility(false);\n frmIBMyAccnts.hbxViewAccnt.setVisibility(false);\n //frmIBMyAccnts.arrwImgSeg1.setVisibility(false);\n //frmIBMyAccnts.arrwImgSeg2.setVisibility(false);\n frmIBMyAccnts.cmbobxAccntType.setVisibility(false);\n frmIBMyAccnts.lineComboAccntype.setVisibility(false);\n \n frmIBMyAccnts.show();",
            "parentId": "decision_onClick_87054201224768175"
        }, {
            "id": "expression_onClick_34084201224764721",
            "type": "ADD_SNIPPET",
            "codeSnippet": "frmIBAddMyAccnt.segAccntDetails.removeAt(frmIBAddMyAccnt.segAccntDetails.selectedIndex[1], 0)\n \n kony.print(\"doneee\")\n ",
            "parentId": "decision_onClick_87054201224768175"
        }, {
            "id": "expression_onClick_18588201224766494",
            "type": "ADD_SNIPPET",
            "codeSnippet": "popupDeleAccnt.dismiss();\n kony.print(\"False flow\");",
            "parentId": "decision_onClick_40563201224763686"
        }, {
            "id": "customcode_onClick_7496201224766406",
            "type": "INVOKE_FUNCTION",
            "sequenceKUID": "myAccountDelServiceIB",
            "display": "myAccountDelServiceIB",
            "inputparams": [],
            "parentId": "decision_onClick_40563201224763686",
            "source": "module"
        }, {
            "id": "expression_onClick_91623201224764981",
            "type": "ADD_SNIPPET",
            "codeSnippet": "kony.print(\"true\")\n frmIBAddMyAccnt.segAccntDetails.removeAt(frmIBAddMyAccnt.segAccntDetails.selectedIndex[1], 0)\n popupDeleAccnt.dismiss();",
            "parentId": "decision_onClick_52587201224765058"
        }, {
            "id": "decision_onClick_52587201224765058",
            "type": "IF_CONDITION",
            "conditions": [{
                "leftValueType": "expression",
                "leftValue": "gblMyAccntAddTmpData.length > 1"
            }],
            "parentId": "decision_onClick_32860201224767249",
            "criteria": "all"
        }, {
            "id": "decision_onClick_87054201224768175",
            "type": "ELSE_CONDITION",
            "conditions": [],
            "parentId": "decision_onClick_32860201224767249",
            "criteria": "all"
        }]
    }
}