{
    "p2kwiet2012247641860_button506459299513301_onClick_seq0": {
        "id": "p2kwiet2012247641860_button506459299513301_onClick_seq0",
        "type": "ACTION_SEQUENCE",
        "params": [{
            "name": "eventobject",
            "value": "eventobject"
        }],
        "language": "js",
        "actions": [{
            "id": "customcode_onClick_25696201224762929",
            "type": "INVOKE_FUNCTION",
            "sequenceKUID": "contactUsEmainNotificationIB",
            "display": "contactUsEmainNotificationIB",
            "inputparams": [],
            "source": "module"
        }]
    }
}