{
    "p2kwiet2012247641098_txtNewUserID_DESKTOPWEB_onEndEditing_seq0": {
        "id": "p2kwiet2012247641098_txtNewUserID_DESKTOPWEB_onEndEditing_seq0",
        "type": "ACTION_SEQUENCE",
        "params": [{
            "name": "eventobject",
            "value": "eventobject"
        }, {
            "name": "changedtext",
            "value": "changedtext"
        }],
        "language": "js",
        "actions": [{
            "id": "expression_onEndEditing_65405201224762480",
            "type": "ADD_SNIPPET",
            "codeSnippet": "frmIBCMChngUserID.hbox47428873330712.skin = hbxIBbottomborder;"
        }]
    }
}