{
    "p2kwiet2012247650526_segBanklist_onRowClick_seq0": {
        "id": "p2kwiet2012247650526_segBanklist_onRowClick_seq0",
        "type": "ACTION_SEQUENCE",
        "params": [{
            "name": "eventobject",
            "value": "eventobject"
        }, {
            "name": "sectionNumber",
            "value": "sectionNumber"
        }, {
            "name": "rowNumber",
            "value": "rowNumber"
        }],
        "language": "js",
        "actions": [{
            "id": "expression_onRowClick_30526201224762014",
            "type": "ADD_SNIPPET",
            "codeSnippet": "IBonRowSelectAddrPopUp();"
        }]
    }
}