{
    "p2kwiet2012247650879_button44747680938122_onClick_seq0": {
        "id": "p2kwiet2012247650879_button44747680938122_onClick_seq0",
        "type": "ACTION_SEQUENCE",
        "params": [{
            "name": "eventobject",
            "value": "eventobject"
        }],
        "language": "js",
        "actions": [{
            "id": "decision_onClick_53737201224761996",
            "type": "IF_CONDITION",
            "conditions": [{
                "leftValueType": "expression",
                "leftValue": "fbDlink==true"
            }],
            "criteria": "all"
        }, {
            "id": "decision_onClick_21830201224764448",
            "type": "ELSE_CONDITION",
            "conditions": [],
            "criteria": "all"
        }, {
            "id": "expression_onClick_60590201224767949",
            "type": "ADD_SNIPPET",
            "codeSnippet": "popupIBLogout.show();\n showLoadingScreenPopup();\n popupIBLogout.dismiss();\n delinkFacebookWrapper(gblFBCode);\n ",
            "parentId": "decision_onClick_53737201224761996"
        }, {
            "id": "customcode_onClick_88580201224769412",
            "type": "INVOKE_FUNCTION",
            "sequenceKUID": "callBARequestTaxDocService",
            "display": "callBARequestTaxDocService",
            "inputparams": [],
            "parentId": "decision_onClick_21830201224764448",
            "source": "module"
        }]
    }
}