{
    "p2kwiet2012247645597_btnEditMobileNo_onClick_seq0": {
        "id": "p2kwiet2012247645597_btnEditMobileNo_onClick_seq0",
        "type": "ACTION_SEQUENCE",
        "params": [{
            "name": "eventobject",
            "value": "eventobject"
        }],
        "language": "js",
        "actions": [{
            "id": "customcode_onClick_66680201224763934",
            "type": "INVOKE_FUNCTION",
            "sequenceKUID": "onClickKYCbtnEditMobileNo",
            "display": "onClickKYCbtnEditMobileNo",
            "inputparams": [],
            "source": "module"
        }, {
            "id": "expression_onClick_49231201224762015",
            "type": "ADD_SNIPPET",
            "codeSnippet": "editbuttonflag = \"number\"\n gblMobNoTransLimitFlag = true;\n flagMobNum=\"new\";\n frmIBCMChgMobNoTxnLimit.hbxRequest.setVisibility(false);\n frmIBCMChgMobNoTxnLimit.lblHead.setVisibility(true);\n frmIBCMChgMobNoTxnLimit.hbxChangeMobileNumber.setVisibility(true);\n frmIBCMChgMobNoTxnLimit.arrowrequest.setVisibility(false);\n frmIBCMChgMobNoTxnLimit.ArrowMobNu.setVisibility(true);\n "
        }]
    }
}