{
    "p2kwiet2012247640897_frmIBCMChgPwd_preshow_seq0": {
        "id": "p2kwiet2012247640897_frmIBCMChgPwd_preshow_seq0",
        "type": "ACTION_SEQUENCE",
        "params": [{
            "name": "eventobject",
            "value": "eventobject"
        }, {
            "name": "neworientation",
            "value": "neworientation"
        }],
        "language": "js",
        "actions": [{
            "id": "expression_preshow_27558201224769624",
            "type": "ADD_SNIPPET",
            "codeSnippet": "frmIBCMChgPwd.tbxTranscCrntPwd.setFocus(true);\n frmIBCMChgPwd.tbxTranscCrntPwd.text=\"\"\n frmIBCMChgPwd.txtPassword.text=\"\"\n frmIBCMChgPwd.txtRetypePwd.text=\"\"\n frmIBCMChgPwd.hbxPasswdStrength.skin=\"\"\n frmIBCMChgPwd.lblPasswdStrength.text=\"\"\n frmIBCMChgPwd.image2474288733627.setVisibility(false);"
        }, {
            "id": "expression_preshow_13923201224763162",
            "type": "ADD_SNIPPET",
            "codeSnippet": "gblShowPwd=0"
        }, {
            "id": "expression_preshow_59181201224763006",
            "type": "ADD_SNIPPET",
            "codeSnippet": "gblCMMore = 0\n "
        }, {
            "id": "expression_preshow_36321201224766375",
            "type": "ADD_SNIPPET",
            "codeSnippet": "gblCMHide = 0"
        }]
    }
}