{
    "p2kwiet2012247638530_txtIDPass_DESKTOPWEB_onBeginEditing_seq0": {
        "id": "p2kwiet2012247638530_txtIDPass_DESKTOPWEB_onBeginEditing_seq0",
        "type": "ACTION_SEQUENCE",
        "params": [{
            "name": "eventobject",
            "value": "eventobject"
        }, {
            "name": "changedtext",
            "value": "changedtext"
        }],
        "language": "js",
        "actions": [{
            "id": "expression_onBeginEditing_54340201224763861",
            "type": "ADD_SNIPPET",
            "codeSnippet": "var noniphendata = \"\";\n var txt = frmIBActivateIBankingStep1.txtIDPass.text;\n var txtLen = frmIBActivateIBankingStep1.txtIDPass.text.length;\n frmIBActivateIBankingStep1.hboxIDPass.skin = \"hbxIBbottomborderfocus\"\n for (i = 0; i < txtLen; i++)\n if (txt[i] != \"-\") noniphendata += txt[i];\n frmIBActivateIBankingStep1.txtIDPass.text = noniphendata;"
        }]
    }
}