{
    "p2kwiet2012247641211_txtOTP_DESKTOPWEB_onEndEditing_seq0": {
        "id": "p2kwiet2012247641211_txtOTP_DESKTOPWEB_onEndEditing_seq0",
        "type": "ACTION_SEQUENCE",
        "params": [{
            "name": "eventobject",
            "value": "eventobject"
        }, {
            "name": "changedtext",
            "value": "changedtext"
        }],
        "language": "js",
        "actions": [{
            "id": "expression_onEndEditing_34149201224767693",
            "type": "ADD_SNIPPET",
            "codeSnippet": "frmIBCMConfirmation.hbxOTPEntry.skin=\"hbxOtpTextFieldNormal\";"
        }]
    }
}