{
    "p2kwiet2012247644952_tbxSearch_DESKTOPWEB_onKeyUp_seq0": {
        "id": "p2kwiet2012247644952_tbxSearch_DESKTOPWEB_onKeyUp_seq0",
        "type": "ACTION_SEQUENCE",
        "params": [{
            "name": "eventobject",
            "value": "eventobject"
        }, {
            "name": "changedtext",
            "value": "changedtext"
        }],
        "language": "js",
        "actions": [{
            "id": "expression_onKeyUp_68247201224767967",
            "type": "ADD_SNIPPET",
            "codeSnippet": "if(frmIBMyReceipentsAddBankAccnt.tbxSearch.text.length > 2){\n searchFilter(1, 2);\n }else{\n resetRcSegData(1,2);\n }"
        }]
    }
}