{
    "p2kwiet2012247640009_hbxAmount_onClick_seq0": {
        "id": "p2kwiet2012247640009_hbxAmount_onClick_seq0",
        "type": "ACTION_SEQUENCE",
        "params": [{
            "name": "eventobject",
            "value": "eventobject"
        }],
        "language": "js",
        "actions": [{
            "id": "customcode_onClick_47709201224765826",
            "type": "INVOKE_FUNCTION",
            "sequenceKUID": "toggleArrowonClickFalse",
            "display": "toggleArrowonClickFalse",
            "inputparams": [],
            "source": "module"
        }]
    }
}