{
    "p2kwiet2012247639220_button47505874736298_onClick_seq0": {
        "id": "p2kwiet2012247639220_button47505874736298_onClick_seq0",
        "type": "ACTION_SEQUENCE",
        "params": [{
            "name": "eventobject",
            "value": "eventobject"
        }],
        "language": "js",
        "actions": [{
            "id": "expression_onClick_88424201224766734",
            "type": "ADD_SNIPPET",
            "codeSnippet": "onClickEmailTnC('BeepBill')"
        }]
    }
}