{
    "p2kwiet2012247642984_vbox4740477151928984_onClick_seq0": {
        "id": "p2kwiet2012247642984_vbox4740477151928984_onClick_seq0",
        "type": "ACTION_SEQUENCE",
        "params": [{
            "name": "eventobject",
            "value": "eventobject"
        }],
        "language": "js",
        "actions": [{
            "id": "expression_onClick_4451201224766640",
            "type": "ADD_SNIPPET",
            "codeSnippet": "if (frmIBePaymentExecutedTxn.lblBBPaymentValue.isVisible)\n {\n frmIBePaymentExecutedTxn.lblBBPaymentValue.setVisibility(false);\n frmIBePaymentExecutedTxn.lblHide.text= kony.i18n.getLocalizedString(\"keyUnhide\");\n }\n else\n {\n frmIBePaymentExecutedTxn.lblBBPaymentValue.setVisibility(true);\n frmIBePaymentExecutedTxn.lblHide.text= kony.i18n.getLocalizedString(\"Hide\");\n }\n "
        }]
    }
}