{
    "p2kwiet2012247651270_linkWebChat_onClick_seq0": {
        "id": "p2kwiet2012247651270_linkWebChat_onClick_seq0",
        "type": "ACTION_SEQUENCE",
        "params": [{
            "name": "eventobject",
            "value": "eventobject"
        }],
        "language": "js",
        "actions": [{
            "id": "customcode_onClick_52056201224766379",
            "type": "INVOKE_FUNCTION",
            "sequenceKUID": "webchatURL",
            "display": "webchatURL",
            "inputparams": [],
            "source": "module"
        }]
    }
}