{
    "p2kwiet2012247641578_button474230331217989_onClick_seq0": {
        "id": "p2kwiet2012247641578_button474230331217989_onClick_seq0",
        "type": "ACTION_SEQUENCE",
        "params": [{
            "name": "eventobject",
            "value": "eventobject"
        }],
        "language": "js",
        "actions": [{
            "id": "decision_onClick_3744201224766970",
            "type": "IF_CONDITION",
            "conditions": [{
                "leftValueType": "expression",
                "leftValue": "frmIBCMEditMyProfile.hbxOtpBox.isVisible==true"
            }],
            "criteria": "all"
        }, {
            "id": "decision_onClick_65269201224764077",
            "type": "ELSE_CONDITION",
            "conditions": [],
            "criteria": "all"
        }, {
            "id": "customcode_onClick_71210201224766351",
            "type": "INVOKE_FUNCTION",
            "sequenceKUID": "validateOTPIBprofile",
            "display": "validateOTPIBprofile",
            "inputparams": [],
            "parentId": "decision_onClick_3744201224766970",
            "source": "module"
        }, {
            "id": "customcode_onClick_2363201224764606",
            "type": "INVOKE_FUNCTION",
            "sequenceKUID": "IBEditProfileValidatn",
            "display": "IBEditProfileValidatn",
            "inputparams": [],
            "parentId": "decision_onClick_65269201224764077",
            "source": "module"
        }]
    }
}