{
    "p2kwiet2012247644730_hbxBillerRef2_onClick_seq0": {
        "id": "p2kwiet2012247644730_hbxBillerRef2_onClick_seq0",
        "type": "ACTION_SEQUENCE",
        "params": [{
            "name": "eventobject",
            "value": "eventobject"
        }],
        "language": "js",
        "actions": [{
            "id": "expression_onClick_35187201224762978",
            "type": "ADD_SNIPPET",
            "codeSnippet": "frmIBMyBillersHome.txtAddBillerRef2.setFocus(true);"
        }]
    }
}