{
    "p2kwiet2012247640268_txtScheduleNickname_DESKTOPWEB_onBeginEditing_seq0": {
        "id": "p2kwiet2012247640268_txtScheduleNickname_DESKTOPWEB_onBeginEditing_seq0",
        "type": "ACTION_SEQUENCE",
        "params": [{
            "name": "eventobject",
            "value": "eventobject"
        }, {
            "name": "changedtext",
            "value": "changedtext"
        }],
        "language": "js",
        "actions": [{
            "id": "expression_onBeginEditing_8392201224769165",
            "type": "ADD_SNIPPET",
            "codeSnippet": " frmIBBillPaymentLP.hbxScheduleNickName.skin = \"hbxProperFocus\";"
        }]
    }
}