{
    "p2kwiet2012247641860_hbxFB2_onClick_seq0": {
        "id": "p2kwiet2012247641860_hbxFB2_onClick_seq0",
        "type": "ACTION_SEQUENCE",
        "params": [{
            "name": "eventobject",
            "value": "eventobject"
        }],
        "language": "js",
        "actions": [{
            "id": "customcode_onClick_55931201224764940",
            "type": "INVOKE_FUNCTION",
            "sequenceKUID": "onFeedbackSelection",
            "display": "onFeedbackSelection",
            "inputparams": [{
                "name": "eventobject",
                "value": "eventobject"
            }],
            "source": "module"
        }]
    }
}