{
    "p2kwiet2012247646924_btnEditPointRedemption_onClick_seq0": {
        "id": "p2kwiet2012247646924_btnEditPointRedemption_onClick_seq0",
        "type": "ACTION_SEQUENCE",
        "params": [{
            "name": "eventobject",
            "value": "eventobject"
        }],
        "language": "js",
        "actions": [{
            "id": "customcode_onClick_40421201224766907",
            "type": "INVOKE_FUNCTION",
            "sequenceKUID": "onClickEditPointRedemptionConfirmation",
            "display": "onClickEditPointRedemptionConfirmation",
            "inputparams": [],
            "source": "module"
        }]
    }
}