{
    "p2kwiet2012247644952_tbxAddAccntNickName_DESKTOPWEB_onEndEditing_seq0": {
        "id": "p2kwiet2012247644952_tbxAddAccntNickName_DESKTOPWEB_onEndEditing_seq0",
        "type": "ACTION_SEQUENCE",
        "params": [{
            "name": "eventobject",
            "value": "eventobject"
        }, {
            "name": "changedtext",
            "value": "changedtext"
        }],
        "language": "js",
        "actions": [{
            "id": "expression_onEndEditing_99158201224763260",
            "type": "ADD_SNIPPET",
            "codeSnippet": "frmIBMyReceipentsAddBankAccnt.hboxAddAccntNickName.skin=\"SkinDefaults\";"
        }]
    }
}