{
    "p2kwiet2012247650544_btnGetDirection_onClick_seq0": {
        "id": "p2kwiet2012247650544_btnGetDirection_onClick_seq0",
        "type": "ACTION_SEQUENCE",
        "params": [{
            "name": "eventobject",
            "value": "eventobject"
        }],
        "language": "js",
        "actions": [{
            "id": "customcode_onClick_31383201224764042",
            "type": "INVOKE_FUNCTION",
            "sequenceKUID": "onClickGetDirectionIB",
            "display": "onClickGetDirectionIB",
            "inputparams": [],
            "source": "module"
        }]
    }
}