{
    "p2kwiet2012247644952_frmIBMyReceipentsAddBankAccnt_preshow_seq0": {
        "id": "p2kwiet2012247644952_frmIBMyReceipentsAddBankAccnt_preshow_seq0",
        "type": "ACTION_SEQUENCE",
        "params": [{
            "name": "eventobject",
            "value": "eventobject"
        }, {
            "name": "neworientation",
            "value": "neworientation"
        }],
        "language": "js",
        "actions": [{
            "id": "expression_preshow_12993201224766758",
            "type": "ADD_SNIPPET",
            "codeSnippet": "frmIBMyReceipentsAddBankAccnt.lblBankRef.setVisibility(false);\n frmIBMyReceipentsAddBankAccnt.label476047582127701.setVisibility(false);\n frmIBMyReceipentsAddBankAccnt.label476047582115277.setVisibility(false);\n frmIBMyReceipentsAddBankAccnt.label476047582115279.setVisibility(false);\n frmIBMyReceipentsAddBankAccnt.textbox247428873338513.text=\"\";\n frmIBMyReceipentsAddBankAccnt.hboxAddAccntAccountName.setVisibility(false);\n frmIBMyReceipentsAddBankAccnt.tbxAddAccntAccountName.text=\"\";\n frmIBMyReceipentsAddBankAccnt.lblOTPinCurr.text = \"\";\n frmIBMyReceipentsAddBankAccnt.lblPlsReEnter.text = \"\";\n validateSecurityForTransactionServiceRc();\n "
        }]
    }
}