{
    "p2kwiet2012247651117_link9808934121782_onClick_seq0": {
        "id": "p2kwiet2012247651117_link9808934121782_onClick_seq0",
        "type": "ACTION_SEQUENCE",
        "params": [{
            "name": "eventobject",
            "value": "eventobject"
        }],
        "language": "js",
        "actions": [{
            "id": "expression_onClick_2656201224761581",
            "type": "ADD_SNIPPET",
            "codeSnippet": "kony.application.openURL(\"https://www.google.com/intl/en/chrome/browser/\");"
        }]
    }
}