{
    "p2kwiet2012247639086_btnBack1_onClick_seq0": {
        "id": "p2kwiet2012247639086_btnBack1_onClick_seq0",
        "type": "ACTION_SEQUENCE",
        "params": [{
            "name": "eventobject",
            "value": "eventobject"
        }],
        "language": "js",
        "actions": [{
            "id": "customcode_onClick_27930201224768069",
            "type": "INVOKE_FUNCTION",
            "sequenceKUID": "hideTransactions",
            "display": "hideTransactions",
            "inputparams": [],
            "source": "module"
        }]
    }
}