{
    "p2kwiet2012247642852_btnBackAccntDetails_onClick_seq0": {
        "id": "p2kwiet2012247642852_btnBackAccntDetails_onClick_seq0",
        "type": "ACTION_SEQUENCE",
        "params": [{
            "name": "eventobject",
            "value": "eventobject"
        }],
        "language": "js",
        "actions": [{
            "id": "customcode_onClick_83757201224767754",
            "type": "INVOKE_FUNCTION",
            "sequenceKUID": "onClickBackFromEditMyAccountsIB",
            "display": "onClickBackFromEditMyAccountsIB",
            "inputparams": [],
            "source": "module"
        }]
    }
}