{
    "p2kwiet2012247639342_btnAddBillerSearch_onClick_seq0": {
        "id": "p2kwiet2012247639342_btnAddBillerSearch_onClick_seq0",
        "type": "ACTION_SEQUENCE",
        "params": [{
            "name": "eventobject",
            "value": "eventobject"
        }],
        "language": "js",
        "actions": [{
            "id": "expression_onClick_3774120122476984",
            "type": "ADD_SNIPPET",
            "codeSnippet": "//frmIBBeepAndBillApply.show();\n isToAccSelected = false;\n getMyBillListIBBB()\n frmIBBeepAndBillApply.txtAddBillerNickName.text = \"\"//frmIBBeepAndBillApplyCW.txtAddBillerNickName.text;\n frmIBBeepAndBillApply.txtAddBillerRef1.text = \"\"//frmIBBeepAndBillApplyCW.txtAddBillerRef1.text\n frmIBBeepAndBillApply.txtAddBillerRef2.text = \"\"//frmIBBeepAndBillApplyCW.txtAddBillerRef2.text\n frmIBBeepAndBillApply.lblAddBillerCompCode.text = \"\"//frmIBBeepAndBillApplyCW.lblAddBillerCompCode.text\n frmIBBeepAndBillApply.imgAddBillerLogo.src = \"\"//frmIBBeepAndBillApplyCW.imgAddBillerLogo.src"
        }]
    }
}