{
    "p2kwiet2012247647435_frmIBPromotions_postshow_seq0": {
        "id": "p2kwiet2012247647435_frmIBPromotions_postshow_seq0",
        "type": "ACTION_SEQUENCE",
        "params": [{
            "name": "eventobject",
            "value": "eventobject"
        }, {
            "name": "neworientation",
            "value": "neworientation"
        }],
        "language": "js",
        "actions": [{
            "id": "customcode_postshow_47402201224767898",
            "type": "INVOKE_FUNCTION",
            "sequenceKUID": "addIBMenu",
            "display": "addIBMenu",
            "inputparams": [],
            "source": "module"
        }, {
            "id": "expression_postshow_51764201224766587",
            "type": "ADD_SNIPPET",
            "codeSnippet": "frmIBPromotions.hbox101086657956686.focusSkin=\"hbxSkinSegGrey\""
        }]
    }
}