{
    "p2kwiet2012247645911_txtOTP_DESKTOPWEB_onBeginEditing_seq0": {
        "id": "p2kwiet2012247645911_txtOTP_DESKTOPWEB_onBeginEditing_seq0",
        "type": "ACTION_SEQUENCE",
        "params": [{
            "name": "eventobject",
            "value": "eventobject"
        }, {
            "name": "changedtext",
            "value": "changedtext"
        }],
        "language": "js",
        "actions": [{
            "id": "expression_onBeginEditing_58427201224762289",
            "type": "ADD_SNIPPET",
            "codeSnippet": "frmIBOpenNewDreamAccConfirmation.hbox866854059250283.skin=\"hbxOtpTextField\"\n /*\n if(isiPad)\n {\n document.getElementById(\"frmIBOpenNewDreamAccConfirmation_txtOTP\").type = \"number\"; \n }*/"
        }]
    }
}