{
    "p2kwiet2012247642984_btnPrint_onClick_seq0": {
        "id": "p2kwiet2012247642984_btnPrint_onClick_seq0",
        "type": "ACTION_SEQUENCE",
        "params": [{
            "name": "eventobject",
            "value": "eventobject"
        }],
        "language": "js",
        "actions": [{
            "id": "customcode_onClick_40111201224766314",
            "type": "INVOKE_FUNCTION",
            "sequenceKUID": "savePDFExecePaymentIB",
            "display": "savePDFExecePaymentIB",
            "inputparams": [{
                "name": "filetype",
                "value": "\"print\""
            }],
            "source": "module"
        }]
    }
}