{
    "p2kwiet2012247650934_button4454770881134684_onClick_seq0": {
        "id": "p2kwiet2012247650934_button4454770881134684_onClick_seq0",
        "type": "ACTION_SEQUENCE",
        "params": [{
            "name": "eventobject",
            "value": "eventobject"
        }],
        "language": "js",
        "actions": [{
            "id": "expression_onClick_72945201224763606",
            "type": "ADD_SNIPPET",
            "codeSnippet": "popupIBOTPMYALocked.dismiss();\n frmIBMyAccnts.show()"
        }]
    }
}