{
    "p2kwiet2012247650663_btnYes_onClick_seq0": {
        "id": "p2kwiet2012247650663_btnYes_onClick_seq0",
        "type": "ACTION_SEQUENCE",
        "params": [{
            "name": "eventobject",
            "value": "eventobject"
        }],
        "language": "js",
        "actions": [{
            "id": "customcode_onClick_1759520122476979",
            "type": "INVOKE_FUNCTION",
            "sequenceKUID": "splitingTransactionIB",
            "display": "splitingTransactionIB",
            "inputparams": [],
            "source": "module"
        }]
    }
}