{
    "p2kwiet2012247647851_btnCancelOTP_onClick_seq0": {
        "id": "p2kwiet2012247647851_btnCancelOTP_onClick_seq0",
        "type": "ACTION_SEQUENCE",
        "params": [{
            "name": "eventobject",
            "value": "eventobject"
        }],
        "language": "js",
        "actions": [{
            "id": "expression_onClick_75979201224761317",
            "type": "ADD_SNIPPET",
            "codeSnippet": "frmIBNotificationHome.show()"
        }]
    }
}