{
    "p2kwiet2012247638234_button588595093453735_onClick_seq0": {
        "id": "p2kwiet2012247638234_button588595093453735_onClick_seq0",
        "type": "ACTION_SEQUENCE",
        "params": [{
            "name": "eventobject",
            "value": "eventobject"
        }],
        "language": "js",
        "actions": [{
            "id": "expression_onClick_52199201224761976",
            "type": "ADD_SNIPPET",
            "codeSnippet": "gaccTypeIB = \"CCA\";\n viewFullStatementIB();\n \n "
        }, {
            "id": "navigation_onClick_90438201224762523",
            "type": "NAVIGATE_TO_FORM",
            "formId": "frmIBAccntFullStatement",
            "formKUID": "p2kwiet2012247638109",
            "mappings": {},
            "mappingsOrder": [],
            "parentId": "",
            "enableMappingEditor": true,
            "package": ""
        }]
    }
}