{
    "p2kwiet2012247642323_button1495287783233622_onClick_seq0": {
        "id": "p2kwiet2012247642323_button1495287783233622_onClick_seq0",
        "type": "ACTION_SEQUENCE",
        "params": [{
            "name": "eventobject",
            "value": "eventobject"
        }],
        "language": "js",
        "actions": [{
            "id": "customcode_onClick_4372420122476830",
            "type": "INVOKE_FUNCTION",
            "sequenceKUID": "deleteATMPIN",
            "display": "deleteATMPIN",
            "inputparams": [],
            "source": "module"
        }]
    }
}