{
    "p2kwiet2012247638905_btnNext_onClick_seq0": {
        "id": "p2kwiet2012247638905_btnNext_onClick_seq0",
        "type": "ACTION_SEQUENCE",
        "params": [{
            "name": "eventobject",
            "value": "eventobject"
        }],
        "language": "js",
        "actions": [{
            "id": "decision_onClick_76610201224763292",
            "type": "IF_CONDITION",
            "conditions": [{
                "leftValueType": "expression",
                "leftValue": "frmIBAnyIDRegistration.hbxOtpBox.isVisible"
            }],
            "criteria": "all"
        }, {
            "id": "decision_onClick_96205201224763620",
            "type": "ELSE_CONDITION",
            "conditions": [],
            "criteria": "all"
        }, {
            "id": "customcode_onClick_65202201224763074",
            "type": "INVOKE_FUNCTION",
            "sequenceKUID": "anyIDRegDeRegService",
            "display": "anyIDRegDeRegService",
            "inputparams": [],
            "parentId": "decision_onClick_76610201224763292",
            "source": "module"
        }, {
            "id": "customcode_onClick_46085201224769362",
            "type": "INVOKE_FUNCTION",
            "sequenceKUID": "onClickAnyIDRegistrationNext",
            "display": "onClickAnyIDRegistrationNext",
            "inputparams": [],
            "parentId": "decision_onClick_96205201224763620",
            "source": "module"
        }]
    }
}