{
    "p2kwiet2012247650841_btnPopUpCancel_onClick_seq0": {
        "id": "p2kwiet2012247650841_btnPopUpCancel_onClick_seq0",
        "type": "ACTION_SEQUENCE",
        "params": [{
            "name": "eventobject",
            "value": "eventobject"
        }],
        "language": "js",
        "actions": [{
            "id": "expression_onClick_42493201224763644",
            "type": "ADD_SNIPPET",
            "codeSnippet": "popupIBCommonConfirmCancel.dismiss();\n "
        }]
    }
}