{
    "p2kwiet2012247642852_button447476809946_onClick_seq0": {
        "id": "p2kwiet2012247642852_button447476809946_onClick_seq0",
        "type": "ACTION_SEQUENCE",
        "params": [{
            "name": "eventobject",
            "value": "eventobject"
        }],
        "language": "js",
        "actions": [{
            "id": "decision_onClick_7666320122476155",
            "type": "IF_CONDITION",
            "conditions": [{
                "leftValueType": "expression",
                "leftValue": "getCRMLockStatus()"
            }],
            "criteria": "all"
        }, {
            "id": "decision_onClick_59814201224767096",
            "type": "ELSE_CONDITION",
            "conditions": [],
            "criteria": "all"
        }, {
            "id": "expression_onClick_92048201224761798",
            "type": "ADD_SNIPPET",
            "codeSnippet": "curr_form=kony.application.getCurrentForm().id;\n popIBBPOTPLocked.show();",
            "parentId": "decision_onClick_7666320122476155"
        }, {
            "id": "expression_onClick_74963201224767738",
            "type": "ADD_SNIPPET",
            "codeSnippet": "kony.print(\"varFMA --> \"+varFMA + \"varFAMA -->: \"+varFAMA );\n \n if(gblsegID == \"segTMBAccntsList\"){\n \n popupDeleAccnt.lblConfoMsg.text = kony.i18n.getLocalizedString(\"keylblDelAcc\");\n \n }else{\n \n popupDeleAccnt.lblConfoMsg.text = kony.i18n.getLocalizedString(\"keylblDelAcc\");\n \n }\n popupDeleAccnt.button44747680938122.onClick =onclickDeleteMyaccountFlow;\n popupDeleAccnt.image244747680938084.setVisibility(true);\n popupDeleAccnt.button44747680938122.text = kony.i18n.getLocalizedString(\"keyYes\");\n popupDeleAccnt.image244747680938084.src = \"delredicon.png.png\";\n popupDeleAccnt.hbox44914510567887.setVisibility(true);",
            "parentId": "decision_onClick_59814201224767096"
        }, {
            "id": "navigation_onClick_9221420122476418",
            "type": "DISPLAY_POPUP",
            "popupId": "popupDeleAccnt",
            "popupKUID": "p2kwiet2012247650774",
            "mappings": {},
            "mappingsOrder": [],
            "parentId": "decision_onClick_59814201224767096",
            "enableMappingEditor": true
        }]
    }
}