{
    "p2kwiet2012247640409_btnBPNever_onClick_seq0": {
        "id": "p2kwiet2012247640409_btnBPNever_onClick_seq0",
        "type": "ACTION_SEQUENCE",
        "params": [{
            "name": "eventobject",
            "value": "eventobject"
        }],
        "language": "js",
        "actions": [{
            "id": "expression_onClick_34842201224761674",
            "type": "ADD_SNIPPET",
            "codeSnippet": "frmIBBillPaymentView.hbxBPexecutiontimes.setVisibility(false);\n frmIBBillPaymentView.hbxBPUntil.setVisibility(false);"
        }, {
            "id": "customcode_onClick_12644201224764603",
            "type": "INVOKE_FUNCTION",
            "sequenceKUID": "endingSchedule",
            "display": "endingSchedule",
            "inputparams": [{
                "name": "eventObject",
                "value": "eventobject"
            }],
            "source": "module"
        }]
    }
}