{
    "p2kwiet2012247649002_btnMonthly_onClick_seq0": {
        "id": "p2kwiet2012247649002_btnMonthly_onClick_seq0",
        "type": "ACTION_SEQUENCE",
        "params": [{
            "name": "eventobject",
            "value": "eventobject"
        }],
        "language": "js",
        "actions": [{
            "id": "customcode_onClick_55035201224763746",
            "type": "INVOKE_FUNCTION",
            "sequenceKUID": "IBOnClickMonthlyFutureTopUp",
            "display": "IBOnClickMonthlyFutureTopUp",
            "inputparams": [],
            "source": "module"
        }]
    }
}