{
    "p2kwiet2012247647593_txtBalMin_DESKTOPWEB_onEndEditing_seq0": {
        "id": "p2kwiet2012247647593_txtBalMin_DESKTOPWEB_onEndEditing_seq0",
        "type": "ACTION_SEQUENCE",
        "params": [{
            "name": "eventobject",
            "value": "eventobject"
        }, {
            "name": "changedtext",
            "value": "changedtext"
        }],
        "language": "js",
        "actions": [{
            "id": "expression_onEndEditing_67812201224765804",
            "type": "ADD_SNIPPET",
            "codeSnippet": "if(frmIBSSApply.txtBalMin.text == \"\"){\n frmIBSSApply.txtBalMin.text = \"0.00 \"+ kony.i18n.getLocalizedString(\"currencyThaiBaht\");\n }else {\n frmIBSSApply.txtBalMin.text = commaFormatted(parseFloat(removeCommos(frmIBSSApply.txtBalMin.text)).toFixed(2))+\" \"+ kony.i18n.getLocalizedString(\"currencyThaiBaht\");\n }"
        }]
    }
}