{
    "p2kwiet2012247645253_btnAddFrmfb_onClick_seq0": {
        "id": "p2kwiet2012247645253_btnAddFrmfb_onClick_seq0",
        "type": "ACTION_SEQUENCE",
        "params": [{
            "name": "eventobject",
            "value": "eventobject"
        }],
        "language": "js",
        "actions": [{
            "id": "expression_onClick_76919201224768719",
            "type": "ADD_SNIPPET",
            "codeSnippet": "gblfbSelectionState = 0;\n gblFBIBStateTrack = false;"
        }, {
            "id": "navigation_onClick_5049120122476640",
            "type": "NAVIGATE_TO_FORM",
            "formId": "frmIBMyReceipentsAddContactFB",
            "formKUID": "p2kwiet2012247645018",
            "mappings": {},
            "mappingsOrder": [],
            "parentId": "",
            "enableMappingEditor": true,
            "package": ""
        }, {
            "id": "expression_onClick_1800201224762168",
            "type": "ADD_SNIPPET",
            "codeSnippet": "frmIBMyReceipentsAddContactFB.show();\n frmIBMyReceipentsAddContactFB.hboxTMBSelectRcpnts.setVisibility(true);\n frmIBMyReceipentsAddContactFB.hboxSelectrcpntsConf.setVisibility(false);"
        }]
    }
}