{
    "p2kwiet2012247651117_link9808934127980_onClick_seq0": {
        "id": "p2kwiet2012247651117_link9808934127980_onClick_seq0",
        "type": "ACTION_SEQUENCE",
        "params": [{
            "name": "eventobject",
            "value": "eventobject"
        }],
        "language": "js",
        "actions": [{
            "id": "expression_onClick_11535201224769819",
            "type": "ADD_SNIPPET",
            "codeSnippet": "kony.application.openURL(\"http://www.mozilla.org/en/firefox/new/\");"
        }]
    }
}