{
    "p2kwiet2012247639664_tbxSearch_DESKTOPWEB_onKeyUp_seq0": {
        "id": "p2kwiet2012247639664_tbxSearch_DESKTOPWEB_onKeyUp_seq0",
        "type": "ACTION_SEQUENCE",
        "params": [{
            "name": "eventobject",
            "value": "eventobject"
        }, {
            "name": "changedtext",
            "value": "changedtext"
        }],
        "language": "js",
        "actions": [{
            "id": "customcode_onKeyUp_38359201224769117",
            "type": "INVOKE_FUNCTION",
            "sequenceKUID": "validateSearch",
            "display": "validateSearch",
            "inputparams": [{
                "name": "searchText",
                "value": ""
            }],
            "source": "module"
        }, {
            "id": "customcode_onKeyUp_4184320122476964",
            "type": "INVOKE_FUNCTION",
            "sequenceKUID": "searchSuggestedBillersBB",
            "display": "searchSuggestedBillersBB",
            "inputparams": [],
            "source": "module"
        }]
    }
}