{
    "p2kwiet2012247644098_lnkDreamSaving_onClick_seq0": {
        "id": "p2kwiet2012247644098_lnkDreamSaving_onClick_seq0",
        "type": "ACTION_SEQUENCE",
        "params": [{
            "name": "eventobject",
            "value": "eventobject"
        }],
        "language": "js",
        "actions": [{
            "id": "navigation_onClick_67327201224765667",
            "type": "NAVIGATE_TO_FORM",
            "formId": "frmIBDreamSavingMaintenance",
            "formKUID": "p2kwiet2012247642558",
            "mappings": {},
            "mappingsOrder": [],
            "parentId": "",
            "enableMappingEditor": true,
            "package": ""
        }]
    }
}