{
    "p2kwiet2012247643877_linkprev_onClick_seq0": {
        "id": "p2kwiet2012247643877_linkprev_onClick_seq0",
        "type": "ACTION_SEQUENCE",
        "params": [{
            "name": "eventobject",
            "value": "eventobject"
        }],
        "language": "js",
        "actions": [{
            "id": "customcode_onClick_5479201224769092",
            "type": "INVOKE_FUNCTION",
            "sequenceKUID": "prevPageloadInMFStmt",
            "display": "prevPageloadInMFStmt",
            "inputparams": [{
                "name": "prevpage",
                "value": "frmIBMFAcctFullStatement.link1.text"
            }],
            "source": "module"
        }]
    }
}