{
    "p2kwiet2012247652034_btnTransfer_onClick_seq0": {
        "id": "p2kwiet2012247652034_btnTransfer_onClick_seq0",
        "type": "ACTION_SEQUENCE",
        "params": [{
            "name": "eventobject",
            "value": "eventobject"
        }, {
            "name": "context",
            "value": "context"
        }],
        "language": "js",
        "actions": [{
            "id": "customcode_onClick_28023201224767151",
            "type": "INVOKE_FUNCTION",
            "sequenceKUID": "transferButtonClick",
            "display": "transferButtonClick",
            "inputparams": [],
            "source": "module"
        }]
    }
}