{
    "p2kwiet2012247644098_cmbobxBankType_onSelection_seq0": {
        "id": "p2kwiet2012247644098_cmbobxBankType_onSelection_seq0",
        "type": "ACTION_SEQUENCE",
        "params": [{
            "name": "eventobject",
            "value": "eventobject"
        }],
        "language": "js",
        "actions": [{
            "id": "customcode_onSelection_54389201224768622",
            "type": "INVOKE_FUNCTION",
            "sequenceKUID": "srvGetBankDetailIB",
            "display": "srvGetBankDetailIB",
            "inputparams": [{
                "name": "bankCode",
                "value": "frmIBMyAccnts.cmbobxBankType.selectedKeyValue[0]"
            }],
            "source": "module"
        }, {
            "id": "expression_onSelection_82135201224762249",
            "type": "ADD_SNIPPET",
            "codeSnippet": "gblBankCD = frmIBMyAccnts.cmbobxBankType.selectedKeyValue[0]\n \n var banktype = frmIBMyAccnts.cmbobxBankType.selectedKeyValue[1];\n if(banktype == kony.i18n.getLocalizedString(\"keyTMBBank\")){\n \n frmIBMyAccnts.cmbobxAccntType.selectedKey = \"key2\";\n frmIBMyAccnts.cmbobxAccntType.setVisibility(true);\n \n frmIBMyAccnts.lineComboAccntype.setVisibility(true);\n frmIBMyAccnts.txtNickNAme.text = \"\"\n frmIBMyAccnts.txtbxOtherAccnt.text = \"\"\n //frmIBMyAccnts.hbxCreditCardNum.setVisibility(false);\n //frmIBMyAccnts.hbxAccntNum.setVisibility(true);\n //TMB Bank\n \n \n }else {\n \n \n frmIBMyAccnts.cmbobxAccntType.setVisibility(false);\n \n frmIBMyAccnts.lineComboAccntype.setVisibility(false);\n \n frmIBMyAccnts.lblsuffix.setVisibility(false);\n frmIBMyAccnts.txtbxSuffix.setVisibility(false);\n \n frmIBMyAccnts.lblCreditCardNum.setVisibility(false);\n frmIBMyAccnts.hbxCreditCardNum.setVisibility(false);\n frmIBMyAccnts.lblAccntNum.setVisibility(true);\n frmIBMyAccnts.hbxAccntNum.setVisibility(false);\n frmIBMyAccnts.txtbxOtherAccnt.setVisibility(true);\n frmIBMyAccnts.txtbxOtherAccnt.text = \"\";\n frmIBMyAccnts.txtNickNAme.text = \"\"\n \n \n \n }\n "
        }]
    }
}