{
    "p2kwiet2012247647435_frmIBPromotions_onhide_seq0": {
        "id": "p2kwiet2012247647435_frmIBPromotions_onhide_seq0",
        "type": "ACTION_SEQUENCE",
        "params": [{
            "name": "eventobject",
            "value": "eventobject"
        }, {
            "name": "neworientation",
            "value": "neworientation"
        }],
        "language": "js",
        "actions": [{
            "id": "customcode_onhide_98768201224766700",
            "type": "INVOKE_FUNCTION",
            "sequenceKUID": "resetFooterSkins",
            "display": "resetFooterSkins",
            "inputparams": [],
            "source": "module"
        }]
    }
}