{
    "p2kwiet2012247643196_frmIBEStatementTnC_preshow_seq0": {
        "id": "p2kwiet2012247643196_frmIBEStatementTnC_preshow_seq0",
        "type": "ACTION_SEQUENCE",
        "params": [{
            "name": "eventobject",
            "value": "eventobject"
        }, {
            "name": "neworientation",
            "value": "neworientation"
        }],
        "language": "js",
        "actions": [{
            "id": "customcode_preshow_3816020122476926",
            "type": "INVOKE_FUNCTION",
            "sequenceKUID": "frmIBEStatementTnCPreShow",
            "display": "frmIBEStatementTnCPreShow",
            "inputparams": [],
            "source": "module"
        }]
    }
}