{
    "p2kwiet2012247638227_frmIBAccntFullStatement_postshow_seq0": {
        "id": "p2kwiet2012247638227_frmIBAccntFullStatement_postshow_seq0",
        "type": "ACTION_SEQUENCE",
        "params": [{
            "name": "eventobject",
            "value": "eventobject"
        }, {
            "name": "neworientation",
            "value": "neworientation"
        }],
        "language": "js",
        "actions": [{
            "id": "customcode_postshow_1173201224764923",
            "type": "INVOKE_FUNCTION",
            "sequenceKUID": "addIBMenu",
            "display": "addIBMenu",
            "inputparams": [],
            "source": "module"
        }, {
            "id": "expression_postshow_26317201224763599",
            "type": "ADD_SNIPPET",
            "codeSnippet": "frmIBAccntFullStatement.enabledForIdleTimeout=true;\n if(kony.i18n.getCurrentLocale()==\"th_TH\"){\n frmIBAccntFullStatement.btnMenuMyAccountSummary.skin=\"btnIBMenuMyAccountSummaryFocusThai\";\n }else{\n frmIBAccntFullStatement.btnMenuMyAccountSummary.skin=\"btnIBMenuMyAccountSummaryFocus\";\n }"
        }, {
            "id": "customcode_postshow_20211201224769787",
            "type": "INVOKE_FUNCTION",
            "sequenceKUID": "viewAccntFullStatementIB",
            "display": "viewAccntFullStatementIB",
            "inputparams": [],
            "source": "module"
        }]
    }
}