{
    "p2kwiet2012247650822_btnClose_onClick_seq0": {
        "id": "p2kwiet2012247650822_btnClose_onClick_seq0",
        "type": "ACTION_SEQUENCE",
        "params": [{
            "name": "eventobject",
            "value": "eventobject"
        }],
        "language": "js",
        "actions": [{
            "id": "expression_onClick_64862201224766772",
            "type": "ADD_SNIPPET",
            "codeSnippet": "popupIBAnyIDDeRegistration.dismiss();\n "
        }]
    }
}