{
    "p2kwiet2012247649002_combobox1010778103113652_onSelection_seq0": {
        "id": "p2kwiet2012247649002_combobox1010778103113652_onSelection_seq0",
        "type": "ACTION_SEQUENCE",
        "params": [{
            "name": "eventobject",
            "value": "eventobject"
        }],
        "language": "js",
        "actions": [{
            "id": "customcode_onSelection_75952201224765736",
            "type": "INVOKE_FUNCTION",
            "sequenceKUID": "searchMyTopUpsAndSuggestedTopUpsIB",
            "display": "searchMyTopUpsAndSuggestedTopUpsIB",
            "inputparams": [],
            "source": "module"
        }]
    }
}