{
    "p2kwiet2012247638053_frmApplyMbviaIBConf_postshow_seq0": {
        "id": "p2kwiet2012247638053_frmApplyMbviaIBConf_postshow_seq0",
        "type": "ACTION_SEQUENCE",
        "params": [{
            "name": "eventobject",
            "value": "eventobject"
        }, {
            "name": "neworientation",
            "value": "neworientation"
        }],
        "language": "js",
        "actions": [{
            "id": "customcode_postshow_90972012247653",
            "type": "INVOKE_FUNCTION",
            "sequenceKUID": "addIBMenu",
            "display": "addIBMenu",
            "inputparams": [],
            "source": "module"
        }, {
            "id": "decision_postshow_61397201224766733",
            "type": "IF_CONDITION",
            "conditions": [{
                "leftValueType": "expression",
                "leftValue": "gblMode == 0"
            }],
            "criteria": "all"
        }, {
            "id": "decision_postshow_76898201224765383",
            "type": "ELSE_CONDITION",
            "conditions": [],
            "criteria": "all"
        }, {
            "id": "customcode_postshow_49124201224765924",
            "type": "INVOKE_FUNCTION",
            "sequenceKUID": "pagespecificSubMenu",
            "display": "pagespecificSubMenu",
            "inputparams": [],
            "source": "module"
        }, {
            "id": "customcode_postshow_74183201224763891",
            "type": "INVOKE_FUNCTION",
            "sequenceKUID": "segConvenientServicesLoad",
            "display": "segConvenientServicesLoad",
            "inputparams": [],
            "parentId": "decision_postshow_61397201224766733",
            "source": "module"
        }, {
            "id": "customcode_postshow_742201224762562",
            "type": "INVOKE_FUNCTION",
            "sequenceKUID": "segAboutMeLoad",
            "display": "segAboutMeLoad",
            "inputparams": [],
            "parentId": "decision_postshow_76898201224765383",
            "source": "module"
        }]
    }
}