{
    "p2kwiet2012247648059_btnLogIn_onClick_seq0": {
        "id": "p2kwiet2012247648059_btnLogIn_onClick_seq0",
        "type": "ACTION_SEQUENCE",
        "params": [{
            "name": "eventobject",
            "value": "eventobject"
        }],
        "language": "js",
        "actions": [{
            "id": "decision_onClick_82019201224769641",
            "type": "IF_CONDITION",
            "conditions": [{
                "leftValueType": "expression",
                "leftValue": "frmIBTemplateLogin.txtUserId.text != \"\""
            }],
            "criteria": "all"
        }, {
            "id": "decision_onClick_74213201224764538",
            "type": "ELSE_CONDITION",
            "conditions": [],
            "criteria": "all"
        }, {
            "id": "decision_onClick_150920122476394",
            "type": "IF_CONDITION",
            "conditions": [{
                "leftValueType": "expression",
                "leftValue": "frmIBTemplateLogin.txtCaptchaText.text != \"\""
            }],
            "parentId": "decision_onClick_81642201224765573",
            "criteria": "all"
        }, {
            "id": "decision_onClick_33792201224767819",
            "type": "ELSE_CONDITION",
            "conditions": [],
            "parentId": "decision_onClick_81642201224765573",
            "criteria": "all"
        }, {
            "id": "alert_onClick_32109201224767602",
            "type": "SHOW_ALERT",
            "alertType": "constants.ALERT_TYPE_ERROR",
            "alertTitle": "Alert",
            "yesLabel": "Yes",
            "noLabel": "No",
            "alertMessage": "Field is mandatory",
            "messageType": "constant",
            "parentId": "decision_onClick_33792201224767819",
            "alertTitlei18n": "",
            "yesLabeli18n": "",
            "noLabeli18n": "",
            "alertMessagei18n": "",
            "iconPosition": "constants.ALERT_ICON_POSITION_LEFT"
        }, {
            "id": "expression_onClick_97051201224769045",
            "type": "ADD_SNIPPET",
            "codeSnippet": "frmIBTemplateLogin.txtCaptchaText.setFocus(true);",
            "parentId": "decision_onClick_33792201224767819"
        }, {
            "id": "alert_onClick_4439120122476418",
            "type": "SHOW_ALERT",
            "alertType": "constants.ALERT_TYPE_ERROR",
            "alertTitle": "Alert",
            "yesLabel": "Yes",
            "noLabel": "No",
            "alertMessage": "Field is mandatory",
            "messageType": "constant",
            "parentId": "decision_onClick_5837020122476949",
            "alertTitlei18n": "",
            "yesLabeli18n": "",
            "noLabeli18n": "",
            "alertMessagei18n": "",
            "iconPosition": "constants.ALERT_ICON_POSITION_LEFT"
        }, {
            "id": "expression_onClick_2312620122476205",
            "type": "ADD_SNIPPET",
            "codeSnippet": "frmIBTemplateLogin.txtPassword.setFocus(true);",
            "parentId": "decision_onClick_5837020122476949"
        }, {
            "id": "decision_onClick_81642201224765573",
            "type": "IF_CONDITION",
            "conditions": [{
                "leftValueType": "expression",
                "leftValue": "frmIBTemplateLogin.hboxCaptchaText.isVisible"
            }],
            "parentId": "decision_onClick_4416020122476828",
            "criteria": "all"
        }, {
            "id": "decision_onClick_44655201224762711",
            "type": "ELSE_CONDITION",
            "conditions": [],
            "parentId": "decision_onClick_4416020122476828",
            "criteria": "all"
        }, {
            "id": "decision_onClick_4416020122476828",
            "type": "IF_CONDITION",
            "conditions": [{
                "leftValueType": "expression",
                "leftValue": "frmIBTemplateLogin.txtPassword.text != \"\""
            }],
            "parentId": "decision_onClick_82019201224769641",
            "criteria": "all"
        }, {
            "id": "decision_onClick_5837020122476949",
            "type": "ELSE_CONDITION",
            "conditions": [],
            "parentId": "decision_onClick_82019201224769641",
            "criteria": "all"
        }, {
            "id": "customcode_onClick_39414201224766197",
            "type": "INVOKE_FUNCTION",
            "sequenceKUID": "captchaValidation",
            "display": "captchaValidation",
            "inputparams": [{
                "name": "text",
                "value": "frmIBTemplateLogin.txtCaptchaText.text"
            }],
            "parentId": "decision_onClick_150920122476394",
            "source": "module"
        }, {
            "id": "customcode_onClick_33656201224763407",
            "type": "INVOKE_FUNCTION",
            "sequenceKUID": "IBLoginService",
            "display": "IBLoginService",
            "inputparams": [],
            "parentId": "decision_onClick_44655201224762711",
            "source": "module"
        }, {
            "id": "alert_onClick_91732201224763392",
            "type": "SHOW_ALERT",
            "alertType": "constants.ALERT_TYPE_ERROR",
            "alertTitle": "Alert",
            "yesLabel": "Yes",
            "noLabel": "No",
            "alertMessage": "Field is mandatory",
            "messageType": "constant",
            "parentId": "decision_onClick_74213201224764538",
            "alertTitlei18n": "",
            "yesLabeli18n": "",
            "noLabeli18n": "",
            "alertMessagei18n": "",
            "iconPosition": "constants.ALERT_ICON_POSITION_LEFT"
        }, {
            "id": "expression_onClick_14720201224764274",
            "type": "ADD_SNIPPET",
            "codeSnippet": "frmIBTemplateLogin.txtUserId.setFocus(true);",
            "parentId": "decision_onClick_74213201224764538"
        }]
    }
}