{
    "p2kwiet2012247640979_frmIBCMChgTxnLimit_preshow_seq0": {
        "id": "p2kwiet2012247640979_frmIBCMChgTxnLimit_preshow_seq0",
        "type": "ACTION_SEQUENCE",
        "params": [{
            "name": "eventobject",
            "value": "eventobject"
        }, {
            "name": "neworientation",
            "value": "neworientation"
        }],
        "language": "js",
        "actions": [{
            "id": "customcode_preshow_10953201224764953",
            "type": "INVOKE_FUNCTION",
            "sequenceKUID": "IBPreShowChngeTransLimit",
            "display": "IBPreShowChngeTransLimit",
            "inputparams": [],
            "source": "module"
        }]
    }
}