{
    "p2kwiet2012247645597_btnProvince_onSelection_seq0": {
        "id": "p2kwiet2012247645597_btnProvince_onSelection_seq0",
        "type": "ACTION_SEQUENCE",
        "params": [{
            "name": "eventobject",
            "value": "eventobject"
        }],
        "language": "js",
        "actions": [{
            "id": "expression_onSelection_77857201224766249",
            "type": "ADD_SNIPPET",
            "codeSnippet": "gblMyProfileAddressFlag = \"state\"\n gblAddressFlag=1;\n \n "
        }, {
            "id": "customcode_onSelection_190201224763861",
            "type": "INVOKE_FUNCTION",
            "sequenceKUID": "IBonRowSelectOpenAccountAddr",
            "display": "IBonRowSelectOpenAccountAddr",
            "inputparams": [],
            "source": "module"
        }]
    }
}