{
    "p2kwiet2012247647397_link502735421204405_onClick_seq0": {
        "id": "p2kwiet2012247647397_link502735421204405_onClick_seq0",
        "type": "ACTION_SEQUENCE",
        "params": [{
            "name": "eventobject",
            "value": "eventobject"
        }],
        "language": "js",
        "actions": [{
            "id": "navigation_onClick_98659201224769009",
            "type": "DISPLAY_POPUP",
            "popupId": "popupIBForgotPassword",
            "popupKUID": "p2kwiet2012247650858",
            "mappings": {},
            "mappingsOrder": [],
            "enableMappingEditor": true
        }]
    }
}