{
    "p2kwiet2012247643574_txtBxOTPFT_DESKTOPWEB_onEndEditing_seq0": {
        "id": "p2kwiet2012247643574_txtBxOTPFT_DESKTOPWEB_onEndEditing_seq0",
        "type": "ACTION_SEQUENCE",
        "params": [{
            "name": "eventobject",
            "value": "eventobject"
        }, {
            "name": "changedtext",
            "value": "changedtext"
        }],
        "language": "js",
        "actions": [{
            "id": "customcode_onEndEditing_15045201224769977",
            "type": "INVOKE_FUNCTION",
            "sequenceKUID": "eh_frmIBFTrnsrEditCnfmtn_txtBxOTPFT_onEndEditing",
            "display": "eh_frmIBFTrnsrEditCnfmtn_txtBxOTPFT_onEndEditing",
            "inputparams": [],
            "source": "module"
        }]
    }
}