{
    "p2kwiet2012247644245_linknext_onClick_seq0": {
        "id": "p2kwiet2012247644245_linknext_onClick_seq0",
        "type": "ACTION_SEQUENCE",
        "params": [{
            "name": "eventobject",
            "value": "eventobject"
        }],
        "language": "js",
        "actions": [{
            "id": "customcode_onClick_64410201224767819",
            "type": "INVOKE_FUNCTION",
            "sequenceKUID": "nextPageload",
            "display": "nextPageload",
            "inputparams": [],
            "source": "module"
        }]
    }
}