{
    "p2kwiet2012247647770_button447476809947_onClick_seq0": {
        "id": "p2kwiet2012247647770_button447476809947_onClick_seq0",
        "type": "ACTION_SEQUENCE",
        "params": [{
            "name": "eventobject",
            "value": "eventobject"
        }],
        "language": "js",
        "actions": [{
            "id": "expression_onClick_17753201224768271",
            "type": "ADD_SNIPPET",
            "codeSnippet": "if(gblNFHidden == \"noFixedAccDeleted\" || gblSSLinkedStatus == \"linkedAccDeleted\"){\n showAlert(\"Please add your deleted Account/s first\", kony.i18n.getLocalizedString(\"info\"));\n }else{\n gblSSServieHours = \"S2SEdit\";\n \n s2s_ib_activityTypeID = \"037\";\n s2s_ib_errorCode = \"\";\n s2s_ib_activityStatus = \"00\";\n s2s_ib_deviceNickName = \"\";\n s2s_ib_activityFlexValues1 = gblPHONENUMBER;\n s2s_ib_activityFlexValues2 = ibLinkdAcct;\n s2s_ib_activityFlexValues3 = ibNoFixedAcct;\n //s2s_ib_activityFlexValues4 = ibLiqInqCollectionData[\"maxAmt\"];\n var txtBalMax=frmIBSSSDetails.lblAmntLmtMax.text\n txtBalMax=txtBalMax.replace(kony.i18n.getLocalizedString(\"currencyThaiBaht\"), \"\"); \n s2s_ib_activityFlexValues4=removeCommas(txtBalMax);\n var txtBalMin=frmIBSSSDetails.lblAmntLmtMin.text\n txtBalMin=txtBalMin.replace(kony.i18n.getLocalizedString(\"currencyThaiBaht\"), \"\"); \n s2s_ib_activityFlexValues5 = removeCommas(txtBalMin);\n s2s_ib_logLinkageId = \"\";\n \n activityLogServiceCall(s2s_ib_activityTypeID, s2s_ib_errorCode, s2s_ib_activityStatus, s2s_ib_deviceNickName, s2s_ib_activityFlexValues1, s2s_ib_activityFlexValues2, s2s_ib_activityFlexValues3, s2s_ib_activityFlexValues4, s2s_ib_activityFlexValues5, s2s_ib_logLinkageId);\n \n checkBusinessHoursForIBS2SEditDel();\n }\n "
        }]
    }
}