{
    "p2kwiet2012247643574_button1014589649276_onClick_seq0": {
        "id": "p2kwiet2012247643574_button1014589649276_onClick_seq0",
        "type": "ACTION_SEQUENCE",
        "params": [{
            "name": "eventobject",
            "value": "eventobject"
        }],
        "language": "js",
        "actions": [{
            "id": "expression_onClick_15526201224763291",
            "type": "ADD_SNIPPET",
            "codeSnippet": "gblPOWcustNME = frmIBFTrnsrEditCnfmtn.lblFrmAccntNickName.text;\n gblPOWtransXN = \"EditFutureTransfer\" \n gblPOWchannel = \"IB\"\n postOnWall() \n requestfromform = \"frmIBFTrnsrEditCnfmtn\""
        }]
    }
}