{
    "p2kwiet2012247641731_link508395714289050_onClick_seq0": {
        "id": "p2kwiet2012247641731_link508395714289050_onClick_seq0",
        "type": "ACTION_SEQUENCE",
        "params": [{
            "name": "eventobject",
            "value": "eventobject"
        }],
        "language": "js",
        "actions": [{
            "id": "customcode_onClick_28252201224761809",
            "type": "INVOKE_FUNCTION",
            "sequenceKUID": "viewRequestHistory",
            "display": "viewRequestHistory",
            "inputparams": [{
                "name": "type",
                "value": "2"
            }],
            "source": "module"
        }]
    }
}