{
    "p2kwiet2012247646924_btnNextPin_onClick_seq0": {
        "id": "p2kwiet2012247646924_btnNextPin_onClick_seq0",
        "type": "ACTION_SEQUENCE",
        "params": [{
            "name": "eventobject",
            "value": "eventobject"
        }],
        "language": "js",
        "actions": [{
            "id": "decision_onClick_96314201224762446",
            "type": "IF_CONDITION",
            "conditions": [{
                "leftValueType": "expression",
                "leftValue": "gblPointRedeem == \"verOTP\" && gblPointRedeem != \"\" && gblPointRedeem != null && gblPointRedeem != undefined"
            }],
            "criteria": "all"
        }, {
            "id": "decision_onClick_8725120122476896",
            "type": "ELSE_CONDITION",
            "conditions": [],
            "criteria": "all"
        }, {
            "id": "decision_onClick_95498201224767380",
            "type": "IF_CONDITION",
            "conditions": [{
                "leftValueType": "expression",
                "leftValue": "gblPointRedeem == \"genOTP\" && gblPointRedeem != \"\" && gblPointRedeem != null && gblPointRedeem != undefined"
            }],
            "criteria": "all"
        }, {
            "id": "decision_onClick_88877201224764706",
            "type": "ELSE_CONDITION",
            "conditions": [],
            "criteria": "all"
        }, {
            "id": "customcode_onClick_6595220122476981",
            "type": "INVOKE_FUNCTION",
            "sequenceKUID": "OTPValdatnPointRedeem",
            "display": "OTPValdatnPointRedeem",
            "inputparams": [{
                "name": "text",
                "value": "frmIBPointRedemptionConfirmation.txtBxOTP.text"
            }],
            "parentId": "decision_onClick_96314201224762446",
            "source": "module"
        }, {
            "id": "customcode_onClick_1413201224761858",
            "type": "INVOKE_FUNCTION",
            "sequenceKUID": "preOTPScreenPointRedemption",
            "display": "preOTPScreenPointRedemption",
            "inputparams": [],
            "parentId": "decision_onClick_95498201224767380",
            "source": "module"
        }]
    }
}