{
    "p2kwiet2012247652096_btnfav_onClick_seq0": {
        "id": "p2kwiet2012247652096_btnfav_onClick_seq0",
        "type": "ACTION_SEQUENCE",
        "params": [{
            "name": "eventobject",
            "value": "eventobject"
        }, {
            "name": "context",
            "value": "context"
        }],
        "language": "js",
        "actions": [{
            "id": "decision_onClick_3018420122476791",
            "type": "IF_CONDITION",
            "conditions": [{
                "leftValueType": "expression",
                "leftValue": "getCRMLockStatus() == true"
            }],
            "criteria": "all"
        }, {
            "id": "decision_onClick_68351201224764769",
            "type": "ELSE_CONDITION",
            "conditions": [],
            "criteria": "all"
        }, {
            "id": "customcode_onClick_14193201224765177",
            "type": "INVOKE_FUNCTION",
            "sequenceKUID": "setReceipentAccountasFav",
            "display": "setReceipentAccountasFav",
            "inputparams": [{
                "name": "bankCode",
                "value": "frmIBMyReceipentsAccounts.segmentRcAccounts.selectedItems[0][\"selectedBankCD\"]"
            }, {
                "name": "accountId",
                "value": "frmIBMyReceipentsAccounts.segmentRcAccounts.selectedItems[0][\"lblNumber\"]"
            }, {
                "name": "nickName",
                "value": "frmIBMyReceipentsAccounts.segmentRcAccounts.selectedItems[0][\"lblNickName\"]"
            }, {
                "name": "isFav",
                "value": ""
            }],
            "parentId": "decision_onClick_68351201224764769",
            "source": "module"
        }]
    }
}