{
    "p2kwiet2012247638227_btndeposit_onClick_seq0": {
        "id": "p2kwiet2012247638227_btndeposit_onClick_seq0",
        "type": "ACTION_SEQUENCE",
        "params": [{
            "name": "eventobject",
            "value": "eventobject"
        }],
        "language": "js",
        "actions": [{
            "id": "customcode_onClick_4474720122476410",
            "type": "INVOKE_FUNCTION",
            "sequenceKUID": "onDepositDetailsClick",
            "display": "onDepositDetailsClick",
            "inputparams": [],
            "source": "module"
        }]
    }
}