{
    "p2kwiet2012247641860_btnemail_onClick_seq0": {
        "id": "p2kwiet2012247641860_btnemail_onClick_seq0",
        "type": "ACTION_SEQUENCE",
        "params": [{
            "name": "eventobject",
            "value": "eventobject"
        }],
        "language": "js",
        "actions": [{
            "id": "customcode_onClick_54826201224769860",
            "type": "INVOKE_FUNCTION",
            "sequenceKUID": "contactUsImageChange",
            "display": "contactUsImageChange",
            "inputparams": [{
                "name": "btnname",
                "value": "\"email\""
            }],
            "source": "module"
        }]
    }
}