{
    "p2kwiet2012247647022_txtPointsBeingRedeemed_DESKTOPWEB_onEndEditing_seq0": {
        "id": "p2kwiet2012247647022_txtPointsBeingRedeemed_DESKTOPWEB_onEndEditing_seq0",
        "type": "ACTION_SEQUENCE",
        "params": [{
            "name": "eventobject",
            "value": "eventobject"
        }, {
            "name": "changedtext",
            "value": "changedtext"
        }],
        "language": "js",
        "actions": [{
            "id": "customcode_onEndEditing_31790201224767074",
            "type": "INVOKE_FUNCTION",
            "sequenceKUID": "checkRedeemPointsMoreAvailablePointsIB",
            "display": "checkRedeemPointsMoreAvailablePointsIB",
            "inputparams": [],
            "source": "module"
        }, {
            "id": "expression_onEndEditing_3092620122476369",
            "type": "ADD_SNIPPET",
            "codeSnippet": "frmIBPointRedemptionLanding.hbxPointsBeingRedeemed.skin=\"hbxProper40px\";\n var redeemPoints = frmIBPointRedemptionLanding.txtPointsBeingRedeemed.text;\n if(redeemPoints != \"\"){\n frmIBPointRedemptionLanding.txtPointsBeingRedeemed.text=commaFormattedPoints(Number(redeemPoints));\n }"
        }]
    }
}