{
    "p2kwiet2012247639145_btnProvince_onSelection_seq0": {
        "id": "p2kwiet2012247639145_btnProvince_onSelection_seq0",
        "type": "ACTION_SEQUENCE",
        "params": [{
            "name": "eventobject",
            "value": "eventobject"
        }],
        "language": "js",
        "actions": [{
            "id": "customcode_onSelection_59074201224764110",
            "type": "INVOKE_FUNCTION",
            "sequenceKUID": "onSelectProvince",
            "display": "onSelectProvince",
            "inputparams": [],
            "source": "module"
        }]
    }
}