{
    "p2kwiet2012247644730_btnViewBillerBack_onClick_seq0": {
        "id": "p2kwiet2012247644730_btnViewBillerBack_onClick_seq0",
        "type": "ACTION_SEQUENCE",
        "params": [{
            "name": "eventobject",
            "value": "eventobject"
        }],
        "language": "js",
        "actions": [{
            "id": "expression_onClick_18422201224765128",
            "type": "ADD_SNIPPET",
            "codeSnippet": "frmIBMyBillersHome.imgTMBLogo.setVisibility(true);\n //frmIBMyBillersHome.hbxTMBLogo.setVisibility(true);\n frmIBMyBillersHome.hbxBillersAddContainer.setVisibility(false);\n frmIBMyBillersHome.hbxBillersConfirmContainer.setVisibility(false);\n frmIBMyBillersHome.hbxBillersEditContainer.setVisibility(false);\n frmIBMyBillersHome.hbxBillersViewContainer.setVisibility(false);\n frmIBMyBillersHome.hbxSugBillersContainer.setVisibility(false);\n frmIBMyBillersHome.lblMyBills.setVisibility(false);"
        }]
    }
}