{
    "p2kwiet2012247642558_button866825109123369_onClick_seq0": {
        "id": "p2kwiet2012247642558_button866825109123369_onClick_seq0",
        "type": "ACTION_SEQUENCE",
        "params": [{
            "name": "eventobject",
            "value": "eventobject"
        }],
        "language": "js",
        "actions": [{
            "id": "navigation_onClick_7295220122476892",
            "type": "NAVIGATE_TO_FORM",
            "formId": "frmIBMyAccnts",
            "formKUID": "p2kwiet2012247644098",
            "mappings": {},
            "mappingsOrder": [],
            "parentId": "",
            "enableMappingEditor": true,
            "package": ""
        }]
    }
}