{
    "p2kwiet2012247645018_tbxSelectRcSearch_DESKTOPWEB_onKeyUp_seq0": {
        "id": "p2kwiet2012247645018_tbxSelectRcSearch_DESKTOPWEB_onKeyUp_seq0",
        "type": "ACTION_SEQUENCE",
        "params": [{
            "name": "eventobject",
            "value": "eventobject"
        }, {
            "name": "changedtext",
            "value": "changedtext"
        }],
        "language": "js",
        "actions": [{
            "id": "decision_onKeyUp_24488201224768375",
            "type": "IF_CONDITION",
            "conditions": [{
                "leftValueType": "expression",
                "leftValue": "frmIBMyReceipentsAddContactFB.tbxSelectRcSearch.text.length > 2"
            }],
            "criteria": "all"
        }, {
            "id": "decision_onKeyUp_39573201224763279",
            "type": "ELSE_CONDITION",
            "conditions": [],
            "criteria": "all"
        }, {
            "id": "expression_onKeyUp_47221201224762283",
            "type": "ADD_SNIPPET",
            "codeSnippet": "if(kony.string.containsChars(frmIBMyReceipentsAddContactFB.tbxSelectRcSearch.text, charsArr)){\n alert(\"Enter Valid Search String\");\n return;\n }\n gblOffsetMB = \"0\";\n gblLimitMB = \"0\";\n gblStart = \"1\";\n gblSearch = frmIBMyReceipentsAddContactFB.tbxSelectRcSearch.text.toLowerCase();",
            "parentId": "decision_onKeyUp_24488201224768375"
        }, {
            "id": "customcode_onKeyUp_42111201224765130",
            "type": "INVOKE_FUNCTION",
            "sequenceKUID": "listFacebookFriends",
            "display": "listFacebookFriends",
            "inputparams": [],
            "parentId": "decision_onKeyUp_24488201224768375",
            "source": "module"
        }, {
            "id": "expression_onKeyUp_65662201224765149",
            "type": "ADD_SNIPPET",
            "codeSnippet": "frmIBMyReceipentsAddContactFB.segmentSelectRc.data = gblFBListDataIB;",
            "parentId": "decision_onKeyUp_39573201224763279"
        }]
    }
}