{
    "p2kwiet2012247647721_btnCancelOTP_onClick_seq0": {
        "id": "p2kwiet2012247647721_btnCancelOTP_onClick_seq0",
        "type": "ACTION_SEQUENCE",
        "params": [{
            "name": "eventobject",
            "value": "eventobject"
        }],
        "language": "js",
        "actions": [{
            "id": "expression_onClick_86962201224761376",
            "type": "ADD_SNIPPET",
            "codeSnippet": "frmIBSSApplyCnfrmtn.hbxDecisionOTP.setVisibility(false);\n frmIBSSApplyCnfrmtn.hbxOTP.setVisibility(false);\n frmIBSSApplyCnfrmtn.hbxCancelConf.setVisibility(true);\n frmIBSSApplyCnfrmtn.hbxToken.isVisible=false;\n frmIBSSApplyCnfrmtn.keyEnterToken.setVisibility(false);\n \n "
        }]
    }
}