{
    "p2kwiet2012247642984_frmIBePaymentExecutedTxn_postshow_seq0": {
        "id": "p2kwiet2012247642984_frmIBePaymentExecutedTxn_postshow_seq0",
        "type": "ACTION_SEQUENCE",
        "params": [{
            "name": "eventobject",
            "value": "eventobject"
        }, {
            "name": "neworientation",
            "value": "neworientation"
        }],
        "language": "js",
        "actions": [{
            "id": "customcode_postshow_12544201224763560",
            "type": "INVOKE_FUNCTION",
            "sequenceKUID": "addIBMenu",
            "display": "addIBMenu",
            "inputparams": [],
            "source": "module"
        }, {
            "id": "expression_postshow_6291201224761457",
            "type": "ADD_SNIPPET",
            "codeSnippet": "if(kony.i18n.getCurrentLocale()==\"th_TH\"){\n frmIBePaymentExecutedTxn.btnMenuMyActivities.skin=\"btnIBMenuMyActivitiesFocusThai\";\n }else{\n frmIBePaymentExecutedTxn.btnMenuMyActivities.skin=\"btnIBMenuMyActivitiesFocus\";\n }"
        }]
    }
}