{
    "p2kwiet2012247649128_buttonEdit_onClick_seq0": {
        "id": "p2kwiet2012247649128_buttonEdit_onClick_seq0",
        "type": "ACTION_SEQUENCE",
        "params": [{
            "name": "eventobject",
            "value": "eventobject"
        }],
        "language": "js",
        "actions": [{
            "id": "customcode_onClick_34556201224766282",
            "type": "INVOKE_FUNCTION",
            "sequenceKUID": "checkIBStatusForTpUp",
            "display": "checkIBStatusForTpUp",
            "inputparams": [],
            "source": "module"
        }, {
            "id": "expression_onClick_40213201224767887",
            "type": "ADD_SNIPPET",
            "codeSnippet": "frmIBTopUpViewNEdit.lblTPStartOnDateVal.padding=[0,0,20,0]\n frmIBTopUpViewNEdit.txtTPEditAmtValue.setFocus(true)\n "
        }]
    }
}