{
    "p2kwiet2012247646755_button478902715234518_onClick_seq0": {
        "id": "p2kwiet2012247646755_button478902715234518_onClick_seq0",
        "type": "ACTION_SEQUENCE",
        "params": [{
            "name": "eventobject",
            "value": "eventobject"
        }],
        "language": "js",
        "actions": [{
            "id": "expression_onClick_50173201224764793",
            "type": "ADD_SNIPPET",
            "codeSnippet": "gblTokenSwitchFlag=false;\n gblSwitchToken=true;\n IBProfileUpdateOTPRequestService();\n frmIBOpenProdMailAddressEdit.hbxTokenEntry.setVisibility(false);\n frmIBOpenProdMailAddressEdit.hbxOTPEntry.setVisibility(true);\n frmIBOpenProdMailAddressEdit.lblkeyOTPMsg.text=kony.i18n.getLocalizedString(\"keyotpmsgreq\");\n frmIBOpenProdMailAddressEdit.txtBxOTP.setFocus(true);\n \n \n "
        }]
    }
}