{
    "p2kwiet2012247646378_btnConfirm_onClick_seq0": {
        "id": "p2kwiet2012247646378_btnConfirm_onClick_seq0",
        "type": "ACTION_SEQUENCE",
        "params": [{
            "name": "eventobject",
            "value": "eventobject"
        }],
        "language": "js",
        "actions": [{
            "id": "decision_onClick_13759201224764846",
            "type": "IF_CONDITION",
            "conditions": [{
                "leftValueType": "expression",
                "leftValue": "gblOpenAcctConfirm == \"verOTP\" && gblOpenAcctConfirm != \"\" && gblOpenAcctConfirm != null && gblOpenAcctConfirm != undefined"
            }],
            "criteria": "all"
        }, {
            "id": "decision_onClick_74777201224768715",
            "type": "ELSE_CONDITION",
            "conditions": [],
            "criteria": "all"
        }, {
            "id": "decision_onClick_85941201224764938",
            "type": "IF_CONDITION",
            "conditions": [{
                "leftValueType": "expression",
                "leftValue": "gblOpenAcctConfirm == \"genOTP\" && gblOpenAcctConfirm != \"\" && gblOpenAcctConfirm != null && gblOpenAcctConfirm != undefined"
            }],
            "criteria": "all"
        }, {
            "id": "decision_onClick_96934201224764540",
            "type": "ELSE_CONDITION",
            "conditions": [],
            "criteria": "all"
        }, {
            "id": "customcode_onClick_70589201224761546",
            "type": "INVOKE_FUNCTION",
            "sequenceKUID": "OTPValdatnOpen",
            "display": "OTPValdatnOpen",
            "inputparams": [{
                "name": "text",
                "value": "frmIBOpenNewSavingsCareAccConfirmation.txtOTP.text"
            }],
            "parentId": "decision_onClick_13759201224764846",
            "source": "module"
        }, {
            "id": "customcode_onClick_55821201224767715",
            "type": "INVOKE_FUNCTION",
            "sequenceKUID": "genOTPOpenAccounts",
            "display": "genOTPOpenAccounts",
            "inputparams": [],
            "parentId": "decision_onClick_85941201224764938",
            "source": "module"
        }]
    }
}