{
    "p2kwiet2012247641098_button476047582115265_onClick_seq0": {
        "id": "p2kwiet2012247641098_button476047582115265_onClick_seq0",
        "type": "ACTION_SEQUENCE",
        "params": [{
            "name": "eventobject",
            "value": "eventobject"
        }],
        "language": "js",
        "actions": [{
            "id": "expression_onClick_31501201224769667",
            "type": "ADD_SNIPPET",
            "codeSnippet": "if(gblTokenSwitchFlag == true)\n frmIBCMConfirmation.tbxToken.setFocus(true);\n else\n frmIBCMConfirmation.txtOTP.setFocus(true);"
        }, {
            "id": "customcode_onClick_67230201224764405",
            "type": "INVOKE_FUNCTION",
            "sequenceKUID": "validateIBChangeUserId",
            "display": "validateIBChangeUserId",
            "inputparams": [],
            "source": "module"
        }]
    }
}