{
    "p2kwiet2012247641731_button474288733632_onClick_seq0": {
        "id": "p2kwiet2012247641731_button474288733632_onClick_seq0",
        "type": "ACTION_SEQUENCE",
        "params": [{
            "name": "eventobject",
            "value": "eventobject"
        }],
        "language": "js",
        "actions": [{
            "id": "expression_onClick_68302201224767272",
            "type": "ADD_SNIPPET",
            "codeSnippet": "editbuttonflag = \"profile\";\n showLoadingScreenPopup();\n editConfirm = false;\n //adding below flag due to issue after completion of edit address\n stateFlag = false;\n frmIBCMEditMyProfile.btnProvince.placeholder= gblStateValue;\n "
        }, {
            "id": "customcode_onClick_67277201224768697",
            "type": "INVOKE_FUNCTION",
            "sequenceKUID": "getIBEditProfileStatus",
            "display": "getIBEditProfileStatus",
            "inputparams": [],
            "source": "module"
        }, {
            "id": "expression_onClick_43579201224767996",
            "type": "ADD_SNIPPET",
            "codeSnippet": "frmIBCMEditMyProfile.txtemailvalue.setFocus(true)"
        }]
    }
}