{
    "p2kwiet2012247647346_segCalendar_onReachingBegining_seq0": {
        "id": "p2kwiet2012247647346_segCalendar_onReachingBegining_seq0",
        "type": "ACTION_SEQUENCE",
        "params": [{
            "name": "eventobject",
            "value": "eventobject"
        }],
        "language": "js",
        "actions": [{
            "id": "customcode_onReachingBegining_35529201224765304",
            "type": "INVOKE_FUNCTION",
            "sequenceKUID": "IBMyActivitiesSegmentOnReachingBegining",
            "display": "IBMyActivitiesSegmentOnReachingBegining",
            "inputparams": [],
            "source": "module"
        }]
    }
}