{
    "p2kwiet2012247645129_btnAddManually_onClick_seq0": {
        "id": "p2kwiet2012247645129_btnAddManually_onClick_seq0",
        "type": "ACTION_SEQUENCE",
        "params": [{
            "name": "eventobject",
            "value": "eventobject"
        }],
        "language": "js",
        "actions": [{
            "id": "expression_onClick_12322201224767454",
            "type": "ADD_SNIPPET",
            "codeSnippet": "gblAdd_Receipent_State = gblNEW_RC_ADDITION;\n clearDataOnRcNewRecipientAdditionForm();"
        }, {
            "id": "expression_onClick_28544201224762304",
            "type": "ADD_SNIPPET",
            "codeSnippet": "frmIBMyReceipentsAddContactManually.hboxMyRecipient.setVisibility(true);\n frmIBMyReceipentsAddContactManually.hboxMyRecipientDetail.setVisibility(false);\n gblAdd_Receipent_State = gblNEW_RC_ADDITION;\n \n if(gblAdd_Receipent_State == gblEXISTING_RC_EDITION){\n frmIBMyReceipentsAddContactManually.link50273743118078.setVisibility(false);\n frmIBMyReceipentsAddContactManually.link50273743118087.setVisibility(false);\n frmIBMyReceipentsAddContactManually.hbxOtpBox.setVisibility(true);\n frmIBMyReceipentsAddContactManually.label10107168132952.setVisibility(false);\n frmIBMyReceipentsAddContactManually.segmentRcAccounts.setVisibility(false);\n }else{\n //Clear existing data\n frmIBMyReceipentsAddContactManually.txtRecipientName.text=\"\";\n frmIBMyReceipentsAddContactManually.txtmobnum.text=\"\";\n frmIBMyReceipentsAddContactManually.txtemail.text =\"\";\n \n frmIBMyReceipentsAddContactManually.link50273743118078.setVisibility(true);\n frmIBMyReceipentsAddContactManually.link50273743118087.setVisibility(true);\n frmIBMyReceipentsAddContactManually.hbxOtpBox.setVisibility(false);\n frmIBMyReceipentsAddContactManually.label10107168132952.setVisibility(true);\n frmIBMyReceipentsAddContactManually.segmentRcAccounts.setVisibility(true);\n }"
        }]
    }
}