{
    "p2kwiet2012247642558_btnEditDepositAccnt_onClick_seq0": {
        "id": "p2kwiet2012247642558_btnEditDepositAccnt_onClick_seq0",
        "type": "ACTION_SEQUENCE",
        "params": [{
            "name": "eventobject",
            "value": "eventobject"
        }],
        "language": "js",
        "actions": [{
            "id": "expression_onClick_2688020122476663",
            "type": "ADD_SNIPPET",
            "codeSnippet": "gblCWSelectedItem= 0;\n \n "
        }, {
            "id": "decision_onClick_93216201224765224",
            "type": "IF_CONDITION",
            "conditions": [{
                "leftValueType": "expression",
                "leftValue": "frmIBDreamSavingMaintenance.lblInterestRateVal.text == \"0.00%\""
            }],
            "criteria": "all"
        }, {
            "id": "decision_onClick_50202201224769463",
            "type": "ELSE_CONDITION",
            "conditions": [],
            "criteria": "all"
        }, {
            "id": "expression_onClick_2161201224768525",
            "type": "ADD_SNIPPET",
            "codeSnippet": "showAlert(kony.i18n.getLocalizedString(\"keyOpenActGenErr\"), kony.i18n.getLocalizedString(\"info\"));",
            "parentId": "decision_onClick_93216201224765224"
        }, {
            "id": "customcode_onClick_31638201224761597",
            "type": "INVOKE_FUNCTION",
            "sequenceKUID": "clearDreamDataIB",
            "display": "clearDreamDataIB",
            "inputparams": [],
            "parentId": "decision_onClick_50202201224769463",
            "source": "module"
        }, {
            "id": "customcode_onClick_19983201224761543",
            "type": "INVOKE_FUNCTION",
            "sequenceKUID": "checkUserStatusDSMIB",
            "display": "checkUserStatusDSMIB",
            "inputparams": [],
            "parentId": "decision_onClick_50202201224769463",
            "source": "module"
        }]
    }
}