{
    "p2kwiet2012247645911_btnedit_onClick_seq0": {
        "id": "p2kwiet2012247645911_btnedit_onClick_seq0",
        "type": "ACTION_SEQUENCE",
        "params": [{
            "name": "eventobject",
            "value": "eventobject"
        }],
        "language": "js",
        "actions": [{
            "id": "expression_onClick_11165201224764542",
            "type": "ADD_SNIPPET",
            "codeSnippet": "gblRetryCountRequestOTP = \"0\";"
        }, {
            "id": "customcode_onClick_999201224761646",
            "type": "INVOKE_FUNCTION",
            "sequenceKUID": "showCoverFlow",
            "display": "showCoverFlow",
            "inputparams": [],
            "source": "module"
        }]
    }
}