{
    "p2kwiet2012247646378_btnToken_onClick_seq0": {
        "id": "p2kwiet2012247646378_btnToken_onClick_seq0",
        "type": "ACTION_SEQUENCE",
        "params": [{
            "name": "eventobject",
            "value": "eventobject"
        }],
        "language": "js",
        "actions": [{
            "id": "expression_onClick_68358201224764138",
            "type": "ADD_SNIPPET",
            "codeSnippet": "frmIBOpenNewSavingsCareAccConfirmation.hbxToken.setVisibility(false);\n frmIBOpenNewSavingsCareAccConfirmation.hbox866854059250283.setVisibility(true);\n gblTokenSwitchFlag = false;\n gblSwitchToken = true;\n frmIBOpenNewSavingsCareAccConfirmation.hbox866854059301598.setVisibility(true);\n frmIBOpenNewSavingsCareAccConfirmation.hbox866854059301638.setVisibility(true);\n frmIBOpenNewSavingsCareAccConfirmation.hbox866854059301656.setVisibility(true);\n IBreqOTPMYNewAccnts();\n "
        }]
    }
}