{
    "p2kwiet2012247640409_buttonEdit_onClick_seq0": {
        "id": "p2kwiet2012247640409_buttonEdit_onClick_seq0",
        "type": "ACTION_SEQUENCE",
        "params": [{
            "name": "eventobject",
            "value": "eventobject"
        }],
        "language": "js",
        "actions": [{
            "id": "customcode_onClick_49769201224769367",
            "type": "INVOKE_FUNCTION",
            "sequenceKUID": "checkMBIBStatus",
            "display": "checkMBIBStatus",
            "inputparams": [],
            "source": "module"
        }, {
            "id": "expression_onClick_20383201224765836",
            "type": "ADD_SNIPPET",
            "codeSnippet": "frmIBBillPaymentView.lblBPStartOnDateVal.padding=[0,0,15,0]\n frmIBBillPaymentView.txtBPEditAmtValue.setFocus(true)"
        }]
    }
}