{
    "p2kwiet2012247641918_txtConfirmPassword_DESKTOPWEB_onEndEditing_seq0": {
        "id": "p2kwiet2012247641918_txtConfirmPassword_DESKTOPWEB_onEndEditing_seq0",
        "type": "ACTION_SEQUENCE",
        "params": [{
            "name": "eventobject",
            "value": "eventobject"
        }, {
            "name": "changedtext",
            "value": "changedtext"
        }],
        "language": "js",
        "actions": [{
            "id": "expression_onEndEditing_29957201224765716",
            "type": "ADD_SNIPPET",
            "codeSnippet": "frmIBCreateUserID.hbox506339973462530.skin = \"hbxIBbottomborder\""
        }]
    }
}