{
    "p2kwiet2012247644730_btnAddBillerSearch_onClick_seq0": {
        "id": "p2kwiet2012247644730_btnAddBillerSearch_onClick_seq0",
        "type": "ACTION_SEQUENCE",
        "params": [{
            "name": "eventobject",
            "value": "eventobject"
        }],
        "language": "js",
        "actions": [{
            "id": "expression_onClick_87634201224764829",
            "type": "ADD_SNIPPET",
            "codeSnippet": "frmIBMyBillersHome.segBillersList.setVisibility(false);\n frmIBMyBillersHome.lblMyBills.setVisibility(false);\n frmIBMyBillersHome.hbxMore.setVisibility(false);\n frmIBMyBillersHome.segSuggestedBillersList.removeAll();\n frmIBMyBillersHome.hbxSugBillersContainer.setVisibility(true);\n isSelectBillerEnabled=true;\n gblTopUpMore=0;\n gblCustTopUpMore= 0;"
        }, {
            "id": "customcode_onClick_41073201224763276",
            "type": "INVOKE_FUNCTION",
            "sequenceKUID": "getMyBillSuggestListIB",
            "display": "getMyBillSuggestListIB",
            "inputparams": [],
            "source": "module"
        }]
    }
}