{
    "p2kwiet2012247651270_linkExchangeRate_onClick_seq0": {
        "id": "p2kwiet2012247651270_linkExchangeRate_onClick_seq0",
        "type": "ACTION_SEQUENCE",
        "params": [{
            "name": "eventobject",
            "value": "eventobject"
        }],
        "language": "js",
        "actions": [{
            "id": "customcode_onClick_26426201224763098",
            "type": "INVOKE_FUNCTION",
            "sequenceKUID": "exchangeRatefooterLinks",
            "display": "exchangeRatefooterLinks",
            "inputparams": [],
            "source": "module"
        }, {
            "id": "customcode_onClick_5422420122476271",
            "type": "INVOKE_FUNCTION",
            "sequenceKUID": "onclickExchangeRatesIB",
            "display": "onclickExchangeRatesIB",
            "inputparams": [],
            "source": "module"
        }]
    }
}