{
    "p2kwiet2012247649745_btnMenuMyAccountSummary_onClick_seq0": {
        "id": "p2kwiet2012247649745_btnMenuMyAccountSummary_onClick_seq0",
        "type": "ACTION_SEQUENCE",
        "params": [{
            "name": "eventobject",
            "value": "eventobject"
        }],
        "language": "js",
        "actions": [{
            "id": "customcode_onClick_49585201224761763",
            "type": "INVOKE_FUNCTION",
            "sequenceKUID": "accountsummaryLangToggleIB",
            "display": "accountsummaryLangToggleIB",
            "inputparams": [],
            "source": "module"
        }, {
            "id": "expression_onClick_98554201224762884",
            "type": "ADD_SNIPPET",
            "codeSnippet": "frmIBAccntSummary.segAccountDetails.selectedIndex = [0, 0];"
        }]
    }
}