{
    "p2kwiet2012247650947_button44747680938122_onClick_seq0": {
        "id": "p2kwiet2012247650947_button44747680938122_onClick_seq0",
        "type": "ACTION_SEQUENCE",
        "params": [{
            "name": "eventobject",
            "value": "eventobject"
        }],
        "language": "js",
        "actions": [{
            "id": "expression_onClick_3246320122476334",
            "type": "ADD_SNIPPET",
            "codeSnippet": "popupIBUploadPicture.dismiss();\n frmIBMyReceipentsHome.show();"
        }]
    }
}