{
    "p2kwiet2012247638105_button5897308481150304_onClick_seq0": {
        "id": "p2kwiet2012247638105_button5897308481150304_onClick_seq0",
        "type": "ACTION_SEQUENCE",
        "params": [{
            "name": "eventobject",
            "value": "eventobject"
        }],
        "language": "js",
        "actions": [{
            "id": "expression_onClick_428201224761975",
            "type": "ADD_SNIPPET",
            "codeSnippet": " frmIBMyActivities.hbox58868446699428.setVisibility(true);\n frmIBMyActivities.lblactivity.setVisibility(true);\n frmIBMyActivities.hbxhistory.setVisibility(false);\n frmIBMyActivities.hbxfuture.setVisibility(false);\n frmIBMyActivities.hbxbottom.setVisibility(false);\n frmIBMyActivities.hbxbottomfuture.setVisibility(false);\n frmIBMyActivities.hbox589488823281264.setVisibility(false);\n frmIBMyActivities.hbxCalendarContainer.setVisibility(true);\n frmIBMyActivities.vboxCalDayView.setVisibility(false);\n //setting the right margin so that the hboxStatusDesc takes less width\n //and this will be similar when vboxCalDayView is visible \n frmIBMyActivities.hboxStatusDesc.margin = [0, 0, 40, 0];\n frmIBMyActivities.vboxCalDayView.containerWeight = 0;\n frmIBMyActivities.btnfuture.skin = btnIBrndleftgrey;\n frmIBMyActivities.btnhistory.skin = btnIBrndleftgrey;\n frmIBMyActivities.btncalender.skin = btnIBrndrightblue;\n showCalendar(\"\", frmIBMyActivities);\n frmIBMyActivities.show();"
        }]
    }
}