{
    "p2kwiet2012247643877_btnsubmit_onClick_seq0": {
        "id": "p2kwiet2012247643877_btnsubmit_onClick_seq0",
        "type": "ACTION_SEQUENCE",
        "params": [{
            "name": "eventobject",
            "value": "eventobject"
        }],
        "language": "js",
        "actions": [{
            "id": "customcode_onClick_46207201224767473",
            "type": "INVOKE_FUNCTION",
            "sequenceKUID": "onMFSubmitbtnClick",
            "display": "onMFSubmitbtnClick",
            "inputparams": [],
            "source": "module"
        }]
    }
}