{
    "p2kwiet2012247643877_link1_onClick_seq0": {
        "id": "p2kwiet2012247643877_link1_onClick_seq0",
        "type": "ACTION_SEQUENCE",
        "params": [{
            "name": "eventobject",
            "value": "eventobject"
        }],
        "language": "js",
        "actions": [{
            "id": "expression_onClick_68865201224764564",
            "type": "ADD_SNIPPET",
            "codeSnippet": "frmIBMFAcctFullStatement.link1.skin=lnkNormal;\n frmIBMFAcctFullStatement.link2.skin=lnkIB18pxBlueUnderline;\n frmIBMFAcctFullStatement.link3.skin=lnkIB18pxBlueUnderline;\n frmIBMFAcctFullStatement.link4.skin=lnkIB18pxBlueUnderline;\n frmIBMFAcctFullStatement.link5.skin=lnkIB18pxBlueUnderline;\n loadCurrentPage(frmIBMFAcctFullStatement.link1.text);"
        }]
    }
}