{
    "p2kwiet2012247651174_vbox4493499491151227_onClick_seq0": {
        "id": "p2kwiet2012247651174_vbox4493499491151227_onClick_seq0",
        "type": "ACTION_SEQUENCE",
        "params": [{
            "name": "eventobject",
            "value": "eventobject"
        }],
        "language": "js",
        "actions": [{
            "id": "customcode_onClick_29319201224767092",
            "type": "INVOKE_FUNCTION",
            "sequenceKUID": "TMBLogoClickHandler",
            "display": "TMBLogoClickHandler",
            "inputparams": [],
            "source": "module"
        }]
    }
}