{
    "p2kwiet2012247648709_tbxToken_DESKTOPWEB_onBeginEditing_seq0": {
        "id": "p2kwiet2012247648709_tbxToken_DESKTOPWEB_onBeginEditing_seq0",
        "type": "ACTION_SEQUENCE",
        "params": [{
            "name": "eventobject",
            "value": "eventobject"
        }, {
            "name": "changedtext",
            "value": "changedtext"
        }],
        "language": "js",
        "actions": [{
            "id": "expression_onBeginEditing_50506201224765681",
            "type": "ADD_SNIPPET",
            "codeSnippet": "frmIBTopUpConfirmation.hbxTokenEntry.skin=\"hbxOtpTextField\""
        }]
    }
}