{
    "p2kwiet2012247651174_lnkLogOut_onClick_seq0": {
        "id": "p2kwiet2012247651174_lnkLogOut_onClick_seq0",
        "type": "ACTION_SEQUENCE",
        "params": [{
            "name": "eventobject",
            "value": "eventobject"
        }],
        "language": "js",
        "actions": [{
            "id": "expression_onClick_15737201224764119",
            "type": "ADD_SNIPPET",
            "codeSnippet": "fbDlink=false;\n GBL_Time_Out=false;"
        }, {
            "id": "customcode_onClick_22817201224761799",
            "type": "INVOKE_FUNCTION",
            "sequenceKUID": "IBLogoutService",
            "display": "IBLogoutService",
            "inputparams": [],
            "source": "module"
        }]
    }
}