{
    "p2kwiet2012247639687_button502735421210983_onClick_seq0": {
        "id": "p2kwiet2012247639687_button502735421210983_onClick_seq0",
        "type": "ACTION_SEQUENCE",
        "params": [{
            "name": "eventobject",
            "value": "eventobject"
        }],
        "language": "js",
        "actions": [{
            "id": "expression_onClick_26632201224767757",
            "type": "ADD_SNIPPET",
            "codeSnippet": "//TMBUtil.DestroyForm(frmIBBeepAndBillList);\n TMBUtil.DestroyForm(frmIBBeepAndBillApply);\n TMBUtil.DestroyForm(frmIBBeepAndBillApplyCW);\n //var nameofforma = kony.application.getCurrentForm();"
        }, {
            "id": "navigation_onClick_64832201224767203",
            "type": "NAVIGATE_TO_FORM",
            "formId": "frmIBPostLoginDashboard",
            "formKUID": "p2kwiet2012247647346",
            "mappings": {},
            "mappingsOrder": [],
            "parentId": "",
            "enableMappingEditor": true,
            "package": ""
        }]
    }
}