{
    "p2kwiet2012247647068_btnTnCDownloadPDF_onClick_seq0": {
        "id": "p2kwiet2012247647068_btnTnCDownloadPDF_onClick_seq0",
        "type": "ACTION_SEQUENCE",
        "params": [{
            "name": "eventobject",
            "value": "eventobject"
        }],
        "language": "js",
        "actions": [{
            "id": "expression_onClick_68896201224763389",
            "type": "ADD_SNIPPET",
            "codeSnippet": "onClickDownloadTnC('pdf','TMBPointRedemption');"
        }]
    }
}