{
    "p2kwiet2012247649128_btnTPAfter_onClick_seq0": {
        "id": "p2kwiet2012247649128_btnTPAfter_onClick_seq0",
        "type": "ACTION_SEQUENCE",
        "params": [{
            "name": "eventobject",
            "value": "eventobject"
        }],
        "language": "js",
        "actions": [{
            "id": "expression_onClick_80526201224769778",
            "type": "ADD_SNIPPET",
            "codeSnippet": "frmIBTopUpViewNEdit.hbxTPexecutiontimes.setVisibility(true);\n //frmIBTopUpViewNEdit.hbxBPUntil.setVisibility(true);\n frmIBTopUpViewNEdit.lineSchTPClose.setVisibility(false);\n frmIBTopUpViewNEdit.hbxTPUntil.setVisibility(false);\n "
        }, {
            "id": "customcode_onClick_33311201224762369",
            "type": "INVOKE_FUNCTION",
            "sequenceKUID": "endingScheduleForTP",
            "display": "endingScheduleForTP",
            "inputparams": [{
                "name": "eventObject",
                "value": "eventobject"
            }],
            "source": "module"
        }]
    }
}