{
    "p2kwiet2012247643877_btnprinter_onClick_seq0": {
        "id": "p2kwiet2012247643877_btnprinter_onClick_seq0",
        "type": "ACTION_SEQUENCE",
        "params": [{
            "name": "eventobject",
            "value": "eventobject"
        }],
        "language": "js",
        "actions": [{
            "id": "customcode_onClick_26703201224763290",
            "type": "INVOKE_FUNCTION",
            "sequenceKUID": "savePDFMutualFundFullStatement",
            "display": "savePDFMutualFundFullStatement",
            "inputparams": [{
                "name": "fileType",
                "value": "\"print\""
            }, {
                "name": "templateName",
                "value": "\"MFFullStatementTemplate\""
            }],
            "source": "module"
        }]
    }
}