{
    "p2kwiet2012247646154_tbxToken_DESKTOPWEB_onEndEditing_seq0": {
        "id": "p2kwiet2012247646154_tbxToken_DESKTOPWEB_onEndEditing_seq0",
        "type": "ACTION_SEQUENCE",
        "params": [{
            "name": "eventobject",
            "value": "eventobject"
        }, {
            "name": "changedtext",
            "value": "changedtext"
        }],
        "language": "js",
        "actions": [{
            "id": "expression_onEndEditing_11301201224765061",
            "type": "ADD_SNIPPET",
            "codeSnippet": "frmIBOpenNewSavingsAccConfirmation.hbxToken.skin=hbxOtpTextFieldNormal; "
        }]
    }
}