{
    "p2kwiet2012247639415_txtBxOTPBB_DESKTOPWEB_onBeginEditing_seq0": {
        "id": "p2kwiet2012247639415_txtBxOTPBB_DESKTOPWEB_onBeginEditing_seq0",
        "type": "ACTION_SEQUENCE",
        "params": [{
            "name": "eventobject",
            "value": "eventobject"
        }, {
            "name": "changedtext",
            "value": "changedtext"
        }],
        "language": "js",
        "actions": [{
            "id": "expression_onBeginEditing_6574201224766435",
            "type": "ADD_SNIPPET",
            "codeSnippet": "frmIBBeepAndBillConfAndComp.hbox4510182417419.skin=\"hbxOtpTextField\""
        }]
    }
}