{
    "p2kwiet2012247647022_hbxToAccount_onClick_seq0": {
        "id": "p2kwiet2012247647022_hbxToAccount_onClick_seq0",
        "type": "ACTION_SEQUENCE",
        "params": [{
            "name": "eventobject",
            "value": "eventobject"
        }],
        "language": "js",
        "actions": [{
            "id": "customcode_onClick_20170201224767664",
            "type": "INVOKE_FUNCTION",
            "sequenceKUID": "onClickToAccountForCashbackIB",
            "display": "onClickToAccountForCashbackIB",
            "inputparams": [],
            "source": "module"
        }]
    }
}