{
    "p2kwiet2012247647397_btnLogIn_onClick_seq0": {
        "id": "p2kwiet2012247647397_btnLogIn_onClick_seq0",
        "type": "ACTION_SEQUENCE",
        "params": [{
            "name": "eventobject",
            "value": "eventobject"
        }],
        "language": "js",
        "actions": [{
            "id": "expression_onClick_43868201224762330",
            "type": "ADD_SNIPPET",
            "codeSnippet": "isFromLogin=true"
        }, {
            "id": "decision_onClick_61452201224765869",
            "type": "IF_CONDITION",
            "conditions": [{
                "leftValueType": "expression",
                "leftValue": "!/^\\s*$/.test(frmIBPreLogin.txtUserId.text)"
            }],
            "criteria": "all"
        }, {
            "id": "decision_onClick_28184201224764791",
            "type": "ELSE_CONDITION",
            "conditions": [],
            "criteria": "all"
        }, {
            "id": "decision_onClick_93040201224768284",
            "type": "IF_CONDITION",
            "conditions": [{
                "leftValueType": "expression",
                "leftValue": "frmIBPreLogin.txtCaptchaText.text != \"\""
            }],
            "parentId": "decision_onClick_62165201224768920",
            "criteria": "all"
        }, {
            "id": "decision_onClick_28340201224767346",
            "type": "ELSE_CONDITION",
            "conditions": [],
            "parentId": "decision_onClick_62165201224768920",
            "criteria": "all"
        }, {
            "id": "alert_onClick_94884201224764489",
            "type": "SHOW_ALERT",
            "alertType": "constants.ALERT_TYPE_ERROR",
            "alertTitle": "Alert",
            "yesLabel": "Yes",
            "noLabel": "No",
            "alertMessage": "Field is mandatory",
            "messageType": "constant",
            "parentId": "decision_onClick_28340201224767346",
            "alertTitlei18n": "",
            "yesLabeli18n": "",
            "noLabeli18n": "",
            "alertMessagei18n": "keyCaptchaRequired",
            "iconPosition": "constants.ALERT_ICON_POSITION_LEFT"
        }, {
            "id": "expression_onClick_64995201224766957",
            "type": "ADD_SNIPPET",
            "codeSnippet": "frmIBPreLogin.txtCaptchaText.setFocus(true);",
            "parentId": "decision_onClick_28340201224767346"
        }, {
            "id": "alert_onClick_58010201224768544",
            "type": "SHOW_ALERT",
            "alertType": "constants.ALERT_TYPE_ERROR",
            "alertTitle": "Alert",
            "yesLabel": "Yes",
            "noLabel": "No",
            "alertMessage": "Field is mandatory",
            "messageType": "constant",
            "parentId": "decision_onClick_64202201224764514",
            "alertTitlei18n": "",
            "yesLabeli18n": "",
            "noLabeli18n": "",
            "alertMessagei18n": "keyPasswordRequired",
            "iconPosition": "constants.ALERT_ICON_POSITION_LEFT"
        }, {
            "id": "expression_onClick_54342201224769476",
            "type": "ADD_SNIPPET",
            "codeSnippet": "frmIBPreLogin.txtPassword.setFocus(true);",
            "parentId": "decision_onClick_64202201224764514"
        }, {
            "id": "decision_onClick_62165201224768920",
            "type": "IF_CONDITION",
            "conditions": [{
                "leftValueType": "expression",
                "leftValue": "frmIBPreLogin.hboxCaptchaText.isVisible"
            }],
            "parentId": "decision_onClick_43401201224769434",
            "criteria": "all"
        }, {
            "id": "decision_onClick_58057201224764211",
            "type": "ELSE_CONDITION",
            "conditions": [],
            "parentId": "decision_onClick_43401201224769434",
            "criteria": "all"
        }, {
            "id": "decision_onClick_43401201224769434",
            "type": "IF_CONDITION",
            "conditions": [{
                "leftValueType": "expression",
                "leftValue": "frmIBPreLogin.txtPassword.text != \"\""
            }],
            "parentId": "decision_onClick_61452201224765869",
            "criteria": "all"
        }, {
            "id": "decision_onClick_64202201224764514",
            "type": "ELSE_CONDITION",
            "conditions": [],
            "parentId": "decision_onClick_61452201224765869",
            "criteria": "all"
        }, {
            "id": "customcode_onClick_8718520122476604",
            "type": "INVOKE_FUNCTION",
            "sequenceKUID": "captchaValidation",
            "display": "captchaValidation",
            "inputparams": [{
                "name": "text",
                "value": "frmIBPreLogin.txtCaptchaText.text"
            }],
            "parentId": "decision_onClick_93040201224768284",
            "source": "module"
        }, {
            "id": "customcode_onClick_99133201224769331",
            "type": "INVOKE_FUNCTION",
            "sequenceKUID": "IBLoginService",
            "display": "IBLoginService",
            "inputparams": [],
            "parentId": "decision_onClick_58057201224764211",
            "source": "module"
        }, {
            "id": "alert_onClick_64278201224764506",
            "type": "SHOW_ALERT",
            "alertType": "constants.ALERT_TYPE_ERROR",
            "alertTitle": "Alert",
            "yesLabel": "Yes",
            "noLabel": "No",
            "alertMessage": "Field is mandatory",
            "messageType": "constant",
            "parentId": "decision_onClick_28184201224764791",
            "alertTitlei18n": "",
            "yesLabeli18n": "",
            "noLabeli18n": "",
            "alertMessagei18n": "keyLoginRequired",
            "iconPosition": "constants.ALERT_ICON_POSITION_LEFT"
        }, {
            "id": "expression_onClick_50363201224762088",
            "type": "ADD_SNIPPET",
            "codeSnippet": "frmIBPreLogin.txtUserId.setFocus(true);",
            "parentId": "decision_onClick_28184201224764791"
        }]
    }
}