{
    "p2kwiet2012247644864_btnDelete_onClick_seq0": {
        "id": "p2kwiet2012247644864_btnDelete_onClick_seq0",
        "type": "ACTION_SEQUENCE",
        "params": [{
            "name": "eventobject",
            "value": "eventobject"
        }],
        "language": "js",
        "actions": [{
            "id": "decision_onClick_32084201224767620",
            "type": "IF_CONDITION",
            "conditions": [{
                "leftValueType": "expression",
                "leftValue": "getCRMLockStatus()"
            }],
            "criteria": "all"
        }, {
            "id": "decision_onClick_67256201224762340",
            "type": "ELSE_CONDITION",
            "conditions": [],
            "criteria": "all"
        }, {
            "id": "expression_onClick_43438201224769108",
            "type": "ADD_SNIPPET",
            "codeSnippet": "curr_form=kony.application.getCurrentForm().id;\n popIBBPOTPLocked.show();",
            "parentId": "decision_onClick_32084201224767620"
        }, {
            "id": "navigation_onClick_53938201224766562",
            "type": "DISPLAY_POPUP",
            "popupId": "popupIBMyReceipentsDelete",
            "popupKUID": "p2kwiet2012247650903",
            "mappings": {},
            "mappingsOrder": [],
            "parentId": "decision_onClick_67256201224762340",
            "enableMappingEditor": true
        }]
    }
}