{
    "p2kwiet2012247639288_txtAddBillerRef1_DESKTOPWEB_onEndEditing_seq0": {
        "id": "p2kwiet2012247639288_txtAddBillerRef1_DESKTOPWEB_onEndEditing_seq0",
        "type": "ACTION_SEQUENCE",
        "params": [{
            "name": "eventobject",
            "value": "eventobject"
        }, {
            "name": "changedtext",
            "value": "changedtext"
        }],
        "language": "js",
        "actions": [{
            "id": "expression_onEndEditing_27741201224765067",
            "type": "ADD_SNIPPET",
            "codeSnippet": "frmIBBeepAndBillApply.hbxBillerRef1.skin = \"hbxProper\";"
        }]
    }
}