{
    "p2kwiet2012247645597_btnEditEmail_onClick_seq0": {
        "id": "p2kwiet2012247645597_btnEditEmail_onClick_seq0",
        "type": "ACTION_SEQUENCE",
        "params": [{
            "name": "eventobject",
            "value": "eventobject"
        }],
        "language": "js",
        "actions": [{
            "id": "customcode_onClick_83682201224765843",
            "type": "INVOKE_FUNCTION",
            "sequenceKUID": "onClickKYCbtnEditEmail",
            "display": "onClickKYCbtnEditEmail",
            "inputparams": [],
            "source": "module"
        }]
    }
}