{
    "p2kwiet2012247648059_txtUserId_onDone_seq0": {
        "id": "p2kwiet2012247648059_txtUserId_onDone_seq0",
        "type": "ACTION_SEQUENCE",
        "params": [{
            "name": "eventobject",
            "value": "eventobject"
        }, {
            "name": "changedtext",
            "value": "changedtext"
        }],
        "language": "js",
        "actions": [{
            "id": "decision_onDone_24853201224763898",
            "type": "IF_CONDITION",
            "conditions": [{
                "leftValueType": "expression",
                "leftValue": "frmIBPreLogin.txtUserId.text != \"\""
            }],
            "criteria": "all"
        }, {
            "id": "decision_onDone_83451201224765094",
            "type": "ELSE_CONDITION",
            "conditions": [],
            "criteria": "all"
        }, {
            "id": "decision_onDone_44798201224761881",
            "type": "IF_CONDITION",
            "conditions": [{
                "leftValueType": "expression",
                "leftValue": "frmIBPreLogin.txtCaptchaText.text != \"\""
            }],
            "parentId": "decision_onDone_36551201224761883",
            "criteria": "all"
        }, {
            "id": "decision_onDone_28181201224762475",
            "type": "ELSE_CONDITION",
            "conditions": [],
            "parentId": "decision_onDone_36551201224761883",
            "criteria": "all"
        }, {
            "id": "alert_onDone_72904201224761128",
            "type": "SHOW_ALERT",
            "alertType": "constants.ALERT_TYPE_ERROR",
            "alertTitle": "Alert",
            "yesLabel": "Yes",
            "noLabel": "No",
            "alertMessage": "Field is mandatory",
            "messageType": "constant",
            "parentId": "decision_onDone_28181201224762475",
            "alertTitlei18n": "",
            "yesLabeli18n": "",
            "noLabeli18n": "",
            "alertMessagei18n": "",
            "iconPosition": "constants.ALERT_ICON_POSITION_LEFT"
        }, {
            "id": "expression_onDone_3003120122476308",
            "type": "ADD_SNIPPET",
            "codeSnippet": "frmIBPreLogin.txtCaptchaText.setFocus(true);",
            "parentId": "decision_onDone_28181201224762475"
        }, {
            "id": "alert_onDone_31468201224769550",
            "type": "SHOW_ALERT",
            "alertType": "constants.ALERT_TYPE_ERROR",
            "alertTitle": "Alert",
            "yesLabel": "Yes",
            "noLabel": "No",
            "alertMessage": "Field is mandatory",
            "messageType": "constant",
            "parentId": "decision_onDone_5290320122476427",
            "alertTitlei18n": "",
            "yesLabeli18n": "",
            "noLabeli18n": "",
            "alertMessagei18n": "",
            "iconPosition": "constants.ALERT_ICON_POSITION_LEFT"
        }, {
            "id": "expression_onDone_56126201224767313",
            "type": "ADD_SNIPPET",
            "codeSnippet": "frmIBPreLogin.txtPassword.setFocus(true);",
            "parentId": "decision_onDone_5290320122476427"
        }, {
            "id": "decision_onDone_36551201224761883",
            "type": "IF_CONDITION",
            "conditions": [{
                "leftValueType": "expression",
                "leftValue": "frmIBPreLogin.hboxCaptchaText.isVisible"
            }],
            "parentId": "decision_onDone_69042201224765141",
            "criteria": "all"
        }, {
            "id": "decision_onDone_61612201224767714",
            "type": "ELSE_CONDITION",
            "conditions": [],
            "parentId": "decision_onDone_69042201224765141",
            "criteria": "all"
        }, {
            "id": "decision_onDone_69042201224765141",
            "type": "IF_CONDITION",
            "conditions": [{
                "leftValueType": "expression",
                "leftValue": "frmIBPreLogin.txtPassword.text != \"\""
            }],
            "parentId": "decision_onDone_24853201224763898",
            "criteria": "all"
        }, {
            "id": "decision_onDone_5290320122476427",
            "type": "ELSE_CONDITION",
            "conditions": [],
            "parentId": "decision_onDone_24853201224763898",
            "criteria": "all"
        }, {
            "id": "customcode_onDone_72633201224764377",
            "type": "INVOKE_FUNCTION",
            "sequenceKUID": "captchaValidation",
            "display": "captchaValidation",
            "inputparams": [{
                "name": "text",
                "value": "frmIBPreLogin.txtCaptchaText.text"
            }],
            "parentId": "decision_onDone_44798201224761881",
            "source": "module"
        }, {
            "id": "customcode_onDone_95699201224765372",
            "type": "INVOKE_FUNCTION",
            "sequenceKUID": "IBLoginService",
            "display": "IBLoginService",
            "inputparams": [],
            "parentId": "decision_onDone_61612201224767714",
            "source": "module"
        }, {
            "id": "alert_onDone_55215201224764083",
            "type": "SHOW_ALERT",
            "alertType": "constants.ALERT_TYPE_ERROR",
            "alertTitle": "Alert",
            "yesLabel": "Yes",
            "noLabel": "No",
            "alertMessage": "Field is mandatory",
            "messageType": "constant",
            "parentId": "decision_onDone_83451201224765094",
            "alertTitlei18n": "",
            "yesLabeli18n": "",
            "noLabeli18n": "",
            "alertMessagei18n": "",
            "iconPosition": "constants.ALERT_ICON_POSITION_LEFT"
        }, {
            "id": "expression_onDone_5237720122476111",
            "type": "ADD_SNIPPET",
            "codeSnippet": "frmIBPreLogin.txtUserId.setFocus(true);",
            "parentId": "decision_onDone_83451201224765094"
        }]
    }
}