{
    "p2kwiet2012247642662_btnBPCompRet_onClick_seq0": {
        "id": "p2kwiet2012247642662_btnBPCompRet_onClick_seq0",
        "type": "ACTION_SEQUENCE",
        "params": [{
            "name": "eventobject",
            "value": "eventobject"
        }],
        "language": "js",
        "actions": [{
            "id": "expression_onClick_88702201224765231",
            "type": "ADD_SNIPPET",
            "codeSnippet": " if (frmIBBillPaymentView.hbxBPAfterEditAvilBal.isVisible) {\n frmIBBillPaymentView.hbxBPAfterEditAvilBal.setVisibility(false);\n }\n if(frmIBBillPaymentView.hbxBPEditAmnt.isVisible){\n //frmIBBillPaymentView.txtBPEditAmtValue.text = frmIBBillPaymentView.lblBPAmtValue.text;\n frmIBBillPaymentView.hbxBPEditAmnt.setVisibility(false);\n }\n if(!frmIBBillPaymentView.hbxBPVeiwAmnt.isVisible){\n frmIBBillPaymentView.hbxBPVeiwAmnt.setVisibility(true);\n }\n if(frmIBBillPaymentView.lblBPeditHrd.isVisible){\n frmIBBillPaymentView.lblBPeditHrd.setVisibility(false);\n }\n if(!frmIBBillPaymentView.lblBPViewHrd.isVisible){\n frmIBBillPaymentView.lblBPViewHrd.setVisibility(true);\n }\n if(!frmIBBillPaymentView.hbxBPViewHdr.isVisible){\n frmIBBillPaymentView.hbxBPViewHdr.setVisibility(true);\n }\n if(frmIBBillPaymentView.btnBPSchedule.isVisible){\n frmIBBillPaymentView.btnBPSchedule.setVisibility(false);\n }\n if(!frmIBBillPaymentView.hbxbtnReturn.isVisible){\n frmIBBillPaymentView.hbxbtnReturn.setVisibility(true);\n }\n if(frmIBBillPaymentView.hbxEditBtns.isVisible){\n frmIBBillPaymentView.hbxEditBtns.setVisibility(false);\n }\n \n if(frmIBBillPaymentView.hbxBPAfterEditAvilBal.isVisible){\n frmIBBillPaymentView.hbxBPAfterEditAvilBal.setVisibility(false);\n }\n if(frmIBBillPaymentView.hbxOnlinePayment.isVisible){\n frmIBBillPaymentView.hbxOnlinePayment.setVisibility(false);\n }\n if(frmIBBillPaymentView.hboxOnlinePayPenalty.isVisible){\n frmIBBillPaymentView.hboxOnlinePayPenalty.setVisibility(false);\n }\n gsFormId=frmIBMyActivities;\n if(gblActivitiesNvgn==\"F\"){\n invokeFutureInstructionService();\n /*\n frmIBMyActivities.show();\n if(frmIBMyActivities.btncalender.focusSkin == btnIBTabBlue)\n showCalendar(gsSelectedDate,frmIBMyActivities,1);*/\n IBMyActivitiesReloadAndShowCalendar();\n \n }else if(gblActivitiesNvgn==\"C\"){\n kony.print(\"Calendar\");\n /*frmIBMyActivities.show();\n if(frmIBMyActivities.btncalender.focusSkin == btnIBTabBlue)\n showCalendar(gsSelectedDate,frmIBMyActivities,1);*/\n IBMyActivitiesReloadAndShowCalendar();\n \n }\n frmIBEditFutureBillPaymentPrecnf.txtBxOTP.setFocus(true);"
        }]
    }
}