{
    "p2kwiet2012247640268_btnYearly_onClick_seq0": {
        "id": "p2kwiet2012247640268_btnYearly_onClick_seq0",
        "type": "ACTION_SEQUENCE",
        "params": [{
            "name": "eventobject",
            "value": "eventobject"
        }],
        "language": "js",
        "actions": [{
            "id": "customcode_onClick_94679201224767999",
            "type": "INVOKE_FUNCTION",
            "sequenceKUID": "IBOnClickYearlyFutureBills",
            "display": "IBOnClickYearlyFutureBills",
            "inputparams": [],
            "source": "module"
        }]
    }
}