{
    "p2kwiet2012247651270_button864828120318389_onClick_seq0": {
        "id": "p2kwiet2012247651270_button864828120318389_onClick_seq0",
        "type": "ACTION_SEQUENCE",
        "params": [{
            "name": "eventobject",
            "value": "eventobject"
        }],
        "language": "js",
        "actions": [{
            "id": "customcode_onClick_94343201224767257",
            "type": "INVOKE_FUNCTION",
            "sequenceKUID": "onClickEntrust",
            "display": "onClickEntrust",
            "inputparams": [],
            "source": "module"
        }]
    }
}