{
    "p2kwiet2012247644730_frmIBMyBillersHome_postshow_seq0": {
        "id": "p2kwiet2012247644730_frmIBMyBillersHome_postshow_seq0",
        "type": "ACTION_SEQUENCE",
        "params": [{
            "name": "eventobject",
            "value": "eventobject"
        }, {
            "name": "neworientation",
            "value": "neworientation"
        }],
        "language": "js",
        "actions": [{
            "id": "customcode_postshow_76419201224763336",
            "type": "INVOKE_FUNCTION",
            "sequenceKUID": "addIBMenu",
            "display": "addIBMenu",
            "inputparams": [],
            "source": "module"
        }, {
            "id": "customcode_postshow_86575201224766315",
            "type": "INVOKE_FUNCTION",
            "sequenceKUID": "segAboutMeLoad",
            "display": "segAboutMeLoad",
            "inputparams": [],
            "source": "module"
        }, {
            "id": "customcode_postshow_74189201224769648",
            "type": "INVOKE_FUNCTION",
            "sequenceKUID": "pagespecificSubMenu",
            "display": "pagespecificSubMenu",
            "inputparams": [],
            "source": "module"
        }, {
            "id": "customcode_postshow_6211820122476786",
            "type": "INVOKE_FUNCTION",
            "sequenceKUID": "startDisplayBillerCategoryServiceIB",
            "display": "startDisplayBillerCategoryServiceIB",
            "inputparams": [],
            "source": "module"
        }, {
            "id": "customcode_postshow_34402201224766639",
            "type": "INVOKE_FUNCTION",
            "sequenceKUID": "getMyBillListIB",
            "display": "getMyBillListIB",
            "inputparams": [],
            "source": "module"
        }, {
            "id": "expression_postshow_11414201224768710",
            "type": "ADD_SNIPPET",
            "codeSnippet": "kony.print(\"======================================================================================================================\")\n frmIBMyBillersHome.lblBankRef.setVisibility(false);\n frmIBMyBillersHome.lblBankRefValue.setVisibility(false);\n frmIBMyBillersHome.lblOTPMsg.setVisibility(false);\n frmIBMyBillersHome.lblOTPMobileNo.setVisibility(false);\n frmIBMyBillersHome.txtotp.text=\"\";\n callServiceFlag=false;\n startIBBillTopUpProfileInqService();\n \n \n \n "
        }, {
            "id": "decision_postshow_14552201224768391",
            "type": "IF_CONDITION",
            "conditions": [{
                "leftValueType": "expression",
                "leftValue": "gblAddBillerFromPay"
            }],
            "criteria": "all"
        }, {
            "id": "decision_postshow_50922201224769726",
            "type": "ELSE_CONDITION",
            "conditions": [],
            "criteria": "all"
        }, {
            "id": "expression_postshow_627820122476709",
            "type": "ADD_SNIPPET",
            "codeSnippet": "if(gblSuggestedBiller && !gblAddBillerFromPay){\n //alert(\"inside f\")\n frmIBMyBillersHome.hbxBillersAddContainer.setVisibility(true);\n frmIBMyBillersHome.imgTMBLogo.setVisibility(false); \n frmIBMyBillersHome.lblAddBillerName.text =\"\";\n frmIBMyBillersHome.imgAddBillerLogo.src = \"\";\n frmIBMyBillersHome.txtAddBillerNickName.text =\"\";\n frmIBMyBillersHome.txtAddBillerRef1.text = \"\";\n frmIBMyBillersHome.txtAddBillerRef2.text = \"\";\n frmIBMyBillersHome.lblMyBills.setVisibility(true);\n frmIBMyBillersHome.line588686174252372.setVisibility(false);\n \n }"
        }, {
            "id": "expression_postshow_74399201224763272",
            "type": "ADD_SNIPPET",
            "codeSnippet": "frmIBMyBillersHome.tbxSearch.setFocus(true)"
        }, {
            "id": "expression_postshow_7489820122476192",
            "type": "ADD_SNIPPET",
            "codeSnippet": "frmIBMyBillersHome.segBillersConfirm.removeAll();\n \n frmIBMyBillersHome.imgTMBLogo.setVisibility(false);\n frmIBMyBillersHome.hbxBillersAddContainer.setVisibility(true);\n frmIBMyBillersHome.hbxBillersConfirmContainer.setVisibility(false);\n frmIBMyBillersHome.hbxBillersEditContainer.setVisibility(false);\n frmIBMyBillersHome.hbxBillersViewContainer.setVisibility(false);\n frmIBMyBillersHome.hbxCanConfBtnContainer.setVisibility(false);\n frmIBMyBillersHome.hbxBillersCompleteContainer.setVisibility(false);\n \n frmIBMyBillersHome.txtAddBillerNickName.text=\"\";\n frmIBMyBillersHome.txtAddBillerRef1.text=\"\";\n //frmIBMyBillersHome.lblAddBillerRef1.text=kony.i18n.getLocalizedString(\"keyRef1\");\n //frmIBMyBillersHome.lblAddBillerRef2.text=kony.i18n.getLocalizedString(\"keyRef2\");\n frmIBMyBillersHome.txtAddBillerRef2.text=\"\";\n //frmIBMyBillersHome.imgAddBillerLogo.src=\"empty.png\"\n frmIBMyBillersHome.imgArrowAddBiller.setVisibility(true);\n frmIBMyBillersHome.imgArrowSegBiller.setVisibility(false);\n \n if(gblAddBillerButtonClicked){\n frmIBMyBillersHome.lblAddBillerName.text=\"\";\n frmIBMyBillersHome.txtAddBillerNickName.setEnabled(false);\n frmIBMyBillersHome.txtAddBillerRef1.setEnabled(false);\n frmIBMyBillersHome.txtAddBillerRef2.setEnabled(false);\n }",
            "parentId": "decision_postshow_14552201224768391"
        }]
    }
}