{
    "p2kwiet2012247638599_frmIBActivateIBankingStep2Confirm_postshow_seq0": {
        "id": "p2kwiet2012247638599_frmIBActivateIBankingStep2Confirm_postshow_seq0",
        "type": "ACTION_SEQUENCE",
        "params": [{
            "name": "eventobject",
            "value": "eventobject"
        }, {
            "name": "neworientation",
            "value": "neworientation"
        }],
        "language": "js",
        "actions": [{
            "id": "expression_postshow_37806201224768131",
            "type": "ADD_SNIPPET",
            "codeSnippet": "frmIBActivateIBankingStep2Confirm.txtOTP.setFocus(true);\n var isIE8 = window.navigator.appVersion.match(/MSIE (\\d+)/) != null && RegExp.$1 == \"8\";\n if(isIE8){\n document.getElementById(\"frmIBActivateIBankingStep2Confirm_label507353026211739\").style.paddingBottom = \"0px\";\n }"
        }]
    }
}