{
    "p2kwiet2012247647721_button506369893806238_onClick_seq0": {
        "id": "p2kwiet2012247647721_button506369893806238_onClick_seq0",
        "type": "ACTION_SEQUENCE",
        "params": [{
            "name": "eventobject",
            "value": "eventobject"
        }],
        "language": "js",
        "actions": [{
            "id": "expression_onClick_50975201224761135",
            "type": "ADD_SNIPPET",
            "codeSnippet": "frmIBSSApplyCnfrmtn.hbxToken.setVisibility(false);\n frmIBSSApplyCnfrmtn.keyEnterToken.setVisibility(false);\n frmIBSSApplyCnfrmtn.hbxOTP.setVisibility(true);\n frmIBSSApplyCnfrmtn.hbox50639980413174.setVisibility(false);\n startReqOTPApplyServicesS2SIB();\n gblTokenSwitchFlag = false;\n gblSwitchToken = true;\n frmIBSSApplyCnfrmtn.txtBxOTP.setFocus(true);"
        }]
    }
}