{
    "p2kwiet2012247641098_txtNewUserID_DESKTOPWEB_onBeginEditing_seq0": {
        "id": "p2kwiet2012247641098_txtNewUserID_DESKTOPWEB_onBeginEditing_seq0",
        "type": "ACTION_SEQUENCE",
        "params": [{
            "name": "eventobject",
            "value": "eventobject"
        }, {
            "name": "changedtext",
            "value": "changedtext"
        }],
        "language": "js",
        "actions": [{
            "id": "expression_onBeginEditing_5338201224762584",
            "type": "ADD_SNIPPET",
            "codeSnippet": "frmIBCMChngUserID.hbox47428873330712.skin = hbxIBbottomborderfocus;\n if(gblCMUserIDRule == 1){\n frmIBCMChngUserID.hbxPopUP.setVisibility(false);\n frmIBCMChngUserID.hbxCancelSave.setVisibility(true);\n gblCMUserIDRule = 0\n }"
        }]
    }
}