{
    "p2kwiet2012247640665_frmIBChequeServiceViewReturnedCheque_postshow_seq0": {
        "id": "p2kwiet2012247640665_frmIBChequeServiceViewReturnedCheque_postshow_seq0",
        "type": "ACTION_SEQUENCE",
        "params": [{
            "name": "eventobject",
            "value": "eventobject"
        }, {
            "name": "neworientation",
            "value": "neworientation"
        }],
        "language": "js",
        "actions": [{
            "id": "customcode_postshow_50258201224767937",
            "type": "INVOKE_FUNCTION",
            "sequenceKUID": "addIBMenu",
            "display": "addIBMenu",
            "inputparams": [],
            "source": "module"
        }, {
            "id": "customcode_postshow_97446201224763220",
            "type": "INVOKE_FUNCTION",
            "sequenceKUID": "segConvenientServicesLoad",
            "display": "segConvenientServicesLoad",
            "inputparams": [],
            "source": "module"
        }, {
            "id": "customcode_postshow_63276201224762793",
            "type": "INVOKE_FUNCTION",
            "sequenceKUID": "pagespecificSubMenu",
            "display": "pagespecificSubMenu",
            "inputparams": [],
            "source": "module"
        }, {
            "id": "customcode_postshow_43491201224767214",
            "type": "INVOKE_FUNCTION",
            "sequenceKUID": "showReturnChequedata",
            "display": "showReturnChequedata",
            "inputparams": [],
            "source": "module"
        }, {
            "id": "customcode_postshow_70844201224769134",
            "type": "INVOKE_FUNCTION",
            "sequenceKUID": "getMonthCycleIB",
            "display": "getMonthCycleIB",
            "inputparams": [],
            "source": "module"
        }]
    }
}