{
    "p2kwiet2012247645428_frmIBMyTopUpsHome_init_seq0": {
        "id": "p2kwiet2012247645428_frmIBMyTopUpsHome_init_seq0",
        "type": "ACTION_SEQUENCE",
        "params": [{
            "name": "eventobject",
            "value": "eventobject"
        }, {
            "name": "neworientation",
            "value": "neworientation"
        }],
        "language": "js",
        "actions": [{
            "id": "expression_init_44014201224764449",
            "type": "ADD_SNIPPET",
            "codeSnippet": "frmIBMyTopUpsHome.imgTMBLogo.setVisibility(true);\n frmIBMyTopUpsHome.hbxBillersAddContainer.setVisibility(false);\n frmIBMyTopUpsHome.hbxBillersConfirmContainer.setVisibility(false);\n frmIBMyTopUpsHome.hbxBillersEditContainer.setVisibility(false);\n frmIBMyTopUpsHome.hbxBillersViewContainer.setVisibility(false);\n frmIBMyTopUpsHome.hbxSugBillersContainer.setVisibility(false);\n frmIBMyTopUpsHome.lblMyBills.setVisibility(false);\n frmIBMyTopUpsHome.hbxBillersCompleteContainer.setVisibility(false);\n frmIBMyTopUpsHome.txtotp.maxTextLength=6;\n frmIBMyTopUpsHome.lblMyBills.margin=[0,0,0,0];\n "
        }, {
            "id": "customcode_init_86865201224764674",
            "type": "INVOKE_FUNCTION",
            "sequenceKUID": "getLocaleBillerIB",
            "display": "getLocaleBillerIB",
            "inputparams": [],
            "source": "module"
        }]
    }
}