{
    "p2kwiet2012247644730_btnConfirm_onClick_seq0": {
        "id": "p2kwiet2012247644730_btnConfirm_onClick_seq0",
        "type": "ACTION_SEQUENCE",
        "params": [{
            "name": "eventobject",
            "value": "eventobject"
        }],
        "language": "js",
        "actions": [{
            "id": "decision_onClick_44305201224769227",
            "type": "IF_CONDITION",
            "conditions": [{
                "leftValueType": "expression",
                "leftValue": "checkMaxBillerCountOnConfirm()"
            }],
            "criteria": "all"
        }, {
            "id": "decision_onClick_46807201224768517",
            "type": "ELSE_CONDITION",
            "conditions": [],
            "criteria": "all"
        }, {
            "id": "customcode_onClick_81795201224765884",
            "type": "INVOKE_FUNCTION",
            "sequenceKUID": "mapSeg",
            "display": "mapSeg",
            "inputparams": [],
            "parentId": "decision_onClick_44305201224769227",
            "source": "module"
        }, {
            "id": "customcode_onClick_17433201224761629",
            "type": "INVOKE_FUNCTION",
            "sequenceKUID": "verifyOTPBillTopUp",
            "display": "verifyOTPBillTopUp",
            "inputparams": [],
            "parentId": "decision_onClick_44305201224769227",
            "source": "module"
        }, {
            "id": "expression_onClick_1786320122476629",
            "type": "ADD_SNIPPET",
            "codeSnippet": "var BillerList = myBillerList;\n var ConfirmationList = frmIBMyBillersHome.segBillersConfirm.data;\n var maxBillAllowed = parseInt(GLOBAL_MAX_BILL_COUNT)\n var TotalBillerCanBeAdded = maxBillAllowed-BillerList.length;\n alert(kony.i18n.getLocalizedString(\"Valid_CantAddMore\") + TotalBillerCanBeAdded + kony.i18n.getLocalizedString(\"keyBillersIB\"));",
            "parentId": "decision_onClick_46807201224768517"
        }]
    }
}