{
    "p2kwiet2012247641918_btnConfirm_onClick_seq0": {
        "id": "p2kwiet2012247641918_btnConfirm_onClick_seq0",
        "type": "ACTION_SEQUENCE",
        "params": [{
            "name": "eventobject",
            "value": "eventobject"
        }],
        "language": "js",
        "actions": [{
            "id": "decision_onClick_48085201224767082",
            "type": "IF_CONDITION",
            "conditions": [{
                "leftValueType": "expression",
                "leftValue": "gblSetPwd==false && frmIBCreateUserID.txtUserID.text == \"\""
            }],
            "criteria": "all"
        }, {
            "id": "decision_onClick_70682201224764695",
            "type": "ELSE_CONDITION",
            "conditions": [],
            "criteria": "all"
        }, {
            "id": "decision_onClick_2290201224762809",
            "type": "IF_CONDITION",
            "conditions": [{
                "leftValueType": "expression",
                "leftValue": "frmIBCreateUserID.txtConfirmPassword.text == \"\""
            }],
            "parentId": "decision_onClick_88121201224767705",
            "criteria": "all"
        }, {
            "id": "decision_onClick_2478201224764081",
            "type": "ELSE_CONDITION",
            "conditions": [],
            "parentId": "decision_onClick_88121201224767705",
            "criteria": "all"
        }, {
            "id": "customcode_onClick_93472201224767391",
            "type": "INVOKE_FUNCTION",
            "sequenceKUID": "ibUseridPasswordValidation",
            "display": "ibUseridPasswordValidation",
            "inputparams": [],
            "parentId": "decision_onClick_2478201224764081",
            "source": "module"
        }, {
            "id": "alert_onClick_92526201224767475",
            "type": "SHOW_ALERT",
            "alertType": "constants.ALERT_TYPE_ERROR",
            "alertTitle": "Error message",
            "yesLabel": "Yes",
            "noLabel": "No",
            "alertMessage": "This field is mandatory",
            "messageType": "constant",
            "parentId": "decision_onClick_31506201224764995",
            "alertTitlei18n": "keyErrMsg",
            "yesLabeli18n": "keyYes",
            "noLabeli18n": "",
            "alertMessagei18n": "keyEnterPassword",
            "iconPosition": "constants.ALERT_ICON_POSITION_LEFT"
        }, {
            "id": "expression_onClick_48755201224767832",
            "type": "ADD_SNIPPET",
            "codeSnippet": "frmIBCreateUserID.txtPassword.setFocus(true)",
            "parentId": "decision_onClick_31506201224764995"
        }, {
            "id": "alert_onClick_51207201224761325",
            "type": "SHOW_ALERT",
            "alertType": "constants.ALERT_TYPE_ERROR",
            "alertTitle": "Error message",
            "yesLabel": "Yes",
            "noLabel": "No",
            "alertMessage": "This field is mandatory",
            "messageType": "constant",
            "parentId": "decision_onClick_48085201224767082",
            "alertTitlei18n": "keyErrMsg",
            "yesLabeli18n": "keyYes",
            "noLabeli18n": "",
            "alertMessagei18n": "keyEnterUserId",
            "iconPosition": "constants.ALERT_ICON_POSITION_LEFT"
        }, {
            "id": "expression_onClick_84936201224764639",
            "type": "ADD_SNIPPET",
            "codeSnippet": "frmIBCreateUserID.txtUserID.setFocus(true)",
            "parentId": "decision_onClick_48085201224767082"
        }, {
            "id": "alert_onClick_99847201224768817",
            "type": "SHOW_ALERT",
            "alertType": "constants.ALERT_TYPE_ERROR",
            "alertTitle": "Error message",
            "yesLabel": "Yes",
            "noLabel": "No",
            "alertMessage": "This field is mandatory",
            "messageType": "constant",
            "parentId": "decision_onClick_2290201224762809",
            "alertTitlei18n": "keyErrMsg",
            "yesLabeli18n": "keyYes",
            "noLabeli18n": "",
            "alertMessagei18n": "keyEnterConfirmPassword",
            "iconPosition": "constants.ALERT_ICON_POSITION_LEFT"
        }, {
            "id": "expression_onClick_39248201224769025",
            "type": "ADD_SNIPPET",
            "codeSnippet": "frmIBCreateUserID.txtConfirmPassword.setFocus(true)",
            "parentId": "decision_onClick_2290201224762809"
        }, {
            "id": "decision_onClick_31506201224764995",
            "type": "IF_CONDITION",
            "conditions": [{
                "leftValueType": "expression",
                "leftValue": "frmIBCreateUserID.txtPassword.text == \"\""
            }],
            "parentId": "decision_onClick_70682201224764695",
            "criteria": "all"
        }, {
            "id": "decision_onClick_88121201224767705",
            "type": "ELSE_CONDITION",
            "conditions": [],
            "parentId": "decision_onClick_70682201224764695",
            "criteria": "all"
        }]
    }
}