{
    "p2kwiet2012247646378_tbxToken_DESKTOPWEB_onBeginEditing_seq0": {
        "id": "p2kwiet2012247646378_tbxToken_DESKTOPWEB_onBeginEditing_seq0",
        "type": "ACTION_SEQUENCE",
        "params": [{
            "name": "eventobject",
            "value": "eventobject"
        }, {
            "name": "changedtext",
            "value": "changedtext"
        }],
        "language": "js",
        "actions": [{
            "id": "expression_onBeginEditing_66617201224767062",
            "type": "ADD_SNIPPET",
            "codeSnippet": "\n frmIBOpenNewSavingsCareAccConfirmation.hbxToken.skin=hbxOtpTextField; \n if(isiPad)\n {\n document.getElementById(\"frmIBOpenNewSavingsCareAccConfirmation_tbxToken\").type = \"number\"; \n }"
        }]
    }
}