{
    "p2kwiet2012247644098_btnCancel1_onClick_seq0": {
        "id": "p2kwiet2012247644098_btnCancel1_onClick_seq0",
        "type": "ACTION_SEQUENCE",
        "params": [{
            "name": "eventobject",
            "value": "eventobject"
        }],
        "language": "js",
        "actions": [{
            "id": "expression_onClick_15714201224769067",
            "type": "ADD_SNIPPET",
            "codeSnippet": "if(frmIBAddMyAccnt.segAccntDetails.data == null || frmIBAddMyAccnt.segAccntDetails.data== undefined || frmIBAddMyAccnt.segAccntDetails.data.length<1){\n \n frmIBMyAccnts.hbxTMBImg.setVisibility(true);\n \n frmIBMyAccnts.hboxAddNewAccnt.setVisibility(false);\n frmIBMyAccnts.hbxViewAccnt.setVisibility(false);\n frmIBMyAccnts.cmbobxAccntType.setVisibility(false);\n frmIBMyAccnts.lineComboAccntype.setVisibility(false);\n frmIBMyAccnts.hbxEditAccntNN.setVisibility(false);\n frmIBMyAccnts.cmbobxBankType.selectedKey = \"key1\";\n frmIBMyAccnts.cmbobxBankType.setVisibility(true);\n \n gblMyAccntAddTmpData.length = 0;\n \n NON_TMB_ADD = 0;\n frmIBMyAccnts.show();\n }\n else{\n frmIBAddMyAccnt.show();\n }"
        }]
    }
}