{
    "p2kwiet2012247639664_frmIBBeepAndBillList_preshow_seq0": {
        "id": "p2kwiet2012247639664_frmIBBeepAndBillList_preshow_seq0",
        "type": "ACTION_SEQUENCE",
        "params": [{
            "name": "eventobject",
            "value": "eventobject"
        }, {
            "name": "neworientation",
            "value": "neworientation"
        }],
        "language": "js",
        "actions": [{
            "id": "expression_preshow_5040201224762112",
            "type": "ADD_SNIPPET",
            "codeSnippet": "frmIBBeepAndBillList.lblSuggestedBiller.setVisibility(true)\n frmIBBeepAndBillList.tbxSearch.placeholder = kony.i18n.getLocalizedString(\"Receipent_Search\")\n frmIBBeepAndBillList.lblErrorMsg.isVisible=false\n frmIBBeepAndBillList.tbxSearch.text=\"\";\n \n "
        }]
    }
}