{
    "p2kwiet2012247647851_btnConfirmOTP_onClick_seq0": {
        "id": "p2kwiet2012247647851_btnConfirmOTP_onClick_seq0",
        "type": "ACTION_SEQUENCE",
        "params": [{
            "name": "eventobject",
            "value": "eventobject"
        }],
        "language": "js",
        "actions": [{
            "id": "customcode_onClick_86281201224765280",
            "type": "INVOKE_FUNCTION",
            "sequenceKUID": "checkBusinessHoursBeforeIBConfirm",
            "display": "checkBusinessHoursBeforeIBConfirm",
            "inputparams": [],
            "source": "module"
        }]
    }
}