{
    "p2kwiet2012247645824_btnPrinter_onClick_seq0": {
        "id": "p2kwiet2012247645824_btnPrinter_onClick_seq0",
        "type": "ACTION_SEQUENCE",
        "params": [{
            "name": "eventobject",
            "value": "eventobject"
        }],
        "language": "js",
        "actions": [{
            "id": "customcode_onClick_20202201224764867",
            "type": "INVOKE_FUNCTION",
            "sequenceKUID": "IBOnClickPrinter",
            "display": "IBOnClickPrinter",
            "inputparams": [{
                "name": "filetype",
                "value": "\"print\""
            }],
            "source": "module"
        }]
    }
}