{
    "p2kwiet2012247640665_link3_onClick_seq0": {
        "id": "p2kwiet2012247640665_link3_onClick_seq0",
        "type": "ACTION_SEQUENCE",
        "params": [{
            "name": "eventobject",
            "value": "eventobject"
        }],
        "language": "js",
        "actions": [{
            "id": "expression_onClick_49087201224761934",
            "type": "ADD_SNIPPET",
            "codeSnippet": "frmIBChequeServiceViewReturnedCheque.link3.skin=lnkNormal;\n frmIBChequeServiceViewReturnedCheque.link2.skin=lnkIB18pxBlueUnderline;\n frmIBChequeServiceViewReturnedCheque.link1.skin=lnkIB18pxBlueUnderline;\n frmIBChequeServiceViewReturnedCheque.link4.skin=lnkIB18pxBlueUnderline;\n frmIBChequeServiceViewReturnedCheque.link5.skin=lnkIB18pxBlueUnderline;\n loadsegdataInReturnCheque(frmIBChequeServiceViewReturnedCheque.link3.text);"
        }]
    }
}