{
    "p2kwiet2012247638530_txtIDPass_DESKTOPWEB_onEndEditing_seq0": {
        "id": "p2kwiet2012247638530_txtIDPass_DESKTOPWEB_onEndEditing_seq0",
        "type": "ACTION_SEQUENCE",
        "params": [{
            "name": "eventobject",
            "value": "eventobject"
        }, {
            "name": "changedtext",
            "value": "changedtext"
        }],
        "language": "js",
        "actions": [{
            "id": "expression_onEndEditing_43746201224769714",
            "type": "ADD_SNIPPET",
            "codeSnippet": "frmIBActivateIBankingStep1.hboxIDPass.skin = \"hbxIBbottomborder\""
        }, {
            "id": "customcode_onEndEditing_8805020122476548",
            "type": "INVOKE_FUNCTION",
            "sequenceKUID": "onEditPassIdIB",
            "display": "onEditPassIdIB",
            "inputparams": [],
            "source": "module"
        }]
    }
}