{
    "p2kwiet2012247642497_btnAgree_onClick_seq0": {
        "id": "p2kwiet2012247642497_btnAgree_onClick_seq0",
        "type": "ACTION_SEQUENCE",
        "params": [{
            "name": "eventobject",
            "value": "eventobject"
        }],
        "language": "js",
        "actions": [{
            "id": "customcode_onClick_16345201224768279",
            "type": "INVOKE_FUNCTION",
            "sequenceKUID": "checkSymbolconfirm",
            "display": "checkSymbolconfirm",
            "inputparams": [],
            "source": "module"
        }, {
            "id": "expression_onClick_72290201224769052",
            "type": "ADD_SNIPPET",
            "codeSnippet": "frmIBDreamSAvingEdit.vboxBillers.skin=\"vbxRightColumnGrey\"\n frmIBDreamSAvingEdit.hbxBPAll.skin=\"hbxIBSizelimiterRightGrey\"\n frmIBDreamSAvingEdit.imgcal.setVisibility(true)"
        }]
    }
}