{
    "p2kwiet2012247638763_btnSwitch2OTP_onClick_seq0": {
        "id": "p2kwiet2012247638763_btnSwitch2OTP_onClick_seq0",
        "type": "ACTION_SEQUENCE",
        "params": [{
            "name": "eventobject",
            "value": "eventobject"
        }],
        "language": "js",
        "actions": [{
            "id": "expression_onClick_180201224768822",
            "type": "ADD_SNIPPET",
            "codeSnippet": "frmIBAddMyAccnt.hbxTokenEntry.setVisibility(false);\n frmIBAddMyAccnt.hbxOTPEntry.setVisibility(true);\n frmIBAddMyAccnt.label474165825167354.text=kony.i18n.getLocalizedString(\"keyotpmsgreq\");\n frmIBAddMyAccnt.hbox450035142444916.setVisibility(true);\n frmIBAddMyAccnt.hbox44747680933513.setVisibility(true); \n frmIBAddMyAccnt.txtOTP.setFocus(true);\n gblTokenSwitchFlag = false;\n gblSwitchToken = true;\n IBreqOTPMYAccnts();"
        }]
    }
}