{
    "p2kwiet2012247646667_btnOpenProdAgree_onClick_seq0": {
        "id": "p2kwiet2012247646667_btnOpenProdAgree_onClick_seq0",
        "type": "ACTION_SEQUENCE",
        "params": [{
            "name": "eventobject",
            "value": "eventobject"
        }],
        "language": "js",
        "actions": [{
            "id": "expression_onClick_6017201224761073",
            "type": "ADD_SNIPPET",
            "codeSnippet": "gblCWSelectedItem = 0\n frmIBOpenProdDetnTnC.lblOpenAccIntType.text=frmIBOpenProdDetnTnC.lblOpenAccIntType.text.replace(\":\",\"\");"
        }, {
            "id": "customcode_onClick_72480201224765143",
            "type": "INVOKE_FUNCTION",
            "sequenceKUID": "partyInqforKYCOpenAccount",
            "display": "partyInqforKYCOpenAccount",
            "inputparams": [],
            "source": "module"
        }]
    }
}