{
    "p2kwiet2012247652074_btndelete1_onClick_seq0": {
        "id": "p2kwiet2012247652074_btndelete1_onClick_seq0",
        "type": "ACTION_SEQUENCE",
        "params": [{
            "name": "eventobject",
            "value": "eventobject"
        }, {
            "name": "context",
            "value": "context"
        }],
        "language": "js",
        "actions": [{
            "id": "expression_onClick_86556201224765356",
            "type": "ADD_SNIPPET",
            "codeSnippet": "popupDeleAccnt.button44747680938122.onClick = confirmRecAccntPopup;\n popupDeleAccnt.button44914510567703.onClick = dismissPopup;\n popupDeleAccnt.show();"
        }, {
            "id": "navigation_onClick_35027201224768434",
            "type": "DISPLAY_POPUP",
            "popupId": "popupDeleAccnt",
            "popupKUID": "p2kwiet2012247650774",
            "mappings": {},
            "mappingsOrder": [],
            "enableMappingEditor": true
        }]
    }
}