{
    "p2kwiet2012247642662_btnBPCancel_onClick_seq0": {
        "id": "p2kwiet2012247642662_btnBPCancel_onClick_seq0",
        "type": "ACTION_SEQUENCE",
        "params": [{
            "name": "eventobject",
            "value": "eventobject"
        }],
        "language": "js",
        "actions": [{
            "id": "customcode_onClick_77173201224762223",
            "type": "INVOKE_FUNCTION",
            "sequenceKUID": "cancelEditFutureBP",
            "display": "cancelEditFutureBP",
            "inputparams": [],
            "source": "module"
        }, {
            "id": "expression_onClick_524920122476126",
            "type": "ADD_SNIPPET",
            "codeSnippet": "//frmIBEditFutureBillPaymentPrecnf.labelkeyOTPMsg.text = kony.i18n.getLocalizedString(\"keyotpmsgreq\");\n //frmIBEditFutureBillPaymentPrecnf.labelkeyOTP.text = kony.i18n.getLocalizedString(\"keyOTP\");\n //frmIBEditFutureBillPaymentPrecnf.btnOTPReq.text = kony.i18n.getLocalizedString(\"keyRequest\");\n \n frmIBBillPaymentView.show();"
        }]
    }
}