{
    "p2kwiet2012247645911_btnRequest_onClick_seq0": {
        "id": "p2kwiet2012247645911_btnRequest_onClick_seq0",
        "type": "ACTION_SEQUENCE",
        "params": [{
            "name": "eventobject",
            "value": "eventobject"
        }],
        "language": "js",
        "actions": [{
            "id": "expression_onClick_24888201224763809",
            "type": "ADD_SNIPPET",
            "codeSnippet": "gblOnClickReq = false\n "
        }, {
            "id": "customcode_onClick_42694201224766720",
            "type": "INVOKE_FUNCTION",
            "sequenceKUID": "IBreqOTPMYNewAccnts",
            "display": "IBreqOTPMYNewAccnts",
            "inputparams": [],
            "source": "module"
        }]
    }
}