{
    "p2kwiet2012247649718_brnConfirm_onClick_seq0": {
        "id": "p2kwiet2012247649718_brnConfirm_onClick_seq0",
        "type": "ACTION_SEQUENCE",
        "params": [{
            "name": "eventobject",
            "value": "eventobject"
        }],
        "language": "js",
        "actions": [{
            "id": "customcode_onClick_2927201224765377",
            "type": "INVOKE_FUNCTION",
            "sequenceKUID": "onClickConfirmTransferIB",
            "display": "onClickConfirmTransferIB",
            "inputparams": [],
            "source": "module"
        }]
    }
}