{
    "p2kwiet2012247642323_frmIBDebitCardActivateAssignPIN_postshow_seq0": {
        "id": "p2kwiet2012247642323_frmIBDebitCardActivateAssignPIN_postshow_seq0",
        "type": "ACTION_SEQUENCE",
        "params": [{
            "name": "eventobject",
            "value": "eventobject"
        }, {
            "name": "neworientation",
            "value": "neworientation"
        }],
        "language": "js",
        "actions": [{
            "id": "customcode_postshow_78246201224764218",
            "type": "INVOKE_FUNCTION",
            "sequenceKUID": "addIBMenu",
            "display": "addIBMenu",
            "inputparams": [],
            "source": "module"
        }, {
            "id": "expression_postshow_63989201224764164",
            "type": "ADD_SNIPPET",
            "codeSnippet": "if(kony.i18n.getCurrentLocale() == \"th_TH\"){\n\t frmIBDebitCardActivateAssignPIN.btnMenuMyAccountSummary.skin=\"btnIBMenuMyAccountSummaryFocusThai\";\n}\nelse{\n\t frmIBDebitCardActivateAssignPIN.btnMenuMyAccountSummary.skin=\"btnIBMenuMyAccountSummaryFocus\";\n}\nif(maxLenPin == \"6\"){\n\tfrmIBDebitCardActivateAssignPIN.lblEnterYourPIN.text = kony.i18n.getLocalizedString(\"keySet4DigitPin\").replace(\"4\",\"6\");\n}else{\n  \tfrmIBDebitCardActivateAssignPIN.lblEnterYourPIN.text = kony.i18n.getLocalizedString(\"keySet4DigitPin\");\n}\n "
        }]
    }
}