{
    "p2kwiet2012247639288_btnAddBillerSearch_onClick_seq0": {
        "id": "p2kwiet2012247639288_btnAddBillerSearch_onClick_seq0",
        "type": "ACTION_SEQUENCE",
        "params": [{
            "name": "eventobject",
            "value": "eventobject"
        }],
        "language": "js",
        "actions": [{
            "id": "expression_onClick_58303201224763987",
            "type": "ADD_SNIPPET",
            "codeSnippet": "//if(kony.application.getCurrentForm().id == 'frmIBBeepAndBillApplyCW')\n // frmIBBeepAndBillApply.show();\n //else if(kony.application.getCurrentForm().id == 'frmIBBeepAndBillApply')\n //frmIBBeepAndBillApplyCW.show(); "
        }]
    }
}