{
    "p2kwiet2012247644560_btnhistory_onClick_seq0": {
        "id": "p2kwiet2012247644560_btnhistory_onClick_seq0",
        "type": "ACTION_SEQUENCE",
        "params": [{
            "name": "eventobject",
            "value": "eventobject"
        }],
        "language": "js",
        "actions": [{
            "id": "customcode_onClick_45287201224769369",
            "type": "INVOKE_FUNCTION",
            "sequenceKUID": "columnHeaderInDGHistory",
            "display": "columnHeaderInDGHistory",
            "inputparams": [],
            "source": "module"
        }, {
            "id": "customcode_onClick_71096201224768633",
            "type": "INVOKE_FUNCTION",
            "sequenceKUID": "btnhistoryOnClick",
            "display": "btnhistoryOnClick",
            "inputparams": [],
            "source": "module"
        }]
    }
}