{
    "p2kwiet2012247646632_btnRight_onClick_seq0": {
        "id": "p2kwiet2012247646632_btnRight_onClick_seq0",
        "type": "ACTION_SEQUENCE",
        "params": [{
            "name": "eventobject",
            "value": "eventobject"
        }],
        "language": "js",
        "actions": [{
            "id": "expression_onClick_24017201224768426",
            "type": "ADD_SNIPPET",
            "codeSnippet": "gblRetryCountRequestOTP = \"0\";"
        }, {
            "id": "navigation_onClick_94968201224761258",
            "type": "NAVIGATE_TO_FORM",
            "formId": "frmIBOpenNewTermDepositAcc",
            "formKUID": "p2kwiet2012247646427",
            "mappings": {},
            "mappingsOrder": [],
            "parentId": "",
            "enableMappingEditor": true,
            "package": ""
        }]
    }
}