{
    "p2kwiet2012247647721_btnPreCancel_onClick_seq0": {
        "id": "p2kwiet2012247647721_btnPreCancel_onClick_seq0",
        "type": "ACTION_SEQUENCE",
        "params": [{
            "name": "eventobject",
            "value": "eventobject"
        }],
        "language": "js",
        "actions": [{
            "id": "expression_onClick_11997201224761467",
            "type": "ADD_SNIPPET",
            "codeSnippet": "frmIBSSApply.txtBalMax.text = frmIBSSApplyCnfrmtn.lblAmntLmtMax.text\n frmIBSSApply.txtBalMin.text = frmIBSSApplyCnfrmtn.lblAmntLmtMin.text\n if(gbls2sEditFlag==\"true\"){\n frmIBSSApply.hboxLinkedAcct.setVisibility(true);\n frmIBSSApply.imgNoFixedAcct.src=frmIBSSApplyCnfrmtn.imgNoFix.src \n frmIBSSApply.lblCustName2.text=frmIBSSApplyCnfrmtn.lblCustName2.text \n frmIBSSApply.lblBal2.text=frmIBSSApplyCnfrmtn.lblBal2.text\n //frmIBSSApply.lblAcctNo.text=frmIBSSApplyCnfrmtn.lblAcc2.text \n frmIBSSApply.lblAccNo2.text=frmIBSSApplyCnfrmtn.lblAccNo2.text \n frmIBSSApply.lblAccType2.text=frmIBSSApplyCnfrmtn.lblAccType2.text \n frmIBSSApply.show();\n frmIBSSApplyCnfrmtn.hbxToken.isVisible=false;\n frmIBSSApplyCnfrmtn.keyEnterToken.setVisibility(false);\n }\n else{\n frmIBSSApply.lblAcctNoValue.text=\"\";\n frmIBSSApply.hboxLinkedAcct.setVisibility(false);\n frmIBSSApply.imgNoFixedAcct.src=frmIBSSApplyCnfrmtn.imgNoFix.src \n frmIBSSApply.lblCustName2.text=frmIBSSApplyCnfrmtn.lblCustName2.text \n frmIBSSApply.lblBal2.text=frmIBSSApplyCnfrmtn.lblBal2.text\n //frmIBSSApply.lblAcctNo.text=frmIBSSApplyCnfrmtn.lblAcc2.text \n frmIBSSApply.lblAccNo2.text=frmIBSSApplyCnfrmtn.lblAccNo2.text \n frmIBSSApply.lblAccType2.text=frmIBSSApplyCnfrmtn.lblAccType2.text \n s2sVerticalCoverFlow(); \n frmIBSSApply.show();\n frmIBSSApplyCnfrmtn.hbxToken.isVisible=false;\n frmIBSSApplyCnfrmtn.keyEnterToken.setVisibility(false);\n }"
        }]
    }
}