{
    "p2kwiet2012247648780_btnBPBiller_onClick_seq0": {
        "id": "p2kwiet2012247648780_btnBPBiller_onClick_seq0",
        "type": "ACTION_SEQUENCE",
        "params": [{
            "name": "eventobject",
            "value": "eventobject"
        }],
        "language": "js",
        "actions": [{
            "id": "customcode_onClick_3287201224764314",
            "type": "INVOKE_FUNCTION",
            "sequenceKUID": "IBTopUpBiller",
            "display": "IBTopUpBiller",
            "inputparams": [],
            "source": "module"
        }]
    }
}