{
    "p2kwiet2012247645129_btnotp_onClick_seq0": {
        "id": "p2kwiet2012247645129_btnotp_onClick_seq0",
        "type": "ACTION_SEQUENCE",
        "params": [{
            "name": "eventobject",
            "value": "eventobject"
        }],
        "language": "js",
        "actions": [{
            "id": "expression_onClick_2930420122476284",
            "type": "ADD_SNIPPET",
            "codeSnippet": " frmIBMyReceipentsAddContactManually.lblOTPinCurr.text = \" \";//kony.i18n.getLocalizedString(\"invalidOTP\"); //\n frmIBMyReceipentsAddContactManually.lblPlsReEnter.text = \" \"; \n frmIBMyReceipentsAddContactManually.hbxOTPincurrect.isVisible = false;\n frmIBMyReceipentsAddContactManually.hbox101089555968194.isVisible = true;\n frmIBMyReceipentsAddContactManually.hbox101089555968200.isVisible = true; "
        }, {
            "id": "expression_onClick_2689201224763259",
            "type": "ADD_SNIPPET",
            "codeSnippet": "\n \n if(gblTokenSwitchFlag == true && gblSwitchToken == false){\n frmIBMyReceipentsAddContactManually.otpmsglbl.text = kony.i18n.getLocalizedString(\"keyotpmsgreq\");\n frmIBMyReceipentsAddContactManually.lblOTP.text = \"OTP:\";\n frmIBMyReceipentsAddContactManually.btnotp.text = kony.i18n.getLocalizedString(\"keyRequest\");\n frmIBMyReceipentsAddContactManually.txtotp.text=\"\";\n // frmIBMyReceipentsAddContactManually.txtotp.placeholder=kony.i18n.getLocalizedString(\"enterOTP\");\n gblTokenSwitchFlag = false;\n gblSwitchToken = true;\n startBackGroundOTPRequestService();\n frmIBMyReceipentsAddContactManually.txtotp.setFocus(true);\n }else{\n \n startOTPRequestService();\n frmIBMyReceipentsAddContactManually.txtotp.setFocus(true);\n }\n \n \n "
        }]
    }
}