{
    "p2kwiet2012247650955_popUpIBXfersNwFailure_init_seq0": {
        "id": "p2kwiet2012247650955_popUpIBXfersNwFailure_init_seq0",
        "type": "ACTION_SEQUENCE",
        "params": [{
            "name": "eventobject",
            "value": "eventobject"
        }, {
            "name": "neworientation",
            "value": "neworientation"
        }],
        "language": "js",
        "actions": [{
            "id": "expression_init_70508201224769619",
            "type": "ADD_SNIPPET",
            "codeSnippet": "popUpIBXfersNwFailure.enabledForIdleTimeout = true"
        }]
    }
}