{
    "p2kwiet2012247638987_fbBtn_onClick_seq0": {
        "id": "p2kwiet2012247638987_fbBtn_onClick_seq0",
        "type": "ACTION_SEQUENCE",
        "params": [{
            "name": "eventobject",
            "value": "eventobject"
        }],
        "language": "js",
        "actions": [{
            "id": "customcode_onClick_25381201224761943",
            "type": "INVOKE_FUNCTION",
            "sequenceKUID": "postOnFBSoGooODCompleteIB",
            "display": "postOnFBSoGooODCompleteIB",
            "inputparams": [],
            "source": "module"
        }]
    }
}