{
    "p2kwiet2012247647043_frmIBPointRedemptionProdFeature_preshow_seq0": {
        "id": "p2kwiet2012247647043_frmIBPointRedemptionProdFeature_preshow_seq0",
        "type": "ACTION_SEQUENCE",
        "params": [{
            "name": "eventobject",
            "value": "eventobject"
        }, {
            "name": "neworientation",
            "value": "neworientation"
        }],
        "language": "js",
        "actions": [{
            "id": "customcode_preshow_955142012247687",
            "type": "INVOKE_FUNCTION",
            "sequenceKUID": "frmIBPointRedemptionProdFeaturePreShow",
            "display": "frmIBPointRedemptionProdFeaturePreShow",
            "inputparams": [],
            "source": "module"
        }]
    }
}