{
    "p2kwiet2012247650732_tabpane47417063027630_onTabClick_seq0": {
        "id": "p2kwiet2012247650732_tabpane47417063027630_onTabClick_seq0",
        "type": "ACTION_SEQUENCE",
        "params": [{
            "name": "eventobject",
            "value": "eventobject"
        }, {
            "name": "currentindex",
            "value": "currentindex"
        }, {
            "name": "isexpanded",
            "value": "isexpanded"
        }],
        "language": "js",
        "actions": [{
            "id": "expression_onTabClick_67802201224766404",
            "type": "ADD_SNIPPET",
            "codeSnippet": "popupbiller.hbox47417063034266.setVisibility(false);\n popupbiller.hbox1.setVisibility(false);\n popupbiller.hbox2.setVisibility(false);\n popupbiller.hbox3.setVisibility(false);\n popupbiller.hbox4.setVisibility(false);\n popupbiller.hbox5.setVisibility(false);\n popupbiller.hbox6.setVisibility(false);\n popupbiller.line47417063034633.setVisibility(false);\n popupbiller.line47417063034634.setVisibility(false);\n popupbiller.line47417063034635.setVisibility(false);\n popupbiller.line47417063034636.setVisibility(false);\n popupbiller.line47417063034637.setVisibility(false);\n \n "
        }]
    }
}