{
    "p2kwiet2012247648472_tbxTokenSerialNo_DESKTOPWEB_onEndEditing_seq0": {
        "id": "p2kwiet2012247648472_tbxTokenSerialNo_DESKTOPWEB_onEndEditing_seq0",
        "type": "ACTION_SEQUENCE",
        "params": [{
            "name": "eventobject",
            "value": "eventobject"
        }, {
            "name": "changedtext",
            "value": "changedtext"
        }],
        "language": "js",
        "actions": [{
            "id": "expression_onEndEditing_17197201224768040",
            "type": "ADD_SNIPPET",
            "codeSnippet": "frmIBTokenActivationPage.hbox506459299742240.skin = \"hbxIBbottomborder\""
        }]
    }
}