{
    "p2kwiet2012247643877_frmIBMFAcctFullStatement_postshow_seq0": {
        "id": "p2kwiet2012247643877_frmIBMFAcctFullStatement_postshow_seq0",
        "type": "ACTION_SEQUENCE",
        "params": [{
            "name": "eventobject",
            "value": "eventobject"
        }, {
            "name": "neworientation",
            "value": "neworientation"
        }],
        "language": "js",
        "actions": [{
            "id": "customcode_postshow_76055201224767028",
            "type": "INVOKE_FUNCTION",
            "sequenceKUID": "addIBMenu",
            "display": "addIBMenu",
            "inputparams": [],
            "source": "module"
        }, {
            "id": "expression_postshow_77110201224762421",
            "type": "ADD_SNIPPET",
            "codeSnippet": "frmIBMFAcctFullStatement.enabledForIdleTimeout=true;"
        }, {
            "id": "customcode_postshow_96746201224769065",
            "type": "INVOKE_FUNCTION",
            "sequenceKUID": "viewMFAccntFullStatementIB",
            "display": "viewMFAccntFullStatementIB",
            "inputparams": [],
            "source": "module"
        }, {
            "id": "customcode_postshow_15873201224764537",
            "type": "INVOKE_FUNCTION",
            "sequenceKUID": "setFocusOnBtnAccountSum",
            "display": "setFocusOnBtnAccountSum",
            "inputparams": [{
                "name": "currentFormId",
                "value": "kony.application.getCurrentForm()"
            }],
            "source": "module"
        }]
    }
}