{
    "p2kwiet2012247640565_hbox47679117769442_onClick_seq0": {
        "id": "p2kwiet2012247640565_hbox47679117769442_onClick_seq0",
        "type": "ACTION_SEQUENCE",
        "params": [{
            "name": "eventobject",
            "value": "eventobject"
        }],
        "language": "js",
        "actions": [{
            "id": "expression_onClick_50884201224762508",
            "type": "ADD_SNIPPET",
            "codeSnippet": "frmIBChequeServiceStopChequeLanding.hbox47679117769442.skin=\"hbxProperFocus\""
        }]
    }
}