{
    "p2kwiet2012247639687_link502735421210940_onClick_seq0": {
        "id": "p2kwiet2012247639687_link502735421210940_onClick_seq0",
        "type": "ACTION_SEQUENCE",
        "params": [{
            "name": "eventobject",
            "value": "eventobject"
        }],
        "language": "js",
        "actions": [{
            "id": "customcode_onClick_93806201224767576",
            "type": "INVOKE_FUNCTION",
            "sequenceKUID": "onClickPdfImgForBBTandCIB",
            "display": "onClickPdfImgForBBTandCIB",
            "inputparams": [],
            "source": "module"
        }]
    }
}