{
    "p2kwiet2012247638227_btnm5_onClick_seq0": {
        "id": "p2kwiet2012247638227_btnm5_onClick_seq0",
        "type": "ACTION_SEQUENCE",
        "params": [{
            "name": "eventobject",
            "value": "eventobject"
        }],
        "language": "js",
        "actions": [{
            "id": "expression_onClick_4209201224763053",
            "type": "ADD_SNIPPET",
            "codeSnippet": "setSortBtnSkin();\n totalGridData=[];\n startCCstatementserviceIB(\"billed\", \"5\" );\n frmIBAccntFullStatement.btnm1.skin = \"btnIBrndleftgreyFullStatement\";\n frmIBAccntFullStatement.btnm2.skin = \"btnIBTabgreyFullStatement\";\n frmIBAccntFullStatement.btnm3.skin = \"btnIBTabgreyFullStatement\";\n frmIBAccntFullStatement.btnm4.skin = \"btnIBTabgreyFullStatement\";\n frmIBAccntFullStatement.btnm5.skin = \"btnIBTabBlueFullStatement\";\n frmIBAccntFullStatement.btnm6.skin = \"btnIBrndrightgreyFullStatement\";"
        }]
    }
}