{
    "p2kwiet2012247643574_button1014589649274_onClick_seq0": {
        "id": "p2kwiet2012247643574_button1014589649274_onClick_seq0",
        "type": "ACTION_SEQUENCE",
        "params": [{
            "name": "eventobject",
            "value": "eventobject"
        }],
        "language": "js",
        "actions": [{
            "id": "customcode_onClick_45202201224769970",
            "type": "INVOKE_FUNCTION",
            "sequenceKUID": "saveAsPDFFutureTransferIB",
            "display": "saveAsPDFFutureTransferIB",
            "inputparams": [{
                "name": "filetype",
                "value": "\"pdf\""
            }],
            "source": "module"
        }]
    }
}