{
    "p2kwiet2012247646632_txtOTP_DESKTOPWEB_onEndEditing_seq0": {
        "id": "p2kwiet2012247646632_txtOTP_DESKTOPWEB_onEndEditing_seq0",
        "type": "ACTION_SEQUENCE",
        "params": [{
            "name": "eventobject",
            "value": "eventobject"
        }, {
            "name": "changedtext",
            "value": "changedtext"
        }],
        "language": "js",
        "actions": [{
            "id": "expression_onEndEditing_54584201224765957",
            "type": "ADD_SNIPPET",
            "codeSnippet": "frmIBOpenNewTermDepositAccConfirmation.hbox866854059250283.skin=\"hbxOtpTextFieldNormal\""
        }]
    }
}