{
    "p2kwiet2012247641860_frmIBContactUs_postshow_seq0": {
        "id": "p2kwiet2012247641860_frmIBContactUs_postshow_seq0",
        "type": "ACTION_SEQUENCE",
        "params": [{
            "name": "eventobject",
            "value": "eventobject"
        }, {
            "name": "neworientation",
            "value": "neworientation"
        }],
        "language": "js",
        "actions": [{
            "id": "customcode_postshow_47970201224764684",
            "type": "INVOKE_FUNCTION",
            "sequenceKUID": "addIBMenu",
            "display": "addIBMenu",
            "inputparams": [],
            "source": "module"
        }, {
            "id": "expression_postshow_26200201224765832",
            "type": "ADD_SNIPPET",
            "codeSnippet": "frmIBContactUs.hbxCntImage.margin=[0,6,0,0];\n "
        }, {
            "id": "customcode_postshow_225320122476879",
            "type": "INVOKE_FUNCTION",
            "sequenceKUID": "footerPagesMenu",
            "display": "footerPagesMenu",
            "inputparams": [],
            "source": "module"
        }]
    }
}