{
    "p2kwiet2012247649549_btnRet_onClick_seq0": {
        "id": "p2kwiet2012247649549_btnRet_onClick_seq0",
        "type": "ACTION_SEQUENCE",
        "params": [{
            "name": "eventobject",
            "value": "eventobject"
        }],
        "language": "js",
        "actions": [{
            "id": "customcode_onClick_14761201224763074",
            "type": "INVOKE_FUNCTION",
            "sequenceKUID": "ResetTransferHomePageIB",
            "display": "ResetTransferHomePageIB",
            "inputparams": [],
            "source": "module"
        }, {
            "id": "customcode_onClick_76756201224762393",
            "type": "INVOKE_FUNCTION",
            "sequenceKUID": "onclickActivationCompleteStart",
            "display": "onclickActivationCompleteStart",
            "inputparams": [],
            "source": "module"
        }]
    }
}