{
    "p2kwiet2012247638599_btnRequest_onClick_seq0": {
        "id": "p2kwiet2012247638599_btnRequest_onClick_seq0",
        "type": "ACTION_SEQUENCE",
        "params": [{
            "name": "eventobject",
            "value": "eventobject"
        }],
        "language": "js",
        "actions": [{
            "id": "expression_onClick_70231201224762951",
            "type": "ADD_SNIPPET",
            "codeSnippet": "frmIBActivateIBankingStep2Confirm.btnRequest.setEnabled(false);\n frmIBActivateIBankingStep2Confirm.btnRequest.skin = \"btnIB158disabled\"\n setTimeout('OTPReqButton()',gblOTPdisabletime);\n "
        }, {
            "id": "customcode_onClick_49052201224766159",
            "type": "INVOKE_FUNCTION",
            "sequenceKUID": "IBreqOTP",
            "display": "IBreqOTP",
            "inputparams": [],
            "source": "module"
        }]
    }
}