{
    "p2kwiet2012247647851_txtBxOTP_DESKTOPWEB_onBeginEditing_seq0": {
        "id": "p2kwiet2012247647851_txtBxOTP_DESKTOPWEB_onBeginEditing_seq0",
        "type": "ACTION_SEQUENCE",
        "params": [{
            "name": "eventobject",
            "value": "eventobject"
        }, {
            "name": "changedtext",
            "value": "changedtext"
        }],
        "language": "js",
        "actions": [{
            "id": "expression_onBeginEditing_36333201224762610",
            "type": "ADD_SNIPPET",
            "codeSnippet": "frmIBSSSExcuteTrnsfr.hbxOTPEntry.skin=\"hbxOtpTextField\""
        }]
    }
}