{
    "p2kwiet2012247648059_txtCaptchaText_onDone_seq0": {
        "id": "p2kwiet2012247648059_txtCaptchaText_onDone_seq0",
        "type": "ACTION_SEQUENCE",
        "params": [{
            "name": "eventobject",
            "value": "eventobject"
        }, {
            "name": "changedtext",
            "value": "changedtext"
        }],
        "language": "js",
        "actions": [{
            "id": "decision_onDone_56171201224765836",
            "type": "IF_CONDITION",
            "conditions": [{
                "leftValueType": "expression",
                "leftValue": "frmIBPreLogin.txtUserId.text != \"\""
            }],
            "criteria": "all"
        }, {
            "id": "decision_onDone_1463201224769768",
            "type": "ELSE_CONDITION",
            "conditions": [],
            "criteria": "all"
        }, {
            "id": "decision_onDone_64698201224769309",
            "type": "IF_CONDITION",
            "conditions": [{
                "leftValueType": "expression",
                "leftValue": "frmIBPreLogin.txtCaptchaText.text != \"\""
            }],
            "parentId": "decision_onDone_99588201224764874",
            "criteria": "all"
        }, {
            "id": "decision_onDone_35358201224764094",
            "type": "ELSE_CONDITION",
            "conditions": [],
            "parentId": "decision_onDone_99588201224764874",
            "criteria": "all"
        }, {
            "id": "alert_onDone_36207201224764579",
            "type": "SHOW_ALERT",
            "alertType": "constants.ALERT_TYPE_ERROR",
            "alertTitle": "Alert",
            "yesLabel": "Yes",
            "noLabel": "No",
            "alertMessage": "Field is mandatory",
            "messageType": "constant",
            "parentId": "decision_onDone_35358201224764094",
            "alertTitlei18n": "",
            "yesLabeli18n": "",
            "noLabeli18n": "",
            "alertMessagei18n": "",
            "iconPosition": "constants.ALERT_ICON_POSITION_LEFT"
        }, {
            "id": "expression_onDone_43803201224761227",
            "type": "ADD_SNIPPET",
            "codeSnippet": "frmIBPreLogin.txtCaptchaText.setFocus(true);",
            "parentId": "decision_onDone_35358201224764094"
        }, {
            "id": "alert_onDone_21596201224765745",
            "type": "SHOW_ALERT",
            "alertType": "constants.ALERT_TYPE_ERROR",
            "alertTitle": "Alert",
            "yesLabel": "Yes",
            "noLabel": "No",
            "alertMessage": "Field is mandatory",
            "messageType": "constant",
            "parentId": "decision_onDone_16327201224768777",
            "alertTitlei18n": "",
            "yesLabeli18n": "",
            "noLabeli18n": "",
            "alertMessagei18n": "",
            "iconPosition": "constants.ALERT_ICON_POSITION_LEFT"
        }, {
            "id": "expression_onDone_72951201224763736",
            "type": "ADD_SNIPPET",
            "codeSnippet": "frmIBPreLogin.txtPassword.setFocus(true);",
            "parentId": "decision_onDone_16327201224768777"
        }, {
            "id": "decision_onDone_99588201224764874",
            "type": "IF_CONDITION",
            "conditions": [{
                "leftValueType": "expression",
                "leftValue": "frmIBPreLogin.hboxCaptchaText.isVisible"
            }],
            "parentId": "decision_onDone_20065201224766138",
            "criteria": "all"
        }, {
            "id": "decision_onDone_47216201224761397",
            "type": "ELSE_CONDITION",
            "conditions": [],
            "parentId": "decision_onDone_20065201224766138",
            "criteria": "all"
        }, {
            "id": "decision_onDone_20065201224766138",
            "type": "IF_CONDITION",
            "conditions": [{
                "leftValueType": "expression",
                "leftValue": "frmIBPreLogin.txtPassword.text != \"\""
            }],
            "parentId": "decision_onDone_56171201224765836",
            "criteria": "all"
        }, {
            "id": "decision_onDone_16327201224768777",
            "type": "ELSE_CONDITION",
            "conditions": [],
            "parentId": "decision_onDone_56171201224765836",
            "criteria": "all"
        }, {
            "id": "customcode_onDone_60618201224764994",
            "type": "INVOKE_FUNCTION",
            "sequenceKUID": "captchaValidation",
            "display": "captchaValidation",
            "inputparams": [{
                "name": "text",
                "value": "frmIBPreLogin.txtCaptchaText.text"
            }],
            "parentId": "decision_onDone_64698201224769309",
            "source": "module"
        }, {
            "id": "customcode_onDone_5557201224763304",
            "type": "INVOKE_FUNCTION",
            "sequenceKUID": "IBLoginService",
            "display": "IBLoginService",
            "inputparams": [],
            "parentId": "decision_onDone_47216201224761397",
            "source": "module"
        }, {
            "id": "alert_onDone_73054201224769349",
            "type": "SHOW_ALERT",
            "alertType": "constants.ALERT_TYPE_ERROR",
            "alertTitle": "Alert",
            "yesLabel": "Yes",
            "noLabel": "No",
            "alertMessage": "Field is mandatory",
            "messageType": "constant",
            "parentId": "decision_onDone_1463201224769768",
            "alertTitlei18n": "",
            "yesLabeli18n": "",
            "noLabeli18n": "",
            "alertMessagei18n": "",
            "iconPosition": "constants.ALERT_ICON_POSITION_LEFT"
        }, {
            "id": "expression_onDone_14751201224761324",
            "type": "ADD_SNIPPET",
            "codeSnippet": "frmIBPreLogin.txtUserId.setFocus(true);",
            "parentId": "decision_onDone_1463201224769768"
        }]
    }
}