{
    "p2kwiet2012247642405_frmIBDebitCardActivateLanding_postshow_seq0": {
        "id": "p2kwiet2012247642405_frmIBDebitCardActivateLanding_postshow_seq0",
        "type": "ACTION_SEQUENCE",
        "params": [{
            "name": "eventobject",
            "value": "eventobject"
        }, {
            "name": "neworientation",
            "value": "neworientation"
        }],
        "language": "js",
        "actions": [{
            "id": "customcode_postshow_49542201224767171",
            "type": "INVOKE_FUNCTION",
            "sequenceKUID": "addIBMenu",
            "display": "addIBMenu",
            "inputparams": [],
            "source": "module"
        }, {
            "id": "expression_postshow_80691201224764237",
            "type": "ADD_SNIPPET",
            "codeSnippet": "if(kony.i18n.getCurrentLocale() == \"th_TH\")\n frmIBDebitCardActivateLanding.btnMenuMyAccountSummary.skin=\"btnIBMenuMyAccountSummaryFocusThai\";\n else\n frmIBDebitCardActivateLanding.btnMenuMyAccountSummary.skin=\"btnIBMenuMyAccountSummaryFocus\";\n "
        }, {
            "id": "customcode_postshow_161132012247655",
            "type": "INVOKE_FUNCTION",
            "sequenceKUID": "preOTPScreenForDebitCardActivate",
            "display": "preOTPScreenForDebitCardActivate",
            "inputparams": [],
            "source": "module"
        }]
    }
}