{
    "p2kwiet2012247640268_lblRefVal2_onTextChange_seq0": {
        "id": "p2kwiet2012247640268_lblRefVal2_onTextChange_seq0",
        "type": "ACTION_SEQUENCE",
        "params": [{
            "name": "eventobject",
            "value": "eventobject"
        }, {
            "name": "changedtext",
            "value": "changedtext"
        }],
        "language": "js",
        "actions": [{
            "id": "customcode_onTextChange_72560201224769895",
            "type": "INVOKE_FUNCTION",
            "sequenceKUID": "onTextChangeRef1Ref2IB",
            "display": "onTextChangeRef1Ref2IB",
            "inputparams": [],
            "source": "module"
        }]
    }
}