{
    "p2kwiet2012247638555_btnOTP_onClick_seq0": {
        "id": "p2kwiet2012247638555_btnOTP_onClick_seq0",
        "type": "ACTION_SEQUENCE",
        "params": [{
            "name": "eventobject",
            "value": "eventobject"
        }],
        "language": "js",
        "actions": [{
            "id": "expression_onClick_59695201224768885",
            "type": "ADD_SNIPPET",
            "codeSnippet": "frmIBActivateIBankingStep2Confirm.lblAccNoVal.text = frmIBActivateIBankingStep1Confirm.lblAccNoVal.text;\n frmIBActivateIBankingStep2Confirm.lblIDNoVal.text = frmIBActivateIBankingStep1Confirm.lblIDNoVal.text;\n frmIBActivateIBankingStep2Confirm.lblPhNoVal.text = frmIBActivateIBankingStep1Confirm.lblPhNoVal.text\n \n //frmIBActivateIBankingStep1Confirm.hboxOTP.setVisibility(true);\n //frmIBActivateIBankingStep1Confirm.hboxOTPButtons.setVisibility(true);\n //frmIBActivateIBankingStep1Confirm.btnOTP.setVisibility(false);\n //frmIBActivateIBankingStep2Confirm.btnRequest.setEnabled(false);\n \n "
        }, {
            "id": "customcode_onClick_53325201224761180",
            "type": "INVOKE_FUNCTION",
            "sequenceKUID": "IBreqOTP",
            "display": "IBreqOTP",
            "inputparams": [],
            "source": "module"
        }]
    }
}