{
    "p2kwiet2012247638227_btnpdf_onClick_seq0": {
        "id": "p2kwiet2012247638227_btnpdf_onClick_seq0",
        "type": "ACTION_SEQUENCE",
        "params": [{
            "name": "eventobject",
            "value": "eventobject"
        }],
        "language": "js",
        "actions": [{
            "id": "customcode_onClick_85071201224766783",
            "type": "INVOKE_FUNCTION",
            "sequenceKUID": "savePDFAccountHistory",
            "display": "savePDFAccountHistory",
            "inputparams": [{
                "name": "fileType",
                "value": "\"pdf\""
            }],
            "source": "module"
        }]
    }
}