{
    "p2kwiet2012247640268_btnAfter_onClick_seq0": {
        "id": "p2kwiet2012247640268_btnAfter_onClick_seq0",
        "type": "ACTION_SEQUENCE",
        "params": [{
            "name": "eventobject",
            "value": "eventobject"
        }],
        "language": "js",
        "actions": [{
            "id": "customcode_onClick_95729201224763821",
            "type": "INVOKE_FUNCTION",
            "sequenceKUID": "IBOnClickAfterFutureBills",
            "display": "IBOnClickAfterFutureBills",
            "inputparams": [],
            "source": "module"
        }]
    }
}