{
    "p2kwiet2012247648059_txtPassword_DESKTOPWEB_onEndEditing_seq0": {
        "id": "p2kwiet2012247648059_txtPassword_DESKTOPWEB_onEndEditing_seq0",
        "type": "ACTION_SEQUENCE",
        "params": [{
            "name": "eventobject",
            "value": "eventobject"
        }, {
            "name": "changedtext",
            "value": "changedtext"
        }],
        "language": "js",
        "actions": [{
            "id": "expression_onEndEditing_46746201224764341",
            "type": "ADD_SNIPPET",
            "codeSnippet": "frmIBPreLogin.hbxPassword.skin = \"hboxWhiteback\""
        }]
    }
}