{
    "p2kwiet2012247650812_btnClose_onClick_seq0": {
        "id": "p2kwiet2012247650812_btnClose_onClick_seq0",
        "type": "ACTION_SEQUENCE",
        "params": [{
            "name": "eventobject",
            "value": "eventobject"
        }],
        "language": "js",
        "actions": [{
            "id": "expression_onClick_42953201224767377",
            "type": "ADD_SNIPPET",
            "codeSnippet": "popupFirstTimeActivation.destroy();"
        }]
    }
}