{
    "p2kwiet2012247638530_frmIBActivateIBankingStep1_onhide_seq0": {
        "id": "p2kwiet2012247638530_frmIBActivateIBankingStep1_onhide_seq0",
        "type": "ACTION_SEQUENCE",
        "params": [{
            "name": "eventobject",
            "value": "eventobject"
        }, {
            "name": "neworientation",
            "value": "neworientation"
        }],
        "language": "js",
        "actions": [{
            "id": "expression_onhide_97162201224769735",
            "type": "ADD_SNIPPET",
            "codeSnippet": "frmIBActivateIBankingStep1.txtAccountNumber.text = \"\";\n frmIBActivateIBankingStep1.txtActivationCode.text = \"\";\n frmIBActivateIBankingStep1.txtIDPass.text = \"\";\n frmIBActivateIBankingStep1.vbxRules.skin = \"vbxBGGrey\"\n frmIBActivateIBankingStep1.imgarrow1.setVisibility(false);\n frmIBActivateIBankingStep1.hbxPassRules.setVisibility(false);\n frmIBActivateIBankingStep1.vbxRules.setVisibility(false);"
        }]
    }
}