{
    "p2kwiet2012247640615_linkprev_onClick_seq0": {
        "id": "p2kwiet2012247640615_linkprev_onClick_seq0",
        "type": "ACTION_SEQUENCE",
        "params": [{
            "name": "eventobject",
            "value": "eventobject"
        }],
        "language": "js",
        "actions": [{
            "id": "customcode_onClick_4582820122476468",
            "type": "INVOKE_FUNCTION",
            "sequenceKUID": "prevPageloadInReturnCheque",
            "display": "prevPageloadInReturnCheque",
            "inputparams": [{
                "name": "prevpage",
                "value": "frmIBChequeServiceViewReturnedCheque.link1.text"
            }],
            "source": "module"
        }]
    }
}