{
    "p2kwiet2012247639145_mapATMBranch_onPinClick_seq0": {
        "id": "p2kwiet2012247639145_mapATMBranch_onPinClick_seq0",
        "type": "ACTION_SEQUENCE",
        "params": [{
            "name": "eventobject",
            "value": "eventobject"
        }, {
            "name": "location",
            "value": "location"
        }],
        "language": "js",
        "actions": [{
            "id": "customcode_onPinClick_22178201224768176",
            "type": "INVOKE_FUNCTION",
            "sequenceKUID": "onSelectMapPinIB",
            "display": "onSelectMapPinIB",
            "inputparams": [{
                "name": "mapLocationData",
                "value": "location"
            }],
            "source": "module"
        }]
    }
}