{
    "p2kwiet2012247646206_hboxOpenAmount_onClick_seq0": {
        "id": "p2kwiet2012247646206_hboxOpenAmount_onClick_seq0",
        "type": "ACTION_SEQUENCE",
        "params": [{
            "name": "eventobject",
            "value": "eventobject"
        }],
        "language": "js",
        "actions": [{
            "id": "expression_onClick_92500201224769709",
            "type": "ADD_SNIPPET",
            "codeSnippet": "frmIBOpenNewTermDepositAcc.vbxOpenAmount.skin=\"vboxLightBlue\"\n frmIBOpenNewTermDepositAcc.vbxPayingTo.skin=\"NoSkin\"\n frmIBOpenNewTermDepositAcc.imgPayInterest.isVisible=false;\n frmIBOpenNewTermDepositAcc.imgOpenAmount.isVisible=true;"
        }]
    }
}