{
    "p2kwiet2012247650822_btnConfirm_onClick_seq0": {
        "id": "p2kwiet2012247650822_btnConfirm_onClick_seq0",
        "type": "ACTION_SEQUENCE",
        "params": [{
            "name": "eventobject",
            "value": "eventobject"
        }],
        "language": "js",
        "actions": [{
            "id": "customcode_onClick_46940201224762554",
            "type": "INVOKE_FUNCTION",
            "sequenceKUID": "checkOtpTokenRequiredAnyID",
            "display": "checkOtpTokenRequiredAnyID",
            "inputparams": [],
            "source": "module"
        }]
    }
}