{
    "p2kwiet2012247639145_segATMListDetails_onRowClick_seq0": {
        "id": "p2kwiet2012247639145_segATMListDetails_onRowClick_seq0",
        "type": "ACTION_SEQUENCE",
        "params": [{
            "name": "eventobject",
            "value": "eventobject"
        }, {
            "name": "sectionNumber",
            "value": "sectionNumber"
        }, {
            "name": "rowNumber",
            "value": "rowNumber"
        }],
        "language": "js",
        "actions": [{
            "id": "customcode_onRowClick_14685201224763033",
            "type": "INVOKE_FUNCTION",
            "sequenceKUID": "onSelectListSegIB",
            "display": "onSelectListSegIB",
            "inputparams": [],
            "source": "module"
        }]
    }
}