{
    "p2kwiet2012247642265_datagridFT_column1_onClick_seq0": {
        "id": "p2kwiet2012247642265_datagridFT_column1_onClick_seq0",
        "type": "ACTION_SEQUENCE",
        "params": [{
            "name": "eventobject",
            "value": "eventobject"
        }],
        "language": "js",
        "actions": [{
            "id": "customcode_onClick_53785201224767880",
            "type": "INVOKE_FUNCTION",
            "sequenceKUID": "flipSortOrderForFT",
            "display": "flipSortOrderForFT",
            "inputparams": [],
            "source": "module"
        }, {
            "id": "customcode_onClick_5355201224768033",
            "type": "INVOKE_FUNCTION",
            "sequenceKUID": "sortSegDataFT",
            "display": "sortSegDataFT",
            "inputparams": [{
                "name": "columnid",
                "value": "\"column1\""
            }, {
                "name": "columnsortby",
                "value": "\"lbldateon\""
            }],
            "source": "module"
        }]
    }
}