{
    "p2kwiet2012247649002_btnCancel_onClick_seq0": {
        "id": "p2kwiet2012247649002_btnCancel_onClick_seq0",
        "type": "ACTION_SEQUENCE",
        "params": [{
            "name": "eventobject",
            "value": "eventobject"
        }],
        "language": "js",
        "actions": [{
            "id": "expression_onClick_7751320122476220",
            "type": "ADD_SNIPPET",
            "codeSnippet": "frmIBTopUpLandingPage.hbxFutureTopup.setVisibility(false);\n frmIBTopUpLandingPage.hbxImage.setVisibility(true);\n //gblPaynow=true;\n //frmIBTopUpLandingPage.lblDatesFuture.setVisibility(false);\n //frmIBTopUpLandingPage.lblPayBillOnValue.setVisibility(true);\n //frmIBTopUpLandingPage.lblrepeats.setVisibility(false);"
        }]
    }
}