{
    "p2kwiet2012247649128_btnTPSchedule_onClick_seq0": {
        "id": "p2kwiet2012247649128_btnTPSchedule_onClick_seq0",
        "type": "ACTION_SEQUENCE",
        "params": [{
            "name": "eventobject",
            "value": "eventobject"
        }],
        "language": "js",
        "actions": [{
            "id": "expression_onClick_14049201224765037",
            "type": "ADD_SNIPPET",
            "codeSnippet": "gblTempTPStartOnDate = frmIBTopUpViewNEdit.lblTPStartOnDateVal.text;\n gblTempTPEndOnDate = frmIBTopUpViewNEdit.lblEndOnDateVal.text;\n gblTempTPRepeatAs = frmIBTopUpViewNEdit.lblTPRepeatAsVal.text;\n frmIBTopUpViewNEdit.imgTMB.setVisibility(false);"
        }, {
            "id": "customcode_onClick_47122201224768247",
            "type": "INVOKE_FUNCTION",
            "sequenceKUID": "onClickScheduleButtonTP",
            "display": "onClickScheduleButtonTP",
            "inputparams": [],
            "source": "module"
        }]
    }
}