{
    "p2kwiet2012247645740_frmIBOpenNewDreamAcc_postshow_seq0": {
        "id": "p2kwiet2012247645740_frmIBOpenNewDreamAcc_postshow_seq0",
        "type": "ACTION_SEQUENCE",
        "params": [{
            "name": "eventobject",
            "value": "eventobject"
        }, {
            "name": "neworientation",
            "value": "neworientation"
        }],
        "language": "js",
        "actions": [{
            "id": "customcode_postshow_68189201224762046",
            "type": "INVOKE_FUNCTION",
            "sequenceKUID": "addIBMenu",
            "display": "addIBMenu",
            "inputparams": [],
            "source": "module"
        }, {
            "id": "customcode_postshow_44491201224765597",
            "type": "INVOKE_FUNCTION",
            "sequenceKUID": "segConvenientServicesLoad",
            "display": "segConvenientServicesLoad",
            "inputparams": [],
            "source": "module"
        }, {
            "id": "customcode_postshow_50227201224766930",
            "type": "INVOKE_FUNCTION",
            "sequenceKUID": "pagespecificSubMenu",
            "display": "pagespecificSubMenu",
            "inputparams": [],
            "source": "module"
        }]
    }
}