{
    "p2kwiet2012247639220_buttonAgree_onClick_seq0": {
        "id": "p2kwiet2012247639220_buttonAgree_onClick_seq0",
        "type": "ACTION_SEQUENCE",
        "params": [{
            "name": "eventobject",
            "value": "eventobject"
        }],
        "language": "js",
        "actions": [{
            "id": "navigation_onClick_22424201224765814",
            "type": "NAVIGATE_TO_FORM",
            "formId": "frmIBBeepAndBillList",
            "formKUID": "p2kwiet2012247639664",
            "mappings": {},
            "mappingsOrder": [],
            "parentId": "",
            "enableMappingEditor": true,
            "package": ""
        }, {
            "id": "expression_onClick_6722201224767063",
            "type": "ADD_SNIPPET",
            "codeSnippet": "populatefrmBBSelect(gblmasterBillerAndTopupBB);\n frmIBBeepAndBillList.lblNoBills.setVisibility(true);"
        }]
    }
}