{
    "p2kwiet2012247647022_txtMemberNumber_DESKTOPWEB_onEndEditing_seq0": {
        "id": "p2kwiet2012247647022_txtMemberNumber_DESKTOPWEB_onEndEditing_seq0",
        "type": "ACTION_SEQUENCE",
        "params": [{
            "name": "eventobject",
            "value": "eventobject"
        }, {
            "name": "changedtext",
            "value": "changedtext"
        }],
        "language": "js",
        "actions": [{
            "id": "customcode_onEndEditing_35557201224761791",
            "type": "INVOKE_FUNCTION",
            "sequenceKUID": "checkMinMemberNumberLengthIB",
            "display": "checkMinMemberNumberLengthIB",
            "inputparams": [],
            "source": "module"
        }, {
            "id": "expression_onEndEditing_71628201224767848",
            "type": "ADD_SNIPPET",
            "codeSnippet": "frmIBPointRedemptionLanding.hbxMemberNumber.skin=\"hbxProper40px\";"
        }]
    }
}