{
    "p2kwiet2012247643443_frmIBFirstTimeActivationComplete_postshow_seq0": {
        "id": "p2kwiet2012247643443_frmIBFirstTimeActivationComplete_postshow_seq0",
        "type": "ACTION_SEQUENCE",
        "params": [{
            "name": "eventobject",
            "value": "eventobject"
        }, {
            "name": "neworientation",
            "value": "neworientation"
        }],
        "language": "js",
        "actions": [{
            "id": "customcode_postshow_3510201224769310",
            "type": "INVOKE_FUNCTION",
            "sequenceKUID": "campaginService",
            "display": "campaginService",
            "inputparams": [{
                "name": "widgetName",
                "value": "'himgstrip2507382817244877'"
            }, {
                "name": "formName",
                "value": "'frmIBFirstTimeActivationComplete'"
            }, {
                "name": "appChannel",
                "value": "\"I\""
            }],
            "source": "module"
        }, {
            "id": "expression_postshow_43137201224765583",
            "type": "ADD_SNIPPET",
            "codeSnippet": "try\n {\n document.getElementById('frmIBFirstTimeActivationComplete_vbox1983951380222982').setAttribute(\"style\",\"width:320px;height:120px\");\n document.getElementById('frmIBFirstTimeActivationComplete_vbox1983951380222982').style.height = \"120px\";\n document.getElementById('frmIBFirstTimeActivationComplete_vbox1983951380222982').style.width = \"320px\";\n }\n catch(e)\n {\n }\n "
        }]
    }
}