{
    "p2kwiet2012247650572_btnPayBillCancil_onClick_seq0": {
        "id": "p2kwiet2012247650572_btnPayBillCancil_onClick_seq0",
        "type": "ACTION_SEQUENCE",
        "params": [{
            "name": "eventobject",
            "value": "eventobject"
        }],
        "language": "js",
        "actions": [{
            "id": "expression_onClick_18452201224769181",
            "type": "ADD_SNIPPET",
            "codeSnippet": "popIBBillPayFromSummary.destroy();\n dismissLoadingScreenPopup();"
        }]
    }
}