{
    "p2kwiet2012247644098_txtbxSuffix_DESKTOPWEB_onKeyUp_seq0": {
        "id": "p2kwiet2012247644098_txtbxSuffix_DESKTOPWEB_onKeyUp_seq0",
        "type": "ACTION_SEQUENCE",
        "params": [{
            "name": "eventobject",
            "value": "eventobject"
        }, {
            "name": "changedtext",
            "value": "changedtext"
        }],
        "language": "js",
        "actions": [{
            "id": "expression_onKeyUp_5093201224767027",
            "type": "ADD_SNIPPET",
            "codeSnippet": "frmIBMyAccnts.txtbxSuffix.maxTextLength=3;\n \n dontAllowNonNeumaric(frmIBMyAccnts.txtbxSuffix)\n var txt = frmIBMyAccnts.txtbxSuffix.text\n if(txt.length==0)\n frmIBMyAccnts.txtAccNum4.setFocus(true);"
        }]
    }
}