{
    "p2kwiet2012247644560_vbox10_onClick_seq0": {
        "id": "p2kwiet2012247644560_vbox10_onClick_seq0",
        "type": "ACTION_SEQUENCE",
        "params": [{
            "name": "eventobject",
            "value": "eventobject"
        }],
        "language": "js",
        "actions": [{
            "id": "customcode_onClick_52584201224768245",
            "type": "INVOKE_FUNCTION",
            "sequenceKUID": "calendarDayOnClick",
            "display": "calendarDayOnClick",
            "inputparams": [{
                "name": "vbxId",
                "value": "eventobject"
            }, {
                "name": "frmId",
                "value": "frmIBMyActivities"
            }],
            "source": "module"
        }]
    }
}