{
    "p2kwiet2012247645274_tbxSearch_DESKTOPWEB_onKeyUp_seq0": {
        "id": "p2kwiet2012247645274_tbxSearch_DESKTOPWEB_onKeyUp_seq0",
        "type": "ACTION_SEQUENCE",
        "params": [{
            "name": "eventobject",
            "value": "eventobject"
        }, {
            "name": "changedtext",
            "value": "changedtext"
        }],
        "language": "js",
        "actions": [{
            "id": "expression_onKeyUp_79294201224763263",
            "type": "ADD_SNIPPET",
            "codeSnippet": "if(frmIBMyReceipentsHome.tbxSearch.text.length > 0){\n searchFilter(1, 1);\n }else{\n resetRcSegData(1,1);\n }"
        }]
    }
}