{
    "p2kwiet2012247647488_btnIBCancel_onClick_seq0": {
        "id": "p2kwiet2012247647488_btnIBCancel_onClick_seq0",
        "type": "ACTION_SEQUENCE",
        "params": [{
            "name": "eventobject",
            "value": "eventobject"
        }],
        "language": "js",
        "actions": [{
            "id": "navigation_onClick_13533201224765271",
            "type": "NAVIGATE_TO_FORM",
            "formId": "frmIBAccntSummary",
            "formKUID": "p2kwiet2012247638386",
            "mappings": {},
            "mappingsOrder": [],
            "parentId": "",
            "enableMappingEditor": true,
            "package": ""
        }]
    }
}