{
    "p2kwiet2012247639288_txtAddBillerNickName_DESKTOPWEB_onBeginEditing_seq0": {
        "id": "p2kwiet2012247639288_txtAddBillerNickName_DESKTOPWEB_onBeginEditing_seq0",
        "type": "ACTION_SEQUENCE",
        "params": [{
            "name": "eventobject",
            "value": "eventobject"
        }, {
            "name": "changedtext",
            "value": "changedtext"
        }],
        "language": "js",
        "actions": [{
            "id": "expression_onBeginEditing_18991201224769256",
            "type": "ADD_SNIPPET",
            "codeSnippet": "frmIBBeepAndBillApply.hbxBillerNickname.skin = \"hbxlightblue\";\n "
        }]
    }
}