{
    "p2kwiet2012247640409_frmIBBillPaymentView_postshow_seq0": {
        "id": "p2kwiet2012247640409_frmIBBillPaymentView_postshow_seq0",
        "type": "ACTION_SEQUENCE",
        "params": [{
            "name": "eventobject",
            "value": "eventobject"
        }, {
            "name": "neworientation",
            "value": "neworientation"
        }],
        "language": "js",
        "actions": [{
            "id": "expression_postshow_41645201224761370",
            "type": "ADD_SNIPPET",
            "codeSnippet": "frmIBBillPaymentView.imgTMB.setVisibility(true);"
        }, {
            "id": "customcode_postshow_6663201224763803",
            "type": "INVOKE_FUNCTION",
            "sequenceKUID": "addIBMenu",
            "display": "addIBMenu",
            "inputparams": [],
            "source": "module"
        }, {
            "id": "customcode_postshow_3035820122476501",
            "type": "INVOKE_FUNCTION",
            "sequenceKUID": "addNumberCheckListner",
            "display": "addNumberCheckListner",
            "inputparams": [{
                "name": "widjet",
                "value": "\"textboxOnlineTotalAmt\""
            }],
            "source": "module"
        }, {
            "id": "customcode_postshow_44867201224765793",
            "type": "INVOKE_FUNCTION",
            "sequenceKUID": "addNumberCheckListner",
            "display": "addNumberCheckListner",
            "inputparams": [{
                "name": "widjet",
                "value": "\"txtBPEditAmtValue\""
            }],
            "source": "module"
        }, {
            "id": "customcode_postshow_35751201224763657",
            "type": "INVOKE_FUNCTION",
            "sequenceKUID": "addNumberCheckListner",
            "display": "addNumberCheckListner",
            "inputparams": [{
                "name": "widjet",
                "value": "\"txtBPExecutiontimesval\""
            }],
            "source": "module"
        }, {
            "id": "customcode_postshow_25923201224761828",
            "type": "INVOKE_FUNCTION",
            "sequenceKUID": "pagespecificSubMenu",
            "display": "pagespecificSubMenu",
            "inputparams": [],
            "source": "module"
        }]
    }
}