{
    "p2kwiet2012247641322_btnOTPreq_onClick_seq0": {
        "id": "p2kwiet2012247641322_btnOTPreq_onClick_seq0",
        "type": "ACTION_SEQUENCE",
        "params": [{
            "name": "eventobject",
            "value": "eventobject"
        }],
        "language": "js",
        "actions": [{
            "id": "customcode_onClick_24976201224766841",
            "type": "INVOKE_FUNCTION",
            "sequenceKUID": "invokeRequestOtpChngPWD",
            "display": "invokeRequestOtpChngPWD",
            "inputparams": [],
            "source": "module"
        }]
    }
}