{
    "p2kwiet2012247648059_link502735421204465_onClick_seq0": {
        "id": "p2kwiet2012247648059_link502735421204465_onClick_seq0",
        "type": "ACTION_SEQUENCE",
        "params": [{
            "name": "eventobject",
            "value": "eventobject"
        }],
        "language": "js",
        "actions": [{
            "id": "navigation_onClick_35694201224764508",
            "type": "NAVIGATE_TO_FORM",
            "formId": "frmIBActivationTandC",
            "formKUID": "p2kwiet2012247638618",
            "mappings": {},
            "mappingsOrder": [],
            "parentId": "",
            "enableMappingEditor": true,
            "package": ""
        }, {
            "id": "expression_onClick_42115201224765683",
            "type": "ADD_SNIPPET",
            "codeSnippet": "gblSetPwd = true;"
        }]
    }
}