{
    "p2kwiet2012247642852_btnOpenProdAgree_onClick_seq0": {
        "id": "p2kwiet2012247642852_btnOpenProdAgree_onClick_seq0",
        "type": "ACTION_SEQUENCE",
        "params": [{
            "name": "eventobject",
            "value": "eventobject"
        }],
        "language": "js",
        "actions": [{
            "id": "customcode_onClick_64141201224767606",
            "type": "INVOKE_FUNCTION",
            "sequenceKUID": "onClickAgreeTnCEditSavingCareIB",
            "display": "onClickAgreeTnCEditSavingCareIB",
            "inputparams": [],
            "source": "module"
        }]
    }
}