{
    "p2kwiet2012247645274_frmIBMyReceipentsHome_postshow_seq0": {
        "id": "p2kwiet2012247645274_frmIBMyReceipentsHome_postshow_seq0",
        "type": "ACTION_SEQUENCE",
        "params": [{
            "name": "eventobject",
            "value": "eventobject"
        }, {
            "name": "neworientation",
            "value": "neworientation"
        }],
        "language": "js",
        "actions": [{
            "id": "customcode_postshow_94689201224764459",
            "type": "INVOKE_FUNCTION",
            "sequenceKUID": "addIBMenu",
            "display": "addIBMenu",
            "inputparams": [],
            "source": "module"
        }, {
            "id": "customcode_postshow_33392201224767114",
            "type": "INVOKE_FUNCTION",
            "sequenceKUID": "setDatatoReceipentsList",
            "display": "setDatatoReceipentsList",
            "inputparams": [{
                "name": "form",
                "value": "\"1\""
            }],
            "source": "module"
        }, {
            "id": "customcode_postshow_5793020122476470",
            "type": "INVOKE_FUNCTION",
            "sequenceKUID": "pagespecificSubMenu",
            "display": "pagespecificSubMenu",
            "inputparams": [],
            "source": "module"
        }, {
            "id": "customcode_postshow_78066201224768459",
            "type": "INVOKE_FUNCTION",
            "sequenceKUID": "doRcCacheRefresh",
            "display": "doRcCacheRefresh",
            "inputparams": [],
            "source": "module"
        }, {
            "id": "customcode_postshow_32068201224764586",
            "type": "INVOKE_FUNCTION",
            "sequenceKUID": "startInquiryCustomerAccountsService",
            "display": "startInquiryCustomerAccountsService",
            "inputparams": [],
            "source": "module"
        }, {
            "id": "expression_postshow_52656201224762113",
            "type": "ADD_SNIPPET",
            "codeSnippet": "destroyAllForms();\n \n //Reset state\n Add_Receipent_State = 0;"
        }, {
            "id": "expression_postshow_57132201224764528",
            "type": "ADD_SNIPPET",
            "codeSnippet": "if(navigator.userAgent.match(/iPad/i)){\n frmIBMyReceipentsHome.lblMyReceipents.setFocus(true);\n }\n else{\n frmIBMyReceipentsHome.tbxSearch.setFocus(true);\n }"
        }]
    }
}