{
    "p2kwiet2012247642497_lblmnthsaveval_onTextChange_seq0": {
        "id": "p2kwiet2012247642497_lblmnthsaveval_onTextChange_seq0",
        "type": "ACTION_SEQUENCE",
        "params": [{
            "name": "eventobject",
            "value": "eventobject"
        }, {
            "name": "changedtext",
            "value": "changedtext"
        }],
        "language": "js",
        "actions": [{
            "id": "expression_onTextChange_16203201224762549",
            "type": "ADD_SNIPPET",
            "codeSnippet": "frmIBDreamSAvingEdit.lblmnthsaveval.skin = \"txtIB20pxBlack\";"
        }]
    }
}