{
    "p2kwiet2012247644098_cmbobxAccntType_onSelection_seq0": {
        "id": "p2kwiet2012247644098_cmbobxAccntType_onSelection_seq0",
        "type": "ACTION_SEQUENCE",
        "params": [{
            "name": "eventobject",
            "value": "eventobject"
        }],
        "language": "js",
        "actions": [{
            "id": "expression_onSelection_5788201224769286",
            "type": "ADD_SNIPPET",
            "codeSnippet": "kony.print(\"cmb balueee: ######### ---> :\" +frmIBMyAccnts.cmbobxAccntType.selectedKeyValue)\n kony.print(\"cmb balueee: #########1111 ---> :\" +frmIBMyAccnts.cmbobxAccntType.selectedKey)\n kony.print(\"cmb balueee: ######### indexx 11 ---> :\" +frmIBMyAccnts.cmbobxAccntType.selectedKeyValue[1])\n kony.print(\"cmb balueee: ######### index 0000 ---> :\" +frmIBMyAccnts.cmbobxAccntType.selectedKeyValue[0])\n var AccntType = frmIBMyAccnts.cmbobxAccntType.selectedKeyValue[1];\n kony.print(\"AccntType --> :\"+frmIBMyAccnts.cmbobxAccntType.selectedKeyValue[1]);\n frmIBMyAccnts.label448396481135159.setVisibility(false);\n if( AccntType == \"Deposit\" || AccntType == \"Saving\" || AccntType == \"Current\" || AccntType == kony.i18n.getLocalizedString(\"keyDepositeIB\")|| AccntType == kony.i18n.getLocalizedString(\"keyCurrentIB\") || AccntType == kony.i18n.getLocalizedString(\"keySavingIB\")){\n frmIBMyAccnts.lblCreditCardNum.setVisibility(false);\n frmIBMyAccnts.lblsuffix.setVisibility(false);\n frmIBMyAccnts.txtbxSuffix.setVisibility(false);\n \n frmIBMyAccnts.hbxCreditCardNum.setVisibility(false);\n frmIBMyAccnts.hbxAccntNum.setVisibility(true);\n frmIBMyAccnts.lblAccntNum.setVisibility(true);\n frmIBMyAccnts.txtbxOtherAccnt.setVisibility(false);\n frmIBMyAccnts.txtAccNum1.text = \"\" ;\n frmIBMyAccnts.txtAccNum2.text = \"\" ;\n frmIBMyAccnts.txtAccNum3.text = \"\" ;\n frmIBMyAccnts.txtAccNum4.text = \"\" ;\n \n \n }else if(AccntType == kony.i18n.getLocalizedString(\"keylblLoan\")){\n frmIBMyAccnts.lblCreditCardNum.setVisibility(false);\n frmIBMyAccnts.lblsuffix.setVisibility(true);\n frmIBMyAccnts.txtbxSuffix.setVisibility(true);\n frmIBMyAccnts.label448396481135159.setVisibility(true);\n frmIBMyAccnts.hbxCreditCardNum.setVisibility(false);\n frmIBMyAccnts.hbxAccntNum.setVisibility(true);\n frmIBMyAccnts.lblAccntNum.setVisibility(true); \n frmIBMyAccnts.txtbxOtherAccnt.setVisibility(false);\n frmIBMyAccnts.txtAccNum1.text = \"\" ;\n frmIBMyAccnts.txtAccNum2.text = \"\" ;\n frmIBMyAccnts.txtAccNum3.text = \"\" ;\n frmIBMyAccnts.txtAccNum4.text = \"\" ;\n frmIBMyAccnts.txtbxSuffix.text = \"\" ;\n \n \n }else if(AccntType == kony.i18n.getLocalizedString(\"keyCreditCardIB\") || AccntType == \"Credit Card\" ){\n frmIBMyAccnts.lblCreditCardNum.setVisibility(true);\n frmIBMyAccnts.lblsuffix.setVisibility(false);\n frmIBMyAccnts.txtbxSuffix.setVisibility(false);\n \n frmIBMyAccnts.hbxCreditCardNum.setVisibility(true);\n frmIBMyAccnts.hbxAccntNum.setVisibility(false);\n frmIBMyAccnts.lblAccntNum.setVisibility(false);\n frmIBMyAccnts.txtbxOtherAccnt.setVisibility(false);\n \n frmIBMyAccnts.txtCCNum1.text = \"\";\n frmIBMyAccnts.txtCCNum2.text = \"\";\n frmIBMyAccnts.txtCCNum3.text = \"\";\n frmIBMyAccnts.txtCCNum4.text = \"\";\n \n }"
        }]
    }
}