{
    "p2kwiet2012247651117_button143430851789905_onClick_seq0": {
        "id": "p2kwiet2012247651117_button143430851789905_onClick_seq0",
        "type": "ACTION_SEQUENCE",
        "params": [{
            "name": "eventobject",
            "value": "eventobject"
        }],
        "language": "js",
        "actions": [{
            "id": "expression_onClick_61939201224768863",
            "type": "ADD_SNIPPET",
            "codeSnippet": "gblIE8=\"N\"\n frmIBPreLoginGlobalsNonIE8();"
        }]
    }
}