{
    "p2kwiet2012247640532_btnStopCheq_onClick_seq0": {
        "id": "p2kwiet2012247640532_btnStopCheq_onClick_seq0",
        "type": "ACTION_SEQUENCE",
        "params": [{
            "name": "eventobject",
            "value": "eventobject"
        }],
        "language": "js",
        "actions": [{
            "id": "customcode_onClick_26348201224765152",
            "type": "INVOKE_FUNCTION",
            "sequenceKUID": "populateDataForStopCheque",
            "display": "populateDataForStopCheque",
            "inputparams": [{
                "name": "resulttable",
                "value": "GLOBAL_CHEQUESERVICE_TABLE"
            }],
            "source": "module"
        }]
    }
}