{
    "p2kwiet2012247647916_lblHide3_onClick_seq0": {
        "id": "p2kwiet2012247647916_lblHide3_onClick_seq0",
        "type": "ACTION_SEQUENCE",
        "params": [{
            "name": "eventobject",
            "value": "eventobject"
        }],
        "language": "js",
        "actions": [{
            "id": "expression_onClick_53030201224762258",
            "type": "ADD_SNIPPET",
            "codeSnippet": "\n if(frmIBSSSExcuteTrnsfrCmplete.lblBal2.isVisible ){\n frmIBSSSExcuteTrnsfrCmplete.lblBal2.isVisible = false;\n frmIBSSSExcuteTrnsfrCmplete.lblHide3.text=kony.i18n.getLocalizedString(\"keyUnhide\");\n \n }else {\n frmIBSSSExcuteTrnsfrCmplete.lblBal2.isVisible = true;\n frmIBSSSExcuteTrnsfrCmplete.lblHide3.text=kony.i18n.getLocalizedString(\"Hide\");\n \n \n }\n \n \n \n "
        }]
    }
}