{
    "p2kwiet2012247649303_btnXferSMS_onClick_seq0": {
        "id": "p2kwiet2012247649303_btnXferSMS_onClick_seq0",
        "type": "ACTION_SEQUENCE",
        "params": [{
            "name": "eventobject",
            "value": "eventobject"
        }],
        "language": "js",
        "actions": [{
            "id": "customcode_onClick_69485201224769224",
            "type": "INVOKE_FUNCTION",
            "sequenceKUID": "XferSMS",
            "display": "XferSMS",
            "inputparams": [],
            "source": "module"
        }]
    }
}