{
    "p2kwiet2012247640468_btnToken_onClick_seq0": {
        "id": "p2kwiet2012247640468_btnToken_onClick_seq0",
        "type": "ACTION_SEQUENCE",
        "params": [{
            "name": "eventobject",
            "value": "eventobject"
        }],
        "language": "js",
        "actions": [{
            "id": "expression_onClick_40983201224763248",
            "type": "ADD_SNIPPET",
            "codeSnippet": "frmIBChequeServiceConfirmation.hbxToken.setVisibility(false);\n frmIBChequeServiceConfirmation.hbox47423104458243.setVisibility(true);\n frmIBChequeServiceConfirmation.label476047582115288.text=kony.i18n.getLocalizedString(\"keyotpmsgreq\");\n frmIBChequeServiceConfirmation.txtotp.setFocus(true);\n gblTokenSwitchFlag = false;\n gblSwitchToken = true;\n callOTPServiceSCS();"
        }]
    }
}