{
    "p2kwiet2012247647022_segRewardsList_onRowClick_seq0": {
        "id": "p2kwiet2012247647022_segRewardsList_onRowClick_seq0",
        "type": "ACTION_SEQUENCE",
        "params": [{
            "name": "eventobject",
            "value": "eventobject"
        }, {
            "name": "sectionNumber",
            "value": "sectionNumber"
        }, {
            "name": "rowNumber",
            "value": "rowNumber"
        }],
        "language": "js",
        "actions": [{
            "id": "customcode_onRowClick_9384201224769972",
            "type": "INVOKE_FUNCTION",
            "sequenceKUID": "IBonSelectingReward",
            "display": "IBonSelectingReward",
            "inputparams": [],
            "source": "module"
        }]
    }
}