{
    "p2kwiet2012247643906_btnMFstmt_onClick_seq0": {
        "id": "p2kwiet2012247643906_btnMFstmt_onClick_seq0",
        "type": "ACTION_SEQUENCE",
        "params": [{
            "name": "eventobject",
            "value": "eventobject"
        }],
        "language": "js",
        "actions": [{
            "id": "customcode_onClick_54763201224765389",
            "type": "INVOKE_FUNCTION",
            "sequenceKUID": "viewMFFullStatementIB",
            "display": "viewMFFullStatementIB",
            "inputparams": [{
                "name": "viewType",
                "value": "viewType = \"F\""
            }],
            "source": "module"
        }]
    }
}