{
    "p2kwiet2012247640897_button476047582115265_onClick_seq0": {
        "id": "p2kwiet2012247640897_button476047582115265_onClick_seq0",
        "type": "ACTION_SEQUENCE",
        "params": [{
            "name": "eventobject",
            "value": "eventobject"
        }],
        "language": "js",
        "actions": [{
            "id": "expression_onClick_5790201224762708",
            "type": "ADD_SNIPPET",
            "codeSnippet": "if(gblTokenSwitchFlag == true)\n frmIBCMConfirmationPwd.tbxToken.setFocus(true);\n else\n frmIBCMConfirmationPwd.txtOTP.setFocus(true);\n \n \n "
        }, {
            "id": "customcode_onClick_22108201224762746",
            "type": "INVOKE_FUNCTION",
            "sequenceKUID": "validatePasswordProfileIB",
            "display": "validatePasswordProfileIB",
            "inputparams": [],
            "source": "module"
        }]
    }
}