{
    "p2kwiet2012247639415_btnCancel_onClick_seq0": {
        "id": "p2kwiet2012247639415_btnCancel_onClick_seq0",
        "type": "ACTION_SEQUENCE",
        "params": [{
            "name": "eventobject",
            "value": "eventobject"
        }],
        "language": "js",
        "actions": [{
            "id": "decision_onClick_4394320122476466",
            "type": "IF_CONDITION",
            "conditions": [{
                "leftValueType": "expression",
                "leftValue": "frmIBBeepAndBillConfAndComp.btnCancel.text == kony.i18n.getLocalizedString(\"keyCancelButton\")"
            }],
            "criteria": "all"
        }, {
            "id": "decision_onClick_2209320122476326",
            "type": "ELSE_CONDITION",
            "conditions": [],
            "criteria": "all"
        }, {
            "id": "expression_onClick_63284201224764506",
            "type": "ADD_SNIPPET",
            "codeSnippet": "//TMBUtil.DestroyForm(frmIBBeepAndBillList);\n TMBUtil.DestroyForm(frmIBBeepAndBillApply);\n TMBUtil.DestroyForm(frmIBBeepAndBillApplyCW);\n //var nameofforma = kony.application.getCurrentForm();",
            "parentId": "decision_onClick_4394320122476466"
        }, {
            "id": "navigation_onClick_63935201224765407",
            "type": "NAVIGATE_TO_FORM",
            "formId": "frmIBPostLoginDashboard",
            "formKUID": "p2kwiet2012247647346",
            "mappings": {},
            "mappingsOrder": [],
            "parentId": "decision_onClick_4394320122476466",
            "enableMappingEditor": true,
            "package": ""
        }, {
            "id": "customcode_onClick_76539201224765707",
            "type": "INVOKE_FUNCTION",
            "sequenceKUID": "showBeepAndBillListIB",
            "display": "showBeepAndBillListIB",
            "inputparams": [],
            "parentId": "decision_onClick_2209320122476326",
            "source": "module"
        }, {
            "id": "expression_onClick_89343201224768509",
            "type": "ADD_SNIPPET",
            "codeSnippet": "TMBUtil.DestroyForm(frmIBBeepAndBillApply)",
            "parentId": "decision_onClick_2209320122476326"
        }]
    }
}