{
    "p2kwiet2012247642852_btnOpenProdCancel_onClick_seq0": {
        "id": "p2kwiet2012247642852_btnOpenProdCancel_onClick_seq0",
        "type": "ACTION_SEQUENCE",
        "params": [{
            "name": "eventobject",
            "value": "eventobject"
        }],
        "language": "js",
        "actions": [{
            "id": "customcode_onClick_65472201224769826",
            "type": "INVOKE_FUNCTION",
            "sequenceKUID": "onClickCancelDuringEditSavingCare",
            "display": "onClickCancelDuringEditSavingCare",
            "inputparams": [],
            "source": "module"
        }]
    }
}