{
    "p2kwiet2012247647492_linkMoreHide_onClick_seq0": {
        "id": "p2kwiet2012247647492_linkMoreHide_onClick_seq0",
        "type": "ACTION_SEQUENCE",
        "params": [{
            "name": "eventobject",
            "value": "eventobject"
        }, {
            "name": "context",
            "value": "context"
        }],
        "language": "js",
        "actions": [{
            "id": "customcode_onClick_73202201224768042",
            "type": "INVOKE_FUNCTION",
            "sequenceKUID": "onClickMoreHideOnTnxConfIB",
            "display": "onClickMoreHideOnTnxConfIB",
            "inputparams": [],
            "source": "module"
        }]
    }
}