{
    "p2kwiet2012247648507_tbxTokenOTP_DESKTOPWEB_onBeginEditing_seq0": {
        "id": "p2kwiet2012247648507_tbxTokenOTP_DESKTOPWEB_onBeginEditing_seq0",
        "type": "ACTION_SEQUENCE",
        "params": [{
            "name": "eventobject",
            "value": "eventobject"
        }, {
            "name": "changedtext",
            "value": "changedtext"
        }],
        "language": "js",
        "actions": [{
            "id": "expression_onBeginEditing_56429201224769835",
            "type": "ADD_SNIPPET",
            "codeSnippet": "frmIBTokenActivationPage.hbox506459299675488.skin = \"hbxOtpTextField\""
        }]
    }
}