{
    "p2kwiet2012247640268_btnMonthly_onClick_seq0": {
        "id": "p2kwiet2012247640268_btnMonthly_onClick_seq0",
        "type": "ACTION_SEQUENCE",
        "params": [{
            "name": "eventobject",
            "value": "eventobject"
        }],
        "language": "js",
        "actions": [{
            "id": "customcode_onClick_9811201224761245",
            "type": "INVOKE_FUNCTION",
            "sequenceKUID": "IBOnClickMonthlyFutureBills",
            "display": "IBOnClickMonthlyFutureBills",
            "inputparams": [],
            "source": "module"
        }]
    }
}