{
    "p2kwiet2012247642762_frmIBEditFutureTopUpPrecnf_preshow_seq0": {
        "id": "p2kwiet2012247642762_frmIBEditFutureTopUpPrecnf_preshow_seq0",
        "type": "ACTION_SEQUENCE",
        "params": [{
            "name": "eventobject",
            "value": "eventobject"
        }, {
            "name": "neworientation",
            "value": "neworientation"
        }],
        "language": "js",
        "actions": [{
            "id": "expression_preshow_96030201224763042",
            "type": "ADD_SNIPPET",
            "codeSnippet": "frmIBEditFutureTopUpPrecnf.lblOTPinCurr.text = \"\";\n frmIBEditFutureTopUpPrecnf.lblPlsReEnter.text = \"\"; \n "
        }, {
            "id": "customcode_preshow_92652201224766795",
            "type": "INVOKE_FUNCTION",
            "sequenceKUID": "frmIBEditFutureTopUpPrecnf_frmIBEditFutureTopUpPrecnf_preshow",
            "display": "frmIBEditFutureTopUpPrecnf_frmIBEditFutureTopUpPrecnf_preshow",
            "inputparams": [],
            "source": "module"
        }]
    }
}