{
    "p2kwiet2012247641098_txtCaptchaText_DESKTOPWEB_onEndEditing_seq0": {
        "id": "p2kwiet2012247641098_txtCaptchaText_DESKTOPWEB_onEndEditing_seq0",
        "type": "ACTION_SEQUENCE",
        "params": [{
            "name": "eventobject",
            "value": "eventobject"
        }, {
            "name": "changedtext",
            "value": "changedtext"
        }],
        "language": "js",
        "actions": [{
            "id": "expression_onEndEditing_59303201224761158",
            "type": "ADD_SNIPPET",
            "codeSnippet": "frmIBPreLogin.txtCaptchaText.skin = \"txtBottomBorder\""
        }]
    }
}