{
    "p2kwiet2012247638234_button588595093453734_onClick_seq0": {
        "id": "p2kwiet2012247638234_button588595093453734_onClick_seq0",
        "type": "ACTION_SEQUENCE",
        "params": [{
            "name": "eventobject",
            "value": "eventobject"
        }],
        "language": "js",
        "actions": [{
            "id": "expression_onClick_1794201224765696",
            "type": "ADD_SNIPPET",
            "codeSnippet": "gaccTypeIB = \"SDA\" ;\n \n \n \n "
        }, {
            "id": "navigation_onClick_896382012247685",
            "type": "NAVIGATE_TO_FORM",
            "formId": "frmIBAccntFullStatement",
            "formKUID": "p2kwiet2012247638109",
            "mappings": {},
            "mappingsOrder": [],
            "parentId": "",
            "enableMappingEditor": true,
            "package": ""
        }]
    }
}