{
    "p2kwiet2012247642662_frmIBEditFutureBillPaymentPrecnf_postshow_seq0": {
        "id": "p2kwiet2012247642662_frmIBEditFutureBillPaymentPrecnf_postshow_seq0",
        "type": "ACTION_SEQUENCE",
        "params": [{
            "name": "eventobject",
            "value": "eventobject"
        }, {
            "name": "neworientation",
            "value": "neworientation"
        }],
        "language": "js",
        "actions": [{
            "id": "customcode_postshow_99144201224765301",
            "type": "INVOKE_FUNCTION",
            "sequenceKUID": "addIBMenu",
            "display": "addIBMenu",
            "inputparams": [],
            "source": "module"
        }, {
            "id": "customcode_postshow_7924201224769438",
            "type": "INVOKE_FUNCTION",
            "sequenceKUID": "pagespecificSubMenu",
            "display": "pagespecificSubMenu",
            "inputparams": [],
            "source": "module"
        }]
    }
}