{
    "p2kwiet2012247639508_tbxToken_DESKTOPWEB_onBeginEditing_seq0": {
        "id": "p2kwiet2012247639508_tbxToken_DESKTOPWEB_onBeginEditing_seq0",
        "type": "ACTION_SEQUENCE",
        "params": [{
            "name": "eventobject",
            "value": "eventobject"
        }, {
            "name": "changedtext",
            "value": "changedtext"
        }],
        "language": "js",
        "actions": [{
            "id": "expression_onBeginEditing_63344201224763350",
            "type": "ADD_SNIPPET",
            "codeSnippet": "frmIBBeepAndBillExecuteConfComp.hbxToken.skin=\"hbxOtpTextField\""
        }]
    }
}