{
    "p2kwiet2012247640268_btnBPPayOn_onClick_seq0": {
        "id": "p2kwiet2012247640268_btnBPPayOn_onClick_seq0",
        "type": "ACTION_SEQUENCE",
        "params": [{
            "name": "eventobject",
            "value": "eventobject"
        }],
        "language": "js",
        "actions": [{
            "id": "customcode_onClick_59730201224766346",
            "type": "INVOKE_FUNCTION",
            "sequenceKUID": "eh_frmIBBillPaymentLP_btnBPPayOn_onClick",
            "display": "eh_frmIBBillPaymentLP_btnBPPayOn_onClick",
            "inputparams": [],
            "source": "module"
        }]
    }
}