{
    "p2kwiet2012247643396_btnRadioNo_onClick_seq0": {
        "id": "p2kwiet2012247643396_btnRadioNo_onClick_seq0",
        "type": "ACTION_SEQUENCE",
        "params": [{
            "name": "eventobject",
            "value": "eventobject"
        }, {
            "name": "context",
            "value": "context"
        }],
        "language": "js",
        "actions": [{
            "id": "customcode_onClick_21439201224765146",
            "type": "INVOKE_FUNCTION",
            "sequenceKUID": "onClickFATCAIBRadioBtn",
            "display": "onClickFATCAIBRadioBtn",
            "inputparams": [{
                "name": "eventObject",
                "value": "eventobject"
            }],
            "source": "module"
        }]
    }
}