{
    "p2kwiet2012247641322_button476047582115265_onClick_seq0": {
        "id": "p2kwiet2012247641322_button476047582115265_onClick_seq0",
        "type": "ACTION_SEQUENCE",
        "params": [{
            "name": "eventobject",
            "value": "eventobject"
        }],
        "language": "js",
        "actions": [{
            "id": "expression_onClick_60519201224762110",
            "type": "ADD_SNIPPET",
            "codeSnippet": "//srvVerifyOTPIB();\n // changing to composite service call \n changePasswordComposite();"
        }]
    }
}