{
    "p2kwiet2012247640090_btnFB_onClick_seq0": {
        "id": "p2kwiet2012247640090_btnFB_onClick_seq0",
        "type": "ACTION_SEQUENCE",
        "params": [{
            "name": "eventobject",
            "value": "eventobject"
        }],
        "language": "js",
        "actions": [{
            "id": "customcode_onClick_60473201224768728",
            "type": "INVOKE_FUNCTION",
            "sequenceKUID": "fbShareExecutedTxnIB",
            "display": "fbShareExecutedTxnIB",
            "inputparams": [],
            "source": "module"
        }]
    }
}