{
    "p2kwiet2012247640496_frmIBChequeServiceReturnedChequeLanding_preshow_seq0": {
        "id": "p2kwiet2012247640496_frmIBChequeServiceReturnedChequeLanding_preshow_seq0",
        "type": "ACTION_SEQUENCE",
        "params": [{
            "name": "eventobject",
            "value": "eventobject"
        }, {
            "name": "neworientation",
            "value": "neworientation"
        }],
        "language": "js",
        "actions": [{
            "id": "expression_preshow_8821820122476499",
            "type": "ADD_SNIPPET",
            "codeSnippet": "customWidgetSelectEventforReturnCheque()"
        }]
    }
}