{
    "p2kwiet2012247647538_button866854059436882_onClick_seq0": {
        "id": "p2kwiet2012247647538_button866854059436882_onClick_seq0",
        "type": "ACTION_SEQUENCE",
        "params": [{
            "name": "eventobject",
            "value": "eventobject"
        }],
        "language": "js",
        "actions": [{
            "id": "customcode_onClick_36438201224763492",
            "type": "INVOKE_FUNCTION",
            "sequenceKUID": "loadTermsNConditionSoGooOD",
            "display": "loadTermsNConditionSoGooOD",
            "inputparams": [],
            "source": "module"
        }]
    }
}