{
    "AS_HBox_iaf3494c674147c39dc8034d87ed8ab5": {
        "id": "AS_HBox_iaf3494c674147c39dc8034d87ed8ab5",
        "type": "ACTION_SEQUENCE",
        "name": "popIBTransferOptions_onClickToCitizenID_onClick",
        "params": [{
            "datatype": "collection",
            "name": "eventobject"
        }],
        "contextObj": {
            "name": "popIBTransferOptions",
            "type": "popups",
            "platform": "",
            "KUID": "h9e45eab184e4346b23b342763834e22"
        },
        "language": "js",
        "actions": [{
            "id": "INVOKE_FUNCTION___bd60b70267574acabe2916faa443e9ea",
            "type": "INVOKE_FUNCTION",
            "sequenceKUID": "onClickToCitizenID",
            "display": "onClickToCitizenID",
            "inputparams": [],
            "parentId": null,
            "callbackType": null,
            "disabled": null,
            "source": "module"
        }]
    }
}