{
    "AS_Form_j7b55ca55de242a894498012803cf758": {
        "id": "AS_Form_j7b55ca55de242a894498012803cf758",
        "type": "ACTION_SEQUENCE",
        "name": "preshowIBMFSelPFentry",
        "params": [{
            "datatype": "collection",
            "name": "eventobject"
        }],
        "contextObj": {
            "name": "frmIBMFSelPurchaseFundsEntry",
            "type": "forms",
            "platform": "",
            "KUID": "a4c9156f38ff4a00aa6c215dd09045fe"
        },
        "language": "js",
        "actions": [{
            "id": "ADD_SNIPPET__jd3d2c3c17d24cb1b36383e03133324d",
            "type": "ADD_SNIPPET",
            "codeSnippet": "addMenutoIBMF();",
            "parentId": null,
            "callbackType": null
        }]
    }
}