{
    "@class": "com.kony.gen.viz.model.component.KVizButton",
    "DNDConfig": null,
    "__parentReadjusting__": false,
    "_bottom_": {
        "type": "string",
        "value": "2dp"
    },
    "_height_": {
        "type": "string",
        "value": "40dp"
    },
    "_left_": {
        "type": "string",
        "value": "16%"
    },
    "_margin_": [
        6,
        6,
        6,
        6
    ],
    "_padding_": [
        0,
        0,
        0,
        0
    ],
    "_skin_": "seda24ce471c4e8ca814148201b93644",
    "_text_": "Full",
    "_top_": {
        "type": "string",
        "value": "6dp"
    },
    "_width_": {
        "type": "string",
        "value": "26.50%"
    },
    "canUpdateUI": true,
    "containerweight": 100,
    "contentalignment": 5,
    "displaytext": true,
    "focusskin": "s34509b27b594c06b240546a6dbf03f0",
    "id": "btnFull1",
    "ide_onClick": "AS_Button_a3448d2dda9844e18ca214fd20beecb6",
    "info": null,
    "iphone": {
        "psp": {
            "showProgressIndicator": false
        }
    },
    "isvisible": true,
    "kuid": "je1b8dbd0f114b04b28ed6c2c46ad1c7",
    "name": "kony.ui.Button",
    "parent": "flxFullMinSpecButtons",
    "pf": "frmBillPaymentEditFutureNew",
    "showprogressindicator": false,
    "texti18n": "keyBillPaymentFull",
    "wType": "Button",
    "zindex": 1
}