{
    "DNDConfig": null,
    "__parentReadjusting__": false,
    "_height_": {
        "type": "ref",
        "value": "preferred"
    },
    "_margin_": [
        0,
        0,
        0,
        0
    ],
    "_orientation_": 6,
    "_padding_": [
        0,
        0,
        0,
        0
    ],
    "_percent_": true,
    "_skin_": "s4e4a93dc3bb42cfbd8eaf003f506c1a",
    "_width_": {
        "type": "string",
        "value": "240dp"
    },
    "allboxes": [],
    "autogrowmode": 1,
    "canUpdateUI": true,
    "children": [
        "lblBillerNickName",
        "flxRef1",
        "flxRef2",
        "lblBillerName"
    ],
    "clipbounds": true,
    "containerweight": 100,
    "enablescrolling": true,
    "id": "flxBillerDetail",
    "info": null,
    "isvisible": true,
    "kuid": "0934a5e6e2e04a779a7c38427242db54",
    "layouttype": 4,
    "name": "kony.ui.FlexContainer",
    "parent": "flxToBillerName",
    "pf": "frmBillPaymentEditFutureNew",
    "snapgridsize": 10,
    "snaptogrid": true,
    "wType": "FlexContainer",
    "widgetalignment": 1,
    "zindex": 1
}