{
    "DNDConfig": null,
    "__parentReadjusting__": false,
    "_height_": {
        "type": "ref",
        "value": "preferred"
    },
    "_margin_": [
        0,
        0,
        0,
        0
    ],
    "_orientation_": 6,
    "_padding_": [
        0,
        0,
        0,
        0
    ],
    "_percent_": true,
    "_skin_": "s918d2c198cc4b1b99c1a0fe1f4e0370",
    "_width_": {
        "type": "string",
        "value": "88%"
    },
    "allboxes": [],
    "autogrowmode": 1,
    "canUpdateUI": true,
    "children": [
        "lblScheduleEndContainerHidden",
        "flxDatePeriod",
        "flxRepeatAs",
        "lblPayBillOn"
    ],
    "clipbounds": true,
    "containerweight": 100,
    "enablescrolling": true,
    "id": "flxDateSection",
    "info": null,
    "isvisible": true,
    "kuid": "df5db013164a43e8b2a389ce70ed145f",
    "layouttype": 4,
    "name": "kony.ui.FlexContainer",
    "parent": "flxDate",
    "pf": "frmBillPaymentEditFutureNew",
    "snapgridsize": 10,
    "snaptogrid": true,
    "wType": "FlexContainer",
    "widgetalignment": 1,
    "zindex": 1
}