{
    "DNDConfig": null,
    "_enabled_": false,
    "_margin_": [
        35,
        3,
        10,
        2
    ],
    "_padding_": [
        0,
        5,
        0,
        6
    ],
    "_skin_": "sc07d12aeaf542c9babd28519d766e8c",
    "_text_": "",
    "canUpdateUI": true,
    "containerweight": 45,
    "contentalignment": 6,
    "desktopweb": {
        "@class": "com.kony.gen.viz.model.component.property.button.DesktopWebButtonProperty",
        "_margin_": [
            40,
            3,
            10,
            2
        ],
        "_padding_": [
            0,
            4,
            0,
            6
        ],
        "displayText": true,
        "margin": [
            0,
            3,
            45,
            2
        ],
        "marginInPixel": false,
        "padding": [
            0,
            4,
            0,
            6
        ],
        "paddingInPixel": false,
        "render": true
    },
    "displaytext": true,
    "focusskin": "s35cdb06352b487c9708c6429c28490d",
    "hexpand": true,
    "id": "btnPrint",
    "ide_onClick": "p2kwiet2012247642984_btnPrint_onClick_seq0",
    "info": null,
    "isvisible": true,
    "kiosk": {
        "@class": "com.kony.gen.viz.model.component.property.button.KioskButtonProperty",
        "_padding_": [
            0,
            5,
            0,
            6
        ],
        "padding": [
            0,
            5,
            0,
            6
        ],
        "paddingInPixel": false,
        "render": true
    },
    "kuid": "p2kwiet2012247642956",
    "margininpixel": false,
    "name": "kony.ui.Button",
    "paddinginpixel": false,
    "parent": "hbxBtns",
    "pf": "frmIBePaymentExecutedTxn",
    "spa": {
        "@class": "com.kony.gen.viz.model.component.property.button.SPAButtonProperty",
        "displayText": true
    },
    "vexpand": false,
    "wType": "Button",
    "widgetalignment": 6
}