{
    "DNDConfig": null,
    "_base64_": null,
    "_enabled_": false,
    "_margin_": [
        0,
        0,
        0,
        0
    ],
    "_skin_": "s74407cc01df451c9a740ebe48f853eb",
    "_src_": "tmblogoblue.png",
    "_text_": "tmblogoblue.png",
    "canUpdateUI": true,
    "containerweight": 83,
    "contentalignment": 5,
    "desktopweb": {
        "@class": "com.kony.gen.viz.model.component.property.image2.DesktopWebImage2Property",
        "_padding_": [
            0,
            55,
            0,
            0
        ],
        "padding": [
            0,
            55,
            0,
            0
        ],
        "paddingInPixel": false,
        "render": true
    },
    "hexpand": false,
    "id": "TMBImage",
    "imagescalemode": 1,
    "info": null,
    "isvisible": true,
    "kiosk": {
        "@class": "com.kony.gen.viz.model.component.property.image2.KioskImage2Property",
        "render": true
    },
    "kuid": "p2kwiet2012247642338",
    "margininpixel": false,
    "name": "kony.ui.Image2",
    "parent": "hbxwaterWheel",
    "pf": "frmIBDebitCardActivateComplete",
    "spa": {
        "@class": "com.kony.gen.viz.model.component.property.image2.SPAImage2Property"
    },
    "srcType": 1,
    "vexpand": false,
    "wType": "Image",
    "widgetalignment": 8
}