{
    "DNDConfig": null,
    "_enabled_": false,
    "_margin_": [
        5,
        0,
        3,
        0
    ],
    "_padding_": [
        0,
        5,
        0,
        6
    ],
    "_skin_": "s6e30536359a4e71863e9d5983d42bab",
    "_text_": "",
    "canUpdateUI": true,
    "containerweight": 25,
    "contentalignment": 5,
    "desktopweb": {
        "@class": "com.kony.gen.viz.model.component.property.button.DesktopWebButtonProperty",
        "_margin_": [
            5,
            0,
            3,
            0
        ],
        "_padding_": [
            0,
            5,
            0,
            6
        ],
        "displayText": true,
        "margin": [
            5,
            0,
            3,
            0
        ],
        "marginInPixel": false,
        "padding": [
            0,
            5,
            0,
            6
        ],
        "paddingInPixel": false,
        "render": true
    },
    "displaytext": true,
    "focusskin": "s6e30536359a4e71863e9d5983d42bab",
    "hexpand": true,
    "id": "button1014589649274",
    "ide_onClick": "p2kwiet2012247639415_button1014589649274_onClick_seq0",
    "info": null,
    "isvisible": true,
    "kiosk": {
        "@class": "com.kony.gen.viz.model.component.property.button.KioskButtonProperty",
        "_margin_": [
            5,
            0,
            3,
            0
        ],
        "_padding_": [
            0,
            5,
            0,
            6
        ],
        "margin": [
            5,
            0,
            3,
            0
        ],
        "marginInPixel": false,
        "padding": [
            0,
            5,
            0,
            6
        ],
        "paddingInPixel": false,
        "render": true
    },
    "kuid": "p2kwiet2012247639400",
    "margininpixel": false,
    "name": "kony.ui.Button",
    "paddinginpixel": false,
    "parent": "hbxBPSave",
    "pf": "frmIBBeepAndBillConfAndComp",
    "spa": {
        "@class": "com.kony.gen.viz.model.component.property.button.SPAButtonProperty",
        "displayText": true
    },
    "vexpand": false,
    "wType": "Button",
    "widgetalignment": 5
}