{
    "DNDConfig": null,
    "_enabled_": false,
    "_margin_": [
        3,
        0,
        0,
        0
    ],
    "_padding_": [
        0,
        0,
        0,
        0
    ],
    "_skin_": "s827aff42dc8499db07d034b489f8800",
    "_text_": "",
    "canUpdateUI": true,
    "containerweight": 27,
    "contentalignment": 5,
    "desktopweb": {
        "@class": "com.kony.gen.viz.model.component.property.link.DesktopWebLinkProperty",
        "render": true
    },
    "focusskin": "seb090c1aab54fc7b9003afc8949a88e",
    "hexpand": false,
    "id": "link474016987105121",
    "ide_onClick": "p2kwiet2012247639415_link474016987105121_onClick_seq0",
    "info": null,
    "isvisible": true,
    "kiosk": {
        "@class": "com.kony.gen.viz.model.component.property.link.KioskLinkProperty",
        "render": true
    },
    "kuid": "p2kwiet2012247639386",
    "margininpixel": false,
    "name": "kony.ui.Link",
    "paddinginpixel": false,
    "parent": "hbox44547711524167",
    "pf": "frmIBBeepAndBillConfAndComp",
    "spa": {
        "@class": "com.kony.gen.viz.model.component.property.link.SPALinkProperty"
    },
    "texti18n": "Hide",
    "vexpand": false,
    "wType": "Link",
    "widgetalignment": 6
}