{
    "@class": "com.kony.gen.viz.model.component.KVizButton",
    "DNDConfig": null,
    "__markedForDelete__": true,
    "_margin_": [
        0,
        0,
        0,
        0
    ],
    "_padding_": [
        2,
        3,
        2,
        3
    ],
    "_skin_": "s99d068fe55749f3acb03d3b8642dd1c",
    "_text_": "Baht",
    "canUpdateUI": true,
    "containerweight": 33,
    "contentalignment": 5,
    "desktopweb": {
        "psp": {
            "hoverSkin": "sf227e0f29174f0fad3744cc099738c2"
        }
    },
    "displaytext": true,
    "focusskin": "sf227e0f29174f0fad3744cc099738c2",
    "id": "btnBaht",
    "ide_onClick": "AS_Button_bd0e188302904bba99d5d312ea98527d",
    "info": null,
    "isvisible": true,
    "kuid": "c0252646deeb4eb9ac6d75453d0cddc7",
    "margininpixel": false,
    "name": "kony.ui.Button",
    "paddInPixel": [
        18.44,
        18.44,
        18.44,
        18.44
    ],
    "paddinginpixel": false,
    "parent": "HBox0ffcda4dfeac74c",
    "pf": "frmIBMFSelRedeemFund",
    "wType": "Button"
}