{
    "@class": "com.kony.gen.viz.model.container.KVizHBox",
    "DNDConfig": null,
    "_margin_": [
        0,
        0,
        0,
        0
    ],
    "_orientation_": 1,
    "_padding_": [
        0,
        0,
        0,
        0
    ],
    "_percent_": true,
    "_position_": 3,
    "_skin_": "s3240d32b9a74cc78d1e0768cd2cdf1b",
    "allboxes": [],
    "canUpdateUI": true,
    "children": [
        "VBox0be139550a8934c",
        "VBox0e30b79137a2042"
    ],
    "containerweight": 100,
    "contextmenu": null,
    "id": "HBox0f9664c9e32e849",
    "info": null,
    "isvisible": true,
    "kuid": "b1887576e96b409b878b7415503d9ed8",
    "layouttype": 0,
    "name": "kony.ui.Box",
    "parent": "VBox0h4f2a41a80f149",
    "pf": "frmIBMFSelRedeemFund",
    "wType": "HBox",
    "widgetalignment": 1
}