{
    "@class": "com.kony.gen.viz.model.container.KVizHBox",
    "DNDConfig": null,
    "_margin_": [
        0,
        0,
        0,
        0
    ],
    "_orientation_": 1,
    "_padding_": [
        0,
        0,
        0,
        0
    ],
    "_percent_": true,
    "_position_": 3,
    "_skin_": "s3240d32b9a74cc78d1e0768cd2cdf1b",
    "allboxes": [],
    "canUpdateUI": true,
    "children": [
        "VBox0a02dd62481ab43"
    ],
    "containerweight": 100,
    "contextmenu": null,
    "id": "HBox0g483b2b0002447",
    "info": null,
    "isvisible": true,
    "kuid": "i749c4031d1340ff81f1ae6f6a800f12",
    "layouttype": 0,
    "name": "kony.ui.Box",
    "parent": "VBox0c74d5070a17c4d",
    "pf": "frmIBMFSelRedeemFund",
    "wType": "HBox",
    "widgetalignment": 1
}