{
    "@class": "com.kony.gen.viz.model.container.KVizHBox",
    "DNDConfig": null,
    "_margin_": [
        0,
        0,
        0,
        0
    ],
    "_orientation_": 1,
    "_padding_": [
        0,
        0,
        0,
        0
    ],
    "_percent_": true,
    "_position_": 3,
    "_skin_": "s3240d32b9a74cc78d1e0768cd2cdf1b",
    "allboxes": [],
    "canUpdateUI": true,
    "children": [
        "btnUnit",
        "btnAll",
        "btnBaht"
    ],
    "containerweight": 100,
    "contextmenu": null,
    "id": "HBox0ffcda4dfeac74c",
    "info": null,
    "isvisible": true,
    "kuid": "c30efcc812314a08b934600d5c121bdc",
    "layouttype": 0,
    "name": "kony.ui.Box",
    "parent": "VBox0c2776cd9422342",
    "pf": "frmIBMFSelRedeemFund",
    "wType": "HBox",
    "widgetalignment": 1
}