{
    "@class": "com.kony.gen.viz.model.container.KVizHBox",
    "DNDConfig": null,
    "_margin_": [
        0,
        0,
        0,
        0
    ],
    "_orientation_": 1,
    "_padding_": [
        0,
        0,
        0,
        0
    ],
    "_percent_": true,
    "_position_": 3,
    "_skin_": "s3240d32b9a74cc78d1e0768cd2cdf1b",
    "allboxes": [],
    "canUpdateUI": true,
    "children": [
        "ImageStep"
    ],
    "containerweight": 100,
    "contextmenu": null,
    "id": "HBox0ed51eb1afc7040",
    "info": null,
    "isvisible": true,
    "kuid": "a0c2b7a38eb041c9a72d6533d2872736",
    "layouttype": 0,
    "name": "kony.ui.Box",
    "parent": "VBox0c51485cfaa4244",
    "pf": "frmIBMFSelRedeemFund",
    "wType": "HBox",
    "widgetalignment": 1
}