{
    "@class": "com.kony.gen.viz.model.component.KVizImage2",
    "DNDConfig": null,
    "__markedForDelete__": true,
    "_base64_": null,
    "_margin_": [
        10,
        0,
        0,
        0
    ],
    "_padding_": [
        0,
        0,
        0,
        0
    ],
    "_render_": true,
    "_skin_": "s55d8a5125e74bb0b2eaca75c423dae1",
    "_src_": "uobamth.png",
    "canUpdateUI": true,
    "containerweight": 100,
    "context": {
        "channel": "desktop",
        "ispercent": true,
        "platform": "desktopweb",
        "templateType": "forms",
        "topLevelBox": false
    },
    "desktopweb": {
        "render": true
    },
    "id": "ImageFundHouse",
    "imagescalemode": 1,
    "info": null,
    "invokedProperty": "src",
    "ispercent": true,
    "isvisible": true,
    "kiosk": {
        "render": true
    },
    "kuid": "j27eec3f45d443faba4fdc1004d525c8",
    "margininpixel": false,
    "name": "kony.ui.Image2",
    "paddInPixel": [
        0,
        0,
        0,
        0
    ],
    "paddinginpixel": false,
    "parent": "VBox0gc2addbe743b49",
    "pf": "frmIBMFSelRedeemFund",
    "srcType": 1,
    "wType": "Image",
    "widgetalignment": 5
}