{
    "@class": "com.kony.gen.viz.model.component.KVizLabel",
    "DNDConfig": null,
    "__markedForDelete__": true,
    "_margin_": [
        0,
        0,
        1,
        1
    ],
    "_padding_": [
        0,
        0,
        0,
        0
    ],
    "_skin_": "s5d0f85861b94de588986f0ef6729448",
    "_text_": "100,000.00 B",
    "_wrapping_": 2,
    "android": {
        "textStyle": {
            "letterSpacing": 0,
            "strikeThrough": false
        }
    },
    "canUpdateUI": true,
    "containerweight": 100,
    "contentalignment": 6,
    "id": "lblBalanceVal",
    "info": null,
    "ipad": {
        "psp": {
            "wrapping": 2
        }
    },
    "iphone": {
        "psp": {
            "wrapping": 2
        }
    },
    "isvisible": true,
    "kuid": "g1d111d5134d467fbc3d22898284fe86",
    "margininpixel": false,
    "name": "kony.ui.Label",
    "parent": "VBox0e30b79137a2042",
    "pf": "frmIBMFSelRedeemFund",
    "tooltip": "",
    "wType": "Label"
}