{
    "@class": "com.kony.gen.viz.model.container.KVizVBox",
    "DNDConfig": null,
    "__markedForDelete__": true,
    "_margin_": [
        0,
        0,
        0,
        0
    ],
    "_orientation_": 2,
    "_padding_": [
        0,
        0,
        0,
        0
    ],
    "_percent_": true,
    "_position_": 3,
    "_skin_": "sa53654b4113418f8dcb6d569eb3ef8f",
    "allboxes": [],
    "canUpdateUI": true,
    "children": [
        "HBox0a4153fb9f97e4b"
    ],
    "containerweight": 100,
    "contextmenu": null,
    "id": "VBox0ce41d92f3e6d4a",
    "info": null,
    "isvisible": true,
    "kuid": "jdf0062814824ee1a789697662c43bd7",
    "layouttype": 0,
    "name": "kony.ui.Box",
    "paddInPixel": [
        0,
        0,
        0,
        0
    ],
    "parent": "HBoxSelectedFund",
    "pf": "frmIBMFSelRedeemFund",
    "templateType": "forms",
    "wType": "VBox",
    "widgetalignment": 1
}