{
    "@class": "com.kony.gen.viz.model.container.KVizVBox",
    "DNDConfig": null,
    "_margin_": [
        0,
        0,
        0,
        0
    ],
    "_orientation_": 2,
    "_padding_": [
        5,
        0,
        0,
        0
    ],
    "_percent_": true,
    "_position_": 3,
    "_skin_": "s0e13ed4077f481ab090dae6b2e595ed",
    "allboxes": [],
    "canUpdateUI": true,
    "children": [
        "HBox0g483b2b0002447"
    ],
    "containerweight": 75,
    "contextmenu": null,
    "donotUpdateContainerWeight": false,
    "id": "VBox0c74d5070a17c4d",
    "info": null,
    "isvisible": true,
    "kuid": "c23a6f6e594a485187cf06c0c1a2cdfb",
    "layouttype": 0,
    "name": "kony.ui.Box",
    "paddInPixel": [
        23.55,
        0,
        0,
        0
    ],
    "paddinginpixel": false,
    "parent": "HBox0a4153fb9f97e4b",
    "pf": "frmIBMFSelRedeemFund",
    "wType": "VBox",
    "widgetalignment": 4
}