{
    "@class": "com.kony.gen.viz.model.container.KVizHBox",
    "DNDConfig": null,
    "_margin_": [
        0,
        0,
        0,
        0
    ],
    "_orientation_": 1,
    "_padding_": [
        0,
        0,
        0,
        0
    ],
    "_percent_": true,
    "_position_": 3,
    "_skin_": "s3240d32b9a74cc78d1e0768cd2cdf1b",
    "allboxes": [],
    "canUpdateUI": true,
    "children": [
        "custom1016496273208904"
    ],
    "containerweight": 100,
    "contextmenu": null,
    "id": "hbxCustomWidget",
    "info": null,
    "isvisible": false,
    "kuid": "a48d88eeaa1a4ae99575b46b1ccf79c7",
    "layouttype": 0,
    "name": "kony.ui.Box",
    "parent": "vbxXferRight",
    "pf": "frmIBTransferCustomWidgetLP",
    "wType": "HBox",
    "widgetalignment": 1
}