{
    "DNDConfig": null,
    "_enabled_": false,
    "_margin_": [
        0,
        0,
        0,
        0
    ],
    "_orientation_": 2,
    "_padding_": [
        1,
        1,
        1,
        0
    ],
    "_position_": 3,
    "_resize_": true,
    "_skin_": "sc01c3d44efc482dac8920b74309822d",
    "allboxes": [],
    "borderCollapse": false,
    "canUpdateUI": true,
    "children": [
        "hbox21149857404289",
        "line1011851788556",
        "hbxMaturity",
        "hbxBankMobileTransfer",
        "hbxRecipient",
        "hbxTo",
        "line1011851788710",
        "hbxAmount",
        "line1011851788754",
        "hbox1011732624591",
        "line1011851788718",
        "hbox1011732624569",
        "line1011851788750",
        "hbxFee",
        "line1011851788734",
        "hbxNotifyRecipent",
        "hbxNotifyRecipentP2P",
        "lineOne",
        "hbox1016317527644",
        "txbXferAmountRcvd",
        "lineTwo",
        "hbxNoteToRecipent",
        "lineThree",
        "hbox101074658022846"
    ],
    "containerweight": 31,
    "desktopweb": {
        "@class": "com.kony.gen.viz.model.container.property.vbox.DesktopWebVBoxProperty",
        "_padding_": [
            5,
            1,
            1,
            0
        ],
        "padding": [
            1,
            1,
            1,
            0
        ],
        "paddingInPixel": false,
        "render": true
    },
    "id": "vbox507353026213307",
    "info": null,
    "isvisible": true,
    "kiosk": {
        "@class": "com.kony.gen.viz.model.container.property.vbox.KioskVBoxProperty",
        "render": true
    },
    "kuid": "p2kwiet2012247649379",
    "layouttype": 0,
    "margininpixel": false,
    "name": "kony.ui.Box",
    "paddInPixel": [
        10.22,
        10.22,
        10.22,
        173.74
    ],
    "paddinginpixel": false,
    "parent": "hbxXferMiddleRight",
    "pf": "frmIBTransferCustomWidgetLP",
    "spa": {
        "@class": "com.kony.gen.viz.model.container.property.vbox.SPAVBoxProperty"
    },
    "templateType": "forms",
    "wType": "VBox",
    "widgetalignment": 1
}