{
    "DNDConfig": null,
    "_data_": [
        {},
        {},
        {}
    ],
    "_enabled_": false,
    "_indicator_": "none",
    "_margin_": [
        0,
        0,
        0,
        0
    ],
    "_orientation_": 2,
    "_padding_": [
        0,
        0,
        0,
        0
    ],
    "_skin_": "seg2Normal",
    "canUpdateUI": true,
    "containerheightreference": 1,
    "containerweight": 100,
    "context": {
        "channel": "mobile",
        "formID": "AdvancedWidgetsSegements",
        "templateType": "segments",
        "topLevelBox": false
    },
    "counter": "02",
    "desktopweb": {
        "@class": "com.kony.gen.viz.model.container.property.segment2.DesktopWebSegment2Property",
        "render": true
    },
    "focusedindex": null,
    "focuseditem": null,
    "generatedtemplate": "p2kwiet2012247645670",
    "groupcells": false,
    "hasSections": false,
    "hiddencolumns": {},
    "id": "segOpenActSelProd",
    "ide_onRowClick": "p2kwiet2012247645667_segOpenActSelProd_onRowClick_seq0",
    "info": null,
    "isvisible": true,
    "kiosk": {
        "@class": "com.kony.gen.viz.model.container.property.segment2.KioskSegment2Property",
        "render": true
    },
    "kuid": "p2kwiet2012247645655",
    "layoutalignment": 3,
    "layouttype": 0,
    "margininpixel": false,
    "name": "kony.ui.SegmentedUI2",
    "needpageindicator": true,
    "paddinginpixel": false,
    "paginationconfig": {
        "position": "bottom"
    },
    "parent": "vboxMiddle",
    "pf": "frmIBOpenActSelProd",
    "retainselection": false,
    "rowTemplateId": "p2kwiet2012247645670",
    "rowcounter": 2,
    "rowfocusskin": "sd5206d4ecfa4df48affb6965ed39f30",
    "rowskin": "sd5206d4ecfa4df48affb6965ed39f30",
    "screenlevelwidget": false,
    "scrollingevents": false,
    "seccounter": 0,
    "sectionheaderskin": "s9bd6d2f2f8c4fce89dae24cc47abe06",
    "selectedRows": null,
    "selectedState": false,
    "selectedindex": null,
    "selectedindices": null,
    "selecteditems": null,
    "selectedsectionindex": 0,
    "selectionbehavior": "default",
    "selectionbehaviorconfig": {},
    "separatorcolor": "bebebe00",
    "separatorrequired": false,
    "separatorthickness": 0,
    "showscrollbars": false,
    "spa": {
        "@class": "com.kony.gen.viz.model.container.property.segment2.SPASegment2Property"
    },
    "viewtype": "tableview",
    "wType": "Segment",
    "widgetalignment": 1,
    "widgetdatamap": {
        "hbox86685405969188": "hbox86685405969188",
        "imgOpnActSelProd": "imgOpnActSelProd",
        "imgOpnActSelProdRtArrow": "imgOpnActSelProdRtArrow",
        "lblOpnActSelProd": "lblOpnActSelProd"
    }
}