{
    "DNDConfig": null,
    "_enabled_": false,
    "_margin_": [
        0,
        0,
        0,
        0
    ],
    "_padding_": [
        0,
        0,
        0,
        0
    ],
    "_skin_": "sb5a3b249b2f4d508990f20c82d055e5",
    "_text_": "",
    "autocapitalize": "none",
    "autocomplete": false,
    "autocorrect": false,
    "autofilter": false,
    "canUpdateUI": true,
    "containerheightmode": 1,
    "containerheightreference": 1,
    "containerweight": 44,
    "contentalignment": 4,
    "desktopweb": {
        "@class": "com.kony.gen.viz.model.component.property.textbox2.DesktopWebTextBox2Property",
        "_padding_": [
            1,
            1,
            1,
            1
        ],
        "containerHeightMode": 3,
        "ide_onBeginEditing": "p2kwiet2012247642497_txtBxOTP_DESKTOPWEB_onBeginEditing_seq0",
        "ide_onEndEditing": "p2kwiet2012247642497_txtBxOTP_DESKTOPWEB_onEndEditing_seq0",
        "ide_onKeyUp": "p2kwiet2012247642497_txtBxOTP_DESKTOPWEB_onKeyUp_seq0",
        "padding": [
            1,
            1,
            1,
            1
        ],
        "paddingInPixel": false,
        "render": true
    },
    "focusskin": "sdce64cd6406424db3ed4fe47d97442d",
    "hexpand": true,
    "id": "txtBxOTP",
    "info": null,
    "isvisible": true,
    "keyboardstyle": "A",
    "keyboardtype": "A",
    "kiosk": {
        "@class": "com.kony.gen.viz.model.component.property.textbox2.KioskTextBox2Property",
        "render": true
    },
    "kuid": "p2kwiet2012247642443",
    "margininpixel": false,
    "maxtextlength": 6,
    "mode": "A",
    "name": "kony.ui.TextBox2",
    "paddinginpixel": false,
    "parent": "hbxOTPEntry",
    "pf": "frmIBDreamSAvingEdit",
    "securetextentry": false,
    "spa": {
        "@class": "com.kony.gen.viz.model.component.property.textbox2.SPATextBox2Property",
        "autoCorrect": false,
        "containerHeightMode": 3
    },
    "textinputmode": "A",
    "vexpand": false,
    "viewtype": "default",
    "wType": "TextField",
    "widgetalignment": 5
}