{
    "DNDConfig": null,
    "_enabled_": false,
    "_margin_": [
        0,
        0,
        2,
        0
    ],
    "_orientation_": 2,
    "_padding_": [
        0,
        0,
        0,
        0
    ],
    "_position_": 3,
    "_resize_": true,
    "_skin_": "sa53654b4113418f8dcb6d569eb3ef8f",
    "allboxes": [],
    "borderCollapse": false,
    "canUpdateUI": true,
    "children": [
        "label474288733625",
        "hbox86679531838296",
        "line86679531838294",
        "hbox867540093721088",
        "line867540093720972",
        "hbox867539227681733",
        "line867539227681731",
        "hbox867540093721112",
        "line867540093720958",
        "lblSetSaving",
        "hbox86682510925149",
        "line210415555958989",
        "combobox86679531842314",
        "line867540093721447",
        "line450155142483151",
        "hbxcancel"
    ],
    "containerweight": 100,
    "desktopweb": {
        "@class": "com.kony.gen.viz.model.container.property.vbox.DesktopWebVBoxProperty",
        "_margin_": [
            0,
            0,
            0,
            3
        ],
        "_padding_": [
            0,
            0,
            0,
            0
        ],
        "margin": [
            0,
            0,
            0,
            3
        ],
        "marginInPixel": false,
        "padding": [
            0,
            0,
            0,
            0
        ],
        "paddingInPixel": false,
        "render": true
    },
    "id": "vbxChequeServiceDetails",
    "info": null,
    "isvisible": true,
    "kiosk": {
        "@class": "com.kony.gen.viz.model.container.property.vbox.KioskVBoxProperty",
        "render": true
    },
    "kuid": "p2kwiet2012247642437",
    "layouttype": 0,
    "margininpixel": false,
    "name": "kony.ui.Box",
    "paddinginpixel": false,
    "parent": "hboxScreenLevel2",
    "pf": "frmIBDreamSAvingEdit",
    "spa": {
        "@class": "com.kony.gen.viz.model.container.property.vbox.SPAVBoxProperty"
    },
    "templateType": "forms",
    "wType": "VBox",
    "widgetalignment": 1
}