{
    "DNDConfig": null,
    "_enabled_": false,
    "_margin_": [
        0,
        0,
        0,
        0
    ],
    "_padding_": [
        0,
        0,
        0,
        0
    ],
    "_skin_": "se70ae2ae70d4bb7a9292f83b62d472c",
    "_text_": "",
    "canUpdateUI": true,
    "containerweight": 39,
    "contentalignment": 5,
    "desktopweb": {
        "@class": "com.kony.gen.viz.model.component.property.button.DesktopWebButtonProperty",
        "_margin_": [
            10,
            0,
            0,
            5
        ],
        "_padding_": [
            0,
            2,
            0,
            8
        ],
        "displayText": true,
        "margin": [
            10,
            0,
            0,
            5
        ],
        "marginInPixel": false,
        "padding": [
            0,
            2,
            0,
            8
        ],
        "paddingInPixel": false,
        "render": true
    },
    "displaytext": true,
    "focusskin": "s1c67171cc8444a9b4a29f412b93808c",
    "hexpand": true,
    "id": "button44914510567703",
    "ide_onClick": "p2kwiet2012247650928_button44914510567703_onClick_seq0",
    "info": null,
    "isvisible": true,
    "kiosk": {
        "@class": "com.kony.gen.viz.model.component.property.button.KioskButtonProperty",
        "render": true
    },
    "kuid": "p2kwiet2012247650926",
    "margininpixel": false,
    "name": "kony.ui.Button",
    "paddinginpixel": false,
    "parent": "hbox44747680938086",
    "pf": "popupIBOTPLocked",
    "spa": {
        "@class": "com.kony.gen.viz.model.component.property.button.SPAButtonProperty",
        "displayText": true
    },
    "texti18n": "Receipent_Cancel",
    "vexpand": false,
    "wType": "Button",
    "widgetalignment": 5
}