{
    "DNDConfig": null,
    "_enabled_": false,
    "_margin_": [
        0,
        0,
        0,
        0
    ],
    "_padding_": [
        0,
        0,
        0,
        0
    ],
    "_skin_": "s52b212331d9490da6292a9d4e217a43",
    "_text_": "Mozilla Firefox",
    "canUpdateUI": true,
    "containerweight": 9,
    "contentalignment": 5,
    "desktopweb": {
        "@class": "com.kony.gen.viz.model.component.property.link.DesktopWebLinkProperty",
        "_padding_": [
            0,
            10,
            0,
            0
        ],
        "padding": [
            0,
            10,
            0,
            0
        ],
        "paddingInPixel": false,
        "render": true
    },
    "focusskin": "s52b212331d9490da6292a9d4e217a43",
    "hexpand": true,
    "id": "link9808934127980",
    "ide_onClick": "p2kwiet2012247651117_link9808934127980_onClick_seq0",
    "info": null,
    "isvisible": true,
    "kiosk": {
        "@class": "com.kony.gen.viz.model.component.property.link.KioskLinkProperty",
        "render": true
    },
    "kuid": "p2kwiet2012247651106",
    "margininpixel": false,
    "name": "kony.ui.Link",
    "paddinginpixel": false,
    "parent": "hbxIBIE8PreLogin",
    "pf": "hdrIBIE8PreLogin",
    "spa": {
        "@class": "com.kony.gen.viz.model.component.property.link.SPALinkProperty"
    },
    "texti18n": "Mozilla",
    "vexpand": false,
    "wType": "Link",
    "widgetalignment": 4
}