{
    "@class": "com.kony.gen.viz.model.container.KVizScrollFlexForm",
    "DNDConfig": null,
    "_margin_": [
        0,
        0,
        0,
        0
    ],
    "_orientation_": 1,
    "_padding_": [
        0,
        0,
        0,
        0
    ],
    "_percent_": true,
    "_skin_": "s968b7b31d444ba081514bab5c359e2f",
    "_title_": null,
    "addWidgetsdone": false,
    "allboxes": [],
    "canUpdateUI": true,
    "children": [
        "Group0dda36f66c64f4f"
    ],
    "containerId": true,
    "containerweight": 100,
    "currentLocale": "default",
    "device": "appleWatch38",
    "displayorientation": 3,
    "enabledforidletimeout": false,
    "id": "tmpAccounts",
    "info": null,
    "initdone": false,
    "inputaccessoryviewtype": 4,
    "intransitionconfig": {
        "formTransition": "None"
    },
    "isvisible": true,
    "kuid": "cab7444d6cc8437486f193263cfbc448",
    "name": "kony.ui.Form2",
    "needappmenu": true,
    "outtransitionconfig": {
        "formTransition": "None"
    },
    "paddinginpixel": false,
    "platform": "watchos",
    "prevDevice": "appleWatch42",
    "prevPlatform": "watchos",
    "retainscrollposition": false,
    "shellCSS": "appleWatch38",
    "titleBarSkin": "s4d78696e6a449938115e90fb37d4124",
    "titlebar": true,
    "type": 3,
    "wType": "Form"
}