{
    "@class": "com.kony.gen.viz.model.component.KVizLabel",
    "DNDConfig": null,
    "_margin_": [
        1,
        1,
        1,
        1
    ],
    "_padding_": [
        0,
        0,
        0,
        0
    ],
    "_skin_": "s2cc7029cca04acea8dca7fcec2b9a11",
    "_text_": "Label",
    "_wrapping_": 2,
    "android": {
        "textStyle": {
            "letterSpacing": 0,
            "strikeThrough": false
        }
    },
    "canUpdateUI": true,
    "containerweight": 25,
    "contentalignment": 5,
    "donotUpdateContainerWeight": false,
    "id": "lblSuitability",
    "info": null,
    "ipad": {
        "psp": {
            "wrapping": 2
        }
    },
    "iphone": {
        "psp": {
            "wrapping": 2
        }
    },
    "isvisible": true,
    "kuid": "f8149865d0a747bfa9302e87e4c06f89",
    "name": "kony.ui.Label",
    "paddInPixel": [
        0,
        0,
        0,
        0
    ],
    "parent": "hbxLinks",
    "pf": "frmIBMFSuitExpiry",
    "texti18n": "MU_SB_Suitability",
    "tooltip": "",
    "wType": "Label",
    "widgetalignment": 5
}