{
    "DNDConfig": null,
    "__parentReadjusting__": false,
    "_height_": {
        "type": "string",
        "value": "65dp"
    },
    "_left_": {
        "type": "string",
        "value": "0dp"
    },
    "_margin_": [
        0,
        0,
        0,
        0
    ],
    "_orientation_": 6,
    "_padding_": [
        0,
        0,
        0,
        0
    ],
    "_percent_": true,
    "_skin_": "s1f547f481cd409fa074c90f0a6debc1",
    "_top_": {
        "type": "string",
        "value": "-2px"
    },
    "_width_": {
        "type": "string",
        "value": "100%"
    },
    "allboxes": [],
    "autogrowmode": 0,
    "canUpdateUI": true,
    "children": [
        "LabelFundName",
        "LabelUnitHolderNo"
    ],
    "clipbounds": true,
    "containerId": true,
    "containerweight": 100,
    "enablescrolling": true,
    "id": "CopyFlexContainer0aa22f29c960d4d",
    "info": null,
    "isvisible": true,
    "kuid": "j0d08dc635e64d82a816884fd99a2b66",
    "layouttype": 2,
    "name": "kony.ui.FlexContainer",
    "parent": "FlexContainerMF",
    "pf": "tempSegSelectFund",
    "snapgridsize": 10,
    "snaptogrid": true,
    "wType": "FlexContainer",
    "widgetalignment": 1,
    "zindex": 1
}