{
    "DNDConfig": null,
    "_enabled_": false,
    "_margin_": [
        0,
        0,
        0,
        0
    ],
    "_orientation_": 2,
    "_padding_": [
        1,
        1,
        1,
        1
    ],
    "_position_": 3,
    "_resize_": true,
    "_skin_": "sc250475117e433b81893fbd0bd6f5ec",
    "allboxes": [],
    "borderCollapse": false,
    "canUpdateUI": true,
    "children": [
        "hbxHeader",
        "hbxBtns",
        "hbxSuccess",
        "Fromaccount",
        "hbxFrom",
        "hbxBalanceAfterPayment",
        "headerLine",
        "hbxTo",
        "lblTransferDet",
        "hbxEasyPassCustName",
        "hbxCardBal",
        "hbxAmnt",
        "hbxFee",
        "hbxXfer",
        "hbxNote",
        "hbxTRN",
        "hbxTopupRefId",
        "hbxBtn",
        "hbxAd"
    ],
    "containerweight": 50,
    "desktopweb": {
        "@class": "com.kony.gen.viz.model.container.property.vbox.DesktopWebVBoxProperty",
        "_padding_": [
            2,
            1,
            2,
            1
        ],
        "padding": [
            2,
            1,
            2,
            1
        ],
        "paddingInPixel": false,
        "render": true
    },
    "focusskin": "sc250475117e433b81893fbd0bd6f5ec",
    "id": "vbxConfirm",
    "info": null,
    "isvisible": true,
    "kiosk": {
        "@class": "com.kony.gen.viz.model.container.property.vbox.KioskVBoxProperty",
        "render": true
    },
    "kuid": "p2kwiet2012247648852",
    "layouttype": 0,
    "margininpixel": false,
    "name": "kony.ui.Box",
    "paddinginpixel": false,
    "parent": "hboxReceipentsLevel1",
    "pf": "frmIBTopUpExecutedTxn",
    "spa": {
        "@class": "com.kony.gen.viz.model.container.property.vbox.SPAVBoxProperty"
    },
    "templateType": "forms",
    "wType": "VBox",
    "widgetalignment": 1
}