{
    "DNDConfig": null,
    "_enabled_": false,
    "_margin_": [
        0,
        0,
        0,
        0
    ],
    "_padding_": [
        0,
        3,
        0,
        3
    ],
    "_skin_": "s2d1fb16bb394fa7849f9fc9520c7daf",
    "_text_": "",
    "canUpdateUI": true,
    "containerweight": 10,
    "contentalignment": 5,
    "desktopweb": {
        "@class": "com.kony.gen.viz.model.component.property.button.DesktopWebButtonProperty",
        "displayText": true,
        "render": true
    },
    "displaytext": true,
    "focusskin": "s2d1fb16bb394fa7849f9fc9520c7daf",
    "hexpand": true,
    "id": "btnemail",
    "ide_onClick": "p2kwiet2012247641860_btnemail_onClick_seq0",
    "info": null,
    "isvisible": true,
    "kiosk": {
        "@class": "com.kony.gen.viz.model.component.property.button.KioskButtonProperty",
        "render": true
    },
    "kuid": "p2kwiet2012247641804",
    "margininpixel": false,
    "name": "kony.ui.Button",
    "paddinginpixel": false,
    "parent": "hbxRadio",
    "pf": "frmIBContactUs",
    "spa": {
        "@class": "com.kony.gen.viz.model.component.property.button.SPAButtonProperty",
        "displayText": true
    },
    "vexpand": false,
    "wType": "Button",
    "widgetalignment": 4
}