{
    "DNDConfig": null,
    "_enabled_": false,
    "_margin_": [
        0,
        0,
        0,
        0
    ],
    "_render_": true,
    "_skin_": "s4ec3b7352174c98b14e0454f49dda12",
    "_text_": "TextArea2",
    "autocapitalize": "none",
    "autocomplete": false,
    "autocorrect": false,
    "autofilter": false,
    "canUpdateUI": true,
    "closebuttontext": "",
    "containerweight": 100,
    "contentalignment": 1,
    "desktopweb": {
        "@class": "com.kony.gen.viz.model.component.property.textarea2.DesktopWebTextArea2Property",
        "_padding_": [
            3,
            0,
            0,
            0
        ],
        "padding": [
            3,
            0,
            0,
            0
        ],
        "paddingInPixel": false,
        "psp": {
            "hoverSkin": "s9a3eac2a571479eb712da186314a22f"
        },
        "render": true
    },
    "focusskin": "s9a3eac2a571479eb712da186314a22f",
    "hexpand": true,
    "id": "tbxMessage",
    "info": null,
    "isvisible": true,
    "keyboardactionlabel": "",
    "keyboardstyle": "A",
    "keyboardtype": "A",
    "kiosk": {
        "@class": "com.kony.gen.viz.model.component.property.textarea2.KioskTextArea2Property",
        "render": true
    },
    "kuid": "p2kwiet2012247641812",
    "margininpixel": false,
    "maxtextlength": 4000,
    "mode": "A",
    "name": "kony.ui.TextArea2",
    "numberofvisiblelines": 2,
    "parent": "vbxConfirm",
    "pf": "frmIBContactUs",
    "securetextentry": false,
    "showclosebutton": false,
    "showoprogressindicator": true,
    "showprogressindicator": false,
    "spa": {
        "@class": "com.kony.gen.viz.model.component.property.textarea2.SPATextArea2Property",
        "autoCorrect": false
    },
    "texti18n": "cnt_textMessage",
    "textinputmode": "A",
    "vexpand": false,
    "viewtype": "default",
    "wType": "TextArea",
    "widgetalignment": 5
}