{
    "@class": "com.kony.gen.viz.model.container.KVizVBox",
    "DNDConfig": null,
    "__markedForDelete__": true,
    "_margin_": [
        0,
        0,
        0,
        0
    ],
    "_orientation_": 2,
    "_padding_": [
        0,
        0,
        0,
        0
    ],
    "_percent_": true,
    "_position_": 3,
    "_skin_": "s0e13ed4077f481ab090dae6b2e595ed",
    "allboxes": [],
    "canUpdateUI": true,
    "children": [
        "lblEffDate",
        "lblEffDateVal"
    ],
    "containerweight": 100,
    "contextmenu": null,
    "id": "CopyVBox0c9c969085d2c4e",
    "info": null,
    "isvisible": true,
    "kuid": "j2c32d9fcb1840e08392d5665cdced89",
    "layouttype": 0,
    "name": "kony.ui.Box",
    "paddInPixel": [
        0,
        0,
        0,
        0
    ],
    "parent": "CopyHBox0jf86c9a4aa8141",
    "pf": "frmIBMFComplete",
    "wType": "VBox",
    "widgetalignment": 1
}