{
    "@class": "com.kony.gen.viz.model.container.KVizHBox",
    "DNDConfig": null,
    "__markedForDelete__": true,
    "_margin_": [
        0,
        0,
        0,
        0
    ],
    "_orientation_": 1,
    "_padding_": [
        0,
        0,
        0,
        0
    ],
    "_percent_": true,
    "_position_": 3,
    "_skin_": "s3240d32b9a74cc78d1e0768cd2cdf1b",
    "allboxes": [],
    "canUpdateUI": true,
    "children": [
        "CopyVBox0c9c969085d2c4e"
    ],
    "containerweight": 100,
    "contextmenu": null,
    "id": "CopyHBox0jf86c9a4aa8141",
    "info": null,
    "isvisible": true,
    "kuid": "d8bb637190ad4aecbec83ed772c30b3d",
    "layouttype": 0,
    "margininpixel": false,
    "name": "kony.ui.Box",
    "parent": "VBox0e116b069c08d4d",
    "pf": "frmIBMFComplete",
    "wType": "HBox",
    "widgetalignment": 1
}