{
    "@class": "com.kony.gen.viz.model.container.KVizVBox",
    "DNDConfig": null,
    "__markedForDelete__": true,
    "_margin_": [
        0,
        0,
        0,
        0
    ],
    "_orientation_": 2,
    "_padding_": [
        0,
        0,
        0,
        0
    ],
    "_percent_": true,
    "_position_": 3,
    "_skin_": "s0e13ed4077f481ab090dae6b2e595ed",
    "allboxes": [],
    "canUpdateUI": true,
    "children": [
        "lblpaymentmethod",
        "lblpaymentmethodval",
        "CopyLine0da4b92b5429b40"
    ],
    "containerweight": 100,
    "contextmenu": null,
    "id": "CopyVBox0g014dfca89e44c",
    "info": null,
    "isvisible": true,
    "kuid": "caf9f96853f94d3592d56625660f37cf",
    "layouttype": 0,
    "name": "kony.ui.Box",
    "paddInPixel": [
        0,
        0,
        0,
        0
    ],
    "parent": "HBoxPaymentMethod",
    "pf": "frmIBMFComplete",
    "wType": "VBox",
    "widgetalignment": 1
}