{
    "@class": "com.kony.gen.viz.model.component.KVizLine",
    "DNDConfig": null,
    "_margin_": [
        0,
        1,
        0,
        0
    ],
    "_padding_": [
        0,
        0,
        0,
        0
    ],
    "_skin_": "s39db7d025404e4b94521036cef4b99f",
    "_thickness_": 1,
    "canUpdateUI": true,
    "containerWeightLocked": false,
    "containerweight": 100,
    "id": "CopyLine0da4b92b5429b40",
    "info": null,
    "isvisible": true,
    "kuid": "i6c3004e542d4e9497adc1053da2396a",
    "margininpixel": false,
    "name": "kony.ui.Line",
    "parent": "CopyVBox0g014dfca89e44c",
    "pf": "frmIBMFComplete",
    "wType": "Line"
}