{
    "@class": "com.kony.gen.viz.model.container.KVizVBox",
    "DNDConfig": null,
    "__markedForDelete__": true,
    "_margin_": [
        0,
        0,
        0,
        0
    ],
    "_orientation_": 2,
    "_padding_": [
        0,
        0,
        0,
        0
    ],
    "_percent_": true,
    "_position_": 3,
    "_skin_": "s0e13ed4077f481ab090dae6b2e595ed",
    "allboxes": [],
    "canUpdateUI": true,
    "children": [
        "LabelSettleDate",
        "LabelSettleDateVal",
        "CopyLine0c5a92ff547734c"
    ],
    "containerweight": 100,
    "contextmenu": null,
    "id": "CopyVBox0be820e40e4fe4d",
    "info": null,
    "isvisible": true,
    "kuid": "ad53414640c24e87ae658b9195b7b6a0",
    "layouttype": 0,
    "name": "kony.ui.Box",
    "paddInPixel": [
        0,
        0,
        0,
        0
    ],
    "parent": "HBoxMFSettleDate",
    "pf": "frmIBMFComplete",
    "wType": "VBox",
    "widgetalignment": 1
}