{
    "@class": "com.kony.gen.viz.model.container.KVizVBox",
    "DNDConfig": null,
    "__markedForDelete__": true,
    "_margin_": [
        0,
        0,
        0,
        0
    ],
    "_orientation_": 2,
    "_padding_": [
        0,
        0,
        0,
        0
    ],
    "_percent_": true,
    "_position_": 3,
    "_skin_": "s0e13ed4077f481ab090dae6b2e595ed",
    "allboxes": [],
    "canUpdateUI": true,
    "children": [
        "lblTranOrdDate",
        "lblTranOrdDateVal",
        "Line0ac24b975dc1d43"
    ],
    "containerweight": 100,
    "contextmenu": null,
    "id": "CopyVBox0ga3b79ba5e714a",
    "info": null,
    "isvisible": true,
    "kuid": "aabb08f711be460e85b5f3f3e5c2fa87",
    "layouttype": 0,
    "name": "kony.ui.Box",
    "parent": "CopyHBox0j176ded05beb46",
    "pf": "frmIBMFComplete",
    "wType": "VBox",
    "widgetalignment": 1
}