{
    "@class": "com.kony.gen.viz.model.component.KVizImage2",
    "DNDConfig": null,
    "_base64_": null,
    "_margin_": [
        0,
        10,
        0,
        0
    ],
    "_padding_": [
        0,
        0,
        0,
        0
    ],
    "_skin_": "s55d8a5125e74bb0b2eaca75c423dae1",
    "_src_": "icon_notcomplete.png",
    "canUpdateUI": true,
    "containerweight": 100,
    "context": {
        "channel": "desktop",
        "ispercent": true,
        "platform": "desktopweb",
        "templateType": "forms",
        "topLevelBox": false
    },
    "id": "Image0dbe37640705144",
    "imagescalemode": 1,
    "info": null,
    "invokedProperty": "src",
    "ispercent": true,
    "isvisible": true,
    "kuid": "b0548763b5724097a4d282baaa84bee5",
    "margininpixel": false,
    "name": "kony.ui.Image2",
    "parent": "VBox0h0402196d04e40",
    "pf": "frmIBMFComplete",
    "srcType": 1,
    "wType": "Image",
    "widgetalignment": 5
}