{
    "@class": "com.kony.gen.viz.model.component.KVizLabel",
    "DNDConfig": null,
    "__markedForDelete__": true,
    "_margin_": [
        5,
        1,
        1,
        0
    ],
    "_padding_": [
        0,
        0,
        0,
        0
    ],
    "_skin_": "s7386d125d194186a8f550ddfec1ec77",
    "_text_": "Effective Date",
    "_wrapping_": 2,
    "android": {
        "textStyle": {
            "letterSpacing": 0,
            "strikeThrough": false
        }
    },
    "canUpdateUI": true,
    "containerweight": 100,
    "contentalignment": 4,
    "id": "lblEffDate",
    "info": null,
    "ipad": {
        "psp": {
            "wrapping": 2
        }
    },
    "iphone": {
        "psp": {
            "wrapping": 2
        }
    },
    "isvisible": true,
    "kuid": "a1693fa85d664d54903ca804586967f1",
    "margininpixel": false,
    "name": "kony.ui.Label",
    "parent": "CopyVBox0c9c969085d2c4e",
    "pf": "frmIBMFComplete",
    "tooltip": "",
    "wType": "Label"
}