{
    "@class": "com.kony.gen.viz.model.component.KVizLabel",
    "DNDConfig": null,
    "__markedForDelete__": true,
    "_margin_": [
        5,
        1,
        1,
        0
    ],
    "_padding_": [
        0,
        0,
        0,
        0
    ],
    "_skin_": "s7386d125d194186a8f550ddfec1ec77",
    "_text_": "Transaction Reference Number:",
    "_wrapping_": 2,
    "android": {
        "textStyle": {
            "letterSpacing": 0,
            "strikeThrough": false
        }
    },
    "canUpdateUI": true,
    "containerweight": 100,
    "contentalignment": 4,
    "id": "lblTransRef",
    "info": null,
    "ipad": {
        "psp": {
            "wrapping": 2
        }
    },
    "iphone": {
        "psp": {
            "wrapping": 2
        }
    },
    "isvisible": true,
    "kuid": "f28b785549e8451d872303bf5235689e",
    "margininpixel": false,
    "name": "kony.ui.Label",
    "parent": "CopyVBox0gf70d90d423f44",
    "pf": "frmIBMFComplete",
    "tooltip": "",
    "wType": "Label",
    "widgetalignment": 5
}