{
    "@class": "com.kony.gen.viz.model.component.KVizLabel",
    "DNDConfig": null,
    "__markedForDelete__": true,
    "_margin_": [
        5,
        0,
        1,
        1
    ],
    "_padding_": [
        0,
        0,
        0,
        0
    ],
    "_skin_": "se0ce00ec02e4927973d6171600a8a8e",
    "_text_": "07 June 2017",
    "_wrapping_": 2,
    "android": {
        "textStyle": {
            "letterSpacing": 0,
            "strikeThrough": false
        }
    },
    "canUpdateUI": true,
    "containerweight": 100,
    "contentalignment": 4,
    "id": "lblTranOrdDateVal",
    "info": null,
    "ipad": {
        "psp": {
            "wrapping": 2
        }
    },
    "iphone": {
        "psp": {
            "wrapping": 2
        }
    },
    "isvisible": true,
    "kuid": "b641aeec7daf4350a399cc436ad05f75",
    "margininpixel": false,
    "name": "kony.ui.Label",
    "parent": "CopyVBox0ga3b79ba5e714a",
    "pf": "frmIBMFComplete",
    "tooltip": "",
    "wType": "Label"
}