{
    "@class": "com.kony.gen.viz.model.component.KVizLine",
    "DNDConfig": null,
    "_margin_": [
        0,
        1,
        0,
        0
    ],
    "_padding_": [
        0,
        0,
        0,
        0
    ],
    "_skin_": "s39db7d025404e4b94521036cef4b99f",
    "_thickness_": 1,
    "canUpdateUI": true,
    "containerWeightLocked": false,
    "containerweight": 100,
    "id": "Line0b7eae55c48f545",
    "info": null,
    "isvisible": true,
    "kuid": "aa001757e31c44beb8983df7405e90ad",
    "margininpixel": false,
    "name": "kony.ui.Line",
    "parent": "VBox0f3da940daac64b",
    "pf": "frmIBMFComplete",
    "wType": "Line"
}