{
    "@class": "com.kony.gen.viz.model.container.KVizScrollFlexForm",
    "DNDConfig": null,
    "_margin_": [
        0,
        0,
        0,
        0
    ],
    "_orientation_": 1,
    "_padding_": [
        0,
        0,
        0,
        0
    ],
    "_percent_": true,
    "_skin_": "sc7b731970a1466d9b3222873b7eb076",
    "_title_": null,
    "addWidgetsdone": false,
    "allboxes": [],
    "android": {
        "psp": {
            "windowSoftInputMode": 2
        }
    },
    "bounces": false,
    "canUpdateUI": true,
    "children": [
        "flxHeader",
        "FlexScrollContainer0ea78177032bd44"
    ],
    "containerweight": 100,
    "controllerInfo": {
        "default": {
            "channel": "mobile"
        }
    },
    "currentLocale": "default",
    "desktopweb": {
        "needAppMenu": false
    },
    "device": "GalaxyS5",
    "displayorientation": 1,
    "enabledforidletimeout": true,
    "enablescrolling": false,
    "id": "frmCardlesswithdrawTermincateCode",
    "ide_init": "AS_Form_b8808993721b45bdaab75092ac102a11",
    "ide_postShow": "AS_Form_g7e1b1af4ac04977a0c6fb4fd16ad12e",
    "ide_preShow": "AS_Form_e0b97165d07a43c28ce49f0c5654a614",
    "info": null,
    "initdone": false,
    "inputaccessoryviewtype": 4,
    "ipad": {
        "psp": {
            "inputAccessoryViewType": 4
        }
    },
    "iphone": {
        "psp": {
            "inputAccessoryViewType": 4,
            "titleBarAttributes": {
                "barStyle": 0,
                "hidesBackButton": true,
                "kuid": "e59ef17f73044719b8839c029973a336",
                "leftBarButtonItems": [
                    {
                        "kuid": "be68bb6f7a4440159cace822879971b8",
                        "leftButtonText": "Back",
                        "leftTitle": "Back",
                        "prevFormTitle": false,
                        "titleBarLeftSideView": "button",
                        "type": 4
                    }
                ],
                "leftItemsSupplementBackButton": true,
                "prompt": "",
                "renderTitleText": true,
                "rightBarButtonItems": [
                    {
                        "enabled": true,
                        "info": {
                            "title": "Edit"
                        },
                        "kuid": "cb0490435d344e8d8bfe448b3da3fe55",
                        "style": 0,
                        "tintColor": "333333ff",
                        "type": 1
                    }
                ],
                "tintColor": "333333ff",
                "translucent": true
            }
        },
        "titleBar": false
    },
    "isvisible": true,
    "kuid": "j7d5431303ab44f8a6db630276136f0f",
    "layouttype": 2,
    "name": "kony.ui.Form2",
    "needappmenu": true,
    "paddinginpixel": false,
    "platform": "android",
    "prevDevice": "iPhoneX",
    "prevPlatform": "iphone",
    "retainscrollposition": false,
    "shellCSS": "and_GalaxyS5",
    "snapgridsize": 10,
    "snaptogrid": true,
    "titleBarSkin": "s4d78696e6a449938115e90fb37d4124",
    "titlebar": true,
    "type": 3,
    "wType": "Form"
}