{
    "@class": "com.kony.gen.viz.model.container.KVizVBox",
    "DNDConfig": null,
    "_margin_": [
        0,
        0,
        0,
        0
    ],
    "_orientation_": 2,
    "_padding_": [
        0,
        0,
        0,
        0
    ],
    "_percent_": true,
    "_position_": 3,
    "_skin_": "s0e13ed4077f481ab090dae6b2e595ed",
    "allboxes": [],
    "canUpdateUI": true,
    "children": [
        "lineAccessPin"
    ],
    "containerweight": 100,
    "contextmenu": null,
    "id": "VBox0hed42a7a3d0943",
    "info": null,
    "iscustomlayout": false,
    "isvisible": true,
    "kuid": "i11d32fa73184de6b559786d3c3242cd",
    "layouttype": 0,
    "name": "kony.ui.Box",
    "paddInPixel": [
        0,
        0,
        0,
        0
    ],
    "parent": "HBox0d16e54a11a3741",
    "pf": "frmBillPaymentConfirmationFuture",
    "retaincontentalignment": false,
    "retainflexpositionproperties": false,
    "templateType": "forms",
    "wType": "VBox",
    "widgetalignment": 1
}