{
    "DNDConfig": null,
    "_enabled_": false,
    "_margin_": [
        0,
        0,
        0,
        0
    ],
    "_orientation_": 1,
    "_percent_": true,
    "_position_": 3,
    "_resize_": true,
    "_skin_": "s3cd729155364efe97d4fcd79c72daf8",
    "allboxes": [],
    "borderCollapse": false,
    "canUpdateUI": true,
    "children": [
        "lblChargeTo",
        "image2867539252331117"
    ],
    "containerweight": 100,
    "desktopweb": {
        "@class": "com.kony.gen.viz.model.container.property.hbox.DesktopWebHBoxProperty",
        "_padding_": [
            0,
            2,
            0,
            2
        ],
        "_position_": 3,
        "padding": [
            0,
            2,
            0,
            2
        ],
        "paddingInPixel": false,
        "position": 3,
        "psp": {
            "hoverSkin": "sf0f9ab93aee4f4085f657fd4e4c8bf0"
        },
        "render": true
    },
    "focusskin": "sf0f9ab93aee4f4085f657fd4e4c8bf0",
    "id": "hbxLblChargeTo",
    "info": null,
    "isvisible": true,
    "kiosk": {
        "@class": "com.kony.gen.viz.model.container.property.hbox.KioskHBoxProperty",
        "_position_": 3,
        "position": 3,
        "render": true
    },
    "kuid": "p2kwiet2012247639331",
    "layoutalignment": 3,
    "layouttype": 0,
    "margininpixel": false,
    "name": "kony.ui.Box",
    "parent": "vbxInputBillerDetails",
    "pf": "frmIBBeepAndBillApplyCW",
    "spa": {
        "@class": "com.kony.gen.viz.model.container.property.hbox.SPAHBoxProperty"
    },
    "templateType": "forms",
    "wType": "HBox",
    "widgetalignment": 1
}