{
    "DNDConfig": null,
    "__parentReadjusting__": false,
    "_height_": {
        "type": "ref",
        "value": "preferred"
    },
    "_left_": {
        "type": "string",
        "value": "0dp"
    },
    "_margin_": [
        0,
        0,
        0,
        0
    ],
    "_orientation_": 6,
    "_padding_": [
        0,
        0,
        0,
        0
    ],
    "_percent_": true,
    "_skin_": "s4e4a93dc3bb42cfbd8eaf003f506c1a",
    "_top_": {
        "type": "string",
        "value": "8dp"
    },
    "_width_": {
        "type": "string",
        "value": "100%"
    },
    "allboxes": [],
    "autogrowmode": 1,
    "canUpdateUI": true,
    "children": [
        "LabelTranOrdDate",
        "LabelTranOrdDateVal"
    ],
    "clipbounds": true,
    "containerweight": 100,
    "enablescrolling": true,
    "id": "CopyFlexMFNumber0756a2074565c41",
    "info": null,
    "isvisible": true,
    "kuid": "f6900e3f9c03451a9403c63a745d9838",
    "layouttype": 4,
    "name": "kony.ui.FlexContainer",
    "parent": "CopyFlexDetailsHeader0b2241c0097fa47",
    "pf": "frmMFConfirmMB",
    "snapgridsize": 10,
    "snaptogrid": true,
    "wType": "FlexContainer",
    "widgetalignment": 1,
    "zindex": 1
}