{
    "@class": "com.kony.gen.viz.model.container.KVizScrollFlexForm",
    "DNDConfig": null,
    "_margin_": [
        0,
        0,
        0,
        0
    ],
    "_orientation_": 1,
    "_padding_": [
        0,
        0,
        0,
        0
    ],
    "_percent_": true,
    "_skin_": "s2e9a149e24543abae3369a722b3dbcc",
    "_title_": null,
    "addWidgetsdone": false,
    "allboxes": [],
    "android": {
        "needAppMenu": false,
        "psp": {
            "windowSoftInputMode": 2
        }
    },
    "canUpdateUI": true,
    "children": [
        "FlexContainer0a310fd6d366240"
    ],
    "containerweight": 100,
    "currentLocale": "default",
    "desktopweb": {
        "needAppMenu": false
    },
    "device": "iPhoneX",
    "displayorientation": 1,
    "enabledforidletimeout": true,
    "id": "frmMFConfirmMB",
    "ide_init": "AS_Form_03426380ede04bc5a4ba6165cb957556",
    "info": null,
    "initdone": false,
    "inputaccessoryviewtype": 4,
    "ipad": {
        "psp": {
            "inputAccessoryViewType": 4
        }
    },
    "iphone": {
        "needAppMenu": false,
        "psp": {
            "inputAccessoryViewType": 4,
            "titleBarAttributes": {
                "barStyle": 0,
                "hidesBackButton": true,
                "kuid": "f3455173cd924f22b1571c402cebd479",
                "leftBarButtonItems": [
                    {
                        "kuid": "ad95f316875148a79299debff6c893eb",
                        "leftButtonText": "Back",
                        "leftTitle": "Back",
                        "prevFormTitle": false,
                        "titleBarLeftSideView": "button",
                        "type": 4
                    }
                ],
                "leftItemsSupplementBackButton": true,
                "prompt": "",
                "renderTitleText": true,
                "rightBarButtonItems": [
                    {
                        "enabled": true,
                        "info": {
                            "title": "Edit"
                        },
                        "kuid": "cb4253d6966d44739af137df1f6a44f0",
                        "style": 0,
                        "tintColor": "333333ff",
                        "type": 1
                    }
                ],
                "tintColor": "333333ff",
                "translucent": true
            }
        },
        "titleBar": false
    },
    "isvisible": true,
    "kuid": "e674a4047cbc499daf05e7361d677f58",
    "layouttype": 2,
    "name": "kony.ui.Form2",
    "needappmenu": true,
    "paddinginpixel": false,
    "platform": "iphone",
    "prevDevice": "GalaxyNote",
    "prevPlatform": "android",
    "retainscrollposition": false,
    "shellCSS": "iOS_iPhoneX",
    "snapgridsize": 10,
    "snaptogrid": true,
    "spaan": {
        "needAppMenu": true
    },
    "spabb": {
        "needAppMenu": true
    },
    "spaip": {
        "needAppMenu": true
    },
    "spawinphone8": {
        "needAppMenu": true
    },
    "titleBarSkin": "s4d78696e6a449938115e90fb37d4124",
    "titlebar": true,
    "type": 3,
    "wType": "Form",
    "winphone8": {
        "needAppMenu": false
    }
}