{
    "@class": "com.kony.gen.viz.model.component.KVizButton",
    "DNDConfig": null,
    "__parentReadjusting__": false,
    "_height_": {
        "type": "string",
        "value": "100%"
    },
    "_margin_": [
        6,
        6,
        6,
        6
    ],
    "_padding_": [
        5,
        0,
        0,
        0
    ],
    "_skin_": "sc1c6d943f5c4644879aed96ec02ef36",
    "_text_": "",
    "_width_": {
        "type": "string",
        "value": "100%"
    },
    "canUpdateUI": true,
    "centerx": {
        "type": "string",
        "value": "50.38%"
    },
    "centery": {
        "type": "string",
        "value": "50.00%"
    },
    "containerweight": 100,
    "contentalignment": 4,
    "displaytext": true,
    "focusskin": "sdbdf25054bb4c5fb084dfb4ca9d4afb",
    "id": "btnReason3",
    "ide_onClick": "AS_Button_jc7b9ea9822d412a840780a5b03feeff",
    "info": null,
    "iphone": {
        "psp": {
            "showProgressIndicator": false
        }
    },
    "isvisible": true,
    "kuid": "dbc796ab15ad4f87bae11adbbba2ee82",
    "name": "kony.ui.Button",
    "paddinginpixel": false,
    "parent": "flxReason3",
    "pf": "frmUVTransRejectMenu",
    "texti18n": "Reject_txtFlex03",
    "wType": "Button",
    "zindex": 1
}