{
    "@class": "com.kony.gen.viz.model.component.KVizCustom",
    "DNDConfig": null,
    "__parentReadjusting__": false,
    "_height_": {
        "type": "string",
        "value": "100%"
    },
    "_left_": {
        "type": "number",
        "value": "0"
    },
    "_margin_": [
        0,
        0,
        0,
        0
    ],
    "_padding_": [
        0,
        0,
        0,
        0
    ],
    "_top_": {
        "type": "number",
        "value": "0"
    },
    "_width_": {
        "type": "string",
        "value": "100%"
    },
    "android": {
        "render": false
    },
    "canUpdateUI": true,
    "containerweight": 0,
    "customProperties": {
        "ide_scanResult": "AS_TPW_icbd477fd91c40508701b3b6212084fd"
    },
    "cwEvents": [
        "scanResult",
        "noCameraPermission"
    ],
    "cwid": "jsRCCustomWidget186679000911",
    "desktopweb": {
        "render": false
    },
    "id": "customWidgetiOS",
    "info": null,
    "isvisible": true,
    "kiosk": {
        "render": false
    },
    "kuid": "a6b572951204476ba9d642e07e330352",
    "name": "BarcodeScanner-CustomWidgets",
    "nameSpaceIndex": 0,
    "parent": "flexQRWidget",
    "pf": "frmscanqrLanding",
    "platformKey": "ios",
    "spaan": {
        "render": false
    },
    "spaandroidtablet": {
        "render": false
    },
    "spabb": {
        "render": false
    },
    "spaip": {
        "render": false
    },
    "spaipad": {
        "render": false
    },
    "spawindowstablet": {
        "render": false
    },
    "spawinphone8": {
        "render": false
    },
    "tabrcandroid": {
        "render": false
    },
    "wType": "TPW",
    "watchos": {
        "render": false
    },
    "widgetIndex": 0,
    "windows10": {
        "render": false
    },
    "windows8": {
        "render": false
    },
    "winphone10": {
        "render": false
    },
    "winphone8": {
        "render": false
    },
    "zindex": 1
}