{
    "DNDConfig": null,
    "__parentReadjusting__": false,
    "_height_": {
        "type": "string",
        "value": "100%"
    },
    "_left_": {
        "type": "number",
        "value": "0"
    },
    "_margin_": [
        0,
        0,
        0,
        0
    ],
    "_orientation_": 6,
    "_padding_": [
        0,
        0,
        0,
        0
    ],
    "_percent_": true,
    "_skin_": "s3f29b5b36c94a5f88f053e59873d9f2",
    "_top_": {
        "type": "number",
        "value": "-1"
    },
    "_width_": {
        "type": "ref",
        "value": "preferred"
    },
    "allboxes": [],
    "autogrowmode": 0,
    "canUpdateUI": true,
    "children": [],
    "clipbounds": true,
    "containerweight": 100,
    "enablescrolling": true,
    "id": "flexQrBorder",
    "info": null,
    "isvisible": true,
    "kuid": "cb8778e611324a8d91477ce04e21d91f",
    "layouttype": 2,
    "name": "kony.ui.FlexContainer",
    "parent": "FlexQRScanner",
    "pf": "frmscanqrLanding",
    "snapgridsize": 10,
    "snaptogrid": true,
    "wType": "FlexContainer",
    "widgetalignment": 1,
    "zindex": 3
}