{
    "DNDConfig": null,
    "_enabled_": false,
    "_margin_": [
        7,
        0,
        0,
        0
    ],
    "_padding_": [
        0,
        0,
        0,
        0
    ],
    "_skin_": "s973e5e2ee6b49d58a7fd24f3eef432a",
    "_text_": "",
    "canUpdateUI": true,
    "containerweight": 8,
    "contentalignment": 5,
    "desktopweb": {
        "@class": "com.kony.gen.viz.model.component.property.button.DesktopWebButtonProperty",
        "_padding_": [
            0,
            40,
            0,
            8
        ],
        "displayText": true,
        "padding": [
            0,
            40,
            0,
            8
        ],
        "paddingInPixel": false,
        "render": true
    },
    "displaytext": true,
    "focusskin": "sc6b68e7e7194269b999f53f2863325c",
    "hexpand": true,
    "id": "btnScheduledTransfer",
    "ide_onClick": "p2kwiet2012247649303_btnScheduledTransfer_onClick_seq0",
    "info": null,
    "isvisible": true,
    "kiosk": {
        "@class": "com.kony.gen.viz.model.component.property.button.KioskButtonProperty",
        "render": true
    },
    "kuid": "p2kwiet2012247649213",
    "margininpixel": false,
    "name": "kony.ui.Button",
    "paddinginpixel": false,
    "parent": "hbox47679117773276",
    "pf": "frmIBTranferLP",
    "spa": {
        "@class": "com.kony.gen.viz.model.component.property.button.SPAButtonProperty",
        "displayText": true
    },
    "vexpand": false,
    "wType": "Button",
    "widgetalignment": 6
}