{
    "DNDConfig": null,
    "_enabled_": false,
    "_margin_": [
        0,
        0,
        0,
        0
    ],
    "_padding_": [
        0,
        0,
        0,
        0
    ],
    "_skin_": "s383995a163b4c2fa1400e65b7e39c08",
    "_text_": "",
    "canUpdateUI": true,
    "containerweight": 8,
    "contentalignment": 5,
    "desktopweb": {
        "@class": "com.kony.gen.viz.model.component.property.button.DesktopWebButtonProperty",
        "_margin_": [
            0,
            3,
            0,
            3
        ],
        "_padding_": [
            0,
            8,
            0,
            8
        ],
        "displayText": true,
        "margin": [
            0,
            3,
            0,
            3
        ],
        "marginInPixel": false,
        "padding": [
            0,
            8,
            0,
            8
        ],
        "paddingInPixel": false,
        "render": true
    },
    "displaytext": true,
    "focusskin": "sc3438eb616b484284f7de7f5e0b2cf8",
    "hexpand": false,
    "id": "button1011732624601",
    "ide_onClick": "p2kwiet2012247649303_button1011732624601_onClick_seq0",
    "info": null,
    "isvisible": true,
    "kiosk": {
        "@class": "com.kony.gen.viz.model.component.property.button.KioskButtonProperty",
        "render": true
    },
    "kuid": "p2kwiet2012247649136",
    "margininpixel": false,
    "name": "kony.ui.Button",
    "paddinginpixel": false,
    "parent": "hbox1011732624599",
    "pf": "frmIBTranferLP",
    "spa": {
        "@class": "com.kony.gen.viz.model.component.property.button.SPAButtonProperty",
        "displayText": true
    },
    "vexpand": false,
    "wType": "Button",
    "widgetalignment": 6
}