{
    "DNDConfig": null,
    "_enabled_": false,
    "_margin_": [
        0,
        0,
        8,
        0
    ],
    "_padding_": [
        0,
        0,
        0,
        0
    ],
    "_skin_": "s05fe76b7e8042639f17082b3c15bb33",
    "_text_": "",
    "canUpdateUI": true,
    "containerweight": 9,
    "contentalignment": 5,
    "desktopweb": {
        "@class": "com.kony.gen.viz.model.component.property.button.DesktopWebButtonProperty",
        "_padding_": [
            0,
            0,
            0,
            0
        ],
        "displayText": true,
        "padding": [
            0,
            0,
            0,
            0
        ],
        "paddingInPixel": false,
        "render": true
    },
    "displaytext": true,
    "focusskin": "sa6679f4ba39421a8ae21d6fc025e59e",
    "hexpand": true,
    "id": "button447476809946",
    "ide_onClick": "p2kwiet2012247642852_button447476809946_onClick_seq0",
    "info": null,
    "isvisible": true,
    "kiosk": {
        "@class": "com.kony.gen.viz.model.component.property.button.KioskButtonProperty",
        "render": true
    },
    "kuid": "p2kwiet2012247642769",
    "margininpixel": false,
    "name": "kony.ui.Button",
    "paddinginpixel": false,
    "parent": "hbox447476809925",
    "pf": "frmIBEditMyAccounts",
    "spa": {
        "@class": "com.kony.gen.viz.model.component.property.button.SPAButtonProperty",
        "displayText": true
    },
    "vexpand": false,
    "wType": "Button",
    "widgetalignment": 6
}