{
    "DNDConfig": null,
    "_enabled_": false,
    "_margin_": [
        0,
        0,
        0,
        0
    ],
    "_orientation_": 1,
    "_padding_": [
        3,
        1,
        0,
        1
    ],
    "_percent_": true,
    "_position_": 3,
    "_resize_": true,
    "_skin_": "s3cd729155364efe97d4fcd79c72daf8",
    "allboxes": [],
    "borderCollapse": false,
    "canUpdateUI": true,
    "children": [
        "label45021373227186",
        "vbox45021373226033",
        "vbox865721850160782"
    ],
    "containerweight": 100,
    "desktopweb": {
        "@class": "com.kony.gen.viz.model.container.property.hbox.DesktopWebHBoxProperty",
        "_padding_": [
            3,
            1,
            0,
            1
        ],
        "_position_": 3,
        "padding": [
            3,
            1,
            0,
            1
        ],
        "paddingInPixel": false,
        "position": 3,
        "render": true
    },
    "id": "hbox86858178620285",
    "info": null,
    "isvisible": true,
    "kiosk": {
        "@class": "com.kony.gen.viz.model.container.property.hbox.KioskHBoxProperty",
        "_padding_": [
            3,
            1,
            0,
            1
        ],
        "_position_": 3,
        "padding": [
            3,
            1,
            0,
            1
        ],
        "paddingInPixel": false,
        "position": 3,
        "render": true
    },
    "kuid": "p2kwiet2012247652339",
    "layoutalignment": 3,
    "layouttype": 0,
    "margininpixel": false,
    "name": "kony.ui.Box",
    "paddinginpixel": false,
    "parent": "IBExgRatesFlag",
    "pf": "IBExgRatesFlag",
    "spa": {
        "@class": "com.kony.gen.viz.model.container.property.hbox.SPAHBoxProperty"
    },
    "templateType": "forms",
    "wType": "HBox",
    "widgetalignment": 1
}