{
    "@class": "com.kony.gen.viz.model.component.KVizButton",
    "DNDConfig": null,
    "__parentReadjusting__": false,
    "_height_": {
        "type": "string",
        "value": "100%"
    },
    "_left_": {
        "type": "number",
        "value": "0"
    },
    "_margin_": [
        6,
        6,
        6,
        6
    ],
    "_padding_": [
        28,
        0,
        0,
        0
    ],
    "_skin_": "s2a7e60a8dbc43f2b9c8ee46e26fb818",
    "_text_": "To Mobile",
    "_top_": {
        "type": "number",
        "value": "0"
    },
    "_width_": {
        "type": "string",
        "value": "100%"
    },
    "canUpdateUI": true,
    "containerweight": 100,
    "contentalignment": 4,
    "disabledSkins": {},
    "displaytext": true,
    "focusskin": "s2a7e60a8dbc43f2b9c8ee46e26fb818",
    "id": "btnToMobile",
    "ide_onClick": "AS_Button_08014909287d4cdfbd4c59c1f2b49a5a",
    "info": null,
    "iphone": {
        "psp": {
            "showProgressIndicator": false
        }
    },
    "isvisible": true,
    "kuid": "c1da2ce44aff4437a2bef2563dbf982e",
    "name": "kony.ui.Button",
    "paddinginpixel": false,
    "parent": "flxToMobile",
    "pf": "frmPreTransferMB2",
    "showprogressindicator": false,
    "texti18n": "MIB_P2PToMobileLabel",
    "wType": "Button",
    "zindex": 2
}