{
    "@class": "com.kony.gen.viz.model.component.KVizImage2",
    "DNDConfig": null,
    "__parentReadjusting__": false,
    "_base64_": null,
    "_height_": {
        "type": "string",
        "value": "90%"
    },
    "_left_": {
        "type": "string",
        "value": "8%"
    },
    "_margin_": [
        0,
        0,
        0,
        0
    ],
    "_padding_": [
        0,
        0,
        0,
        0
    ],
    "_skin_": "s55d8a5125e74bb0b2eaca75c423dae1",
    "_src_": "icon_totax_white.png",
    "_width_": {
        "type": "string",
        "value": "15%"
    },
    "canUpdateUI": true,
    "centery": {
        "type": "string",
        "value": "50%"
    },
    "containerweight": 100,
    "context": {
        "channel": "mobile",
        "formID": "frmPreTransferMB2",
        "platform": "iphone",
        "templateType": "forms",
        "topLevelBox": null
    },
    "id": "imgToTaxID",
    "imagescalemode": 1,
    "imagewhenfailed": "icon_totax_white.png",
    "imagewhiledownloading": "icon_totax_white.png",
    "info": null,
    "invokedProperty": "imageWhenFailed",
    "isvisible": true,
    "kuid": "a0f0304c57c44829a3b654d3268d70a7",
    "name": "kony.ui.Image2",
    "parent": "flxToTaxID",
    "pf": "frmPreTransferMB2",
    "srcType": 1,
    "wType": "Image",
    "widgetalignment": 5,
    "zindex": 1
}