{
    "DNDConfig": null,
    "_enabled_": false,
    "_image_": "",
    "_margin_": [
        0,
        0,
        0,
        0
    ],
    "_orientation_": 0,
    "_padding_": [
        0,
        0,
        0,
        0
    ],
    "_percent_": true,
    "_position_": 3,
    "_render_": true,
    "_skin_": "s46b52a44fb84a4e92447e182d68c888",
    "allboxes": [],
    "canUpdateUI": true,
    "children": [
        "hbox5028545853970",
        "hbox47417063028486",
        "hbox47417063028462"
    ],
    "containerweight": 100,
    "desktopweb": {
        "@class": "com.kony.gen.viz.model.container.property.tab.DesktopWebTabProperty",
        "_padding_": [
            0,
            0,
            0,
            0
        ],
        "padding": [
            0,
            0,
            0,
            0
        ],
        "paddingInPixel": false,
        "psp": {
            "tabHeaderTemplateId": ""
        },
        "render": true
    },
    "id": "tab47417063027631",
    "info": null,
    "isvisible": true,
    "kiosk": {
        "@class": "com.kony.gen.viz.model.container.property.tab.KioskTabProperty",
        "render": true
    },
    "kuid": "p2kwiet2012247650683",
    "layoutalignment": 0,
    "layouttype": 0,
    "margininpixel": false,
    "name": "kony.ui.Tab",
    "oninit": null,
    "paddinginpixel": false,
    "parent": "tabpane47417063027630",
    "pf": "popupbiller",
    "spa": {
        "@class": "com.kony.gen.viz.model.container.property.tab.SPATabProperty"
    },
    "spacing": 1,
    "tabname": "My Biller",
    "wType": "Tab",
    "widgetalignment": 1
}