{
    "DNDConfig": null,
    "_enabled_": false,
    "_margin_": [
        0,
        0,
        0,
        0
    ],
    "_padding_": [
        0,
        0,
        0,
        0
    ],
    "_skin_": "s174a5fde67f46c4bf539c0ec1dfb1e6",
    "_text_": "Search",
    "autocapitalize": "none",
    "autocomplete": false,
    "autocorrect": false,
    "autofilter": false,
    "canUpdateUI": true,
    "containerheightmode": 1,
    "containerheightreference": 1,
    "containerweight": 83,
    "contentalignment": 4,
    "desktopweb": {
        "@class": "com.kony.gen.viz.model.component.property.textbox2.DesktopWebTextBox2Property",
        "_padding_": [
            1,
            1,
            1,
            1
        ],
        "containerHeightMode": 3,
        "padding": [
            1,
            1,
            1,
            1
        ],
        "paddingInPixel": false,
        "render": true
    },
    "focusskin": "s0e800f65a7e4757b6054711ce7b9898",
    "hexpand": true,
    "id": "textbox247417063034231",
    "info": null,
    "isvisible": true,
    "keyboardstyle": "A",
    "keyboardtype": "A",
    "kiosk": {
        "@class": "com.kony.gen.viz.model.component.property.textbox2.KioskTextBox2Property",
        "render": true
    },
    "kuid": "p2kwiet2012247650684",
    "margininpixel": false,
    "mode": "A",
    "name": "kony.ui.TextBox2",
    "paddinginpixel": false,
    "parent": "hbox47417063034230",
    "pf": "popupbiller",
    "securetextentry": false,
    "spa": {
        "@class": "com.kony.gen.viz.model.component.property.textbox2.SPATextBox2Property",
        "autoCorrect": false,
        "containerHeightMode": 3
    },
    "textinputmode": "A",
    "vexpand": false,
    "viewtype": "default",
    "wType": "TextField",
    "widgetalignment": 5
}