{
    "@class": "com.kony.gen.viz.model.component.KVizButton",
    "DNDConfig": null,
    "__parentReadjusting__": false,
    "_height_": {
        "type": "string",
        "value": "35dp"
    },
    "_left_": {
        "type": "string",
        "value": "2%"
    },
    "_margin_": [
        6,
        6,
        6,
        6
    ],
    "_padding_": [
        0,
        0,
        0,
        0
    ],
    "_skin_": "scc9cf0cb5cf458584a0a6e5f2c55aba",
    "_text_": "",
    "_top_": {
        "type": "string",
        "value": "6dp"
    },
    "_width_": {
        "type": "ref",
        "value": "preferred"
    },
    "canUpdateUI": true,
    "centery": {
        "type": "string",
        "value": "50%"
    },
    "containerweight": 100,
    "contentalignment": 5,
    "displaytext": true,
    "focusskin": "sabb637b5c6c46f692c99b645d04174e",
    "id": "lblFindTMB",
    "info": null,
    "iphone": {
        "psp": {
            "showProgressIndicator": false
        }
    },
    "isvisible": true,
    "kuid": "ca0e8af43280425b8cc308f597c0b783",
    "name": "kony.ui.Button",
    "parent": "flexAtm",
    "pf": "frmCardlesswithdrawComplete",
    "showprogressindicator": false,
    "texti18n": "MenuFindTMB",
    "wType": "Button",
    "zindex": 10
}