{
    "@class": "com.kony.gen.viz.model.component.KVizButton",
    "DNDConfig": null,
    "__parentReadjusting__": false,
    "_height_": {
        "type": "string",
        "value": "100%"
    },
    "_left_": {
        "type": "string",
        "value": "0dp"
    },
    "_margin_": [
        6,
        6,
        6,
        6
    ],
    "_padding_": [
        0,
        0,
        0,
        0
    ],
    "_skin_": "s51feb22c79d445f9ad29db36f315efa",
    "_text_": "1",
    "_top_": {
        "type": "string",
        "value": "0dp"
    },
    "_width_": {
        "type": "string",
        "value": "33.30%"
    },
    "canUpdateUI": true,
    "containerweight": 100,
    "contentalignment": 5,
    "displaytext": true,
    "focusskin": "sb03125d6967435d9bab3829bc2d31d6",
    "id": "Button0i9b11a0bf77f45",
    "info": null,
    "isvisible": true,
    "kuid": "d91cf55d7b304377b2deb04907bd4c39",
    "name": "kony.ui.Button",
    "parent": "FlexContainer0ie84bdfd8bc44f",
    "pf": "frmMBQRConfirm",
    "wType": "Button",
    "zindex": 1
}