{
    "DNDConfig": null,
    "__parentReadjusting__": false,
    "_height_": {
        "type": "string",
        "value": "60%"
    },
    "_left_": {
        "type": "string",
        "value": "0dp"
    },
    "_margin_": [
        0,
        0,
        0,
        0
    ],
    "_orientation_": 6,
    "_padding_": [
        0,
        0,
        0,
        0
    ],
    "_percent_": true,
    "_skin_": "sb6449ce1dc141718cc9bad90e9a7a4e",
    "_top_": {
        "type": "string",
        "value": "40%"
    },
    "_width_": {
        "type": "string",
        "value": "100%"
    },
    "allboxes": [],
    "autogrowmode": 0,
    "canUpdateUI": true,
    "children": [
        "Label0a94200da619346",
        "CopyFlexContainer0e3bb2ea25e6042",
        "CopyflxCall0a3ba94934ad549",
        "FlexContainer0dc8060af64914c"
    ],
    "clipbounds": true,
    "containerweight": 100,
    "enablescrolling": true,
    "id": "CopyFlexContainer0bd6123fa43b140",
    "info": null,
    "isvisible": true,
    "kuid": "a87580c1e0fd4990a8e11a184733951a",
    "layouttype": 4,
    "name": "kony.ui.FlexContainer",
    "parent": "flexAccessPin",
    "pf": "frmMBQRConfirm",
    "snapgridsize": 10,
    "snaptogrid": true,
    "wType": "FlexContainer",
    "widgetalignment": 1,
    "zindex": 1
}