{
    "@class": "com.kony.gen.viz.model.component.KVizButton",
    "DNDConfig": null,
    "__parentReadjusting__": false,
    "_height_": {
        "type": "string",
        "value": "100%"
    },
    "_left_": {
        "type": "string",
        "value": "0dp"
    },
    "_margin_": [
        6,
        6,
        6,
        6
    ],
    "_padding_": [
        0,
        0,
        0,
        0
    ],
    "_skin_": "s51feb22c79d445f9ad29db36f315efa",
    "_text_": "9",
    "_top_": {
        "type": "string",
        "value": "0dp"
    },
    "_width_": {
        "type": "string",
        "value": "33.30%"
    },
    "canUpdateUI": true,
    "containerweight": 100,
    "contentalignment": 5,
    "displaytext": true,
    "focusskin": "sb03125d6967435d9bab3829bc2d31d6",
    "id": "CopyButton0a72c538a5e7843",
    "info": null,
    "isvisible": true,
    "kuid": "e9670485a43f40a192ba6b5e447b4493",
    "name": "kony.ui.Button",
    "parent": "CopyFlexContainer0j15919b8933944",
    "pf": "frmMBQRConfirm",
    "wType": "Button",
    "zindex": 1
}