{
    "@class": "com.kony.gen.viz.model.component.KVizButton",
    "DNDConfig": null,
    "__parentReadjusting__": false,
    "_height_": {
        "type": "string",
        "value": "100%"
    },
    "_left_": {
        "type": "string",
        "value": "0dp"
    },
    "_margin_": [
        6,
        6,
        6,
        6
    ],
    "_padding_": [
        0,
        0,
        0,
        0
    ],
    "_skin_": "s8917c9c29c94ff4a2baa25842219014",
    "_text_": "x",
    "_top_": {
        "type": "string",
        "value": "0dp"
    },
    "_width_": {
        "type": "string",
        "value": "33.30%"
    },
    "canUpdateUI": true,
    "containerweight": 100,
    "contentalignment": 5,
    "displaytext": true,
    "focusskin": "sb03125d6967435d9bab3829bc2d31d6",
    "id": "CopyButton0i469320d888143",
    "info": null,
    "isvisible": true,
    "kuid": "d9d9f712c6954e7dbb0d063f409c693a",
    "name": "kony.ui.Button",
    "parent": "CopyFlexContainer0c2fe9f39e8f243",
    "pf": "frmMBQRConfirm",
    "wType": "Button",
    "zindex": 1
}