{
    "DNDConfig": null,
    "_enabled_": false,
    "_margin_": [
        0,
        0,
        0,
        0
    ],
    "_render_": true,
    "_skin_": "s92b0a23a43e435489f406e695c12af9",
    "_text_": "",
    "_wrapping_": 2,
    "canUpdateUI": true,
    "containerweight": 100,
    "contentalignment": 4,
    "desktopweb": {
        "@class": "com.kony.gen.viz.model.component.property.richtext.DesktopWebRichTextProperty",
        "_padding_": [
            0,
            0,
            0,
            0
        ],
        "padding": [
            0,
            0,
            0,
            0
        ],
        "paddingInPixel": false,
        "render": true
    },
    "hexpand": true,
    "id": "richTxtLnkdAcctHidden",
    "info": null,
    "isvisible": false,
    "kiosk": {
        "@class": "com.kony.gen.viz.model.component.property.richtext.KioskRichTextProperty",
        "render": true
    },
    "kuid": "p2kwiet2012247647760",
    "margininpixel": false,
    "name": "kony.ui.RichText",
    "parent": "vbox447417227428995",
    "pf": "frmIBSSSDetails",
    "spa": {
        "@class": "com.kony.gen.viz.model.component.property.richtext.SPARichTextProperty"
    },
    "vexpand": false,
    "wType": "RichText",
    "widgetalignment": 5
}