{
    "DNDConfig": null,
    "_enabled_": false,
    "_margin_": [
        2,
        2,
        0,
        2
    ],
    "_orientation_": 1,
    "_percent_": true,
    "_position_": 3,
    "_resize_": true,
    "_skin_": "sc323970efc6416e8868ad5e7d6a0944",
    "allboxes": [],
    "borderCollapse": false,
    "canUpdateUI": true,
    "children": [
        "imgAccountPicture",
        "lblSegTMBAccntDetails",
        "imgTMBSegArrow"
    ],
    "containerweight": 100,
    "desktopweb": {
        "@class": "com.kony.gen.viz.model.container.property.hbox.DesktopWebHBoxProperty",
        "_margin_": [
            1,
            1,
            0,
            1
        ],
        "_padding_": [
            0,
            0,
            0,
            0
        ],
        "_position_": 3,
        "margin": [
            1,
            1,
            0,
            1
        ],
        "marginInPixel": false,
        "padding": [
            0,
            0,
            0,
            0
        ],
        "paddingInPixel": false,
        "position": 3,
        "psp": {
            "hoverSkin": "s34665422ce24b4998024dc79ff84b26"
        },
        "render": true
    },
    "focusskin": "s34665422ce24b4998024dc79ff84b26",
    "id": "hbox44646006666659",
    "info": null,
    "isvisible": true,
    "kiosk": {
        "@class": "com.kony.gen.viz.model.container.property.hbox.KioskHBoxProperty",
        "_position_": 3,
        "position": 3,
        "render": true
    },
    "kuid": "p2kwiet2012247643991",
    "layoutalignment": 3,
    "layouttype": 0,
    "margininpixel": false,
    "name": "kony.ui.Box",
    "parent": "vbox201224764756",
    "pf": "vbox201224764756",
    "spa": {
        "@class": "com.kony.gen.viz.model.container.property.hbox.SPAHBoxProperty"
    },
    "templateType": "forms",
    "wType": "HBox",
    "widgetalignment": 1
}