{
    "@class": "com.kony.gen.viz.model.component.KVizLabel",
    "DNDConfig": null,
    "__parentReadjusting__": false,
    "_height_": {
        "type": "string",
        "value": "41.30%"
    },
    "_left_": {
        "type": "string",
        "value": "4%"
    },
    "_margin_": [
        1,
        1,
        1,
        1
    ],
    "_padding_": [
        0,
        0,
        0,
        0
    ],
    "_skin_": "s0b8674efcfe4a7291d0d8f920ae63dc",
    "_text_": "",
    "_top_": {
        "type": "string",
        "value": "41.50%"
    },
    "_width_": {
        "type": "string",
        "value": "83%"
    },
    "_wrapping_": 2,
    "android": {
        "textStyle": {
            "letterSpacing": 0,
            "strikeThrough": false
        }
    },
    "canUpdateUI": true,
    "containerweight": 100,
    "contentalignment": 4,
    "id": "lblDistrictVal",
    "info": null,
    "ipad": {
        "psp": {
            "wrapping": 2
        }
    },
    "iphone": {
        "psp": {
            "wrapping": 2
        }
    },
    "isvisible": false,
    "kuid": "ced439ba60914cd8b60bd912266aa92c",
    "name": "kony.ui.Label",
    "parent": "flxDistrict",
    "pf": "frmeditMyProfiles",
    "textstyle": {},
    "tooltip": "",
    "wType": "Label",
    "zindex": 1
}