{
    "@class": "com.kony.gen.viz.model.component.KVizButton",
    "DNDConfig": null,
    "__parentReadjusting__": false,
    "_height_": {
        "type": "string",
        "value": "40dp"
    },
    "_left_": {
        "type": "string",
        "value": "0"
    },
    "_margin_": [
        6,
        6,
        6,
        6
    ],
    "_padding_": [
        0,
        0,
        0,
        0
    ],
    "_skin_": "s5e76ebe6aaa4d599f1bb5a2e47fce7f",
    "_text_": "",
    "_top_": {
        "type": "string",
        "value": "0"
    },
    "_width_": {
        "type": "string",
        "value": "100%"
    },
    "android": {
        "psp": {
            "pressedSkin": "s1d0ddce57244c06a790e28df91043ba"
        }
    },
    "canUpdateUI": true,
    "containerweight": 100,
    "contentalignment": 5,
    "disabledSkins": {},
    "displaytext": true,
    "focusskin": "s1d0ddce57244c06a790e28df91043ba",
    "id": "btnMonthly",
    "info": null,
    "iscustomlayout": false,
    "isvisible": true,
    "kuid": "e25df83a96f54feaab0033738f3f2f31",
    "name": "kony.ui.Button",
    "parent": "flxMonthly",
    "pf": "frmSend2SaveSchedule",
    "retaincontentalignment": false,
    "retainflexpositionproperties": false,
    "texti18n": "MB_S2SRepeatMth",
    "wType": "Button"
}