{
    "@class": "com.kony.gen.viz.model.component.KVizButton",
    "DNDConfig": null,
    "__parentReadjusting__": false,
    "_height_": {
        "type": "string",
        "value": "50dp"
    },
    "_left_": {
        "type": "string",
        "value": "0"
    },
    "_margin_": [
        6,
        6,
        6,
        6
    ],
    "_padding_": [
        0,
        0,
        0,
        0
    ],
    "_skin_": "s5e76ebe6aaa4d599f1bb5a2e47fce7f",
    "_text_": "",
    "_top_": {
        "type": "string",
        "value": "0"
    },
    "_width_": {
        "type": "string",
        "value": "100%"
    },
    "canUpdateUI": true,
    "containerweight": 100,
    "contentalignment": 5,
    "displaytext": true,
    "focusskin": "s1d0ddce57244c06a790e28df91043ba",
    "id": "btnToday",
    "info": null,
    "iscustomlayout": false,
    "isvisible": true,
    "kuid": "c1dc06c09b6b431fac22e2c199dcc18e",
    "name": "kony.ui.Button",
    "parent": "flxToday",
    "pf": "frmSend2SaveSchedule",
    "retaincontentalignment": false,
    "retainflexpositionproperties": false,
    "texti18n": "S2SToday",
    "wType": "Button"
}