{
    "DNDConfig": null,
    "__parentReadjusting__": false,
    "_height_": {
        "type": "string",
        "value": "50dp"
    },
    "_margin_": [
        0,
        0,
        0,
        0
    ],
    "_orientation_": 6,
    "_padding_": [
        0,
        0,
        0,
        0
    ],
    "_percent_": true,
    "_skin_": "s918d2c198cc4b1b99c1a0fe1f4e0370",
    "_width_": {
        "type": "string",
        "value": "100%"
    },
    "allboxes": [],
    "autogrowmode": 0,
    "canUpdateUI": true,
    "centerx": {
        "type": "string",
        "value": "50%"
    },
    "children": [
        "flxToday",
        "flxLineSection1",
        "flx1Day",
        "CopyflxLineSection0fe1ba7d57b1848",
        "flx3Day"
    ],
    "clipbounds": true,
    "containerweight": 100,
    "enablescrolling": true,
    "id": "flxSection1",
    "info": null,
    "isvisible": true,
    "kuid": "fe2d6511788948f89cfe53335a359b8b",
    "layouttype": 3,
    "name": "kony.ui.FlexContainer",
    "parent": "flxDetails",
    "pf": "frmSend2SaveSchedule",
    "snapgridsize": 10,
    "snaptogrid": true,
    "wType": "FlexContainer",
    "widgetalignment": 1,
    "zindex": 1
}