{
    "@class": "com.kony.gen.viz.model.component.KVizRichText",
    "DNDConfig": null,
    "__parentReadjusting__": false,
    "_height_": {
        "type": "ref",
        "value": "preferred"
    },
    "_left_": {
        "type": "string",
        "value": "0dp"
    },
    "_margin_": [
        0,
        0,
        0,
        0
    ],
    "_padding_": [
        0,
        0,
        0,
        0
    ],
    "_skin_": "s1e22d67dc1b46d1a814c71f6ac0deeb",
    "_text_": "\n",
    "_top_": {
        "type": "string",
        "value": "35dp"
    },
    "_width_": {
        "type": "string",
        "value": "95%"
    },
    "_wrapping_": 2,
    "canUpdateUI": true,
    "centerx": {
        "type": "string",
        "value": "50%"
    },
    "containerweight": 100,
    "contentalignment": 5,
    "id": "RichTextRemarkPin",
    "info": null,
    "iscustomlayout": false,
    "isvisible": true,
    "kuid": "c5a3804144304d7eac500465382acece",
    "linkskin": "sd8e663451a34830be64c79a9ed4878f",
    "name": "kony.ui.RichText",
    "parent": "CopyflxSubheader0c1a3e3b8c9b648",
    "pf": "frmMBeKYCCreatePinIntro",
    "retaincontentalignment": false,
    "retainflexpositionproperties": false,
    "texti18n": "eKYC_RemarkPIN",
    "wType": "RichText",
    "widgetalignment": 5,
    "zindex": 1
}