{
    "@class": "com.kony.gen.viz.model.container.KVizHBox",
    "DNDConfig": null,
    "_margin_": [
        0,
        0,
        0,
        0
    ],
    "_orientation_": 1,
    "_padding_": [
        0,
        0,
        0,
        0
    ],
    "_percent_": true,
    "_position_": 3,
    "_skin_": "s3240d32b9a74cc78d1e0768cd2cdf1b",
    "allboxes": [],
    "canUpdateUI": true,
    "children": [
        "Image0eb9f303ca0f443"
    ],
    "containerweight": 100,
    "contextmenu": null,
    "id": "btnBack",
    "info": null,
    "isvisible": true,
    "kuid": "ead255d057a54968b408589d25542dad",
    "layouttype": 0,
    "margininpixel": false,
    "name": "kony.ui.Box",
    "paddInPixel": [
        0,
        0,
        0,
        0
    ],
    "paddinginpixel": false,
    "parent": "vboxLayoutHeader",
    "pf": "frmCardlessWithdrawSelectAccount",
    "vexpand": false,
    "wType": "HBox",
    "widgetalignment": 1
}