{
    "@class": "com.kony.gen.viz.model.container.KVizHBox",
    "DNDConfig": null,
    "_margin_": [
        0,
        0,
        0,
        0
    ],
    "_orientation_": 1,
    "_padding_": [
        0,
        0,
        0,
        0
    ],
    "_percent_": true,
    "_position_": 3,
    "_skin_": "s3240d32b9a74cc78d1e0768cd2cdf1b",
    "allboxes": [],
    "canUpdateUI": true,
    "children": [
        "CopyImage0df8c5338ecc243"
    ],
    "containerweight": 100,
    "contextmenu": null,
    "id": "btnInfo",
    "info": null,
    "isvisible": true,
    "kuid": "fb5e6eda12b24625a6c291d227c50d96",
    "layouttype": 0,
    "margininpixel": false,
    "name": "kony.ui.Box",
    "paddInPixel": [
        0,
        0,
        0,
        0
    ],
    "paddinginpixel": false,
    "parent": "CopyvboxLayoutHeader0f86ffa907a1746",
    "pf": "frmCardlessWithdrawSelectAccount",
    "wType": "HBox",
    "widgetalignment": 1
}