{
    "DNDConfig": null,
    "_data_": [
        {
            "imgAccount": {
                "@class": "com.viz.ide.model.segment.ImageSegmentData",
                "src": "acc.png"
            },
            "imgRightArrow": {
                "@class": "com.viz.ide.model.segment.ImageSegmentData",
                "src": "rightarrow.jpg"
            },
            "lblAccountName": {
                "@class": "com.viz.ide.model.segment.SimpleTextSegmentData",
                "text": "Saving No Fee 5678"
            },
            "lblAmount": {
                "@class": "com.viz.ide.model.segment.SimpleTextSegmentData",
                "text": "25,000.00 B"
            },
            "lblBalance": {
                "@class": "com.viz.ide.model.segment.SimpleTextSegmentData",
                "text": "Balance"
            },
            "lblRemainingFree": {
                "@class": "com.viz.ide.model.segment.SimpleTextSegmentData",
                "text": "Remaining Free Transactions: 4"
            }
        },
        {
            "imgAccount": {
                "@class": "com.viz.ide.model.segment.ImageSegmentData",
                "src": "acc.png"
            },
            "imgRightArrow": {
                "@class": "com.viz.ide.model.segment.ImageSegmentData",
                "src": "rightarrow.jpg"
            },
            "lblAccountName": {
                "@class": "com.viz.ide.model.segment.SimpleTextSegmentData",
                "text": "Normal Saving 1234"
            },
            "lblAmount": {
                "@class": "com.viz.ide.model.segment.SimpleTextSegmentData",
                "text": "25,000,000,000.00 B"
            },
            "lblBalance": {
                "@class": "com.viz.ide.model.segment.SimpleTextSegmentData",
                "text": "Balance"
            },
            "lblRemainingFree": {
                "@class": "com.viz.ide.model.segment.SimpleTextSegmentData",
                "text": ""
            }
        }
    ],
    "_enabled_": false,
    "_indicator_": "none",
    "_margin_": [
        0,
        0,
        0,
        0
    ],
    "_orientation_": 2,
    "_padding_": [
        0,
        0,
        0,
        0
    ],
    "_skin_": "seg2Normal",
    "canUpdateUI": true,
    "containerheightreference": 1,
    "containerweight": 100,
    "context": {
        "channel": "mobile",
        "formID": "AdvancedWidgetsSegements",
        "templateType": "segments",
        "topLevelBox": false
    },
    "counter": 3,
    "desktopweb": {
        "@class": "com.kony.gen.viz.model.container.property.segment2.DesktopWebSegment2Property",
        "_padding_": [
            0,
            0,
            0,
            0
        ],
        "padding": [
            0,
            0,
            0,
            0
        ],
        "paddingInPixel": false,
        "render": true
    },
    "focusedindex": null,
    "focuseditem": null,
    "generatedtemplate": "p2kwiet2012247638486",
    "groupcells": false,
    "hasSections": false,
    "hiddencolumns": {},
    "id": "segMyAccounts",
    "ide_onRowClick": "p2kwiet2012247638483_segMyAccounts_onRowClick_seq0",
    "info": null,
    "isvisible": true,
    "kiosk": {
        "@class": "com.kony.gen.viz.model.container.property.segment2.KioskSegment2Property",
        "render": true
    },
    "kuid": "p2kwiet2012247638423",
    "layoutalignment": 3,
    "layouttype": 0,
    "margininpixel": false,
    "name": "kony.ui.SegmentedUI2",
    "needpageindicator": true,
    "paddinginpixel": false,
    "paginationconfig": {
        "position": "bottom"
    },
    "parent": "vboxAccountSummaryMain",
    "pf": "frmIBAccountSummary",
    "retainselection": false,
    "rowTemplateId": "p2kwiet2012247638486",
    "rowcounter": 2,
    "rowfocusskin": "sbbc7f0678bf4c678c40fe82030b9661",
    "rowskin": "s01e0182a4d14a4da5e4e707eafeea1b",
    "screenlevelwidget": false,
    "scrollingevents": false,
    "seccounter": 0,
    "sectionheaderskin": "s9bd6d2f2f8c4fce89dae24cc47abe06",
    "selectedRows": null,
    "selectedState": false,
    "selectedindex": null,
    "selectedindices": null,
    "selecteditems": null,
    "selectedsectionindex": 0,
    "selectionbehavior": "default",
    "selectionbehaviorconfig": {},
    "separatorcolor": "64646400",
    "separatorrequired": true,
    "separatorthickness": 1,
    "showscrollbars": false,
    "spa": {
        "@class": "com.kony.gen.viz.model.container.property.segment2.SPASegment2Property"
    },
    "viewtype": "tableview",
    "wType": "Segment",
    "widgetalignment": 1,
    "widgetdatamap": {
        "hbox501990646172927": "hbox501990646172927",
        "hbox50359936012": "hbox50359936012",
        "imgAccount": "imgAccount",
        "imgRightArrow": "imgRightArrow",
        "lblAccountName": "lblAccountName",
        "lblAmount": "lblAmount",
        "lblBalance": "lblBalance",
        "lblRemainingFree": "lblRemainingFree",
        "vbox50359936014": "vbox50359936014"
    }
}