{
    "DNDConfig": null,
    "_enabled_": false,
    "_margin_": [
        0,
        1,
        0,
        0
    ],
    "_orientation_": 2,
    "_padding_": [
        0,
        0,
        0,
        0
    ],
    "_percent_": true,
    "_position_": 3,
    "_resize_": true,
    "_skin_": "sa8c00f61daa4923a5bd013a081b3932",
    "allboxes": [],
    "canUpdateUI": true,
    "children": [
        "segRequestHistory"
    ],
    "containerheight": 60,
    "containerheightreference": 1,
    "containerweight": 100,
    "desktopweb": {
        "@class": "com.kony.gen.viz.model.container.property.scrollbox.DesktopWebScrollBoxProperty",
        "_margin_": [
            0,
            1,
            0,
            0
        ],
        "_padding_": [
            0,
            0,
            0,
            0
        ],
        "margin": [
            0,
            1,
            0,
            0
        ],
        "marginInPixel": false,
        "padding": [
            0,
            0,
            0,
            0
        ],
        "paddingInPixel": false,
        "psp": {
            "scrollArrowConfig": [
                null,
                null,
                null,
                null
            ]
        },
        "render": true
    },
    "enablescrollbypage": false,
    "id": "scrollBoxRcList",
    "info": null,
    "isvisible": true,
    "kiosk": {
        "@class": "com.kony.gen.viz.model.container.property.scrollbox.KioskScrollBoxProperty",
        "_margin_": [
            0,
            1,
            0,
            0
        ],
        "_position_": 3,
        "margin": [
            0,
            1,
            0,
            0
        ],
        "marginInPixel": false,
        "position": 3,
        "render": true
    },
    "kuid": "p2kwiet2012247645454",
    "layoutalignment": 3,
    "margininpixel": false,
    "name": "kony.ui.ScrollBox",
    "paddinginpixel": false,
    "parent": "hboxRcScrollContainer",
    "pf": "frmIBNotificationHome",
    "scrollbar": "scrollbar",
    "scrolldirection": 2,
    "scrollingevents": null,
    "showscrollbars": true,
    "spa": {
        "@class": "com.kony.gen.viz.model.container.property.scrollbox.SPAScrollBoxProperty"
    },
    "templateType": "forms",
    "totalWt": 0,
    "wType": "ScrollBox",
    "widgetalignment": 1
}