{
    "DNDConfig": null,
    "_enabled_": false,
    "_margin_": [
        0,
        0,
        0,
        0
    ],
    "_padding_": [
        3,
        0,
        0,
        0
    ],
    "_skin_": "s448600326824d79a6940df1dbfd429c",
    "_text_": "",
    "canUpdateUI": true,
    "containerweight": 100,
    "contentalignment": 4,
    "desktopweb": {
        "@class": "com.kony.gen.viz.model.component.property.link.DesktopWebLinkProperty",
        "render": true
    },
    "focusskin": "s448600326824d79a6940df1dbfd429c",
    "hexpand": true,
    "id": "lnkDreamSaving",
    "ide_onClick": "p2kwiet2012247638386_lnkDreamSaving_onClick_seq0",
    "info": null,
    "isvisible": false,
    "kiosk": {
        "@class": "com.kony.gen.viz.model.component.property.link.KioskLinkProperty",
        "render": true
    },
    "kuid": "p2kwiet2012247638353",
    "margininpixel": false,
    "name": "kony.ui.Link",
    "paddinginpixel": false,
    "parent": "vbox449290336673324",
    "pf": "frmIBAccntSummary",
    "spa": {
        "@class": "com.kony.gen.viz.model.component.property.link.SPALinkProperty"
    },
    "texti18n": "keyIBViewDreamSaving",
    "vexpand": false,
    "wType": "Link",
    "widgetalignment": 4
}