{
    "DNDConfig": null,
    "_data_": [
        {
            "imageRightArrow": {
                "@class": "com.viz.ide.model.segment.ImageSegmentData",
                "src": "bg_arrow_right.png"
            },
            "imgAccountSymbol": {
                "@class": "com.viz.ide.model.segment.ImageSegmentData",
                "src": "piggyblueico.png"
            },
            "lblAccountName": {
                "@class": "com.viz.ide.model.segment.SimpleTextSegmentData",
                "text": "Saving No Fee 5678"
            },
            "lblBalance": {
                "@class": "com.viz.ide.model.segment.SimpleTextSegmentData",
                "text": "Balance"
            },
            "lblBalanceVal": {
                "@class": "com.viz.ide.model.segment.SimpleTextSegmentData",
                "text": "25,000.00 B"
            },
            "lblRemainFree": {
                "@class": "com.viz.ide.model.segment.SimpleTextSegmentData",
                "text": "Remaining Free Transactions:"
            },
            "lblRemainFreeVal": {
                "@class": "com.viz.ide.model.segment.SimpleTextSegmentData",
                "text": "4"
            }
        }
    ],
    "_enabled_": false,
    "_indicator_": "none",
    "_margin_": [
        0,
        0,
        0,
        0
    ],
    "_orientation_": 1,
    "_padding_": [
        0,
        0,
        0,
        0
    ],
    "_skin_": "seg2Normal",
    "canUpdateUI": true,
    "containerheightreference": 1,
    "containerweight": 100,
    "context": {
        "channel": "mobile",
        "formID": "AdvancedWidgetsSegements",
        "templateType": "segments",
        "topLevelBox": false
    },
    "counter": 3,
    "desktopweb": {
        "@class": "com.kony.gen.viz.model.container.property.segment2.DesktopWebSegment2Property",
        "render": true
    },
    "focusedindex": null,
    "focuseditem": null,
    "groupcells": false,
    "hasSections": false,
    "hiddencolumns": {},
    "id": "segAccountDetails",
    "ide_onRowClick": "p2kwiet2012247638386_segAccountDetails_onRowClick_seq0",
    "info": null,
    "isvisible": true,
    "kiosk": {
        "@class": "com.kony.gen.viz.model.container.property.segment2.KioskSegment2Property",
        "render": true
    },
    "kuid": "p2kwiet2012247638355",
    "layoutalignment": 3,
    "layouttype": 0,
    "margininpixel": false,
    "name": "kony.ui.SegmentedUI2",
    "needpageindicator": true,
    "paddinginpixel": false,
    "paginationconfig": {
        "position": "bottom"
    },
    "parent": "scrollbox44557018542146",
    "pf": "frmIBAccntSummary",
    "retainselection": false,
    "rowTemplateId": "p2kwiet2012247652297",
    "rowcounter": 2,
    "rowfocusskin": "sbbc7f0678bf4c678c40fe82030b9661",
    "rowskin": "sd5206d4ecfa4df48affb6965ed39f30",
    "rowtemplate": "hbox5036590321206468",
    "screenlevelwidget": false,
    "scrollingevents": false,
    "seccounter": 0,
    "sectionheaderskin": "s9bd6d2f2f8c4fce89dae24cc47abe06",
    "selectedRows": null,
    "selectedState": false,
    "selectedindex": null,
    "selectedindices": null,
    "selecteditems": null,
    "selectedsectionindex": 0,
    "selectionbehavior": "default",
    "selectionbehaviorconfig": {},
    "separatorcolor": "64646400",
    "separatorrequired": false,
    "separatorthickness": 1,
    "showscrollbars": false,
    "spa": {
        "@class": "com.kony.gen.viz.model.container.property.segment2.SPASegment2Property"
    },
    "viewtype": "tableview",
    "wType": "Segment",
    "widgetalignment": 1,
    "widgetdatamap": {
        "hbox447413534513783": "hbox447413534513783",
        "hbox447413534513786": "hbox447413534513786",
        "hbox5036590321206468": "hbox5036590321206468",
        "imageRightArrow": "imageRightArrow",
        "imgAccountSymbol": "imgAccountSymbol",
        "lblAccountName": "lblAccountName",
        "lblBalance": "lblBalance",
        "lblBalanceVal": "lblBalanceVal",
        "lblRemainFree": "lblRemainFree",
        "lblRemainFreeVal": "lblRemainFreeVal",
        "segMyAccountSummary": "segMyAccountSummary",
        "vbox447413534513780": "vbox447413534513780"
    }
}