{
    "DNDConfig": null,
    "_enabled_": false,
    "_margin_": [
        0,
        0,
        0,
        0
    ],
    "_padding_": [
        0,
        3,
        0,
        3
    ],
    "_skin_": "sa39f37649fc4e56950fc9669b7a5787",
    "_text_": "",
    "canUpdateUI": true,
    "containerweight": 14,
    "contentalignment": 5,
    "desktopweb": {
        "@class": "com.kony.gen.viz.model.component.property.button.DesktopWebButtonProperty",
        "_margin_": [
            0,
            30,
            0,
            30
        ],
        "_padding_": [
            0,
            30,
            0,
            30
        ],
        "displayText": true,
        "margin": [
            0,
            30,
            0,
            30
        ],
        "marginInPixel": false,
        "padding": [
            0,
            30,
            0,
            30
        ],
        "paddingInPixel": false,
        "render": true
    },
    "displaytext": true,
    "focusskin": "sa39f37649fc4e56950fc9669b7a5787",
    "hexpand": true,
    "id": "btnAftrT",
    "ide_onClick": "p2kwiet2012247648010_btnAftrT_onClick_seq0",
    "info": null,
    "isvisible": true,
    "kiosk": {
        "@class": "com.kony.gen.viz.model.component.property.button.KioskButtonProperty",
        "render": true
    },
    "kuid": "p2kwiet2012247647963",
    "margininpixel": false,
    "name": "kony.ui.Button",
    "paddinginpixel": false,
    "parent": "hbox444732313789004",
    "pf": "frmIBSTSExecutedTxn",
    "spa": {
        "@class": "com.kony.gen.viz.model.component.property.button.SPAButtonProperty",
        "displayText": true
    },
    "vexpand": false,
    "wType": "Button",
    "widgetalignment": 5
}