{
    "@class": "com.kony.gen.viz.model.component.KVizTextBox2",
    "DNDConfig": null,
    "__parentReadjusting__": false,
    "_height_": {
        "type": "string",
        "value": "100%"
    },
    "_margin_": [
        0,
        0,
        0,
        0
    ],
    "_padding_": [
        3,
        0,
        0,
        0
    ],
    "_placeholder_": "",
    "_skin_": "sc2cb26381e447218401dc209440252c",
    "_text_": "0.00",
    "_width_": {
        "type": "string",
        "value": "80%"
    },
    "android": {
        "containerHeightMode": 1,
        "psp": {
            "keyboardActionLabel": 1
        }
    },
    "autocapitalize": "none",
    "autocomplete": false,
    "autocorrect": false,
    "autofilter": false,
    "canUpdateUI": true,
    "centerx": {
        "type": "string",
        "value": "50%"
    },
    "centery": {
        "type": "string",
        "value": "50%"
    },
    "containerheight": "",
    "containerheightmode": 1,
    "containerweight": 100,
    "contentalignment": 5,
    "disabledSkins": {},
    "focusskin": "sc2cb26381e447218401dc209440252c",
    "id": "tbxEnterAmount",
    "ide_onDone": "AS_TextField_aae507271ef54864af4dc9a7ad03f397",
    "ide_onTextChange": "AS_TextField_fa36ff759d744c6292e4f791d520d02e",
    "info": null,
    "iphone": {
        "containerHeightMode": 3,
        "ide_onEndEditing": "AS_TextField_bf1a8708c50f4e39897b8ab60a5dbad2",
        "onBeginEditing": "AS_TextField_ce7cb980fd3e42e7be2aa69f1b0e568a",
        "onEndEditing": "AS_TextField_ce7cb980fd3e42e7be2aa69f1b0e568a",
        "psp": {
            "closeButtonText": "Done",
            "pasteboardType": 4,
            "showClearButton": false,
            "showCloseButton": true,
            "showProgressIndicator": false
        }
    },
    "isvisible": true,
    "keyboardstyle": "number",
    "keyboardtype": "A",
    "kuid": "b6ab7fd4f36d46b5be1ff098d0a3fed3",
    "maxtextlength": 14,
    "mode": "N",
    "name": "kony.ui.TextBox2",
    "parent": "FlexContainer0h9b9ca7deeb447",
    "pasteboardtype": 1,
    "pf": "frmQRSuccess",
    "placeholderskin": "sc2cb26381e447218401dc209440252c",
    "securetextentry": false,
    "showclearbutton": false,
    "showoprogressindicator": false,
    "textinputmode": "N",
    "viewtype": "default",
    "wType": "TextField",
    "zindex": 1
}