{
    "DNDConfig": null,
    "_enabled_": false,
    "_margin_": [
        0,
        0,
        0,
        0
    ],
    "_padding_": [
        0,
        3,
        0,
        3
    ],
    "_skin_": "s2ba177a4f7a4cd692f07799d958daa3",
    "_text_": "",
    "canUpdateUI": true,
    "containerweight": 10,
    "contentalignment": 5,
    "desktopweb": {
        "@class": "com.kony.gen.viz.model.component.property.button.DesktopWebButtonProperty",
        "_margin_": [
            1,
            0,
            0,
            0
        ],
        "_padding_": [
            0,
            0,
            0,
            0
        ],
        "contentAlignment": 2,
        "displayText": true,
        "margin": [
            1,
            0,
            0,
            0
        ],
        "marginInPixel": false,
        "padding": [
            0,
            0,
            0,
            0
        ],
        "paddingInPixel": false,
        "psp": {
            "hoverSkin": "scaec5cc35034076bc4c582970c742a8"
        },
        "render": true
    },
    "displaytext": true,
    "focusskin": "scaec5cc35034076bc4c582970c742a8",
    "hexpand": true,
    "id": "btnm6",
    "ide_onClick": "p2kwiet2012247638227_btnm6_onClick_seq0",
    "info": null,
    "isvisible": true,
    "kuid": "p2kwiet2012247638191",
    "margininpixel": false,
    "name": "kony.ui.Button",
    "paddinginpixel": false,
    "parent": "hbox589578196379069",
    "pf": "frmIBAccntFullStatement",
    "spa": {
        "@class": "com.kony.gen.viz.model.component.property.button.SPAButtonProperty",
        "displayText": true
    },
    "texti18n": "key6th",
    "vexpand": false,
    "wType": "Button",
    "widgetalignment": 5
}