{
    "DNDConfig": null,
    "_enabled_": false,
    "_margin_": [
        0,
        0,
        0,
        0
    ],
    "_orientation_": 1,
    "_padding_": [
        1,
        1,
        1,
        1
    ],
    "_percent_": true,
    "_position_": 3,
    "_resize_": true,
    "_skin_": "s3cd729155364efe97d4fcd79c72daf8",
    "allboxes": [],
    "borderCollapse": false,
    "canUpdateUI": true,
    "children": [
        "lblduedate",
        "label589578196377210"
    ],
    "containerweight": 100,
    "desktopweb": {
        "@class": "com.kony.gen.viz.model.container.property.hbox.DesktopWebHBoxProperty",
        "_margin_": [
            0,
            0,
            0,
            1
        ],
        "_padding_": [
            1,
            0,
            1,
            0
        ],
        "_position_": 3,
        "margin": [
            0,
            0,
            0,
            1
        ],
        "marginInPixel": false,
        "padding": [
            1,
            0,
            1,
            0
        ],
        "paddingInPixel": false,
        "position": 3,
        "render": true
    },
    "id": "hbox589578196377206",
    "info": null,
    "isvisible": false,
    "kuid": "p2kwiet2012247638163",
    "layoutalignment": 3,
    "layouttype": 0,
    "margininpixel": false,
    "name": "kony.ui.Box",
    "paddinginpixel": false,
    "parent": "vbox589578196378186",
    "pf": "frmIBAccntFullStatement",
    "spa": {
        "@class": "com.kony.gen.viz.model.container.property.hbox.SPAHBoxProperty"
    },
    "templateType": "forms",
    "wType": "HBox",
    "widgetalignment": 1
}