{
    "DNDConfig": null,
    "_enabled_": false,
    "_margin_": [
        0,
        0,
        0,
        0
    ],
    "_padding_": [
        1,
        1,
        1,
        1
    ],
    "_skin_": "s7632ae3ff7f4e9b83ab76390a51c8f4",
    "_text_": "",
    "_wrapping_": 2,
    "canUpdateUI": true,
    "containerweight": 1,
    "contentalignment": 4,
    "desktopweb": {
        "@class": "com.kony.gen.viz.model.component.property.label.DesktopWebLabelProperty",
        "_margin_": [
            30,
            0,
            0,
            0
        ],
        "contentAlignment": 1,
        "margin": [
            30,
            0,
            0,
            0
        ],
        "marginInPixel": false,
        "psp": {
            "textCopyable": false
        },
        "render": true
    },
    "hexpand": true,
    "id": "lblactivity",
    "info": null,
    "isvisible": false,
    "kuid": "p2kwiet2012247638218",
    "margininpixel": false,
    "name": "kony.ui.Label",
    "paddinginpixel": false,
    "parent": "hbxdetails",
    "pf": "frmIBAccntFullStatement",
    "spa": {
        "@class": "com.kony.gen.viz.model.component.property.label.SPALabelProperty",
        "psp": {
            "textCopyable": false
        }
    },
    "texti18n": "keyIBMenuMyActivities",
    "tooltip": "",
    "vexpand": false,
    "wType": "Label",
    "widgetalignment": 5
}