{
    "DNDConfig": null,
    "_enabled_": false,
    "_margin_": [
        0,
        0,
        0,
        0
    ],
    "_padding_": [
        0,
        3,
        0,
        3
    ],
    "_skin_": "s700c05717074e699c5d0f1c9d977c31",
    "_text_": "",
    "canUpdateUI": true,
    "containerweight": 24,
    "contentalignment": 5,
    "desktopweb": {
        "@class": "com.kony.gen.viz.model.component.property.button.DesktopWebButtonProperty",
        "_margin_": [
            1,
            0,
            0,
            0
        ],
        "_padding_": [
            2,
            3,
            2,
            3
        ],
        "displayText": true,
        "margin": [
            1,
            0,
            0,
            0
        ],
        "marginInPixel": false,
        "padding": [
            2,
            3,
            2,
            3
        ],
        "paddingInPixel": false,
        "render": true
    },
    "displaytext": true,
    "focusskin": "sf5ab9ec15904de4b4946c646cbe80b6",
    "hexpand": true,
    "id": "button474170747310708",
    "ide_onClick": "p2kwiet2012247642265_button474170747310708_onClick_seq0",
    "info": null,
    "isvisible": true,
    "kiosk": {
        "@class": "com.kony.gen.viz.model.component.property.button.KioskButtonProperty",
        "render": true
    },
    "kuid": "p2kwiet2012247642242",
    "margininpixel": false,
    "name": "kony.ui.Button",
    "paddinginpixel": false,
    "parent": "hbxCal",
    "pf": "frmIBDateSlider",
    "spa": {
        "@class": "com.kony.gen.viz.model.component.property.button.SPAButtonProperty",
        "displayText": true
    },
    "texti18n": "MyActivitiesIB_Calender",
    "vexpand": false,
    "wType": "Button",
    "widgetalignment": 5
}