{
    "DNDConfig": null,
    "_enabled_": false,
    "_margin_": [
        0,
        0,
        0,
        0
    ],
    "_padding_": [
        0,
        0,
        0,
        0
    ],
    "_skin_": "s88c6e4bc9b14fbaa47455a3aa5af337",
    "_text_": "",
    "canUpdateUI": true,
    "containerweight": 5,
    "contentalignment": 5,
    "desktopweb": {
        "@class": "com.kony.gen.viz.model.component.property.link.DesktopWebLinkProperty",
        "_padding_": [
            0,
            0,
            0,
            10
        ],
        "padding": [
            0,
            0,
            0,
            10
        ],
        "paddingInPixel": false,
        "render": true
    },
    "focusskin": "s88c6e4bc9b14fbaa47455a3aa5af337",
    "hexpand": true,
    "id": "linknext",
    "ide_onClick": "p2kwiet2012247642265_linknext_onClick_seq0",
    "info": null,
    "isvisible": false,
    "kiosk": {
        "@class": "com.kony.gen.viz.model.component.property.link.KioskLinkProperty",
        "render": true
    },
    "kuid": "p2kwiet2012247642008",
    "margininpixel": false,
    "name": "kony.ui.Link",
    "paddinginpixel": false,
    "parent": "hbxbottom",
    "pf": "frmIBDateSlider",
    "spa": {
        "@class": "com.kony.gen.viz.model.component.property.link.SPALinkProperty"
    },
    "texti18n": "Next",
    "vexpand": false,
    "wType": "Link",
    "widgetalignment": 6
}