{
    "AS_Button_08014909287d4cdfbd4c59c1f2b49a5a": {
        "id": "AS_Button_08014909287d4cdfbd4c59c1f2b49a5a",
        "type": "ACTION_SEQUENCE",
        "params": [{
            "datatype": "collection",
            "name": "eventobject"
        }],
        "contextObj": {
            "name": "frmPreTransferMB2",
            "type": "forms",
            "platform": "",
            "KUID": "3cef5546017f49349928a571d9829490"
        },
        "language": "js",
        "actions": [{
            "id": "ADD_SNIPPET__526258d573154dfb9a0dfd352e0e68dc",
            "type": "ADD_SNIPPET",
            "codeSnippet": "gblSelTransferMode = 2;",
            "parentId": null,
            "callbackType": null
        }, {
            "id": "INVOKE_FUNCTION___d0c9929b2be844b188765d50936d62b8",
            "type": "INVOKE_FUNCTION",
            "sequenceKUID": "toTransferPageFromPreLandingPage",
            "display": "toTransferPageFromPreLandingPage",
            "inputparams": [],
            "parentId": null,
            "callbackType": null,
            "disabled": null,
            "source": "module"
        }]
    }
}