{
    "AS_Button_de6ed17354ba4726a2d83095441be1a5": {
        "id": "AS_Button_de6ed17354ba4726a2d83095441be1a5",
        "type": "ACTION_SEQUENCE",
        "params": [{
            "name": "eventobject",
            "value": "eventobject"
        }],
        "contextObj": {
            "type": "forms",
            "platform": null,
            "KUID": "h8332d8bb35c4669bfcb58cc798c3bdd"
        },
        "language": "js",
        "actions": [{
            "id": "INVOKE_FUNCTION__ide_onClick_a94479c4d7ba49179f7dd380134ba5e3",
            "type": "INVOKE_FUNCTION",
            "sequenceKUID": "handleMenuBtn",
            "display": "handleMenuBtn",
            "inputparams": [],
            "source": "module"
        }]
    }
}