{
    "AS_Button_hbefe18ff4d9433da99dda72c0d69cc6": {
        "id": "AS_Button_hbefe18ff4d9433da99dda72c0d69cc6",
        "type": "ACTION_SEQUENCE",
        "params": [{
            "name": "eventobject",
            "value": "eventobject"
        }],
        "contextObj": {
            "name": "frmMyTopUpComplete",
            "type": "forms",
            "platform": "android",
            "KUID": "d53f17d5b3ab49779a79593d60aa7ddd"
        },
        "language": "js",
        "actions": [{
            "id": "ADD_SNIPPET_ide_onClick_ie59556f85a94966a12666afaf2c8747",
            "type": "ADD_SNIPPET",
            "codeSnippet": "TMBUtil.DestroyForm(frmAddTopUpBillerconfrmtn);\n \n if(addAnotherValidValue < kony.os.toNumber(GLOBAL_MAX_BILL_COUNT))\n kony.print(\"addAnotherValidValue TRUE ------\"+ addAnotherValidValue);\n else\n kony.print(\"addAnotherValidValue FALSE------\"+ addAnotherValidValue);"
        }, {
            "id": "IF_CONDITION_ide_onClick_feaa41322ed94703aad2a1701a85558b",
            "type": "IF_CONDITION",
            "conditions": [{
                "leftValueType": "expression",
                "leftValue": "addAnotherValidValue < kony.os.toNumber(GLOBAL_MAX_BILL_COUNT) "
            }],
            "criteria": "all"
        }, {
            "id": "ADD_SNIPPET_ide_onClick_cc39d0577fa34d7294253333a1e8d27e",
            "type": "ADD_SNIPPET",
            "codeSnippet": "frmAddTopUpToMB.imgAddedBiller.src = \"\";\n frmAddTopUpToMB.lblAddbillerName.text=\"\";\n frmAddTopUpToMB.lblAddedRef1.text = kony.i18n.getLocalizedString(\"keyRef1\");\n frmAddTopUpToMB.lblAddedRef2.text = kony.i18n.getLocalizedString(\"keyRef2\");\n frmAddTopUpToMB.show();",
            "parentId": "IF_CONDITION_ide_onClick_feaa41322ed94703aad2a1701a85558b"
        }, {
            "id": "ELSE_CONDITION_ide_onClick_i5dc2c1ae6b640f0aebc1f4774723094",
            "type": "ELSE_CONDITION",
            "conditions": [],
            "criteria": "all"
        }, {
            "id": "SHOW_ALERT_ide_onClick_fe389cb3ca5c4989a2d61b7c0c5017a2",
            "type": "SHOW_ALERT",
            "alertType": "constants.ALERT_TYPE_ERROR",
            "alertTitle": "",
            "yesLabel": "Ok",
            "noLabel": "No",
            "alertMessage": "kony.i18n.getLocalizedString(\"Valid_MoreThan50\")",
            "messageType": "expression",
            "parentId": "ELSE_CONDITION_ide_onClick_i5dc2c1ae6b640f0aebc1f4774723094",
            "alertTitlei18n": "",
            "yesLabeli18n": "",
            "noLabeli18n": "",
            "alertMessagei18n": "",
            "iconPosition": "constants.ALERT_ICON_POSITION_LEFT"
        }]
    }
}