{
    "AS_Button_d5db86ca8ca64455b00bca125ed8f313": {
        "id": "AS_Button_d5db86ca8ca64455b00bca125ed8f313",
        "type": "ACTION_SEQUENCE",
        "params": [{
            "datatype": "collection",
            "name": "eventobject"
        }],
        "contextObj": {
            "name": "frmMBRTPDetailsList",
            "type": "forms",
            "platform": "",
            "KUID": "hdb7ea8238cf47c7b69e6d191504ba0d"
        },
        "language": "js",
        "actions": [{
            "id": "INVOKE_FUNCTION___f549931e5f634cc3af64281f97ad8142",
            "type": "INVOKE_FUNCTION",
            "sequenceKUID": "onClickRTPDetailsSort",
            "display": "onClickRTPDetailsSort",
            "inputparams": [],
            "parentId": null,
            "callbackType": null,
            "disabled": null,
            "source": "module"
        }]
    }
}