{
    "AS_Button_g7069a084e5341288065dcc048ed8ca6": {
        "id": "AS_Button_g7069a084e5341288065dcc048ed8ca6",
        "type": "ACTION_SEQUENCE",
        "params": [{
            "name": "eventobject",
            "value": "eventobject"
        }],
        "contextObj": {
            "name": "frmMBPreLoginAccessesPin",
            "type": "forms",
            "platform": null,
            "KUID": "c84ceb06e41d48ef86b26874268ffbda"
        },
        "language": "js",
        "actions": [{
            "id": "INVOKE_FUNCTION__ide_onClick_a7d6ca1d8bab418194e1c41eeb5c606e",
            "type": "INVOKE_FUNCTION",
            "sequenceKUID": "onClickKeyBoardButton",
            "display": "onClickKeyBoardButton",
            "inputparams": [{
                "name": "eventobject",
                "value": "eventobject"
            }],
            "source": "module"
        }]
    }
}