{
    "AS_Button_fc1491c6ae32465db9b7e80ded3714f4": {
        "id": "AS_Button_fc1491c6ae32465db9b7e80ded3714f4",
        "type": "ACTION_SEQUENCE",
        "params": [{
            "datatype": "collection",
            "name": "eventobject"
        }],
        "language": "js",
        "actions": [{
            "id": "INVOKE_FUNCTION__ide_onClick_c44abe3e5ee745bc81f17a8ce154090c",
            "type": "INVOKE_FUNCTION",
            "sequenceKUID": "showAccountSummaryFromMenu",
            "display": "showAccountSummaryFromMenu",
            "inputparams": [],
            "disabled": null,
            "source": "module"
        }]
    }
}