{
    "AS_Button_adbe7e44ffb94b4b8390323d922e5893": {
        "id": "AS_Button_adbe7e44ffb94b4b8390323d922e5893",
        "type": "ACTION_SEQUENCE",
        "params": [{
            "name": "eventobject",
            "value": "eventobject"
        }],
        "contextObj": {
            "name": "frmMBPreLoginAccessesPin",
            "type": "forms",
            "platform": null,
            "KUID": "c84ceb06e41d48ef86b26874268ffbda"
        },
        "language": "js",
        "actions": [{
            "id": "INVOKE_FUNCTION__ide_onClick_f5fa724c92974e739139f9d888233e1f",
            "type": "INVOKE_FUNCTION",
            "sequenceKUID": "onClickKeyBoardButton",
            "display": "onClickKeyBoardButton",
            "inputparams": [{
                "name": "eventobject",
                "value": "eventobject"
            }],
            "source": "module"
        }]
    }
}