{
    "AS_Button_b8d0265b3190435bb57c467ba07018a3": {
        "id": "AS_Button_b8d0265b3190435bb57c467ba07018a3",
        "type": "ACTION_SEQUENCE",
        "params": [{
            "name": "eventobject",
            "value": "eventobject"
        }],
        "language": "js",
        "actions": [{
            "id": "NAVIGATE_TO_FORM__ide_onClick_a97181487f4549338918b47ecfed8372",
            "type": "NAVIGATE_TO_FORM",
            "formId": "frmMBSoGooodProdBrief",
            "formKUID": "p2kwiet2012247633260",
            "mappings": {},
            "mappingsOrder": [],
            "parentId": "",
            "enableMappingEditor": true,
            "package": ""
        }]
    }
}