{
    "AS_Button_jfbeedb670b849a4a2ac56332cddc8db": {
        "id": "AS_Button_jfbeedb670b849a4a2ac56332cddc8db",
        "type": "ACTION_SEQUENCE",
        "params": [{
            "name": "eventobject",
            "value": "eventobject"
        }],
        "contextObj": {
            "name": "popUpAccesspinPwd",
            "type": "popups",
            "platform": null,
            "KUID": "e7ecab3f7f8445588d5e5000bd0fbd51"
        },
        "language": "js",
        "actions": [{
            "id": "INVOKE_FUNCTION__ide_onClick_c53f8b546a294e15b752489a085b8a6b",
            "type": "INVOKE_FUNCTION",
            "sequenceKUID": "onConfirmGetDeviceID",
            "display": "onConfirmGetDeviceID",
            "inputparams": [],
            "source": "module"
        }]
    }
}