{
    "AS_Button_bff502bd0fc74b12a0597ae29d33e170": {
        "id": "AS_Button_bff502bd0fc74b12a0597ae29d33e170",
        "type": "ACTION_SEQUENCE",
        "params": [{
            "datatype": "collection",
            "name": "eventobject"
        }],
        "contextObj": {
            "name": "frmUVRequestHistory",
            "type": "forms",
            "platform": null,
            "KUID": "b251ae09063544dc8d3122c821b50925"
        },
        "language": "js",
        "actions": [{
            "id": "INVOKE_FUNCTION__ide_onClick_b2b5b12e459e49a29a9012912f6f4a42",
            "type": "INVOKE_FUNCTION",
            "sequenceKUID": "navigateTofrmUVApprovalComplete",
            "display": "navigateTofrmUVApprovalComplete",
            "inputparams": [],
            "callbackType": null,
            "disabled": null,
            "source": "module"
        }]
    }
}