{
    "AS_Button_e08819020aef4b76ad69cb6960c20cd8": {
        "id": "AS_Button_e08819020aef4b76ad69cb6960c20cd8",
        "type": "ACTION_SEQUENCE",
        "params": [{
            "datatype": "collection",
            "name": "eventobject"
        }],
        "contextObj": {
            "type": "forms",
            "platform": "",
            "KUID": "e69716cc404f4563b636e42bb7f0cb2e"
        },
        "language": "js",
        "actions": [{
            "id": "INVOKE_FUNCTION___db4d7ffcc72c4f058598e7008a38a463",
            "type": "INVOKE_FUNCTION",
            "sequenceKUID": "showAccountSummaryFromMenu",
            "display": "showAccountSummaryFromMenu",
            "inputparams": [],
            "parentId": null,
            "callbackType": null,
            "disabled": null,
            "source": "module"
        }]
    }
}