{
    "AS_Button_cf7b9dee37304490b732daeeae8013c8": {
        "id": "AS_Button_cf7b9dee37304490b732daeeae8013c8",
        "type": "ACTION_SEQUENCE",
        "params": [{
            "datatype": "collection",
            "name": "eventobject"
        }],
        "language": "js",
        "actions": [{
            "id": "ADD_SNIPPET_ide_onClick_b578cf5df34d4442b6ef7bdad1d9c0e1",
            "type": "ADD_SNIPPET",
            "codeSnippet": "frmCardlesswithdrawActivation.show();\n",
            "callbackType": null
        }]
    }
}