{
    "AS_Button_f11096e57efd41eaa1b5be7c917a7e70": {
        "id": "AS_Button_f11096e57efd41eaa1b5be7c917a7e70",
        "type": "ACTION_SEQUENCE",
        "params": [{
            "name": "eventobject",
            "value": "eventobject"
        }],
        "language": "js",
        "actions": [{
            "id": "INVOKE_FUNCTION__ide_onClick_ed17e2abd6774a88a27800fc2e4c9484",
            "type": "INVOKE_FUNCTION",
            "sequenceKUID": "onClickForgotPin",
            "display": "onClickForgotPin",
            "inputparams": [],
            "source": "module"
        }]
    }
}