{
    "AS_Button_b724c9a0f1e34f9ca63a47076ab68987": {
        "id": "AS_Button_b724c9a0f1e34f9ca63a47076ab68987",
        "type": "ACTION_SEQUENCE",
        "name": "AS_ButtonApplySoGoodcreditcard",
        "params": [{
            "name": "eventobject",
            "value": "eventobject"
        }],
        "language": "js",
        "actions": [{
            "id": "INVOKE_FUNCTION___d39902a6195e4f8b836ebbb2047300d7",
            "type": "INVOKE_FUNCTION",
            "sequenceKUID": "onClickApplySoGooODLink",
            "display": "onClickApplySoGooODLink",
            "inputparams": [],
            "parentId": null,
            "source": "module"
        }]
    }
}