{
    "AS_Button_f30438409c3d4cd9882b4171c858148a": {
        "id": "AS_Button_f30438409c3d4cd9882b4171c858148a",
        "type": "ACTION_SEQUENCE",
        "params": [{
            "datatype": "collection",
            "name": "eventobject"
        }],
        "contextObj": {
            "name": "frmUVRequestHistory",
            "type": "forms",
            "platform": null,
            "KUID": "b251ae09063544dc8d3122c821b50925"
        },
        "language": "js",
        "actions": [{
            "id": "INVOKE_FUNCTION__ide_onClick_a9c2e4d4b5d549a6a57c5bc31b713852",
            "type": "INVOKE_FUNCTION",
            "sequenceKUID": "onClickBackfrmUVApprovalMB",
            "display": "onClickBackfrmUVApprovalMB",
            "inputparams": [],
            "callbackType": null,
            "disabled": null,
            "source": "module"
        }]
    }
}