{
    "AS_Button_e2945f5a037e4ceca95ced9d4aa57111": {
        "id": "AS_Button_e2945f5a037e4ceca95ced9d4aa57111",
        "type": "ACTION_SEQUENCE",
        "params": [{
            "name": "eventobject",
            "value": "eventobject"
        }, {
            "name": "context",
            "value": "context"
        }],
        "language": "js",
        "actions": [{
            "id": "INVOKE_FUNCTION__ide_onClick_c74838b2010e48c18462e7f0dc34923b",
            "type": "INVOKE_FUNCTION",
            "sequenceKUID": "onClickFATCARadioBtn",
            "display": "onClickFATCARadioBtn",
            "inputparams": [{
                "name": "eventObject",
                "value": "eventobject"
            }],
            "source": "module"
        }]
    }
}