{
    "AS_Button_b1e278b09f724cb88ac899903edba267": {
        "id": "AS_Button_b1e278b09f724cb88ac899903edba267",
        "type": "ACTION_SEQUENCE",
        "params": [{
            "datatype": "collection",
            "name": "eventobject"
        }],
        "language": "js",
        "actions": [{
            "id": "INVOKE_FUNCTION__ide_onClick_ha8dfc6243a24712a6f846ea642b1bdf",
            "type": "INVOKE_FUNCTION",
            "sequenceKUID": "onClickPassportIDButton_NormalActivation",
            "display": "onClickPassportIDButton_NormalActivation",
            "inputparams": [],
            "callbackType": null,
            "disabled": null,
            "source": "module"
        }]
    }
}