{
    "AS_Button_ifa6d93a4902413da3d6d7db4d95cf05": {
        "id": "AS_Button_ifa6d93a4902413da3d6d7db4d95cf05",
        "type": "ACTION_SEQUENCE",
        "params": [{
            "name": "eventobject",
            "value": "eventobject"
        }],
        "contextObj": {
            "name": "frmMBManageDebitCardFailure",
            "type": "forms",
            "platform": null,
            "KUID": "h980ca4365df448abe030aec9d27d2a2"
        },
        "language": "js",
        "actions": [{
            "id": "INVOKE_FUNCTION__ide_onClick_i749767affe743a5ab2c6069f8a2f9d2",
            "type": "INVOKE_FUNCTION",
            "sequenceKUID": "handleMenuBtn",
            "display": "handleMenuBtn",
            "inputparams": [],
            "source": "module"
        }]
    }
}