{
    "AS_Button_j579ebe339b048f8b2cce96a5acbc538": {
        "id": "AS_Button_j579ebe339b048f8b2cce96a5acbc538",
        "type": "ACTION_SEQUENCE",
        "params": [{
            "name": "eventobject",
            "value": "eventobject"
        }],
        "contextObj": {
            "name": "frmMyTopUpComplete",
            "type": "forms",
            "platform": "android",
            "KUID": "d53f17d5b3ab49779a79593d60aa7ddd"
        },
        "language": "js",
        "actions": [{
            "id": "IF_CONDITION_ide_onClick_bf8d161e28c64dd98f0f80a8ed4f6ce4",
            "type": "IF_CONDITION",
            "conditions": [{
                "leftValueType": "expression",
                "leftValue": "isMenuShown == false"
            }],
            "criteria": "all"
        }, {
            "id": "ADD_SNIPPET_ide_onClick_e90081453d16434bb653c06597fbdb22",
            "type": "ADD_SNIPPET",
            "codeSnippet": "frmMyTopUpList.show();\n TMBUtil.DestroyForm(frmMyTopUpComplete);\n \n ",
            "parentId": "IF_CONDITION_ide_onClick_bf8d161e28c64dd98f0f80a8ed4f6ce4"
        }, {
            "id": "ELSE_CONDITION_ide_onClick_h8b8e78f713846098fd95014ce7669f1",
            "type": "ELSE_CONDITION",
            "conditions": [],
            "criteria": "all"
        }, {
            "id": "ADD_SNIPPET_ide_onClick_c9f0e6bedcbd484e914364cf0f3d9222",
            "type": "ADD_SNIPPET",
            "codeSnippet": "frmMyTopUpComplete.scrollboxMain.scrollToEnd();\n isMenuShown = false;",
            "parentId": "ELSE_CONDITION_ide_onClick_h8b8e78f713846098fd95014ce7669f1"
        }]
    }
}