{
    "AS_Button_53ac1896c8714d089aede5b4af27d4f6": {
        "id": "AS_Button_53ac1896c8714d089aede5b4af27d4f6",
        "type": "ACTION_SEQUENCE",
        "params": [{
            "datatype": "collection",
            "name": "eventobject"
        }],
        "contextObj": {
            "name": "frmPreTransferMB2",
            "type": "forms",
            "platform": "",
            "KUID": "3cef5546017f49349928a571d9829490"
        },
        "language": "js",
        "actions": [{
            "id": "INVOKE_FUNCTION___00c45cac51f34f0091c325b0b063e4f9",
            "type": "INVOKE_FUNCTION",
            "sequenceKUID": "handleMenuBtn",
            "display": "handleMenuBtn",
            "inputparams": [],
            "parentId": null,
            "callbackType": null,
            "disabled": null,
            "source": "module"
        }]
    }
}