{
    "AS_Button_d167973f66f14def94532e40b91991b7": {
        "id": "AS_Button_d167973f66f14def94532e40b91991b7",
        "type": "ACTION_SEQUENCE",
        "params": [{
            "name": "eventobject",
            "value": "eventobject"
        }],
        "language": "js",
        "actions": [{
            "id": "INVOKE_FUNCTION__ide_onClick_b98be3086a504ba1b1286646355e7b94",
            "type": "INVOKE_FUNCTION",
            "sequenceKUID": "onClickKeyBoardButton",
            "display": "onClickKeyBoardButton",
            "inputparams": [{
                "name": "eventobject",
                "value": "eventobject"
            }],
            "source": "module"
        }]
    }
}