{
    "AS_Button_cd801d465c41463cb3b8e08b089aacdb": {
        "id": "AS_Button_cd801d465c41463cb3b8e08b089aacdb",
        "type": "ACTION_SEQUENCE",
        "params": [{
            "name": "eventobject",
            "value": "eventobject"
        }],
        "language": "js",
        "actions": [{
            "id": "INVOKE_FUNCTION__ide_onClick_c4fadc9296524b10b7ff54c86e8a7e3e",
            "type": "INVOKE_FUNCTION",
            "sequenceKUID": "handleMenuBtn",
            "display": "handleMenuBtn",
            "inputparams": [],
            "source": "module"
        }]
    }
}