{
    "AS_Button_i07fefe1c39e4bfb8d050f82c3792ca8": {
        "id": "AS_Button_i07fefe1c39e4bfb8d050f82c3792ca8",
        "type": "ACTION_SEQUENCE",
        "params": [{
            "name": "eventobject",
            "value": "eventobject"
        }],
        "language": "js",
        "actions": [{
            "id": "INVOKE_FUNCTION__ide_onClick_c5f9b69a19b04598984cce4adbafc5f7",
            "type": "INVOKE_FUNCTION",
            "sequenceKUID": "onClickKeyBoardButton",
            "display": "onClickKeyBoardButton",
            "inputparams": [{
                "name": "eventobject",
                "value": "eventobject"
            }],
            "source": "module"
        }]
    }
}