{
    "AS_Button_g5ab9b0199c74a23a9ba63020af2d364": {
        "id": "AS_Button_g5ab9b0199c74a23a9ba63020af2d364",
        "type": "ACTION_SEQUENCE",
        "params": [{
            "datatype": "collection",
            "name": "eventobject"
        }],
        "contextObj": {
            "name": "frmAccountSummaryLanding",
            "type": "forms",
            "platform": "",
            "KUID": "gf351423cbb54ebfbd98a3738e158cf6"
        },
        "language": "js",
        "actions": [{
            "id": "INVOKE_FUNCTION___c81cfb8514134074aecd1998e4d59042",
            "type": "INVOKE_FUNCTION",
            "sequenceKUID": "animateAccountSummary",
            "display": "animateAccountSummary",
            "inputparams": [],
            "parentId": null,
            "callbackType": null,
            "disabled": null,
            "source": "module"
        }]
    }
}