{
    "AS_Button_a34ada7d56b949c2968abcfd32350bf4": {
        "id": "AS_Button_a34ada7d56b949c2968abcfd32350bf4",
        "type": "ACTION_SEQUENCE",
        "params": [{
            "name": "eventobject",
            "value": "eventobject"
        }],
        "contextObj": {
            "name": "popUpAccesspinPwd",
            "type": "popups",
            "platform": null,
            "KUID": "e7ecab3f7f8445588d5e5000bd0fbd51"
        },
        "language": "js",
        "actions": [{
            "id": "INVOKE_FUNCTION__ide_onClick_c14be9185117400ea0e9e80125dacb13",
            "type": "INVOKE_FUNCTION",
            "sequenceKUID": "onCancelTouchTransPwd",
            "display": "onCancelTouchTransPwd",
            "inputparams": [],
            "source": "module"
        }]
    }
}