{
    "AS_Button_h3a80b660f0a4a7987c29f254183aa55": {
        "id": "AS_Button_h3a80b660f0a4a7987c29f254183aa55",
        "type": "ACTION_SEQUENCE",
        "params": [{
            "name": "eventobject",
            "value": "eventobject"
        }],
        "language": "js",
        "actions": [{
            "id": "INVOKE_FUNCTION__ide_onClick_e548db0940e64827b9202bdacca77e17",
            "type": "INVOKE_FUNCTION",
            "sequenceKUID": "populateFATCAPageTwo",
            "display": "populateFATCAPageTwo",
            "inputparams": [],
            "source": "module"
        }]
    }
}