{
    "AS_Button_a524495a981a41f882599e73aca92d51": {
        "id": "AS_Button_a524495a981a41f882599e73aca92d51",
        "type": "ACTION_SEQUENCE",
        "params": [{
            "datatype": "collection",
            "name": "eventobject"
        }],
        "language": "js",
        "actions": [{
            "id": "INVOKE_FUNCTION__ide_onClick_h2e9c413e0c14abf838e48595f4bd20a",
            "type": "INVOKE_FUNCTION",
            "sequenceKUID": "onClickBackfrmSuitabilityReviewTnC",
            "display": "onClickBackfrmSuitabilityReviewTnC",
            "inputparams": [],
            "callbackType": null,
            "disabled": null,
            "source": "module"
        }]
    }
}