{
    "AS_Button_b40a7de2028d422382636d15e2915ca2": {
        "id": "AS_Button_b40a7de2028d422382636d15e2915ca2",
        "type": "ACTION_SEQUENCE",
        "params": [{
            "datatype": "collection",
            "name": "eventobject"
        }],
        "language": "js",
        "actions": [{
            "id": "INVOKE_FUNCTION__ide_onClick_hb03ceb4521b42e5b2512ff54ac24ea1",
            "type": "INVOKE_FUNCTION",
            "sequenceKUID": "showcloseCardlessRequestInfoPopup",
            "display": "showcloseCardlessRequestInfoPopup",
            "inputparams": [],
            "callbackType": null,
            "disabled": null,
            "source": "module"
        }]
    }
}