{
    "AS_Button_ff8f11d881de4c6eb635a6fbfef8d0ca": {
        "id": "AS_Button_ff8f11d881de4c6eb635a6fbfef8d0ca",
        "type": "ACTION_SEQUENCE",
        "params": [{
            "datatype": "collection",
            "name": "eventobject"
        }],
        "language": "js",
        "actions": [{
            "id": "INVOKE_FUNCTION__ide_onClick_d9900f4e94bc4a7ab85c6e729954c0c6",
            "type": "INVOKE_FUNCTION",
            "sequenceKUID": "onClickCitizenIDButton_NormalActivation",
            "display": "onClickCitizenIDButton_NormalActivation",
            "inputparams": [],
            "callbackType": null,
            "disabled": null,
            "source": "module"
        }]
    }
}