{
    "AS_FlexContainer_c9c1aa476f564c5fb3dc1a3ef8630dca": {
        "id": "AS_FlexContainer_c9c1aa476f564c5fb3dc1a3ef8630dca",
        "type": "ACTION_SEQUENCE",
        "params": [{
            "datatype": "collection",
            "name": "eventobject"
        }, {
            "datatype": "string",
            "name": "x"
        }, {
            "datatype": "string",
            "name": "y"
        }],
        "contextObj": {
            "name": "frmMenu",
            "type": "forms",
            "platform": "",
            "KUID": "p2kwiet2012247633448"
        },
        "language": "js",
        "actions": [{
            "id": "ADD_SNIPPET__fb021b6362c34ec5b38847625bb979cd",
            "type": "ADD_SNIPPET",
            "codeSnippet": "var result=\"\";\n\npopulateDataForConfirmation(result);",
            "parentId": null,
            "callbackType": null
        }]
    }
}