{
    "AS_Form_af4fffb7e1e04840aa9d96d3d94cb432": {
        "id": "AS_Form_af4fffb7e1e04840aa9d96d3d94cb432",
        "type": "ACTION_SEQUENCE",
        "params": [{
            "name": "eventobject",
            "value": "eventobject"
        }],
        "contextObj": {
            "name": "frmMBPreLoginAccessesPin",
            "type": "forms",
            "platform": null,
            "KUID": "c84ceb06e41d48ef86b26874268ffbda"
        },
        "language": "js",
        "actions": [{
            "id": "INVOKE_FUNCTION__ide_onDeviceBack_j9438bf53fec4d42bd925d75187dabaa",
            "type": "INVOKE_FUNCTION",
            "sequenceKUID": "closeApplicationBackBtn",
            "display": "closeApplicationBackBtn",
            "inputparams": [],
            "source": "module"
        }]
    }
}