{
    "AS_Form_i1bc6dd1967c4d72a8fed53f662a7e7f": {
        "id": "AS_Form_i1bc6dd1967c4d72a8fed53f662a7e7f",
        "type": "ACTION_SEQUENCE",
        "params": [{
            "datatype": "collection",
            "name": "eventobject"
        }],
        "contextObj": {
            "name": "frmMBEnterATMPinFlex",
            "type": "forms",
            "platform": "",
            "KUID": "f264ffdff3394ce78295079110613d15"
        },
        "language": "js",
        "actions": [{
            "id": "INVOKE_FUNCTION___i5edfc3ca3dd49bf9ac43c48214a6824",
            "type": "INVOKE_FUNCTION",
            "sequenceKUID": "initfrmMBEnterATMPinFunction",
            "display": "initfrmMBEnterATMPinFunction",
            "inputparams": [],
            "parentId": null,
            "callbackType": null,
            "disabled": null,
            "source": "module"
        }]
    }
}