{
    "AS_FlexContainer_df7a61bcb4034b1eb7bcf30ed1d19963": {
        "id": "AS_FlexContainer_df7a61bcb4034b1eb7bcf30ed1d19963",
        "type": "ACTION_SEQUENCE",
        "params": [{
            "datatype": "collection",
            "name": "eventobject"
        }, {
            "datatype": "string",
            "name": "x"
        }, {
            "datatype": "string",
            "name": "y"
        }],
        "contextObj": {
            "name": "frmUVRequestHistory",
            "type": "forms",
            "platform": null,
            "KUID": "b251ae09063544dc8d3122c821b50925"
        },
        "language": "js",
        "actions": []
    }
}