{
    "AS_FlexContainer_gda460c631fa44a798bd7dbc6f31081b": {
        "id": "AS_FlexContainer_gda460c631fa44a798bd7dbc6f31081b",
        "type": "ACTION_SEQUENCE",
        "params": [{
            "datatype": "collection",
            "name": "eventobject"
        }],
        "contextObj": {
            "name": "frmQRSuccess",
            "type": "forms",
            "platform": "",
            "KUID": "a05459f9f557410eb9470b6fed6334eb"
        },
        "language": "js",
        "actions": [{
            "id": "ADD_SNIPPET_ide_onClick_j82143f13a0848589993ad959b0322ee",
            "type": "ADD_SNIPPET",
            "codeSnippet": "frmQRPaymentSuccess.show();",
            "callbackType": null
        }]
    }
}