{
    "AS_FlexContainer_c5ae19423a2440148c4ba9c2db2cc009": {
        "id": "AS_FlexContainer_c5ae19423a2440148c4ba9c2db2cc009",
        "type": "ACTION_SEQUENCE",
        "params": [{
            "datatype": "collection",
            "name": "eventobject"
        }],
        "contextObj": {
            "name": "frmUploadManyFile",
            "type": "forms",
            "platform": "",
            "KUID": "c0b498cad83a4ec5aa8a5244f0c91ad4"
        },
        "language": "js",
        "actions": [{
            "id": "MOVE_ACTION____d419576e98114e0d96b45921bdc73757",
            "type": "MOVE_ACTION",
            "itemType": "FORM",
            "itemId": "frmUploadManyFile",
            "widgetId": "flxContainerBlue",
            "itemKUID": "c0b498cad83a4ec5aa8a5244f0c91ad4",
            "widgetKUID": "h176770b444e4a16a21af3cf6e6c976a",
            "wType": "FlexContainer",
            "animationObject": {
                "left": "0%",
                "anchorPoint": {},
                "stepConfig": {
                    "timingFunction": "kony.anim.EASE"
                }
            },
            "config": {
                "delay": "100",
                "iterationCount": "1",
                "fillMode": "kony.anim.FILL_MODE_FORWARDS",
                "duration": "5000"
            },
            "start": "Immediately",
            "animationId": "MOVE_ACTION____d419576e98114e0d96b45921bdc73757",
            "displayAnimationId": "MOVE_ACTION____d419576e98114e0d96b45921bdc73757",
            "forkedPlatform": "all",
            "parentId": null,
            "callbackType": null,
            "widgetPath": "frmUploadManyFile.flxContainerBlue"
        }]
    }
}