{
    "AS_FlexContainer_c11d717b0dd24527be5c8ab543dcef0b": {
        "id": "AS_FlexContainer_c11d717b0dd24527be5c8ab543dcef0b",
        "type": "ACTION_SEQUENCE",
        "params": [{
            "datatype": "collection",
            "name": "eventobject"
        }],
        "language": "js",
        "actions": [{
            "id": "ADD_SNIPPET_ide_onClick_b42092689d7b440ababd37f2bfeb2287",
            "type": "ADD_SNIPPET",
            "codeSnippet": "frmMBPreLoginAccessesPin.show();\naccessPinOnClickLogin();",
            "callbackType": null
        }]
    }
}