{
    "AS_Form_e0cc65eebf304425977d1950de61a149": {
        "id": "AS_Form_e0cc65eebf304425977d1950de61a149",
        "type": "ACTION_SEQUENCE",
        "params": [{
            "datatype": "collection",
            "name": "eventobject"
        }],
        "contextObj": {
            "name": "frmscanqrLanding",
            "type": "forms",
            "platform": "",
            "KUID": "ecb7ade5037a42d2b13ec38c40f91148"
        },
        "language": "js",
        "actions": []
    }
}