{
    "AS_Form_d144e47b4e1941e0b145d42c792b1792": {
        "id": "AS_Form_d144e47b4e1941e0b145d42c792b1792",
        "type": "ACTION_SEQUENCE",
        "params": [{
            "datatype": "collection",
            "name": "eventobject"
        }],
        "contextObj": {
            "name": "frmMBPreLoginAccessesPin",
            "type": "forms",
            "platform": "",
            "KUID": "c84ceb06e41d48ef86b26874268ffbda"
        },
        "language": "js",
        "actions": [{
            "id": "INVOKE_FUNCTION___a1d2282f0d3e4350a47280af4e6166aa",
            "type": "INVOKE_FUNCTION",
            "sequenceKUID": "preshowPreAccessScreen",
            "display": "preshowPreAccessScreen",
            "inputparams": [],
            "parentId": null,
            "callbackType": null,
            "disabled": null,
            "source": "module"
        }]
    }
}