{
    "AS_FlexContainer_b78ddef5aab94f81b748ebf013d34dc5": {
        "id": "AS_FlexContainer_b78ddef5aab94f81b748ebf013d34dc5",
        "type": "ACTION_SEQUENCE",
        "params": [{
            "datatype": "collection",
            "name": "eventobject"
        }],
        "contextObj": {
            "name": "frmMBPreLoginAccessesPin",
            "type": "forms",
            "platform": "",
            "KUID": "c84ceb06e41d48ef86b26874268ffbda"
        },
        "language": "js",
        "actions": [{
            "id": "INVOKE_FUNCTION___b94a400830394c0c8190f2d60f2e7d7b",
            "type": "INVOKE_FUNCTION",
            "sequenceKUID": "showQRScanningLanding",
            "display": "showQRScanningLanding",
            "inputparams": [],
            "parentId": null,
            "callbackType": null,
            "disabled": null,
            "source": "module"
        }]
    }
}