{
    "AS_FlexContainer_f09e31e931284ba39c1fcc589d1f16c0": {
        "id": "AS_FlexContainer_f09e31e931284ba39c1fcc589d1f16c0",
        "type": "ACTION_SEQUENCE",
        "params": [{
            "datatype": "collection",
            "name": "eventobject"
        }, {
            "datatype": "string",
            "name": "x"
        }, {
            "datatype": "string",
            "name": "y"
        }],
        "contextObj": {
            "name": "frmUVConfirmHome",
            "type": "forms",
            "platform": null,
            "KUID": "bcfcabe98de34d539ba3eec98db2d3fb"
        },
        "language": "js",
        "actions": [{
            "id": "INVOKE_FUNCTION__ide_onTouchEnd_ebc3fbc9f05f414ca22290ae91f971aa",
            "type": "INVOKE_FUNCTION",
            "sequenceKUID": "navigateTofrmUVTransReqHistoryDetails",
            "display": "navigateTofrmUVTransReqHistoryDetails",
            "inputparams": [],
            "callbackType": null,
            "disabled": null,
            "source": "module"
        }]
    }
}