{
    "AS_FlexContainer_f3343960ac90418ca210194a88e57c91": {
        "id": "AS_FlexContainer_f3343960ac90418ca210194a88e57c91",
        "type": "ACTION_SEQUENCE",
        "params": [{
            "datatype": "collection",
            "name": "eventobject"
        }],
        "contextObj": {
            "name": "frmMBPreLoginAccessesPin",
            "type": "forms",
            "platform": "",
            "KUID": "c84ceb06e41d48ef86b26874268ffbda"
        },
        "language": "js",
        "actions": [{
            "id": "INVOKE_FUNCTION__ide_onClick_e73c40555f6a43b6977aa26d6d0b656a",
            "type": "INVOKE_FUNCTION",
            "sequenceKUID": "accessPinOnClickLogin",
            "display": "accessPinOnClickLogin",
            "inputparams": [],
            "callbackType": null,
            "disabled": null,
            "source": "module"
        }]
    }
}