{
    "AS_Form_cfb67f0cb3b64930ac9ae7b7018893e5": {
        "id": "AS_Form_cfb67f0cb3b64930ac9ae7b7018893e5",
        "type": "ACTION_SEQUENCE",
        "name": "AS_Form_MBCCUsageLimt_intiAction",
        "params": [{
            "datatype": "collection",
            "name": "eventobject"
        }],
        "contextObj": {
            "name": "frmMBCCUsageLimit",
            "type": "forms",
            "platform": null,
            "KUID": "d5a390a38c0f42668d965a30f55508b0"
        },
        "language": "js",
        "actions": [{
            "id": "INVOKE_FUNCTION__ide_init_he5d2eaa67554027b0ed97cf99fd369e",
            "type": "INVOKE_FUNCTION",
            "sequenceKUID": "initMBCCUsageLimit",
            "display": "initMBCCUsageLimit",
            "inputparams": [],
            "callbackType": null,
            "disabled": null,
            "source": "module"
        }]
    }
}