{
    "AS_Form_8e6c98814e0642bc9a69c6617d0518ce": {
        "id": "AS_Form_8e6c98814e0642bc9a69c6617d0518ce",
        "type": "ACTION_SEQUENCE",
        "params": [{
            "datatype": "collection",
            "name": "eventobject"
        }],
        "contextObj": {
            "name": "frmPreTransferMB2",
            "type": "forms",
            "platform": "",
            "KUID": "3cef5546017f49349928a571d9829490"
        },
        "language": "js",
        "actions": [{
            "id": "INVOKE_FUNCTION___2effe5b62bd74ee1adec054caf4c690f",
            "type": "INVOKE_FUNCTION",
            "sequenceKUID": "frmPreTransferMB2MenuPreshow",
            "display": "frmPreTransferMB2MenuPreshow",
            "inputparams": [],
            "parentId": null,
            "callbackType": null,
            "disabled": null,
            "source": "module"
        }]
    }
}