{
    "AS_Form_d78e44687b764367ba8ee1856823c99c": {
        "id": "AS_Form_d78e44687b764367ba8ee1856823c99c",
        "type": "ACTION_SEQUENCE",
        "params": [{
            "datatype": "collection",
            "name": "eventobject"
        }],
        "contextObj": {
            "name": "frmMBRTPSettings",
            "type": "forms",
            "platform": "",
            "KUID": "e7316d7a1c1643688622b6288aed81ef"
        },
        "language": "js",
        "actions": [{
            "id": "INVOKE_FUNCTION___d774df13a3f14d479cff739461120209",
            "type": "INVOKE_FUNCTION",
            "sequenceKUID": "frmMBRTPDetailsListInit",
            "display": "frmMBRTPDetailsListInit",
            "inputparams": [],
            "parentId": null,
            "callbackType": null,
            "disabled": null,
            "source": "module"
        }]
    }
}