{
    "AS_Form_f350e910ebf94568ba6e4e59210ce0b6": {
        "id": "AS_Form_f350e910ebf94568ba6e4e59210ce0b6",
        "type": "ACTION_SEQUENCE",
        "name": "AS_Form_InitLoanPersonInfo",
        "params": [{
            "datatype": "collection",
            "name": "eventobject"
        }],
        "contextObj": {
            "name": "frmLoanPersonalInfo",
            "type": "forms",
            "platform": "",
            "KUID": "c46c0450a488472091c65de188479844"
        },
        "language": "js",
        "actions": [{
            "id": "INVOKE_FUNCTION___ccda7ff74ee54766b0c48fc21e2af419",
            "type": "INVOKE_FUNCTION",
            "sequenceKUID": "initEventOfPersonalInfo",
            "display": "initEventOfPersonalInfo",
            "inputparams": [],
            "parentId": null,
            "callbackType": null,
            "disabled": null,
            "source": "module"
        }]
    }
}