{
    "AS_FlexContainer_d00e700f0ba0475ab28fc658c46d3e05": {
        "id": "AS_FlexContainer_d00e700f0ba0475ab28fc658c46d3e05",
        "type": "ACTION_SEQUENCE",
        "params": [{
            "datatype": "collection",
            "name": "eventobject"
        }],
        "contextObj": {
            "name": "frmMBPreLoginAccessesPin",
            "type": "forms",
            "platform": "",
            "KUID": "c84ceb06e41d48ef86b26874268ffbda"
        },
        "language": "js",
        "actions": [{
            "id": "INVOKE_FUNCTION__ide_onClick_a94690810c16442f92ace553dae4e2e1",
            "type": "INVOKE_FUNCTION",
            "sequenceKUID": "accessPinOnClickQuickBalance",
            "display": "accessPinOnClickQuickBalance",
            "inputparams": [],
            "callbackType": null,
            "disabled": null,
            "source": "module"
        }]
    }
}