{
    "AS_Form_je8851a865ce4f2a92ca44584b4ff53b": {
        "id": "AS_Form_je8851a865ce4f2a92ca44584b4ff53b",
        "type": "ACTION_SEQUENCE",
        "params": [{
            "datatype": "collection",
            "name": "eventobject"
        }],
        "contextObj": {
            "name": "frmUVApprovalMB",
            "type": "forms",
            "platform": null,
            "KUID": "b7cb0844fdad4cc0a9520d64390948fa"
        },
        "language": "js",
        "actions": [{
            "id": "INVOKE_FUNCTION__ide_init_h06280361135429893d630b37b345499",
            "type": "INVOKE_FUNCTION",
            "sequenceKUID": "frmCardlesswithdrawCompleteInit",
            "display": "frmCardlesswithdrawCompleteInit",
            "inputparams": [],
            "callbackType": null,
            "disabled": null,
            "source": "module"
        }]
    }
}