{
    "AS_Form_cc5bc02c50c844228f1a6cf8c5b46dd6": {
        "id": "AS_Form_cc5bc02c50c844228f1a6cf8c5b46dd6",
        "type": "ACTION_SEQUENCE",
        "params": [{
            "name": "eventobject",
            "value": "eventobject"
        }],
        "contextObj": {
            "name": "frmMBActivateEnterCVVNew",
            "type": "forms",
            "platform": null,
            "KUID": "fbca5a93ed164da19d47ea51368cb4f0"
        },
        "language": "js",
        "actions": [{
            "id": "INVOKE_FUNCTION__ide_onDeviceBack_c3dc4f9f1bf24007938404d6c8ef8e6d",
            "type": "INVOKE_FUNCTION",
            "sequenceKUID": "deviceBack",
            "display": "deviceBack",
            "inputparams": [],
            "source": "module"
        }]
    }
}