{
    "AS_FlexContainer_ec6469c43b7b4e4eb175c52b932220ef": {
        "id": "AS_FlexContainer_ec6469c43b7b4e4eb175c52b932220ef",
        "type": "ACTION_SEQUENCE",
        "params": [{
            "datatype": "collection",
            "name": "eventobject"
        }],
        "language": "js",
        "actions": [{
            "id": "INVOKE_FUNCTION__ide_onClick_e4a90a9972164897aa44587f08877ce9",
            "type": "INVOKE_FUNCTION",
            "sequenceKUID": "onClickForInnerBoxes",
            "display": "onClickForInnerBoxes",
            "inputparams": [],
            "callbackType": null,
            "disabled": null,
            "source": "module"
        }]
    }
}