{
    "AS_Form_d1b5459be8c842be9dc30ddd2c98ba71": {
        "id": "AS_Form_d1b5459be8c842be9dc30ddd2c98ba71",
        "type": "ACTION_SEQUENCE",
        "params": [{
            "datatype": "collection",
            "name": "eventobject"
        }],
        "contextObj": {
            "name": "frmUVApprovalMB",
            "type": "forms",
            "platform": "",
            "KUID": "b7cb0844fdad4cc0a9520d64390948fa"
        },
        "language": "js",
        "actions": [{
            "id": "INVOKE_FUNCTION___e28c359a7b664d7dbc369761cf5541d2",
            "type": "INVOKE_FUNCTION",
            "sequenceKUID": "setTimer",
            "display": "setTimer",
            "inputparams": [],
            "parentId": null,
            "callbackType": null,
            "disabled": null,
            "source": "module"
        }]
    }
}