{
    "AS_Form_ec6b3d49da9940ec902867f89082fb93": {
        "id": "AS_Form_ec6b3d49da9940ec902867f89082fb93",
        "type": "ACTION_SEQUENCE",
        "params": [{
            "name": "eventobject",
            "value": "eventobject"
        }],
        "contextObj": {
            "name": "frmUVTransRejectMenu",
            "type": "forms",
            "platform": null,
            "KUID": "aba928141e444f0aab1eb336e3bc7d48"
        },
        "language": "js",
        "actions": [{
            "id": "INVOKE_FUNCTION__ide_onDeviceBack_e59faa72409f4a109067107728d1edda",
            "type": "INVOKE_FUNCTION",
            "sequenceKUID": "disableBackButton",
            "display": "disableBackButton",
            "inputparams": [],
            "source": "module"
        }]
    }
}