{
    "AS_HBox_f9d7eef29baf4e2f8c655e7d7491efd4": {
        "id": "AS_HBox_f9d7eef29baf4e2f8c655e7d7491efd4",
        "type": "ACTION_SEQUENCE",
        "params": [{
            "name": "eventobject",
            "value": "eventobject"
        }],
        "contextObj": {
            "name": "frmQRScreenShotCalendar",
            "type": "forms",
            "platform": null,
            "KUID": "c93843e3e016411b910a19c1def1dea0"
        },
        "language": "js",
        "actions": [{
            "id": "INVOKE_FUNCTION__ide_onClick_jdceda1e748b41b6ba64e86cd2f570ed",
            "type": "INVOKE_FUNCTION",
            "sequenceKUID": "showHideTransferAfterBalance",
            "display": "showHideTransferAfterBalance",
            "inputparams": [],
            "source": "module"
        }]
    }
}