{
    "AS_HBox_gadcc0a22eca4fc09f1670fe855aebd5": {
        "id": "AS_HBox_gadcc0a22eca4fc09f1670fe855aebd5",
        "type": "ACTION_SEQUENCE",
        "params": [{
            "name": "eventobject",
            "value": "eventobject"
        }],
        "contextObj": {
            "name": "frmBillPaymentEditFutureComplete",
            "type": "forms",
            "platform": null,
            "KUID": "b2a67624cf4f40679450b8abbb3770ef"
        },
        "language": "js",
        "actions": [{
            "id": "INVOKE_FUNCTION__ide_onClick_h7a31330649348c980ecd86336553adb",
            "type": "INVOKE_FUNCTION",
            "sequenceKUID": "onClickForInnerBoxes",
            "display": "onClickForInnerBoxes",
            "inputparams": [],
            "source": "module"
        }]
    }
}