{
    "AS_HBox_hdcc8837012b4437940deb8148683e51": {
        "id": "AS_HBox_hdcc8837012b4437940deb8148683e51",
        "type": "ACTION_SEQUENCE",
        "params": [{
            "name": "eventobject",
            "value": "eventobject"
        }],
        "contextObj": {
            "name": "frmQRScreenShotCalendar",
            "type": "forms",
            "platform": null,
            "KUID": "c93843e3e016411b910a19c1def1dea0"
        },
        "language": "js",
        "actions": [{
            "id": "INVOKE_FUNCTION__ide_onClick_ac929d35ea384e909f48272f0f3f2eea",
            "type": "INVOKE_FUNCTION",
            "sequenceKUID": "hideUnhide",
            "display": "hideUnhide",
            "inputparams": [],
            "source": "module"
        }]
    }
}