{
    "AS_Form_h1824026f44b438787100dc6fd876cac": {
        "id": "AS_Form_h1824026f44b438787100dc6fd876cac",
        "type": "ACTION_SEQUENCE",
        "name": "AS_InitfrmLoanApplication",
        "params": [{
            "datatype": "collection",
            "name": "eventobject"
        }],
        "contextObj": {
            "name": "frmLoanApplicationForm",
            "type": "forms",
            "platform": "",
            "KUID": "d82d44847e8a48f88cec3bb25d2fae13"
        },
        "language": "js",
        "actions": [{
            "id": "INVOKE_FUNCTION___a093ca26df7e43e0bb29b75127ce122c",
            "type": "INVOKE_FUNCTION",
            "sequenceKUID": "initfrmLoanApplication",
            "display": "initfrmLoanApplication",
            "inputparams": [],
            "parentId": null,
            "callbackType": null,
            "disabled": null,
            "source": "module"
        }]
    }
}