{
    "AS_Popup_jcd1942e73764e37a3684c8acedf4e5b": {
        "id": "AS_Popup_jcd1942e73764e37a3684c8acedf4e5b",
        "type": "ACTION_SEQUENCE",
        "name": "AS_Popup_enterAccessPinInit",
        "params": [{
            "datatype": "collection",
            "name": "eventobject"
        }],
        "contextObj": {
            "name": "popupEnterAccessPin",
            "type": "popups",
            "platform": "",
            "KUID": "ed984d2c501b4a279b20831574a89a7f"
        },
        "language": "js",
        "actions": [{
            "id": "INVOKE_FUNCTION___f57f910b8d7243a98d01961766f9a328",
            "type": "INVOKE_FUNCTION",
            "sequenceKUID": "initAccessPinPopup",
            "display": "initAccessPinPopup",
            "inputparams": [],
            "parentId": null,
            "callbackType": null,
            "disabled": null,
            "source": "module"
        }]
    }
}