{
    "AS_Segment_e96fd681a69542e0963c5da9b4c6b1d7": {
        "id": "AS_Segment_e96fd681a69542e0963c5da9b4c6b1d7",
        "type": "ACTION_SEQUENCE",
        "params": [{
            "name": "eventobject",
            "value": "eventobject"
        }],
        "contextObj": {
            "name": "frmMBPreLoginAccessesPin",
            "type": "forms",
            "platform": null,
            "KUID": "c84ceb06e41d48ef86b26874268ffbda"
        },
        "language": "js",
        "actions": [{
            "id": "INVOKE_FUNCTION__ide_onPull_c7cee64fff3447c69e81703283b0e105",
            "type": "INVOKE_FUNCTION",
            "sequenceKUID": "onPullQuickBalanceSegment",
            "display": "onPullQuickBalanceSegment",
            "inputparams": [],
            "source": "module"
        }]
    }
}