{
    "AS_Segment_dfdb8bd9d0a348438f7454235211b745": {
        "id": "AS_Segment_dfdb8bd9d0a348438f7454235211b745",
        "type": "ACTION_SEQUENCE",
        "params": [{
            "datatype": "collection",
            "name": "eventobject"
        }],
        "contextObj": {
            "name": "frmAccountSummaryLanding",
            "type": "forms",
            "platform": "",
            "KUID": "gf351423cbb54ebfbd98a3738e158cf6"
        },
        "language": "js",
        "actions": [{
            "id": "ADD_SNIPPET__d5ba88f9d4664db2a4f53c2677b8de14",
            "type": "ADD_SNIPPET",
            "codeSnippet": "//animateAccountSummary();\ncallCustomerAccountService();",
            "parentId": null,
            "callbackType": null
        }]
    }
}