{
    "AS_Segment_ad02e0266adf456a93e5c41f80bd5912": {
        "id": "AS_Segment_ad02e0266adf456a93e5c41f80bd5912",
        "type": "ACTION_SEQUENCE",
        "params": [{
            "datatype": "collection",
            "name": "eventobject"
        }, {
            "datatype": "number",
            "name": "sectionNumber"
        }, {
            "datatype": "number",
            "name": "rowNumber"
        }],
        "language": "js",
        "actions": [{
            "id": "INVOKE_FUNCTION__ide_onRowClick_daabeb3f5d2e413faf529ad8f52e6d91",
            "type": "INVOKE_FUNCTION",
            "sequenceKUID": "populateUVTransactionDetails",
            "display": "populateUVTransactionDetails",
            "inputparams": [{
                "name": "isActive",
                "value": "true"
            }],
            "callbackType": null,
            "disabled": null,
            "source": "module"
        }]
    }
}