{
    "AS_TextField_b5a5fdb062244a5c988fb6e9678c80e3": {
        "id": "AS_TextField_b5a5fdb062244a5c988fb6e9678c80e3",
        "type": "ACTION_SEQUENCE",
        "params": [{
            "datatype": "collection",
            "name": "eventobject"
        }, {
            "datatype": "string",
            "name": "changedtext"
        }],
        "contextObj": {
            "name": "frmBillPayment",
            "type": "forms",
            "platform": "",
            "KUID": "p2kwiet15245716321099"
        },
        "language": "js",
        "actions": [{
            "id": "INVOKE_FUNCTION___h8d3c6fafb76423fb4431164d8d315e0",
            "type": "INVOKE_FUNCTION",
            "sequenceKUID": "onBeginEditAmountBillPayment",
            "display": "onBeginEditAmountBillPayment",
            "inputparams": [],
            "parentId": null,
            "callbackType": null,
            "disabled": null,
            "source": "module"
        }]
    }
}