{
    "AS_TextField_i7832d910264473aa0e3e5e9c487a6a2": {
        "id": "AS_TextField_i7832d910264473aa0e3e5e9c487a6a2",
        "type": "ACTION_SEQUENCE",
        "params": [{
            "datatype": "collection",
            "name": "eventobject"
        }, {
            "datatype": "string",
            "name": "changedtext"
        }],
        "contextObj": {
            "name": "frmAddTopUpToMB",
            "type": "forms",
            "platform": "",
            "KUID": "p2kwiet2012247626847"
        },
        "language": "js",
        "actions": [{
            "id": "INVOKE_FUNCTION___a00b3ff0e8c04012a66a792f4e0c6a1c",
            "type": "INVOKE_FUNCTION",
            "sequenceKUID": "onEndEditingOfRef1AndRef2AddBiller",
            "display": "onEndEditingOfRef1AndRef2AddBiller",
            "inputparams": [],
            "parentId": null,
            "callbackType": null,
            "disabled": null,
            "source": "module"
        }]
    }
}