{
    "AS_TextField_j048b750c2e24f79b815ceb0bd9d9ea0": {
        "id": "AS_TextField_j048b750c2e24f79b815ceb0bd9d9ea0",
        "type": "ACTION_SEQUENCE",
        "params": [{
            "name": "eventobject",
            "value": "eventobject"
        }, {
            "name": "changedtext",
            "value": "changedtext"
        }],
        "contextObj": {
            "name": "frmMBActiAtmIdMobile",
            "type": "forms",
            "platform": "",
            "KUID": "p2kwiet2012247629538"
        },
        "language": "js",
        "actions": [{
            "id": "INVOKE_FUNCTION__ide_onBeginEditing_d20d4eac8af24f7da864ec5b0df1f411",
            "type": "INVOKE_FUNCTION",
            "sequenceKUID": "onBeginEditOfCIorPPInActivationUsingCard",
            "display": "onBeginEditOfCIorPPInActivationUsingCard",
            "inputparams": [],
            "source": "module"
        }]
    }
}