{
    "AS_TextField_e837550788fa4348a6e58ec5c6977e75": {
        "id": "AS_TextField_e837550788fa4348a6e58ec5c6977e75",
        "type": "ACTION_SEQUENCE",
        "params": [{
            "name": "eventobject",
            "value": "eventobject"
        }, {
            "name": "changedtext",
            "value": "changedtext"
        }],
        "contextObj": {
            "name": "frmMBActivation",
            "type": "forms",
            "platform": "",
            "KUID": "p2kwiet2012247629833"
        },
        "language": "js",
        "actions": [{
            "id": "CHANNEL_CONDITION_ide_onEndEditing_c224a988478641fa92ffcc1d274700bc",
            "type": "CHANNEL_CONDITION",
            "platforms": ["android"]
        }]
    }
}