{
    "AS_TextField_je5ca6e24781466f9e6fc152fb7cde46": {
        "id": "AS_TextField_je5ca6e24781466f9e6fc152fb7cde46",
        "type": "ACTION_SEQUENCE",
        "params": [{
            "datatype": "collection",
            "name": "eventobject"
        }, {
            "datatype": "string",
            "name": "changedtext"
        }],
        "contextObj": {
            "name": "frmBillPayment",
            "type": "forms",
            "platform": "",
            "KUID": "p2kwiet15245716321099"
        },
        "language": "js",
        "actions": [{
            "id": "INVOKE_FUNCTION___d1b24386c813462bba46db2581a4e603",
            "type": "INVOKE_FUNCTION",
            "sequenceKUID": "onBeginEditAmountBillPayment",
            "display": "onBeginEditAmountBillPayment",
            "inputparams": [],
            "parentId": null,
            "callbackType": null,
            "disabled": null,
            "source": "module"
        }]
    }
}