{
    "AS_TextField_dfecc1c857a1400aa172e6f8a574dec9": {
        "id": "AS_TextField_dfecc1c857a1400aa172e6f8a574dec9",
        "type": "ACTION_SEQUENCE",
        "params": [{
            "datatype": "collection",
            "name": "eventobject"
        }, {
            "datatype": "string",
            "name": "changedtext"
        }],
        "language": "js",
        "actions": [{
            "id": "INVOKE_FUNCTION__ide_onDone_bccf88607bb544cb86fc1ae931607424",
            "type": "INVOKE_FUNCTION",
            "sequenceKUID": "onDoneEditingBillPaymentOnDone",
            "display": "onDoneEditingBillPaymentOnDone",
            "inputparams": [],
            "callbackType": null,
            "disabled": null,
            "source": "module"
        }]
    }
}