{
    "AS_Button_f5a8bef6ed724112adac5c88b0eca575": {
        "id": "AS_Button_f5a8bef6ed724112adac5c88b0eca575",
        "type": "ACTION_SEQUENCE",
        "name": "btnFourApproval",
        "params": [{
            "datatype": "collection",
            "name": "eventobject"
        }],
        "contextObj": {
            "name": "frmUVApprovalMB",
            "type": "forms",
            "platform": "",
            "KUID": "b7cb0844fdad4cc0a9520d64390948fa"
        },
        "language": "js",
        "actions": [{
            "id": "INVOKE_FUNCTION___ce38a93be0904129932de9af44967f70",
            "type": "INVOKE_FUNCTION",
            "sequenceKUID": "onClickApprovalKeyPad",
            "display": "onClickApprovalKeyPad",
            "inputparams": [{
                "name": "eventobject",
                "value": "eventobject"
            }],
            "parentId": null,
            "disabled": null,
            "source": "module"
        }]
    }
}