{
    "AS_Button_c83ee9d2c7d54313b5378054b7d73d74": {
        "id": "AS_Button_c83ee9d2c7d54313b5378054b7d73d74",
        "type": "ACTION_SEQUENCE",
        "name": "btnFiveApproval",
        "params": [{
            "datatype": "collection",
            "name": "eventobject"
        }],
        "contextObj": {
            "name": "frmUVApprovalMB",
            "type": "forms",
            "platform": "",
            "KUID": "b7cb0844fdad4cc0a9520d64390948fa"
        },
        "language": "js",
        "actions": [{
            "id": "INVOKE_FUNCTION___e7b25f54a0a84afeafc25ffb965516cf",
            "type": "INVOKE_FUNCTION",
            "sequenceKUID": "onClickApprovalKeyPad",
            "display": "onClickApprovalKeyPad",
            "inputparams": [{
                "name": "eventobject",
                "value": "eventobject"
            }],
            "parentId": null,
            "disabled": null,
            "source": "module"
        }]
    }
}