{
    "AS_Button_j95b981ecef343bd9b9b408a711d8b02": {
        "id": "AS_Button_j95b981ecef343bd9b9b408a711d8b02",
        "type": "ACTION_SEQUENCE",
        "name": "btnNiteApproval",
        "params": [{
            "datatype": "collection",
            "name": "eventobject"
        }],
        "contextObj": {
            "name": "frmUVApprovalMB",
            "type": "forms",
            "platform": "",
            "KUID": "b7cb0844fdad4cc0a9520d64390948fa"
        },
        "language": "js",
        "actions": [{
            "id": "INVOKE_FUNCTION___dd526e6e3d7343df90672de8b2001419",
            "type": "INVOKE_FUNCTION",
            "sequenceKUID": "onClickApprovalKeyPad",
            "display": "onClickApprovalKeyPad",
            "inputparams": [{
                "name": "eventobject",
                "value": "eventobject"
            }],
            "parentId": null,
            "disabled": null,
            "source": "module"
        }]
    }
}