{
    "AS_Form_e44682f4b3bf468f91cadbafe2f04eb2": {
        "id": "AS_Form_e44682f4b3bf468f91cadbafe2f04eb2",
        "type": "ACTION_SEQUENCE",
        "name": "frmBillPaymentEditFutureNewMenuPostshowEvent",
        "params": [{
            "datatype": "collection",
            "name": "eventobject"
        }],
        "contextObj": {
            "name": "frmBillPaymentEditFutureNew",
            "type": "forms",
            "platform": "",
            "KUID": "e56a4bc3f5d94750a3b4bdd0bbf51526"
        },
        "language": "js",
        "actions": [{
            "id": "INVOKE_FUNCTION___ccde347140e64d42a367abfd7449121e",
            "type": "INVOKE_FUNCTION",
            "sequenceKUID": "frmBillPaymentEditFutureNewMenuPostshow",
            "display": "frmBillPaymentEditFutureNewMenuPostshow",
            "inputparams": [],
            "parentId": null,
            "callbackType": null,
            "disabled": null,
            "source": "module"
        }]
    }
}