{
    "AS_Form_gadf58b8124f4112a20b70eb2e0d7413": {
        "id": "AS_Form_gadf58b8124f4112a20b70eb2e0d7413",
        "type": "ACTION_SEQUENCE",
        "name": "frmBillPaymentEditFutureComplete_postShow",
        "params": [{
            "name": "eventobject",
            "value": "eventobject"
        }, {
            "name": "neworientation",
            "value": "neworientation"
        }],
        "contextObj": {
            "name": "frmBillPaymentEditFutureComplete",
            "type": "forms",
            "platform": null,
            "KUID": "b2a67624cf4f40679450b8abbb3770ef"
        },
        "language": "js",
        "actions": [{
            "id": "INVOKE_FUNCTION__ide_postShow_dfb9223697394fa3a25948638b63469b",
            "type": "INVOKE_FUNCTION",
            "sequenceKUID": "frmBillPaymentEditFutureCompleteMenuPostshow",
            "display": "frmBillPaymentEditFutureCompleteMenuPostshow",
            "inputparams": [],
            "source": "module"
        }]
    }
}