{
    "AS_Form_e400de6315034a2ba146ad961968c4b7": {
        "id": "AS_Form_e400de6315034a2ba146ad961968c4b7",
        "type": "ACTION_SEQUENCE",
        "name": "frmBillPaymentEditFutureComplete_onHide",
        "params": [{
            "name": "eventobject",
            "value": "eventobject"
        }, {
            "name": "neworientation",
            "value": "neworientation"
        }],
        "contextObj": {
            "name": "frmBillPaymentEditFutureComplete",
            "type": "forms",
            "platform": null,
            "KUID": "b2a67624cf4f40679450b8abbb3770ef"
        },
        "language": "js",
        "actions": []
    }
}