{
    "AS_VBox_ba3fe4acfed84c28a1835b1f3c516f55": {
        "id": "AS_VBox_ba3fe4acfed84c28a1835b1f3c516f55",
        "type": "ACTION_SEQUENCE",
        "name": "frmBillPaymentEditFutureComplete_shareOther",
        "params": [{
            "name": "eventobject",
            "value": "eventobject"
        }],
        "contextObj": {
            "name": "frmBillPaymentEditFutureComplete",
            "type": "forms",
            "platform": null,
            "KUID": "b2a67624cf4f40679450b8abbb3770ef"
        },
        "language": "js",
        "actions": [{
            "id": "IF_CONDITION_ide_onClick_a7dadf3028ee4915886623659ee8fb79",
            "type": "IF_CONDITION",
            "conditions": [{
                "leftValueType": "expression",
                "leftValue": "gblMyBillerTopUpBB==\"0\""
            }],
            "criteria": "all"
        }, {
            "id": "CHANNEL_CONDITION_ide_onClick_fa0015ef56704b58a667904c929a1914",
            "type": "CHANNEL_CONDITION",
            "platforms": ["iphone"],
            "parentId": "IF_CONDITION_ide_onClick_a7dadf3028ee4915886623659ee8fb79"
        }, {
            "id": "INVOKE_FUNCTION__ide_onClick_d66bbd3180e3452084c61bc772a9b44c",
            "type": "INVOKE_FUNCTION",
            "sequenceKUID": "shareIntentmoreCall",
            "display": "shareIntentmoreCall",
            "inputparams": [{
                "name": "message",
                "value": "\"more\""
            }, {
                "name": "module",
                "value": "\"BillPayment\""
            }],
            "parentId": "CHANNEL_CONDITION_ide_onClick_fa0015ef56704b58a667904c929a1914",
            "source": "module"
        }, {
            "id": "CHANNEL_CONDITION_ide_onClick_g5c33acd8d574a96904a3aae8542b16e",
            "type": "CHANNEL_CONDITION",
            "platforms": ["android"],
            "parentId": "IF_CONDITION_ide_onClick_a7dadf3028ee4915886623659ee8fb79"
        }, {
            "id": "INVOKE_FUNCTION__ide_onClick_h75efb7590294f0b8d2ab265e9ac47de",
            "type": "INVOKE_FUNCTION",
            "sequenceKUID": "shareIntentmoreCallandroid",
            "display": "shareIntentmoreCallandroid",
            "inputparams": [{
                "name": "message",
                "value": "\"more\""
            }, {
                "name": "module",
                "value": "\"BillPayment\""
            }],
            "parentId": "CHANNEL_CONDITION_ide_onClick_g5c33acd8d574a96904a3aae8542b16e",
            "source": "module"
        }, {
            "id": "ELSE_CONDITION_ide_onClick_c67756129f0d4e83b572389bb352d52a",
            "type": "ELSE_CONDITION",
            "conditions": [],
            "criteria": "all"
        }, {
            "id": "CHANNEL_CONDITION_ide_onClick_jde3d49bf9ae43cfa10def1fed0556d1",
            "type": "CHANNEL_CONDITION",
            "platforms": ["iphone"],
            "parentId": "ELSE_CONDITION_ide_onClick_c67756129f0d4e83b572389bb352d52a"
        }, {
            "id": "INVOKE_FUNCTION__ide_onClick_df608fb78c1b4c73bf8a21482e2bfead",
            "type": "INVOKE_FUNCTION",
            "sequenceKUID": "shareIntentmoreCall",
            "display": "shareIntentmoreCall",
            "inputparams": [{
                "name": "message",
                "value": "\"more\""
            }, {
                "name": "module",
                "value": "\"TopupPayment\""
            }],
            "parentId": "CHANNEL_CONDITION_ide_onClick_jde3d49bf9ae43cfa10def1fed0556d1",
            "source": "module"
        }, {
            "id": "CHANNEL_CONDITION_ide_onClick_f63890a06e974982b8e8913577089798",
            "type": "CHANNEL_CONDITION",
            "platforms": ["android"],
            "parentId": "ELSE_CONDITION_ide_onClick_c67756129f0d4e83b572389bb352d52a"
        }, {
            "id": "INVOKE_FUNCTION__ide_onClick_g2126c3b321e4f4ab0c063bda957a96d",
            "type": "INVOKE_FUNCTION",
            "sequenceKUID": "shareIntentmoreCallandroid",
            "display": "shareIntentmoreCallandroid",
            "inputparams": [{
                "name": "message",
                "value": "\"more\""
            }, {
                "name": "module",
                "value": "\"TopupPayment\""
            }],
            "parentId": "CHANNEL_CONDITION_ide_onClick_f63890a06e974982b8e8913577089798",
            "source": "module"
        }]
    }
}