{
    "AS_VBox_h48ac71a07b64a2fab8e1c68db02de1e": {
        "id": "AS_VBox_h48ac71a07b64a2fab8e1c68db02de1e",
        "type": "ACTION_SEQUENCE",
        "name": "frmBillPaymentEditFutureComplete_shareLine",
        "params": [{
            "name": "eventobject",
            "value": "eventobject"
        }],
        "contextObj": {
            "name": "frmBillPaymentEditFutureComplete",
            "type": "forms",
            "platform": null,
            "KUID": "b2a67624cf4f40679450b8abbb3770ef"
        },
        "language": "js",
        "actions": [{
            "id": "IF_CONDITION_ide_onClick_g3ed9dfae7c8494eaaaf98e71ca8fb8d",
            "type": "IF_CONDITION",
            "conditions": [{
                "leftValueType": "expression",
                "leftValue": "gblMyBillerTopUpBB==\"0\""
            }],
            "criteria": "all"
        }, {
            "id": "INVOKE_FUNCTION__ide_onClick_i686f6bbe96c41fcae4f438623b5c1fb",
            "type": "INVOKE_FUNCTION",
            "sequenceKUID": "shareIntentCall",
            "display": "shareIntentCall",
            "inputparams": [{
                "name": "inputmessage",
                "value": "\"line\""
            }, {
                "name": "flow",
                "value": "\"BillPayment\""
            }],
            "parentId": "IF_CONDITION_ide_onClick_g3ed9dfae7c8494eaaaf98e71ca8fb8d",
            "source": "module"
        }, {
            "id": "ELSE_CONDITION_ide_onClick_gafe980262c745d592cb89a57ae67f75",
            "type": "ELSE_CONDITION",
            "conditions": [],
            "criteria": "all"
        }, {
            "id": "INVOKE_FUNCTION__ide_onClick_ec82b24473d34e9c8044e8e93648f8a6",
            "type": "INVOKE_FUNCTION",
            "sequenceKUID": "shareIntentCall",
            "display": "shareIntentCall",
            "inputparams": [{
                "name": "inputmessage",
                "value": "\"line\""
            }, {
                "name": "flow",
                "value": "\"TOPUpPayment\""
            }],
            "parentId": "ELSE_CONDITION_ide_onClick_gafe980262c745d592cb89a57ae67f75",
            "source": "module"
        }]
    }
}