{
    "AS_Button_d547fe0ef07949d485cfdc6207b2e9b6": {
        "id": "AS_Button_d547fe0ef07949d485cfdc6207b2e9b6",
        "type": "ACTION_SEQUENCE",
        "name": "frmBillPaymentEditFutureComplete_menu_btn_click",
        "params": [{
            "name": "eventobject",
            "value": "eventobject"
        }],
        "contextObj": {
            "name": "frmBillPaymentEditFutureComplete",
            "type": "forms",
            "platform": null,
            "KUID": "b2a67624cf4f40679450b8abbb3770ef"
        },
        "language": "js",
        "actions": [{
            "id": "INVOKE_FUNCTION__ide_onClick_b94b6899d727428c8ab52453ff457933",
            "type": "INVOKE_FUNCTION",
            "sequenceKUID": "handleMenuBtn",
            "display": "handleMenuBtn",
            "inputparams": [],
            "source": "module"
        }]
    }
}