{
    "AS_Form_if4192b6ef144a86ac06265247b1791b": {
        "id": "AS_Form_if4192b6ef144a86ac06265247b1791b",
        "type": "ACTION_SEQUENCE",
        "name": "frmBillPaymentEditFutureComplete_preShow",
        "params": [{
            "name": "eventobject",
            "value": "eventobject"
        }, {
            "name": "neworientation",
            "value": "neworientation"
        }],
        "contextObj": {
            "name": "frmBillPaymentEditFutureComplete",
            "type": "forms",
            "platform": null,
            "KUID": "b2a67624cf4f40679450b8abbb3770ef"
        },
        "language": "js",
        "actions": [{
            "id": "INVOKE_FUNCTION__ide_preShow_b1f1cbeda222430d85f014597c48b0a9",
            "type": "INVOKE_FUNCTION",
            "sequenceKUID": "frmBillPaymentEditFutureCompleteMenuPreshow",
            "display": "frmBillPaymentEditFutureCompleteMenuPreshow",
            "inputparams": [],
            "source": "module"
        }]
    }
}