{
    "AS_FlexContainer_ed458c4c24fa4103a1fd87b892e98c63": {
        "id": "AS_FlexContainer_ed458c4c24fa4103a1fd87b892e98c63",
        "type": "ACTION_SEQUENCE",
        "name": "frmBillPaymentEditFutureNew_flxAmountSelect_Click",
        "params": [{
            "datatype": "collection",
            "name": "eventobject"
        }],
        "contextObj": {
            "name": "frmBillPaymentEditFutureNew",
            "type": "forms",
            "platform": "",
            "KUID": "e56a4bc3f5d94750a3b4bdd0bbf51526"
        },
        "language": "js",
        "actions": [{
            "id": "INVOKE_FUNCTION___fb5dcf24acbb4368a83e79241815375a",
            "type": "INVOKE_FUNCTION",
            "sequenceKUID": "openComboBox",
            "display": "openComboBox",
            "inputparams": [],
            "parentId": null,
            "callbackType": null,
            "disabled": null,
            "source": "module"
        }]
    }
}