{
    "AS_Form_efda7ac74b424ddb97dba9b7479fa253": {
        "id": "AS_Form_efda7ac74b424ddb97dba9b7479fa253",
        "type": "ACTION_SEQUENCE",
        "name": "frmCardlessWithdrawSelectAccountInitAction",
        "params": [{
            "datatype": "collection",
            "name": "eventobject"
        }],
        "contextObj": {
            "name": "frmCardlessWithdrawSelectAccount",
            "type": "forms",
            "platform": "",
            "KUID": "d195fbd982974adbafafc12dc18885f9"
        },
        "language": "js",
        "actions": [{
            "id": "INVOKE_FUNCTION___dac510c16433450e93dcd982490102b7",
            "type": "INVOKE_FUNCTION",
            "sequenceKUID": "frmCardlessWithdrawSelectAccountInit",
            "display": "frmCardlessWithdrawSelectAccountInit",
            "inputparams": [],
            "parentId": null,
            "callbackType": null,
            "disabled": null,
            "source": "module"
        }]
    }
}