{
    "AS_Form_g7e1b1af4ac04977a0c6fb4fd16ad12e": {
        "id": "AS_Form_g7e1b1af4ac04977a0c6fb4fd16ad12e",
        "type": "ACTION_SEQUENCE",
        "name": "frmCardlesswithdrawTermincateCodePostshowAction",
        "params": [{
            "datatype": "collection",
            "name": "eventobject"
        }],
        "contextObj": {
            "name": "frmCardlesswithdrawTermincateCode",
            "type": "forms",
            "platform": "",
            "KUID": "j7d5431303ab44f8a6db630276136f0f"
        },
        "language": "js",
        "actions": [{
            "id": "INVOKE_FUNCTION___e7041df85b504c7fae54bc494a69874c",
            "type": "INVOKE_FUNCTION",
            "sequenceKUID": "frmCardlesswithdrawTermincateCodePostshow",
            "display": "frmCardlesswithdrawTermincateCodePostshow",
            "inputparams": [],
            "parentId": null,
            "callbackType": null,
            "disabled": null,
            "source": "module"
        }]
    }
}