{
    "AS_FlexContainer_e7d010193c9a4e47841da6984e99ca5c": {
        "id": "AS_FlexContainer_e7d010193c9a4e47841da6984e99ca5c",
        "type": "ACTION_SEQUENCE",
        "name": "frmCAInstallmentPlantDetails_flxSelectAccount_onTouchEnd",
        "params": [{
            "datatype": "collection",
            "name": "eventobject"
        }, {
            "datatype": "string",
            "name": "x"
        }, {
            "datatype": "string",
            "name": "y"
        }],
        "contextObj": {
            "name": "frmCashAdvanceInstallmentPlanDetails",
            "type": "forms",
            "platform": "",
            "KUID": "d35c82b917854beb9cc4a2d5a10306f4"
        },
        "language": "js",
        "actions": [{
            "id": "INVOKE_FUNCTION___e3faa3a4528e4121b0971f9a95c4722a",
            "type": "INVOKE_FUNCTION",
            "sequenceKUID": "onSelectAccountCashAdvDetailsScreen",
            "display": "onSelectAccountCashAdvDetailsScreen",
            "inputparams": [],
            "parentId": null,
            "callbackType": null,
            "disabled": null,
            "source": "module"
        }]
    }
}