{
    "AS_Form_b8808993721b45bdaab75092ac102a11": {
        "id": "AS_Form_b8808993721b45bdaab75092ac102a11",
        "type": "ACTION_SEQUENCE",
        "name": "frmCardlesswithdrawTermincateCodePreshowAction",
        "params": [{
            "datatype": "collection",
            "name": "eventobject"
        }],
        "contextObj": {
            "name": "frmCardlesswithdrawTermincateCode",
            "type": "forms",
            "platform": "",
            "KUID": "j7d5431303ab44f8a6db630276136f0f"
        },
        "language": "js",
        "actions": [{
            "id": "INVOKE_FUNCTION___e6f9c9c5e3de48eeb250182c59fb384b",
            "type": "INVOKE_FUNCTION",
            "sequenceKUID": "frmCardlesswithdrawTermincateCodeInit",
            "display": "frmCardlesswithdrawTermincateCodeInit",
            "inputparams": [],
            "parentId": null,
            "callbackType": null,
            "disabled": null,
            "source": "module"
        }]
    }
}