{
    "AS_FlexContainer_g1cc70961da94edaa92f63fee6b76801": {
        "id": "AS_FlexContainer_g1cc70961da94edaa92f63fee6b76801",
        "type": "ACTION_SEQUENCE",
        "name": "frmCAInstallmentPlantDetails_flxSelectPlan_onClick",
        "params": [{
            "datatype": "collection",
            "name": "eventobject"
        }],
        "contextObj": {
            "name": "frmCashAdvanceInstallmentPlanDetails",
            "type": "forms",
            "platform": "",
            "KUID": "d35c82b917854beb9cc4a2d5a10306f4"
        },
        "language": "js",
        "actions": [{
            "id": "INVOKE_FUNCTION___fd5598c89a7248959baf6173a4cc8125",
            "type": "INVOKE_FUNCTION",
            "sequenceKUID": "onClickCASelectPaymentPlan",
            "display": "onClickCASelectPaymentPlan",
            "inputparams": [],
            "parentId": null,
            "callbackType": null,
            "disabled": false,
            "source": "module"
        }]
    }
}