{
    "AS_Button_e6accb05cf2a4a96aeda4c3835325cc6": {
        "id": "AS_Button_e6accb05cf2a4a96aeda4c3835325cc6",
        "type": "ACTION_SEQUENCE",
        "name": "frmCardlesswithdrawLandingInitAction",
        "params": [{
            "datatype": "collection",
            "name": "eventobject"
        }],
        "contextObj": {
            "name": "frmCardlesswithdrawLanding",
            "type": "forms",
            "platform": null,
            "KUID": "b5268f8758b74cdaa9fbb1bcab765de5"
        },
        "language": "js",
        "actions": [{
            "id": "INVOKE_FUNCTION___g2dea95faebc4c648479b4ad3cec5444",
            "type": "INVOKE_FUNCTION",
            "sequenceKUID": "frmCardlesswithdrawLandingInit",
            "display": "frmCardlesswithdrawLandingInit",
            "inputparams": [],
            "parentId": null,
            "callbackType": null,
            "disabled": null,
            "source": "module"
        }]
    }
}