{
    "AS_Form_d77e13bc63534b14b6142fbcb172e280": {
        "id": "AS_Form_d77e13bc63534b14b6142fbcb172e280",
        "type": "ACTION_SEQUENCE",
        "name": "frmEKYCIdpRequestDetailsInitAction",
        "params": [{
            "datatype": "collection",
            "name": "eventobject"
        }],
        "contextObj": {
            "name": "frmEKYCIdpRequestDetailsAndComplete",
            "type": "forms",
            "platform": null,
            "KUID": "a52794c4d8db4d228ae4222184e89a4e"
        },
        "language": "js",
        "actions": [{
            "id": "INVOKE_FUNCTION___cc182772a2374806b88bdd4c9b1daf41",
            "type": "INVOKE_FUNCTION",
            "sequenceKUID": "frmEKYCIdpRequestDetailsInit",
            "display": "frmEKYCIdpRequestDetailsInit",
            "inputparams": [],
            "parentId": null,
            "callbackType": null,
            "disabled": null,
            "source": "module"
        }]
    }
}