{
    "AS_Form_h9e4330ed7304621b9ed8f3cf8de3fe5": {
        "id": "AS_Form_h9e4330ed7304621b9ed8f3cf8de3fe5",
        "type": "ACTION_SEQUENCE",
        "params": [{
            "datatype": "collection",
            "name": "eventobject"
        }],
        "contextObj": {
            "name": "frmEKYCIDInformation",
            "type": "forms",
            "platform": "",
            "KUID": "fc52852eb9c241d883a56b5bc09571a7"
        },
        "language": "js",
        "actions": [{
            "id": "INVOKE_FUNCTION___d758b82299dd44d6a0c0b2745d9268d2",
            "type": "INVOKE_FUNCTION",
            "sequenceKUID": "initfrmEkycIdInformation",
            "display": "initfrmEkycIdInformation",
            "inputparams": [],
            "parentId": null,
            "callbackType": null,
            "disabled": null,
            "source": "module"
        }]
    }
}