{
    "AS_Form_ffe7cb4f5003466687d44030a1ae3694": {
        "id": "AS_Form_ffe7cb4f5003466687d44030a1ae3694",
        "type": "ACTION_SEQUENCE",
        "name": "frmENotificationAccountSelectionInit",
        "params": [{
            "datatype": "collection",
            "name": "eventobject"
        }],
        "contextObj": {
            "name": "frmENotificationAccountSelection",
            "type": "forms",
            "platform": "",
            "KUID": "fd5f5a8566d84956951980d77896a758"
        },
        "language": "js",
        "actions": [{
            "id": "INVOKE_FUNCTION___f557c5210f9a4063aac8780f91ee0d22",
            "type": "INVOKE_FUNCTION",
            "sequenceKUID": "frmENotificationAccountSelectionInit",
            "display": "frmENotificationAccountSelectionInit",
            "inputparams": [],
            "parentId": null,
            "callbackType": null,
            "disabled": null,
            "source": "module"
        }]
    }
}