{
    "AS_Form_a7da966f99a84875a8b96073dd913ae5": {
        "id": "AS_Form_a7da966f99a84875a8b96073dd913ae5",
        "type": "ACTION_SEQUENCE",
        "name": "frmLoanProductDetailsInitAction",
        "params": [{
            "datatype": "collection",
            "name": "eventobject"
        }],
        "contextObj": {
            "type": "forms",
            "platform": "",
            "KUID": "bb4a9f6889a04d54b16c66830d2ff8c8"
        },
        "language": "js",
        "actions": [{
            "id": "INVOKE_FUNCTION___b29eaed8b9a04c4e8705b58c4c3d63d1",
            "type": "INVOKE_FUNCTION",
            "sequenceKUID": "frmLoanProductDetailsInit",
            "display": "frmLoanProductDetailsInit",
            "inputparams": [],
            "parentId": null,
            "callbackType": null,
            "disabled": null,
            "source": "module"
        }]
    }
}