{
    "AS_Form_d9e14b84c7eb43fc84f3d1aaa20652cc": {
        "id": "AS_Form_d9e14b84c7eb43fc84f3d1aaa20652cc",
        "type": "ACTION_SEQUENCE",
        "name": "frmMBBankAssuranceDetailsInitEvent",
        "params": [{
            "datatype": "collection",
            "name": "eventobject"
        }],
        "contextObj": {
            "name": "frmMBBankAssuranceDetails",
            "type": "forms",
            "platform": "",
            "KUID": "9a6d951c68e94e37a10437beaa2ab8ee"
        },
        "language": "js",
        "actions": [{
            "id": "INVOKE_FUNCTION___09b6182627284646b845d2442fb4a91b",
            "type": "INVOKE_FUNCTION",
            "sequenceKUID": "frmMBBankAssuranceDetailsInit",
            "display": "frmMBBankAssuranceDetailsInit",
            "inputparams": [],
            "parentId": null,
            "callbackType": null,
            "disabled": null,
            "source": "module"
        }]
    }
}