{
    "AS_Form_e4508398c4814f7bb0250a45f2691c4a": {
        "id": "AS_Form_e4508398c4814f7bb0250a45f2691c4a",
        "type": "ACTION_SEQUENCE",
        "name": "frmMBRTPSettings_init",
        "params": [{
            "datatype": "collection",
            "name": "eventobject"
        }],
        "contextObj": {
            "name": "frmMBRTPSettings",
            "type": "forms",
            "platform": "",
            "KUID": "e7316d7a1c1643688622b6288aed81ef"
        },
        "language": "js",
        "actions": [{
            "id": "INVOKE_FUNCTION___e1dba1d7b59e4a4684504eb940f5b5dc",
            "type": "INVOKE_FUNCTION",
            "sequenceKUID": "frmMBRTPSettingsInit",
            "display": "frmMBRTPSettingsInit",
            "inputparams": [],
            "parentId": null,
            "callbackType": null,
            "disabled": null,
            "source": "module"
        }]
    }
}