{
    "AS_FlexContainer_gd41bc6ccaf24240827ea693e9c5a43b": {
        "id": "AS_FlexContainer_gd41bc6ccaf24240827ea693e9c5a43b",
        "type": "ACTION_SEQUENCE",
        "name": "frmMBRTPApplyBiller_flxRef1_onClick",
        "params": [{
            "datatype": "collection",
            "name": "eventobject"
        }],
        "contextObj": {
            "name": "frmMBRTPApplyBiller",
            "type": "forms",
            "platform": "",
            "KUID": "g8fefe70b62e4de380f428d807ab4372"
        },
        "language": "js",
        "actions": [{
            "id": "INVOKE_FUNCTION___hf71b2979bb6458d8d4590db712d5b50",
            "type": "INVOKE_FUNCTION",
            "sequenceKUID": "onClickRTPApplyBillerRef1",
            "display": "onClickRTPApplyBillerRef1",
            "inputparams": [],
            "parentId": null,
            "callbackType": null,
            "disabled": null,
            "source": "module"
        }]
    }
}