{
    "AS_Form_e9ac53e0ce8f416a9043316122cad877": {
        "id": "AS_Form_e9ac53e0ce8f416a9043316122cad877",
        "type": "ACTION_SEQUENCE",
        "name": "frmMBFTEditCmplete_preshow_event",
        "params": [{
            "datatype": "collection",
            "name": "eventobject"
        }],
        "contextObj": {
            "name": "frmMBFTEditCmplete",
            "type": "forms",
            "platform": "",
            "KUID": "c4ebbbc10bd54837ac0f7eaf1509b702"
        },
        "language": "js",
        "actions": [{
            "id": "INVOKE_FUNCTION___a173c40b0c014c3d85fb8da0ff938570",
            "type": "INVOKE_FUNCTION",
            "sequenceKUID": "frmMBFTEditCmpletePreShow",
            "display": "frmMBFTEditCmpletePreShow",
            "inputparams": [],
            "parentId": null,
            "callbackType": null,
            "disabled": null,
            "source": "module"
        }]
    }
}