{
    "AS_Form_fd29198d4f9947869b0fd64ad4bd9e0a": {
        "id": "AS_Form_fd29198d4f9947869b0fd64ad4bd9e0a",
        "type": "ACTION_SEQUENCE",
        "name": "frmMFSuitabilityTest1_onDeviceBack_disableBackBtn",
        "params": [{
            "datatype": "collection",
            "name": "eventobject"
        }],
        "contextObj": {
            "name": "frmMFSuitabilityTest1",
            "type": "forms",
            "platform": null,
            "KUID": "a344ed23d0d84ec0a8ebf6ef05cb96ce"
        },
        "language": "js",
        "actions": [{
            "id": "INVOKE_FUNCTION__ide_onDeviceBack_gfbad170958c42d3a42b58fa3a4bec99",
            "type": "INVOKE_FUNCTION",
            "sequenceKUID": "disableBackButton",
            "display": "disableBackButton",
            "inputparams": [],
            "callbackType": null,
            "disabled": null,
            "source": "module"
        }]
    }
}