{
    "AS_Form_c2c4e2fbd8cc49b4846f4edb4e4fab70": {
        "id": "AS_Form_c2c4e2fbd8cc49b4846f4edb4e4fab70",
        "type": "ACTION_SEQUENCE",
        "name": "frmMFSuitabilityTest1_preShow_setDefault",
        "params": [{
            "datatype": "collection",
            "name": "eventobject"
        }],
        "contextObj": {
            "name": "frmMFSuitabilityTest1",
            "type": "forms",
            "platform": "",
            "KUID": "a344ed23d0d84ec0a8ebf6ef05cb96ce"
        },
        "language": "js",
        "actions": [{
            "id": "INVOKE_FUNCTION___e99007f9b53141eead813481278c74e4",
            "type": "INVOKE_FUNCTION",
            "sequenceKUID": "resetMFSuitQuestionToBeDefault",
            "display": "resetMFSuitQuestionToBeDefault",
            "inputparams": [],
            "parentId": null,
            "callbackType": null,
            "disabled": null,
            "source": "module"
        }]
    }
}