{
    "AS_Form_b9e8b552feaa47e686ef0c8a00cdc30c": {
        "id": "AS_Form_b9e8b552feaa47e686ef0c8a00cdc30c",
        "type": "ACTION_SEQUENCE",
        "name": "frmMFSummaryMBInitEvent",
        "params": [{
            "datatype": "collection",
            "name": "eventobject"
        }],
        "contextObj": {
            "name": "frmMFSummary",
            "type": "forms",
            "platform": "",
            "KUID": "f7edebba856a4132a64f1ad82f85e81e"
        },
        "language": "js",
        "actions": [{
            "id": "ADD_SNIPPET__j7377241833a40df968d3efc604da05b",
            "type": "ADD_SNIPPET",
            "codeSnippet": "frmMFSummaryMBInitiatization();",
            "parentId": null,
            "callbackType": null
        }]
    }
}