{
    "AS_Form_c63cd2e4afac4ef288ef4fc5a1abade0": {
        "id": "AS_Form_c63cd2e4afac4ef288ef4fc5a1abade0",
        "type": "ACTION_SEQUENCE",
        "name": "frmMFSuitability_preshow",
        "params": [{
            "datatype": "collection",
            "name": "eventobject"
        }],
        "contextObj": {
            "name": "frmMFSuitabilityTnC",
            "type": "forms",
            "platform": "",
            "KUID": "i75a1d16d8724ef697482ed359a0dd06"
        },
        "language": "js",
        "actions": [{
            "id": "INVOKE_FUNCTION___cce730a8793f44dcb3c9b5cdad5f5daf",
            "type": "INVOKE_FUNCTION",
            "sequenceKUID": "preshowfrmMFSuitabilityTnC",
            "display": "preshowfrmMFSuitabilityTnC",
            "inputparams": [],
            "parentId": null,
            "callbackType": null,
            "disabled": null,
            "source": "module"
        }]
    }
}