{
    "AS_Button_ee65281a04a64a0eaaef7d82d234f118": {
        "id": "AS_Button_ee65281a04a64a0eaaef7d82d234f118",
        "type": "ACTION_SEQUENCE",
        "name": "frmMBManageDebitCardConfirm_Click",
        "params": [{
            "datatype": "collection",
            "name": "eventobject"
        }],
        "contextObj": {
            "name": "frmMBManageDebitCardConfirmation",
            "type": "forms",
            "platform": "",
            "KUID": "gffc7e3dc9c842fba0576d0336e9aa18"
        },
        "language": "js",
        "actions": [{
            "id": "INVOKE_FUNCTION___c7e344f747f44202a3dfbafdbd39077f",
            "type": "INVOKE_FUNCTION",
            "sequenceKUID": "showAccessPinScreenKeypad",
            "display": "showAccessPinScreenKeypad",
            "inputparams": [],
            "parentId": null,
            "callbackType": null,
            "disabled": null,
            "source": "module"
        }]
    }
}