{
    "AS_Button_b4c6b8f37f214784b548b71c42bbe54c": {
        "id": "AS_Button_b4c6b8f37f214784b548b71c42bbe54c",
        "type": "ACTION_SEQUENCE",
        "name": "frmMFSuitabilityReview_onClick_btnGoToPort",
        "params": [{
            "datatype": "collection",
            "name": "eventobject"
        }],
        "contextObj": {
            "name": "frmMFSuitabilityReview",
            "type": "forms",
            "platform": "",
            "KUID": "jcecf1e4d33240e6956ee8a055df8ce7"
        },
        "language": "js",
        "actions": [{
            "id": "INVOKE_FUNCTION___ea5b6ae3fe7d407fa7ba59fbc09c2e5a",
            "type": "INVOKE_FUNCTION",
            "sequenceKUID": "getBackToMyMutualFundsSummaryPage",
            "display": "getBackToMyMutualFundsSummaryPage",
            "inputparams": [],
            "parentId": null,
            "callbackType": null,
            "disabled": null,
            "source": "module"
        }]
    }
}