{
    "AS_FlexContainer_f11081a6590241d883a9477ff6096f1c": {
        "id": "AS_FlexContainer_f11081a6590241d883a9477ff6096f1c",
        "type": "ACTION_SEQUENCE",
        "name": "frmMBRTPStartUp_flxBiz_onClick",
        "params": [{
            "datatype": "collection",
            "name": "eventobject"
        }],
        "contextObj": {
            "name": "frmMBRTPStartUp",
            "type": "forms",
            "platform": "",
            "KUID": "c5fd40fb73f64b09806ac33004cb3e39"
        },
        "language": "js",
        "actions": [{
            "id": "INVOKE_FUNCTION___iffca525e01c4a79a9814045cd1d08ab",
            "type": "INVOKE_FUNCTION",
            "sequenceKUID": "onClickRTPStartUpCheckBoxBusiness",
            "display": "onClickRTPStartUpCheckBoxBusiness",
            "inputparams": [],
            "parentId": null,
            "callbackType": null,
            "disabled": null,
            "source": "module"
        }]
    }
}