{
    "AS_Button_idb24092417744eab1bb25237dea68d4": {
        "id": "AS_Button_idb24092417744eab1bb25237dea68d4",
        "type": "ACTION_SEQUENCE",
        "name": "frmMBRTPNoActiveList_btnMenu_onClick",
        "params": [{
            "name": "eventobject",
            "value": "eventobject"
        }],
        "contextObj": {
            "name": "frmMBRTPNoActiveList",
            "type": "forms",
            "platform": null,
            "KUID": "abf4071b242b47e9b1a13fdf0f78a439"
        },
        "language": "js",
        "actions": [{
            "id": "INVOKE_FUNCTION__ide_onClick_ddc87f3183e2498fa9d70425dd9aa885",
            "type": "INVOKE_FUNCTION",
            "sequenceKUID": "handleMenuBtn",
            "display": "handleMenuBtn",
            "inputparams": [],
            "source": "module"
        }]
    }
}