{
    "AS_Form_cba50d332afd446abec942e4f3d00a82": {
        "id": "AS_Form_cba50d332afd446abec942e4f3d00a82",
        "type": "ACTION_SEQUENCE",
        "name": "frmMBeKYCContactInfoIntiActon",
        "params": [{
            "datatype": "collection",
            "name": "eventobject"
        }],
        "contextObj": {
            "name": "frmMBeKYCContactInfo",
            "type": "forms",
            "platform": "",
            "KUID": "bb35e7256e4945ff8d70f6ff2d31646f"
        },
        "language": "js",
        "actions": [{
            "id": "INVOKE_FUNCTION___e498ffa1f7c04c55b42e99282bf9147a",
            "type": "INVOKE_FUNCTION",
            "sequenceKUID": "frmMBeKYCContactInfoInit",
            "display": "frmMBeKYCContactInfoInit",
            "inputparams": [],
            "parentId": null,
            "callbackType": null,
            "disabled": null,
            "source": "module"
        }]
    }
}