{
    "AS_Button_b3806fd86896454bb3e5208c41c1af22": {
        "id": "AS_Button_b3806fd86896454bb3e5208c41c1af22",
        "type": "ACTION_SEQUENCE",
        "name": "frmMBRTPNoActiveList_btnGoToAcctSum_onClick",
        "params": [{
            "name": "eventobject",
            "value": "eventobject"
        }],
        "contextObj": {
            "name": "frmMBRTPNoActiveList",
            "type": "forms",
            "platform": null,
            "KUID": "abf4071b242b47e9b1a13fdf0f78a439"
        },
        "language": "js",
        "actions": [{
            "id": "INVOKE_FUNCTION__ide_onClick_ha3b6dd4c18d44d8bccc870df146f327",
            "type": "INVOKE_FUNCTION",
            "sequenceKUID": "showAccountSummaryFromMenu",
            "display": "showAccountSummaryFromMenu",
            "inputparams": [],
            "source": "module"
        }]
    }
}