{
    "AS_FlexContainer_dae7566f33a64f87b9fffe8e92f47981": {
        "id": "AS_FlexContainer_dae7566f33a64f87b9fffe8e92f47981",
        "type": "ACTION_SEQUENCE",
        "name": "frmMFSuitabilityTest1_onTouchStart_clickAnswer1",
        "params": [{
            "datatype": "collection",
            "name": "eventobject"
        }, {
            "datatype": "string",
            "name": "x"
        }, {
            "datatype": "string",
            "name": "y"
        }],
        "contextObj": {
            "name": "frmMFSuitabilityTest1",
            "type": "forms",
            "platform": "",
            "KUID": "a344ed23d0d84ec0a8ebf6ef05cb96ce"
        },
        "language": "js",
        "actions": [{
            "id": "INVOKE_FUNCTION___b632986a076a4694964dab7a4e8bd22f",
            "type": "INVOKE_FUNCTION",
            "sequenceKUID": "onClickMFSuitabilityTestAnswer1",
            "display": "onClickMFSuitabilityTestAnswer1",
            "inputparams": [],
            "parentId": null,
            "callbackType": null,
            "disabled": null,
            "source": "module"
        }]
    }
}