{
    "AS_Form_d7fd0633829541669810656c6c65caff": {
        "id": "AS_Form_d7fd0633829541669810656c6c65caff",
        "type": "ACTION_SEQUENCE",
        "name": "frmMBRTPStartUp_onDeviceBack",
        "params": [{
            "datatype": "collection",
            "name": "eventobject"
        }],
        "contextObj": {
            "name": "frmMBRTPStartUp",
            "type": "forms",
            "platform": "",
            "KUID": "c5fd40fb73f64b09806ac33004cb3e39"
        },
        "language": "js",
        "actions": [{
            "id": "INVOKE_FUNCTION___f796336111ea4382b9c47e959c73236d",
            "type": "INVOKE_FUNCTION",
            "sequenceKUID": "disableBackButton",
            "display": "disableBackButton",
            "inputparams": [],
            "parentId": null,
            "callbackType": null,
            "disabled": null,
            "source": "module"
        }]
    }
}