{
    "AS_Form_j2d7a1263d3a4e0186649eaacc3e9ea6": {
        "id": "AS_Form_j2d7a1263d3a4e0186649eaacc3e9ea6",
        "type": "ACTION_SEQUENCE",
        "name": "frmMBFTEditCmpleteMenuInitAction",
        "params": [{
            "datatype": "collection",
            "name": "eventobject"
        }],
        "contextObj": {
            "name": "frmMBFTEditCmplete",
            "type": "forms",
            "platform": "",
            "KUID": "c4ebbbc10bd54837ac0f7eaf1509b702"
        },
        "language": "js",
        "actions": [{
            "id": "INVOKE_FUNCTION___ae6f2cb0526a4baa8d28b0e77c6dbb93",
            "type": "INVOKE_FUNCTION",
            "sequenceKUID": "frmMBFTEditCmpleteMenuInit",
            "display": "frmMBFTEditCmpleteMenuInit",
            "inputparams": [],
            "parentId": null,
            "callbackType": null,
            "disabled": null,
            "source": "module"
        }]
    }
}