{
    "AS_TextField_eca98d29d4754dc3a5e7821a0ae37a75": {
        "id": "AS_TextField_eca98d29d4754dc3a5e7821a0ae37a75",
        "type": "ACTION_SEQUENCE",
        "name": "frmMBRTPApplyBiller_txtNickName_onDone",
        "params": [{
            "datatype": "collection",
            "name": "eventobject"
        }, {
            "datatype": "string",
            "name": "changedtext"
        }],
        "contextObj": {
            "name": "frmMBRTPApplyBiller",
            "type": "forms",
            "platform": "",
            "KUID": "g8fefe70b62e4de380f428d807ab4372"
        },
        "language": "js",
        "actions": [{
            "id": "INVOKE_FUNCTION___e1ff4875613d4159a8a9dc778d7545bc",
            "type": "INVOKE_FUNCTION",
            "sequenceKUID": "onDoneRTPApplyBillerTxtNickName",
            "display": "onDoneRTPApplyBillerTxtNickName",
            "inputparams": [],
            "parentId": null,
            "callbackType": null,
            "disabled": null,
            "source": "module"
        }]
    }
}