{
    "AS_Form_hd5fa774334141299f8f58580d2df319": {
        "id": "AS_Form_hd5fa774334141299f8f58580d2df319",
        "type": "ACTION_SEQUENCE",
        "name": "frmMBRTPBillerSettings_onDeviceBack",
        "params": [{
            "datatype": "collection",
            "name": "eventobject"
        }],
        "contextObj": {
            "name": "frmMBRTPBillerSettings",
            "type": "forms",
            "platform": null,
            "KUID": "be87bb53854a47eb9b3259f76e619e60"
        },
        "language": "js",
        "actions": [{
            "id": "INVOKE_FUNCTION__ide_onDeviceBack_g05fb424779643f5831855461de9f9e9",
            "type": "INVOKE_FUNCTION",
            "sequenceKUID": "disableBackButton",
            "display": "disableBackButton",
            "inputparams": [],
            "callbackType": null,
            "disabled": null,
            "source": "module"
        }]
    }
}