{
    "AS_Form_f1dde44cedaa43f68f8a2451a2aa3804": {
        "id": "AS_Form_f1dde44cedaa43f68f8a2451a2aa3804",
        "type": "ACTION_SEQUENCE",
        "name": "frmMBFTEditCmpleteMenuPreshow",
        "params": [{
            "datatype": "collection",
            "name": "eventobject"
        }],
        "contextObj": {
            "name": "frmMBFTEditCmplete",
            "type": "forms",
            "platform": null,
            "KUID": "c4ebbbc10bd54837ac0f7eaf1509b702"
        },
        "language": "js",
        "actions": [{
            "id": "INVOKE_FUNCTION___cadeeb91174e474598a2e2b16ff852c2",
            "type": "INVOKE_FUNCTION",
            "sequenceKUID": "frmMBFTEditCmpleteMenuPostshow",
            "display": "frmMBFTEditCmpleteMenuPostshow",
            "inputparams": [],
            "parentId": null,
            "callbackType": null,
            "disabled": null,
            "source": "module"
        }]
    }
}