{
    "AS_Button_452ae58eb08b472593e04ebe312612d1": {
        "id": "AS_Button_452ae58eb08b472593e04ebe312612d1",
        "type": "ACTION_SEQUENCE",
        "name": "frmMFFullStatementNFundSummary_btn4AS",
        "params": [{
            "datatype": "collection",
            "name": "eventobject"
        }],
        "contextObj": {
            "name": "frmMFFullStatementNFundSummary",
            "type": "forms",
            "platform": "",
            "KUID": "5754d94f6c3d4ed1bdf30e73799daf46"
        },
        "language": "js",
        "actions": [{
            "id": "INVOKE_FUNCTION___078c712e25ac4625a49afc62ea7a39a7",
            "type": "INVOKE_FUNCTION",
            "sequenceKUID": "onTabSelectMFMonth",
            "display": "onTabSelectMFMonth",
            "inputparams": [{
                "name": "selectedIndex",
                "value": "\"2\""
            }],
            "parentId": null,
            "disabled": null,
            "source": "module"
        }]
    }
}