{
    "AS_Button_d1e55c3b22d2477eba5652c48b35469c": {
        "id": "AS_Button_d1e55c3b22d2477eba5652c48b35469c",
        "type": "ACTION_SEQUENCE",
        "name": "frmMFSuitabilityReviewTnC_submit",
        "params": [{
            "datatype": "collection",
            "name": "eventobject"
        }],
        "contextObj": {
            "name": "frmMFSuitabilityTnC",
            "type": "forms",
            "platform": "",
            "KUID": "i75a1d16d8724ef697482ed359a0dd06"
        },
        "language": "js",
        "actions": [{
            "id": "INVOKE_FUNCTION___e7b54bac93874a63b1f9e7ffd635d777",
            "type": "INVOKE_FUNCTION",
            "sequenceKUID": "onClickNextfrmSuitabilityReviewTnC",
            "display": "onClickNextfrmSuitabilityReviewTnC",
            "inputparams": [],
            "parentId": null,
            "disabled": null,
            "source": "module"
        }]
    }
}