{
    "AS_Form_cc117599f8494576869ecf5ed4e13972": {
        "id": "AS_Form_cc117599f8494576869ecf5ed4e13972",
        "type": "ACTION_SEQUENCE",
        "name": "frmMBFTEditflexPostShow",
        "params": [{
            "datatype": "collection",
            "name": "eventobject"
        }],
        "contextObj": {
            "name": "frmMBFTEdit",
            "type": "forms",
            "platform": "",
            "KUID": "b47865675bb7453e9aeded8a19178d71"
        },
        "language": "js",
        "actions": [{
            "id": "INVOKE_FUNCTION___ddc5b869c11f4badb8e1be0abff9cf54",
            "type": "INVOKE_FUNCTION",
            "sequenceKUID": "frmMBFTEditMenuPostshow",
            "display": "frmMBFTEditMenuPostshow",
            "inputparams": [],
            "parentId": null,
            "callbackType": null,
            "disabled": null,
            "source": "module"
        }]
    }
}