{
    "AS_Form_ge913e06aa0f4ec5949493cca35cb755": {
        "id": "AS_Form_ge913e06aa0f4ec5949493cca35cb755",
        "type": "ACTION_SEQUENCE",
        "name": "frmMBManageDebitcard_Post_Show",
        "params": [{
            "name": "eventobject",
            "datatype": "collection"
        }],
        "contextObj": {
            "name": "frmMBManageDebitCardConfirmation",
            "type": "forms",
            "platform": "",
            "KUID": "gffc7e3dc9c842fba0576d0336e9aa18"
        },
        "language": "js",
        "actions": [{
            "id": "INVOKE_FUNCTION___d1ced2d4449a4dafacb973c581b31cec",
            "type": "INVOKE_FUNCTION",
            "sequenceKUID": "frmMBManageDebitCardConfirmationPostShow",
            "display": "frmMBManageDebitCardConfirmationPostShow",
            "inputparams": [{
                "name": "frmName",
                "value": "frmMBManageDebitCardConfirmation"
            }],
            "parentId": null,
            "callbackType": null,
            "disabled": null,
            "source": "module"
        }]
    }
}