{
    "AS_Form_c96fa6dab5e54fffa1b8e69f806ea863": {
        "id": "AS_Form_c96fa6dab5e54fffa1b8e69f806ea863",
        "type": "ACTION_SEQUENCE",
        "name": "frmMBLoanKYCInitEvent",
        "params": [{
            "datatype": "collection",
            "name": "eventobject"
        }],
        "contextObj": {
            "name": "frmMBLoanKYC",
            "type": "forms",
            "platform": "",
            "KUID": "f62fea2e1ad14d4fb1a54c72a6593d92"
        },
        "language": "js",
        "actions": [{
            "id": "INVOKE_FUNCTION___g0e4ec198bfb432587d5a6273719bb6f",
            "type": "INVOKE_FUNCTION",
            "sequenceKUID": "frmMBLoanKYCInit",
            "display": "frmMBLoanKYCInit",
            "inputparams": [],
            "parentId": null,
            "callbackType": null,
            "disabled": null,
            "source": "module"
        }]
    }
}