{
    "AS_Button_c723c0c628484856ae4337ce6a08a734": {
        "id": "AS_Button_c723c0c628484856ae4337ce6a08a734",
        "type": "ACTION_SEQUENCE",
        "name": "frmMFSuitabilityExpiry_onClick_btnArrow",
        "params": [{
            "datatype": "collection",
            "name": "eventobject"
        }],
        "contextObj": {
            "name": "frmMFSuitablilityExpiry",
            "type": "forms",
            "platform": "",
            "KUID": "e71190482286430d943bc44e441fba21"
        },
        "language": "js",
        "actions": [{
            "id": "INVOKE_FUNCTION___g38497fd4bd64dc0809563b2ad39765b",
            "type": "INVOKE_FUNCTION",
            "sequenceKUID": "getBackToMyMutualFundsSummaryPage",
            "display": "getBackToMyMutualFundsSummaryPage",
            "inputparams": [],
            "parentId": null,
            "callbackType": null,
            "disabled": null,
            "source": "module"
        }]
    }
}