{
    "AS_Form_a819cefb18c14d13bf9b495e506d74f2": {
        "id": "AS_Form_a819cefb18c14d13bf9b495e506d74f2",
        "type": "ACTION_SEQUENCE",
        "name": "frmQRSelectAccount_DevicebackDisable",
        "params": [{
            "datatype": "collection",
            "name": "eventobject"
        }],
        "contextObj": {
            "name": "frmQRSelectAccount",
            "type": "forms",
            "platform": "",
            "KUID": "f6832a4ca9c14698bb878d59e89214f7"
        },
        "language": "js",
        "actions": [{
            "id": "INVOKE_FUNCTION___eaf7567c76d741cda6db0046764cc6d3",
            "type": "INVOKE_FUNCTION",
            "sequenceKUID": "disableBackButton",
            "display": "disableBackButton",
            "inputparams": [],
            "parentId": null,
            "callbackType": null,
            "disabled": null,
            "source": "module"
        }]
    }
}