{
    "AS_FlexContainer_d339d9bf9ac0412e964399ae8daec102": {
        "id": "AS_FlexContainer_d339d9bf9ac0412e964399ae8daec102",
        "type": "ACTION_SEQUENCE",
        "name": "frmQRSuccess_onClickPay",
        "params": [{
            "datatype": "collection",
            "name": "eventobject"
        }],
        "language": "js",
        "actions": [{
            "id": "ADD_SNIPPET_ide_onClick_c35144e087fa4b47a4fe0f0ba4a77d02",
            "type": "ADD_SNIPPET",
            "codeSnippet": "validateQRPayment();",
            "callbackType": null
        }]
    }
}