{
    "AS_Form_e405757b136c4bcb8187bc4233e221e2": {
        "id": "AS_Form_e405757b136c4bcb8187bc4233e221e2",
        "type": "ACTION_SEQUENCE",
        "name": "frmQRSelectAccntnew_preshow",
        "params": [{
            "datatype": "collection",
            "name": "eventobject"
        }],
        "contextObj": {
            "name": "frmQRSelectAccount",
            "type": "forms",
            "platform": "",
            "KUID": "f6832a4ca9c14698bb878d59e89214f7"
        },
        "language": "js",
        "actions": [{
            "id": "INVOKE_FUNCTION___b86aff0ebbec4f3fa7059e7405a3d753",
            "type": "INVOKE_FUNCTION",
            "sequenceKUID": "addAccessPinKeypad",
            "display": "addAccessPinKeypad",
            "inputparams": [{
                "name": "frmName",
                "value": "frmQRSelectAccount"
            }],
            "parentId": null,
            "callbackType": null,
            "disabled": null,
            "source": "module"
        }]
    }
}