{
    "AS_FlexContainer_ef84c01fd9de44819a4f45825396e6ed": {
        "id": "AS_FlexContainer_ef84c01fd9de44819a4f45825396e6ed",
        "type": "ACTION_SEQUENCE",
        "name": "frmQRSuccess_onClickSelAccount",
        "params": [{
            "datatype": "collection",
            "name": "eventobject"
        }],
        "language": "js",
        "actions": [{
            "id": "ADD_SNIPPET_ide_onClick_b8fb0f88336b4f4ba83042af893c2dae",
            "type": "ADD_SNIPPET",
            "codeSnippet": "if(isSignedUser){\n  onSelectFromAccntQRPay();\n} else {\n  gblQrSetDefaultAccnt=true;\n  frmMBPreLoginAccessesPin.show();\n  accessPinOnClickLogin();\n}\n",
            "callbackType": null
        }]
    }
}