{
    "AS_Form_d341dcd3a50b4794beff34efb2f408a9": {
        "id": "AS_Form_d341dcd3a50b4794beff34efb2f408a9",
        "type": "ACTION_SEQUENCE",
        "name": "frmquickBalanceSettingsInitAction",
        "params": [{
            "datatype": "collection",
            "name": "eventobject"
        }],
        "contextObj": {
            "name": "frmMBQuickBalanceSetting",
            "type": "forms",
            "platform": "",
            "KUID": "p2kwiet2012247632459"
        },
        "language": "js",
        "actions": [{
            "id": "INVOKE_FUNCTION___e08173ef8e80485996b87809cbde9210",
            "type": "INVOKE_FUNCTION",
            "sequenceKUID": "frmMBQuickBalanceSettingInit",
            "display": "frmMBQuickBalanceSettingInit",
            "inputparams": [],
            "parentId": null,
            "callbackType": null,
            "disabled": null,
            "source": "module"
        }]
    }
}