{
    "AS_Segment_af1c5d98800a4f49928fef8a688c1245": {
        "id": "AS_Segment_af1c5d98800a4f49928fef8a688c1245",
        "type": "ACTION_SEQUENCE",
        "name": "frmSelAccntMutualFund_onSwipeSelAcct",
        "params": [{
            "datatype": "collection",
            "name": "seguiWidget"
        }, {
            "datatype": "number",
            "name": "sectionIndex"
        }, {
            "datatype": "number",
            "name": "rowIndex"
        }],
        "contextObj": {
            "name": "frmSelAccntMutualFund",
            "type": "forms",
            "platform": "",
            "KUID": "efe29e6bf0b74ea88f71d7325e090e3a"
        },
        "language": "js",
        "actions": [{
            "id": "ADD_SNIPPET__a28cd969a08c47da9c5bcec5fa0b3c18",
            "type": "ADD_SNIPPET",
            "codeSnippet": "var modScroll = new getMutualfundIndex();\nmodScroll.paginationSwitch( sectionIndex, rowIndex );",
            "parentId": null,
            "callbackType": null
        }]
    }
}