{
    "AS_Button_hd07bda0cb0c4e81b5321e7ea7c679a8": {
        "id": "AS_Button_hd07bda0cb0c4e81b5321e7ea7c679a8",
        "type": "ACTION_SEQUENCE",
        "name": "frmSelAccntMutualFund_onClickOk",
        "params": [{
            "datatype": "collection",
            "name": "eventobject"
        }],
        "contextObj": {
            "name": "frmSelAccntMutualFund",
            "type": "forms",
            "platform": "",
            "KUID": "efe29e6bf0b74ea88f71d7325e090e3a"
        },
        "language": "js",
        "actions": [{
            "id": "INVOKE_FUNCTION___bfc582216a41458c8bd3a4fa463a66dd",
            "type": "INVOKE_FUNCTION",
            "sequenceKUID": "onClickCoverFlowMutualFundMB",
            "display": "onClickCoverFlowMutualFundMB",
            "inputparams": [],
            "parentId": null,
            "callbackType": null,
            "disabled": null,
            "source": "module"
        }]
    }
}