{
    "AS_Form_f6444ec88c0442e3b9658a70897c23fa": {
        "id": "AS_Form_f6444ec88c0442e3b9658a70897c23fa",
        "type": "ACTION_SEQUENCE",
        "name": "frmTutorialForCardlessWithdraw_Preshow",
        "params": [{
            "datatype": "collection",
            "name": "eventobject"
        }],
        "contextObj": {
            "name": "frmTutorialForCardlessWithdraw",
            "type": "forms",
            "platform": null,
            "KUID": "cc88c335a93b40399fd94ebe9ba0f43a"
        },
        "language": "js",
        "actions": [{
            "id": "INVOKE_FUNCTION___j55bb4ce78624b2b9c7ed913e810b978",
            "type": "INVOKE_FUNCTION",
            "sequenceKUID": "frmTutorialForCardlessWithdrawPreshow",
            "display": "frmTutorialForCardlessWithdrawPreshow",
            "inputparams": [],
            "parentId": null,
            "callbackType": null,
            "disabled": null,
            "source": "module"
        }]
    }
}