{
    "AS_Button_i19aba09ea3540778ec9a333cb8d979f": {
        "id": "AS_Button_i19aba09ea3540778ec9a333cb8d979f",
        "type": "ACTION_SEQUENCE",
        "name": "frmUVTransReqHistoryDetails_back_onClick",
        "params": [{
            "datatype": "collection",
            "name": "eventobject"
        }],
        "contextObj": {
            "name": "frmUVTransReqHistoryDetails",
            "type": "forms",
            "platform": null,
            "KUID": "h259d787da4b47c5995e7944c4ce3b46"
        },
        "language": "js",
        "actions": [{
            "id": "INVOKE_FUNCTION___af66641501384e698296f11ad9d3b801",
            "type": "INVOKE_FUNCTION",
            "sequenceKUID": "onClickBackfrmUVTransReqHistoryDetails",
            "display": "onClickBackfrmUVTransReqHistoryDetails",
            "inputparams": [],
            "parentId": null,
            "callbackType": null,
            "disabled": null,
            "source": "module"
        }]
    }
}