{
    "AS_Button_c4232fb3339c40368cd08377e2999620": {
        "id": "AS_Button_c4232fb3339c40368cd08377e2999620",
        "type": "ACTION_SEQUENCE",
        "name": "frmUVApproval_back_onClick",
        "params": [{
            "datatype": "collection",
            "name": "eventobject"
        }],
        "contextObj": {
            "name": "frmUVApprovalMB",
            "type": "forms",
            "platform": "",
            "KUID": "b7cb0844fdad4cc0a9520d64390948fa"
        },
        "language": "js",
        "actions": [{
            "id": "INVOKE_FUNCTION___af12a5ba2e0d4d39bb2d5420b252af48",
            "type": "INVOKE_FUNCTION",
            "sequenceKUID": "navigateTofrmUVRequestHistory",
            "display": "navigateTofrmUVRequestHistory",
            "inputparams": [],
            "parentId": null,
            "callbackType": null,
            "disabled": null,
            "source": "module"
        }]
    }
}