{
    "AS_FlexContainer_g50716877db143309352b368d75cc967": {
        "id": "AS_FlexContainer_g50716877db143309352b368d75cc967",
        "type": "ACTION_SEQUENCE",
        "name": "frmUVActiveRequests_flxDetails1_onTouch",
        "params": [{
            "datatype": "collection",
            "name": "eventobject"
        }, {
            "datatype": "string",
            "name": "x"
        }, {
            "datatype": "string",
            "name": "y"
        }],
        "contextObj": {
            "name": "frmUVRequestHistory",
            "type": "forms",
            "platform": null,
            "KUID": "b251ae09063544dc8d3122c821b50925"
        },
        "language": "js",
        "actions": [{
            "id": "INVOKE_FUNCTION___ae227bc9df984596bd08923de2939e77",
            "type": "INVOKE_FUNCTION",
            "sequenceKUID": "navigateToUVApproval",
            "display": "navigateToUVApproval",
            "inputparams": [],
            "parentId": null,
            "callbackType": null,
            "disabled": null,
            "source": "module"
        }]
    }
}