{
    "AS_Button_ga150f4f8dd24a46abe3c77411347f5d": {
        "id": "AS_Button_ga150f4f8dd24a46abe3c77411347f5d",
        "type": "ACTION_SEQUENCE",
        "name": "frmUVApproval_problem_onClick",
        "params": [{
            "datatype": "collection",
            "name": "eventobject"
        }],
        "contextObj": {
            "name": "frmUVApprovalMB",
            "type": "forms",
            "platform": "",
            "KUID": "b7cb0844fdad4cc0a9520d64390948fa"
        },
        "language": "js",
        "actions": [{
            "id": "INVOKE_FUNCTION___bb3b6616389045dbb1d4e13d5280470b",
            "type": "INVOKE_FUNCTION",
            "sequenceKUID": "onClickfrmUVTransRejectMenu",
            "display": "onClickfrmUVTransRejectMenu",
            "inputparams": [],
            "parentId": null,
            "callbackType": null,
            "disabled": null,
            "source": "module"
        }]
    }
}