{
    "AS_Segment_cac85a5c7f9449729506d951d083859a": {
        "id": "AS_Segment_cac85a5c7f9449729506d951d083859a",
        "type": "ACTION_SEQUENCE",
        "name": "frmUVRequestHistory_segment_onClick",
        "params": [{
            "datatype": "collection",
            "name": "eventobject"
        }, {
            "datatype": "number",
            "name": "sectionNumber"
        }, {
            "datatype": "number",
            "name": "rowNumber"
        }],
        "contextObj": {
            "name": "frmUVRequestHistoryNew",
            "type": "forms",
            "platform": "",
            "KUID": "geac0220be9645859efda520d34489a3"
        },
        "language": "js",
        "actions": [{
            "id": "INVOKE_FUNCTION___e6cc2e7ffe2f4651817fbfa0ce9c27fd",
            "type": "INVOKE_FUNCTION",
            "sequenceKUID": "navigateToUVApproval",
            "display": "navigateToUVApproval",
            "inputparams": [],
            "parentId": null,
            "callbackType": null,
            "disabled": null,
            "source": "module"
        }]
    }
}