{
    "AS_Form_d113f5a741ad431abc2bade09de425c5": {
        "id": "AS_Form_d113f5a741ad431abc2bade09de425c5",
        "type": "ACTION_SEQUENCE",
        "name": "frmUVApprovalMBInitAction",
        "params": [{
            "datatype": "collection",
            "name": "eventobject"
        }],
        "contextObj": {
            "name": "frmUVApprovalMB",
            "type": "forms",
            "platform": "",
            "KUID": "b7cb0844fdad4cc0a9520d64390948fa"
        },
        "language": "js",
        "actions": [{
            "id": "ADD_SNIPPET__f663c367cd73406e8478b88c92aa6983",
            "type": "ADD_SNIPPET",
            "codeSnippet": "frmUVApprovalMBInit();",
            "parentId": null,
            "callbackType": null
        }]
    }
}