{
    "AS_Button_d651dbdfff6f4533825a4f5e2f0dac37": {
        "id": "AS_Button_d651dbdfff6f4533825a4f5e2f0dac37",
        "type": "ACTION_SEQUENCE",
        "name": "frmUVComplete_onDone",
        "params": [{
            "name": "eventobject",
            "value": "eventobject"
        }],
        "contextObj": {
            "type": "forms",
            "platform": null,
            "KUID": "h8332d8bb35c4669bfcb58cc798c3bdd"
        },
        "language": "js",
        "actions": [{
            "id": "INVOKE_FUNCTION__ide_onClick_j471c918e99b4225a85d0a4073b5fcf7",
            "type": "INVOKE_FUNCTION",
            "sequenceKUID": "navigateTofrmUVRequestHistory",
            "display": "navigateTofrmUVRequestHistory",
            "inputparams": [],
            "source": "module"
        }]
    }
}