{
    "AS_FlexContainer_h85003ef08634f4589e2abfd5f797be4": {
        "id": "AS_FlexContainer_h85003ef08634f4589e2abfd5f797be4",
        "type": "ACTION_SEQUENCE",
        "name": "frmUVActiveRequest_onTouch",
        "params": [{
            "datatype": "collection",
            "name": "eventobject"
        }, {
            "datatype": "string",
            "name": "x"
        }, {
            "datatype": "string",
            "name": "y"
        }],
        "contextObj": {
            "name": "frmUVRequestHistory",
            "type": "forms",
            "platform": null,
            "KUID": "b251ae09063544dc8d3122c821b50925"
        },
        "language": "js",
        "actions": [{
            "id": "INVOKE_FUNCTION___f971bb01127e45048acd83427bdce33a",
            "type": "INVOKE_FUNCTION",
            "sequenceKUID": "navigateToUVApproval",
            "display": "navigateToUVApproval",
            "inputparams": [],
            "parentId": null,
            "callbackType": null,
            "disabled": null,
            "source": "module"
        }]
    }
}