{
    "AS_Button_c9514367d7904392a16689fc8df64c60": {
        "id": "AS_Button_c9514367d7904392a16689fc8df64c60",
        "type": "ACTION_SEQUENCE",
        "name": "frmUVRequestHistory_back_onClick",
        "params": [{
            "datatype": "collection",
            "name": "eventobject"
        }],
        "contextObj": {
            "name": "frmUVRequestHistoryNew",
            "type": "forms",
            "platform": "",
            "KUID": "geac0220be9645859efda520d34489a3"
        },
        "language": "js",
        "actions": [{
            "id": "INVOKE_FUNCTION___ce163c71d40d41eab7d0c2db916b0db3",
            "type": "INVOKE_FUNCTION",
            "sequenceKUID": "showAccountSummaryFromMenu",
            "display": "showAccountSummaryFromMenu",
            "inputparams": [],
            "parentId": null,
            "disabled": null,
            "source": "module"
        }]
    }
}