{
    "AS_Form_gec9967ce8d741c5b0c0cc769bb4b82e": {
        "id": "AS_Form_gec9967ce8d741c5b0c0cc769bb4b82e",
        "type": "ACTION_SEQUENCE",
        "name": "initfrmRegAttentionAction",
        "params": [{
            "datatype": "collection",
            "name": "eventobject"
        }],
        "contextObj": {
            "type": "forms",
            "platform": "",
            "KUID": "i64b1c5ee9244066a8863ba171e6560f"
        },
        "language": "js",
        "actions": [{
            "id": "ADD_SNIPPET__g6f7d9322d724c1db6e54054d13c747b",
            "type": "ADD_SNIPPET",
            "codeSnippet": "initFrmRegAttention();",
            "parentId": null,
            "callbackType": null
        }]
    }
}