{
    "AS_Form_d2c4917a97024067af4f96c7bf4764d5": {
        "id": "AS_Form_d2c4917a97024067af4f96c7bf4764d5",
        "type": "ACTION_SEQUENCE",
        "name": "Init_frmeKYCFaceRecg",
        "params": [{
            "datatype": "collection",
            "name": "eventobject"
        }],
        "contextObj": {
            "name": "frmMBeKYCFaceRecg",
            "type": "forms",
            "platform": null,
            "KUID": "a0758be2ce0142d0ad4b85aa2a3d8788"
        },
        "language": "js",
        "actions": [{
            "id": "INVOKE_FUNCTION___c31f7618a78e41b1ba84e5a12d4d9553",
            "type": "INVOKE_FUNCTION",
            "sequenceKUID": "initfrmeKYCFaceRecg",
            "display": "initfrmeKYCFaceRecg",
            "inputparams": [],
            "parentId": null,
            "callbackType": null,
            "disabled": null,
            "source": "module"
        }]
    }
}