{
    "AS_FlexContainer_db5009888ab843d0958558242bb428a1": {
        "id": "AS_FlexContainer_db5009888ab843d0958558242bb428a1",
        "type": "ACTION_SEQUENCE",
        "name": "onClickCalendarFTEditForm",
        "params": [{
            "datatype": "collection",
            "name": "eventobject"
        }],
        "contextObj": {
            "name": "frmMBFTEdit",
            "type": "forms",
            "platform": "",
            "KUID": "b47865675bb7453e9aeded8a19178d71"
        },
        "language": "js",
        "actions": [{
            "id": "INVOKE_FUNCTION___daf47b8bae974436b57d5e4d2b0f535d",
            "type": "INVOKE_FUNCTION",
            "sequenceKUID": "ehFrmMBFTEdit_btnFTEdit_onClick",
            "display": "ehFrmMBFTEdit_btnFTEdit_onClick",
            "inputparams": [{
                "name": "eventobject"
            }],
            "parentId": null,
            "callbackType": null,
            "disabled": null,
            "source": "module"
        }]
    }
}