{
    "AS_Button_ec78c4ec058643318c24b53fedccbce3": {
        "id": "AS_Button_ec78c4ec058643318c24b53fedccbce3",
        "type": "ACTION_SEQUENCE",
        "name": "onClickDeleteFTEditForm",
        "params": [{
            "datatype": "collection",
            "name": "eventobject"
        }],
        "contextObj": {
            "name": "frmMBFTEdit",
            "type": "forms",
            "platform": "",
            "KUID": "b47865675bb7453e9aeded8a19178d71"
        },
        "language": "js",
        "actions": [{
            "id": "INVOKE_FUNCTION___b69c8a69834c4ba090ca5892a293136a",
            "type": "INVOKE_FUNCTION",
            "sequenceKUID": "srvCrmProfileInqforFTCancelMB",
            "display": "srvCrmProfileInqforFTCancelMB",
            "inputparams": [],
            "parentId": null,
            "callbackType": null,
            "disabled": null,
            "source": "module"
        }]
    }
}