{
    "AS_Segment_e0e578056c8d4e93adbe65b990bdeb4a": {
        "id": "AS_Segment_e0e578056c8d4e93adbe65b990bdeb4a",
        "type": "ACTION_SEQUENCE",
        "name": "onSwipeSegRegActivationAction",
        "params": [{
            "datatype": "collection",
            "name": "seguiWidget"
        }, {
            "datatype": "number",
            "name": "sectionIndex"
        }, {
            "datatype": "number",
            "name": "rowIndex"
        }],
        "contextObj": {
            "name": "frmRegActivationSuccess",
            "type": "forms",
            "platform": "",
            "KUID": "gde928d7266743bd873f6fc3f31377de"
        },
        "language": "js",
        "actions": [{
            "id": "ADD_SNIPPET__c65d77be11e34793aa846ea8934f18dc",
            "type": "ADD_SNIPPET",
            "codeSnippet": "var modScroll = new getTutorialForRegActivationSuccess();\nmodScroll.paginationSwitch(sectionIndex, rowIndex);",
            "parentId": null,
            "callbackType": null
        }]
    }
}