{
    "p2kwiet2012247627312_segSlider_onswipe_seq0": {
        "id": "p2kwiet2012247627312_segSlider_onswipe_seq0",
        "type": "ACTION_SEQUENCE",
        "params": [{
            "name": "seguiWidget",
            "value": "seguiWidget"
        }, {
            "name": "sectionIndex",
            "value": "sectionIndex"
        }, {
            "name": "rowIndex",
            "value": "rowIndex"
        }],
        "language": "js",
        "actions": [{
            "id": "preprocessdecision_onswipe_19032201224769534",
            "type": "CHANNEL_CONDITION",
            "platforms": ["android", "iphone"]
        }, {
            "id": "expression_onswipe_91753201224768139",
            "type": "ADD_SNIPPET",
            "codeSnippet": "var modScroll = new getBillPaymentIndex();\n modScroll.paginationSwitch(sectionIndex, rowIndex);",
            "parentId": "preprocessdecision_onswipe_19032201224769534"
        }]
    }
}