{
    "p2kwiet2012247635100_frmMyTopUpSelect_preshow_seq0": {
        "id": "p2kwiet2012247635100_frmMyTopUpSelect_preshow_seq0",
        "type": "ACTION_SEQUENCE",
        "params": [{
            "name": "eventobject",
            "value": "eventobject"
        }, {
            "name": "neworientation",
            "value": "neworientation"
        }],
        "language": "js",
        "actions": [{
            "id": "customcode_preshow_41728201224763260",
            "type": "INVOKE_FUNCTION",
            "sequenceKUID": "frmMyTopUpSelectMenuPreshow",
            "display": "frmMyTopUpSelectMenuPreshow",
            "inputparams": [],
            "source": "module"
        }]
    }
}