{
    "p2kwiet2012247627976_buttonOnlineSpecified_onClick_seq0": {
        "id": "p2kwiet2012247627976_buttonOnlineSpecified_onClick_seq0",
        "type": "ACTION_SEQUENCE",
        "params": [{
            "name": "eventobject",
            "value": "eventobject"
        }],
        "language": "js",
        "actions": [{
            "id": "expression_onClick_39556201224763244",
            "type": "ADD_SNIPPET",
            "codeSnippet": "//frmBillPaymentEdit.txtamountvalue.text = frmBillPaymentView.lblamtvalue.text; //NEw\n frmBillPaymentEdit.txtAmtInput.text = frmBillPaymentView.lblamtvalue.text;\n frmBillPaymentEdit.txtAmtInput.setVisibility(true);\n frmBillPaymentEdit.txtAmtInput.setEnabled(true);\n frmBillPaymentEdit.txtamountvalue.setVisibility(false); \n frmBillPaymentEdit.buttonOnlineFull.skin = \"btnScheduleEndLeft\";\n frmBillPaymentEdit.buttonOnlineSpecified.skin =\"btnScheduleRightFocus\";\n \n "
        }]
    }
}