{
    "p2kwiet2012247635471_btnRight_onClick_seq0": {
        "id": "p2kwiet2012247635471_btnRight_onClick_seq0",
        "type": "ACTION_SEQUENCE",
        "params": [{
            "name": "eventobject",
            "value": "eventobject"
        }],
        "language": "js",
        "actions": [{
            "id": "customcode_onClick_76705201224762590",
            "type": "INVOKE_FUNCTION",
            "sequenceKUID": "enableAckList",
            "display": "enableAckList",
            "inputparams": [{
                "name": "frmName",
                "value": "frmOpenAccountNSConfirmationCalendar "
            }],
            "source": "module"
        }]
    }
}