{
    "p2kwiet2012247628921_button474230331217991_onClick_seq0": {
        "id": "p2kwiet2012247628921_button474230331217991_onClick_seq0",
        "type": "ACTION_SEQUENCE",
        "params": [{
            "name": "eventobject",
            "value": "eventobject"
        }],
        "language": "js",
        "actions": [{
            "id": "customcode_onClick_30805201224768980",
            "type": "INVOKE_FUNCTION",
            "sequenceKUID": "onClickCheckContactInfo",
            "display": "onClickCheckContactInfo",
            "inputparams": [],
            "source": "module"
        }]
    }
}