{
    "p2kwiet2012247636306_vbox473361467796311_onClick_seq0": {
        "id": "p2kwiet2012247636306_vbox473361467796311_onClick_seq0",
        "type": "ACTION_SEQUENCE",
        "params": [{
            "name": "eventobject",
            "value": "eventobject"
        }],
        "language": "js",
        "actions": [{
            "id": "customcode_onClick_8274201224766001",
            "type": "INVOKE_FUNCTION",
            "sequenceKUID": "setDataForTD",
            "display": "setDataForTD",
            "inputparams": [],
            "source": "module"
        }]
    }
}