{
    "p2kwiet2012247635060_segBillersList_onRowClick_seq0": {
        "id": "p2kwiet2012247635060_segBillersList_onRowClick_seq0",
        "type": "ACTION_SEQUENCE",
        "params": [{
            "name": "eventobject",
            "value": "eventobject"
        }, {
            "name": "sectionNumber",
            "value": "sectionNumber"
        }, {
            "name": "rowNumber",
            "value": "rowNumber"
        }],
        "language": "js",
        "actions": [{
            "id": "decision_onRowClick_6903201224769751",
            "type": "IF_CONDITION",
            "conditions": [{
                "leftValueType": "expression",
                "leftValue": "gblMyBillerTopUpBB == 2"
            }],
            "criteria": "all"
        }, {
            "id": "decision_onRowClick_11505201224762403",
            "type": "ELSE_CONDITION",
            "conditions": [],
            "criteria": "all"
        }, {
            "id": "customcode_onRowClick_83466201224763713",
            "type": "INVOKE_FUNCTION",
            "sequenceKUID": "selectBillerToViewBB",
            "display": "selectBillerToViewBB",
            "inputparams": [],
            "parentId": "decision_onRowClick_6903201224769751",
            "source": "module"
        }, {
            "id": "expression_onRowClick_23835201224764410",
            "type": "ADD_SNIPPET",
            "codeSnippet": "if(gblMyBillerTopUpBB == 0){\n viewMybillTopUpdetail();\n //selectBillerToViewBiller();\n }\n else if(gblMyBillerTopUpBB == 1){\n //selectTopUpBillerToViewTopUp();\n viewMybillTopUpdetail();\n }else if (gblMyBillerTopUpBB == 2){\n selectBillerToViewBB();\n }\n \n ",
            "parentId": "decision_onRowClick_11505201224762403"
        }]
    }
}