{
    "p2kwiet2012247632957_btnCancel1_onClick_seq0": {
        "id": "p2kwiet2012247632957_btnCancel1_onClick_seq0",
        "type": "ACTION_SEQUENCE",
        "params": [{
            "name": "eventobject",
            "value": "eventobject"
        }],
        "language": "js",
        "actions": [{
            "id": "customcode_onClick_86219201224764901",
            "type": "INVOKE_FUNCTION",
            "sequenceKUID": "ActivationMBViaIBLogoutService",
            "display": "ActivationMBViaIBLogoutService",
            "inputparams": [],
            "source": "module"
        }, {
            "id": "customcode_onClick_35954201224763616",
            "type": "INVOKE_FUNCTION",
            "sequenceKUID": "cancelScheduledTimer",
            "display": "cancelScheduledTimer",
            "inputparams": [{
                "name": "timerId",
                "value": "\"accPinPwdShowTimer\""
            }],
            "source": "module"
        }]
    }
}