{
    "p2kwiet15245716321099_segSlider_onswipe_seq0": {
        "id": "p2kwiet15245716321099_segSlider_onswipe_seq0",
        "type": "ACTION_SEQUENCE",
        "params": [{
            "name": "seguiWidget",
            "value": "seguiWidget"
        }, {
            "name": "sectionIndex",
            "value": "sectionIndex"
        }, {
            "name": "rowIndex",
            "value": "rowIndex"
        }],
        "language": "js",
        "actions": [{
            "id": "preprocessdecision_onswipe_1662915245716325637",
            "type": "CHANNEL_CONDITION",
            "platforms": ["android", "iphone"]
        }, {
            "id": "expression_onswipe_8619515245716322768",
            "type": "ADD_SNIPPET",
            "codeSnippet": "var modScroll = new getBillPaymentIndex();\n modScroll.paginationSwitch(sectionIndex, rowIndex);",
            "parentId": "preprocessdecision_onswipe_1662915245716325637"
        }]
    }
}