{
    "p2kwiet2012247650226_tbxAccountNickName_Android_onEndEditing_seq0": {
        "id": "p2kwiet2012247650226_tbxAccountNickName_Android_onEndEditing_seq0",
        "type": "ACTION_SEQUENCE",
        "params": [{
            "name": "eventobject",
            "value": "eventobject"
        }, {
            "name": "changedtext",
            "value": "changedtext"
        }],
        "language": "js",
        "actions": [{
            "id": "customcode_onEndEditing_49463201224765347",
            "type": "INVOKE_FUNCTION",
            "sequenceKUID": "onDoneAddRecipientAcntNickName",
            "display": "onDoneAddRecipientAcntNickName",
            "inputparams": [],
            "source": "module"
        }]
    }
}