{
    "p2kwiet2012247629892_vbxReloadCaptcha_onClick_seq0": {
        "id": "p2kwiet2012247629892_vbxReloadCaptcha_onClick_seq0",
        "type": "ACTION_SEQUENCE",
        "params": [{
            "name": "eventobject",
            "value": "eventobject"
        }],
        "language": "js",
        "actions": [{
            "id": "customcode_onClick_46502201224767033",
            "type": "INVOKE_FUNCTION",
            "sequenceKUID": "refreshCaptchaImageSPA",
            "display": "refreshCaptchaImageSPA",
            "inputparams": [],
            "source": "module"
        }]
    }
}