{
    "p2kwiet2012247629362_hbxPlayStore_onClick_seq0": {
        "id": "p2kwiet2012247629362_hbxPlayStore_onClick_seq0",
        "type": "ACTION_SEQUENCE",
        "params": [{
            "name": "eventobject",
            "value": "eventobject"
        }],
        "language": "js",
        "actions": [{
            "id": "customcode_onClick_70257201224765424",
            "type": "INVOKE_FUNCTION",
            "sequenceKUID": "navigateToGooglePlaystore",
            "display": "navigateToGooglePlaystore",
            "inputparams": [],
            "source": "module"
        }]
    }
}