{
    "p2kwiet2012247629538_button4733076528913_onClick_seq0": {
        "id": "p2kwiet2012247629538_button4733076528913_onClick_seq0",
        "type": "ACTION_SEQUENCE",
        "params": [{
            "name": "eventobject",
            "value": "eventobject"
        }],
        "language": "js",
        "actions": [{
            "id": "customcode_onClick_17797201224769045",
            "type": "INVOKE_FUNCTION",
            "sequenceKUID": "ActivationMBViaIBLogoutService",
            "display": "ActivationMBViaIBLogoutService",
            "inputparams": [],
            "source": "module"
        }]
    }
}