{
    "p2kwiet2012247629204_btnFATCAQues1Next_onClick_seq0": {
        "id": "p2kwiet2012247629204_btnFATCAQues1Next_onClick_seq0",
        "type": "ACTION_SEQUENCE",
        "params": [{
            "name": "eventobject",
            "value": "eventobject"
        }],
        "language": "js",
        "actions": [{
            "id": "customcode_onClick_30767201224762122",
            "type": "INVOKE_FUNCTION",
            "sequenceKUID": "populateFATCAPageTwo",
            "display": "populateFATCAPageTwo",
            "inputparams": [],
            "source": "module"
        }]
    }
}