{
    "p2kwiet15245716321319_vbxMessenger_onClick_seq0": {
        "id": "p2kwiet15245716321319_vbxMessenger_onClick_seq0",
        "type": "ACTION_SEQUENCE",
        "params": [{
            "name": "eventobject",
            "value": "eventobject"
        }],
        "language": "js",
        "actions": [{
            "id": "decision_onClick_7262715245716329445",
            "type": "IF_CONDITION",
            "conditions": [{
                "leftValueType": "expression",
                "leftValue": "gblMyBillerTopUpBB==\"0\""
            }],
            "criteria": "all"
        }, {
            "id": "decision_onClick_918301524571632262",
            "type": "ELSE_CONDITION",
            "conditions": [],
            "criteria": "all"
        }, {
            "id": "customcode_onClick_9465815245716325290",
            "type": "INVOKE_FUNCTION",
            "sequenceKUID": "shareIntentCall",
            "display": "shareIntentCall",
            "inputparams": [{
                "name": "inputmessage",
                "value": "\"facebook\""
            }, {
                "name": "flow",
                "value": "\"BillPayment\""
            }],
            "parentId": "decision_onClick_7262715245716329445",
            "source": "module"
        }, {
            "id": "customcode_onClick_7584915245716322710",
            "type": "INVOKE_FUNCTION",
            "sequenceKUID": "shareIntentCall",
            "display": "shareIntentCall",
            "inputparams": [{
                "name": "inputmessage",
                "value": "\"facebook\""
            }, {
                "name": "flow",
                "value": "\"TOPUpPayment\""
            }],
            "parentId": "decision_onClick_918301524571632262",
            "source": "module"
        }]
    }
}