{
    "p2kwiet2012247635762_segSliderOpenDream_onRowClick_seq0": {
        "id": "p2kwiet2012247635762_segSliderOpenDream_onRowClick_seq0",
        "type": "ACTION_SEQUENCE",
        "params": [{
            "name": "eventobject",
            "value": "eventobject"
        }, {
            "name": "sectionNumber",
            "value": "sectionNumber"
        }, {
            "name": "rowNumber",
            "value": "rowNumber"
        }],
        "language": "js",
        "actions": [{
            "id": "customcode_onRowClick_43314201224767235",
            "type": "INVOKE_FUNCTION",
            "sequenceKUID": "onClickConnectDSSeg",
            "display": "onClickConnectDSSeg",
            "inputparams": [{
                "name": "currForm",
                "value": "frmOpenAcDreamSaving.segSliderOpenDream "
            }],
            "source": "module"
        }]
    }
}