{
    "p2kwiet2012247637941_vbxImage_onClick_seq0": {
        "id": "p2kwiet2012247637941_vbxImage_onClick_seq0",
        "type": "ACTION_SEQUENCE",
        "params": [{
            "name": "eventobject",
            "value": "eventobject"
        }],
        "language": "js",
        "actions": [{
            "id": "preprocessdecision_onClick_81173201224764339",
            "type": "CHANNEL_CONDITION",
            "platforms": ["iphone"],
            "disabled": true
        }, {
            "id": "preprocessdecision_onClick_20447201224762862",
            "type": "CHANNEL_CONDITION",
            "platforms": ["android"],
            "disabled": true
        }, {
            "id": "INVOKE_FUNCTION___f692af548adc4276894a4ed5519027bc",
            "type": "INVOKE_FUNCTION",
            "sequenceKUID": "onClickSaveimageTransCal",
            "display": "onClickSaveimageTransCal",
            "inputparams": [{
                "name": "eventobject",
                "value": " eventobject"
            }],
            "parentId": null,
            "callbackType": null,
            "disabled": null,
            "source": "module"
        }, {
            "id": "customcode_onClick_87284201224769493",
            "type": "INVOKE_FUNCTION",
            "sequenceKUID": "screenShotCall",
            "display": "screenShotCall",
            "inputparams": [{
                "name": "message",
                "value": "\"screenshot\""
            }],
            "parentId": "preprocessdecision_onClick_81173201224764339",
            "disabled": true,
            "source": "module"
        }, {
            "id": "customcode_onClick_40329201224764753",
            "type": "INVOKE_FUNCTION",
            "sequenceKUID": "shareIntentmoreCallandroid",
            "display": "shareIntentmoreCallandroid",
            "inputparams": [{
                "name": "message",
                "value": "\"screenshot\""
            }, {
                "name": "module",
                "value": "\"Transfer\""
            }],
            "parentId": "preprocessdecision_onClick_20447201224762862",
            "disabled": true,
            "source": "module"
        }]
    }
}