{
    "p2kwiet15245716321099_hbxPayBillOn_onClick_seq0": {
        "id": "p2kwiet15245716321099_hbxPayBillOn_onClick_seq0",
        "type": "ACTION_SEQUENCE",
        "params": [{
            "name": "eventobject",
            "value": "eventobject"
        }],
        "language": "js",
        "actions": [{
            "id": "customcode_onClick_9484315245716329171",
            "type": "INVOKE_FUNCTION",
            "sequenceKUID": "eh_frmBillPayment_btnSchedulePay_onClick",
            "display": "eh_frmBillPayment_btnSchedulePay_onClick",
            "inputparams": [],
            "source": "module"
        }]
    }
}