{
    "p2kwiet2012247635689_frmOpenAccTermDeposit_preshow_seq0": {
        "id": "p2kwiet2012247635689_frmOpenAccTermDeposit_preshow_seq0",
        "type": "ACTION_SEQUENCE",
        "params": [{
            "name": "eventobject",
            "value": "eventobject"
        }, {
            "name": "neworientation",
            "value": "neworientation"
        }],
        "language": "js",
        "actions": [{
            "id": "customcode_preshow_2144201224768473",
            "type": "INVOKE_FUNCTION",
            "sequenceKUID": "frmOpenAccTermDepositMenuPreshow",
            "display": "frmOpenAccTermDepositMenuPreshow",
            "inputparams": [],
            "source": "module"
        }]
    }
}