{
    "p2kwiet2012247628173_frmCardActivationComplete_Android_onDeviceBack_seq0": {
        "id": "p2kwiet2012247628173_frmCardActivationComplete_Android_onDeviceBack_seq0",
        "type": "ACTION_SEQUENCE",
        "params": [{
            "name": "eventobject",
            "value": "eventobject"
        }],
        "language": "js",
        "actions": [{
            "id": "customcode_onDeviceBack_85812201224763509",
            "type": "INVOKE_FUNCTION",
            "sequenceKUID": "deviceBack",
            "display": "deviceBack",
            "inputparams": [],
            "source": "module"
        }]
    }
}