{
    "p2kwiet2012247632303_button47505874736298_onClick_seq0": {
        "id": "p2kwiet2012247632303_button47505874736298_onClick_seq0",
        "type": "ACTION_SEQUENCE",
        "params": [{
            "name": "eventobject",
            "value": "eventobject"
        }],
        "language": "js",
        "actions": [{
            "id": "customcode_onClick_25888201224761635",
            "type": "INVOKE_FUNCTION",
            "sequenceKUID": "onClickEmailTnCMBPointRedemption",
            "display": "onClickEmailTnCMBPointRedemption",
            "inputparams": [],
            "source": "module"
        }]
    }
}