{
    "p2kwiet2012247627519_btnBillCancel_onClick_seq0": {
        "id": "p2kwiet2012247627519_btnBillCancel_onClick_seq0",
        "type": "ACTION_SEQUENCE",
        "params": [{
            "name": "eventobject",
            "value": "eventobject"
        }],
        "language": "js",
        "actions": [{
            "id": "customcode_onClick_10851201224764669",
            "type": "INVOKE_FUNCTION",
            "sequenceKUID": "onClickCancelBillPayConfirm",
            "display": "onClickCancelBillPayConfirm",
            "inputparams": [],
            "source": "module"
        }]
    }
}