{
    "p2kwiet2012247628327_frmCashAdvancePlanDetails_Android_onDeviceBack_seq0": {
        "id": "p2kwiet2012247628327_frmCashAdvancePlanDetails_Android_onDeviceBack_seq0",
        "type": "ACTION_SEQUENCE",
        "params": [{
            "name": "eventobject",
            "value": "eventobject"
        }],
        "language": "js",
        "actions": [{
            "id": "customcode_onDeviceBack_33810201224768057",
            "type": "INVOKE_FUNCTION",
            "sequenceKUID": "disableBackButton",
            "display": "disableBackButton",
            "inputparams": [],
            "source": "module"
        }]
    }
}