{
    "p2kwiet2012247627099_btnExgBooth_onClick_seq0": {
        "id": "p2kwiet2012247627099_btnExgBooth_onClick_seq0",
        "type": "ACTION_SEQUENCE",
        "params": [{
            "name": "eventobject",
            "value": "eventobject"
        }],
        "language": "js",
        "actions": [{
            "id": "customcode_onClick_5100201224766497",
            "type": "INVOKE_FUNCTION",
            "sequenceKUID": "onClickExchangeBooth",
            "display": "onClickExchangeBooth",
            "inputparams": [],
            "source": "module"
        }]
    }
}