{
    "p2kwiet2012247627519_btnRight_onClick_seq0": {
        "id": "p2kwiet2012247627519_btnRight_onClick_seq0",
        "type": "ACTION_SEQUENCE",
        "params": [{
            "name": "eventobject",
            "value": "eventobject"
        }],
        "language": "js",
        "actions": [{
            "id": "expression_onClick_94050201224762047",
            "type": "ADD_SNIPPET",
            "codeSnippet": "if(frmBillPaymentComplete.hbxShareOption.isVisible){\n frmBillPaymentComplete.hbxShareOption.isVisible = false;\n frmBillPaymentComplete.imgHeaderMiddle.src = \"arrowtop.png\";\n }else{\n frmBillPaymentComplete.hbxShareOption.isVisible = true;\n frmBillPaymentComplete.imgHeaderMiddle.src = \"empty.png\";\n }"
        }]
    }
}