{
    "p2kwiet15245716321099_btnFull2_onClick_seq0": {
        "id": "p2kwiet15245716321099_btnFull2_onClick_seq0",
        "type": "ACTION_SEQUENCE",
        "params": [{
            "name": "eventobject",
            "value": "eventobject"
        }],
        "language": "js",
        "actions": [{
            "id": "customcode_onClick_7339315245716321750",
            "type": "INVOKE_FUNCTION",
            "sequenceKUID": "fullPress",
            "display": "fullPress",
            "inputparams": [],
            "source": "module"
        }, {
            "id": "customcode_onClick_1603815245716329237",
            "type": "INVOKE_FUNCTION",
            "sequenceKUID": "fullSpecButtonColorSet",
            "display": "fullSpecButtonColorSet",
            "inputparams": [{
                "name": "eventObject",
                "value": "eventobject"
            }],
            "source": "module"
        }]
    }
}