{
    "p2kwiet2012247650301_btnClose_onClick_seq0": {
        "id": "p2kwiet2012247650301_btnClose_onClick_seq0",
        "type": "ACTION_SEQUENCE",
        "params": [{
            "name": "eventobject",
            "value": "eventobject"
        }],
        "language": "js",
        "actions": [{
            "id": "expression_onClick_67516201224761987",
            "type": "ADD_SNIPPET",
            "codeSnippet": "popupFirstimeActivationSpa.destroy();"
        }]
    }
}