{
    "p2kwiet2012247630074_btnRight_onClick_seq0": {
        "id": "p2kwiet2012247630074_btnRight_onClick_seq0",
        "type": "ACTION_SEQUENCE",
        "params": [{
            "name": "eventobject",
            "value": "eventobject"
        }],
        "language": "js",
        "actions": [{
            "id": "preprocessdecision_onClick_16250201224763254",
            "type": "CHANNEL_CONDITION",
            "platforms": ["android", "iphone"]
        }, {
            "id": "preprocessdecision_onClick_98625201224764255",
            "type": "CHANNEL_CONDITION",
            "platforms": ["spaip", "spabbnth", "spawinphone8", "spaan", "spabb", "spawindows"]
        }, {
            "id": "expression_onClick_66480201224764162",
            "type": "ADD_SNIPPET",
            "codeSnippet": " currForm = frmOpenProdDetnTnC;\n var deviceHght = kony.os.deviceInfo().deviceHeight;\n var osType = kony.os.deviceInfo().name;\n // alert(\"Screen Name is: \"+currForm);\n \n if (currForm.hboxSaveCamEmail.isVisible == false) {\n currForm.hboxSaveCamEmail.isVisible = true;\n currForm.imgHeaderRight.src = \"arrowtop.png\"\n currForm.imgHeaderMiddle.src = \"empty.png\"\n currForm.btnRight.skin = \"btnShareFoc\";\n /*if(deviceHght > 567 && osType == \"iPhone\"){\n currForm.scrollbox474135225108084.containerHeight = 73.7;\n }else\n currForm.scrollbox474135225108084.containerHeight = 68.8;\n //#ifdef android\n currForm.scrollbox474135225108084.containerHeight = 68.9;\n //#endif\n */\n } else {\n currForm.hboxSaveCamEmail.isVisible = false;\n currForm.imgHeaderMiddle.src = \"arrowtop.png\"\n currForm.imgHeaderRight.src = \"empty.png\"\n currForm.btnRight.skin = \"btnShare\";\n /*if(deviceHght > 567 && osType == \"iPhone\"){\n currForm.scrollbox474135225108084.containerHeight = 83.8;\n }else\n currForm.scrollbox474135225108084.containerHeight = 81;\n //#ifdef android\n currForm.scrollbox474135225108084.containerHeight = 78;\n //#endif\n */\n }\n \n ",
            "parentId": "preprocessdecision_onClick_16250201224763254"
        }, {
            "id": "expression_onClick_64163201224761621",
            "type": "ADD_SNIPPET",
            "codeSnippet": "var skin = frmOpenProdDetnTnC.btnRight.skin\n \n if(frmOpenProdDetnTnC.hboxSaveCamEmail.isVisible == false){\n frmOpenProdDetnTnC.hboxSaveCamEmail.isVisible = true;\n frmOpenProdDetnTnC.imgHeaderRight.src = \"arrowtop.png\"\n frmOpenProdDetnTnC.imgHeaderMiddle.src = \"empty.png\"\n frmOpenProdDetnTnC.btnRight.skin = \"btnShareFoc\";\n }else{\n frmOpenProdDetnTnC.hboxSaveCamEmail.isVisible = false;\n frmOpenProdDetnTnC.imgHeaderMiddle.src = \"arrowtop.png\"\n frmOpenProdDetnTnC.imgHeaderRight.src = \"empty.png\"\n frmOpenProdDetnTnC.btnRight.skin = \"btnShare\";\n }\n ",
            "parentId": "preprocessdecision_onClick_98625201224764255"
        }]
    }
}