{
    "p2kwiet2012247632303_frmMBPointRedemptionTnC_onhide_seq0": {
        "id": "p2kwiet2012247632303_frmMBPointRedemptionTnC_onhide_seq0",
        "type": "ACTION_SEQUENCE",
        "params": [{
            "name": "eventobject",
            "value": "eventobject"
        }, {
            "name": "neworientation",
            "value": "neworientation"
        }],
        "language": "js",
        "actions": [{
            "id": "preprocessdecision_onhide_32403201224765369",
            "type": "CHANNEL_CONDITION",
            "platforms": ["android", "iphone"]
        }, {
            "id": "preprocessdecision_onhide_31826201224765610",
            "type": "CHANNEL_CONDITION",
            "platforms": ["spaip", "spabbnth", "spawinphone8", "spaan", "spabb", "spawindows"]
        }, {
            "id": "expression_onhide_39414201224768370",
            "type": "ADD_SNIPPET",
            "codeSnippet": "frmMBPointRedemptionTnC.hboxSaveCamEmail.isVisible = false;\n frmMBPointRedemptionTnC.imgHeaderMiddle.src = \"arrowtop.png\"\n frmMBPointRedemptionTnC.imgHeaderRight.src = \"empty.png\"\n frmMBPointRedemptionTnC.btnRight.skin = \"btnShare\";\n \n \n ",
            "parentId": "preprocessdecision_onhide_32403201224765369"
        }, {
            "id": "expression_onhide_69068201224767145",
            "type": "ADD_SNIPPET",
            "codeSnippet": "frmMBPointRedemptionTnC.hboxSaveCamEmail.isVisible = false;\n frmMBPointRedemptionTnC.imgHeaderMiddle.src = \"arrowtop.png\"\n frmMBPointRedemptionTnC.imgHeaderRight.src = \"empty.png\"\n frmMBPointRedemptionTnC.btnRight.skin = \"btnShare\";\n \n ",
            "parentId": "preprocessdecision_onhide_31826201224765610"
        }]
    }
}