{
    "p2kwiet2012247636606_button47505874736294_onClick_seq0": {
        "id": "p2kwiet2012247636606_button47505874736294_onClick_seq0",
        "type": "ACTION_SEQUENCE",
        "params": [{
            "name": "eventobject",
            "value": "eventobject"
        }],
        "language": "js",
        "actions": [{
            "id": "variable_onClick_73730201224761103",
            "type": "ADD_LOCAL_VARIABLE",
            "name": "pdfFlowType",
            "valuetype": "constant",
            "datatype": "string",
            "value": "\"\""
        }, {
            "id": "customcode_onClick_33370201224763749",
            "type": "INVOKE_FUNCTION",
            "sequenceKUID": "passingProdDescTnCEmailMB",
            "display": "passingProdDescTnCEmailMB",
            "inputparams": [],
            "source": "module"
        }, {
            "id": "customcode_onClick_80858201224765234",
            "type": "INVOKE_FUNCTION",
            "sequenceKUID": "onClickDownloadTnC",
            "display": "onClickDownloadTnC",
            "inputparams": [{
                "name": "filetype",
                "value": "\"pdf\" "
            }, {
                "name": "filename",
                "value": "prodDescTnC "
            }],
            "source": "module"
        }]
    }
}