{
    "p2kwiet2012247626745_textbox21011640310171358_onDone_seq0": {
        "id": "p2kwiet2012247626745_textbox21011640310171358_onDone_seq0",
        "type": "ACTION_SEQUENCE",
        "params": [{
            "name": "eventobject",
            "value": "eventobject"
        }, {
            "name": "changedtext",
            "value": "changedtext"
        }],
        "language": "js",
        "actions": [{
            "id": "alert_onDone_26474201224761985",
            "type": "SHOW_ALERT",
            "alertType": "constants.ALERT_TYPE_INFO",
            "alertTitle": "",
            "yesLabel": "Yes",
            "noLabel": "No",
            "alertMessage": "Please select a Topup",
            "messageType": "constant",
            "alertTitlei18n": "",
            "yesLabeli18n": "",
            "noLabeli18n": "",
            "alertMessagei18n": "",
            "iconPosition": "constants.ALERT_ICON_POSITION_LEFT"
        }]
    }
}