{
    "p2kwiet2012247632862_btnconfirm_onClick_seq0": {
        "id": "p2kwiet2012247632862_btnconfirm_onClick_seq0",
        "type": "ACTION_SEQUENCE",
        "params": [{
            "name": "eventobject",
            "value": "eventobject"
        }],
        "language": "js",
        "actions": [{
            "id": "customcode_onClick_4478201224762519",
            "type": "INVOKE_FUNCTION",
            "sequenceKUID": "showSavingsCareAddAccount",
            "display": "showSavingsCareAddAccount",
            "inputparams": [],
            "source": "module"
        }]
    }
}