{
    "p2kwiet2012247649928_btnPopTransactionCancel_onClick_seq0": {
        "id": "p2kwiet2012247649928_btnPopTransactionCancel_onClick_seq0",
        "type": "ACTION_SEQUENCE",
        "params": [{
            "name": "eventobject",
            "value": "eventobject"
        }],
        "language": "js",
        "actions": [{
            "id": "customcode_onClick_92231201224764854",
            "type": "INVOKE_FUNCTION",
            "sequenceKUID": "ehPopBPTransactionPwd_btnPopTransactionCancel_onClick",
            "display": "ehPopBPTransactionPwd_btnPopTransactionCancel_onClick",
            "inputparams": [],
            "source": "module"
        }]
    }
}