{
    "p2kwiet2012247650194_popupAddToMyBills_init_seq0": {
        "id": "p2kwiet2012247650194_popupAddToMyBills_init_seq0",
        "type": "ACTION_SEQUENCE",
        "params": [{
            "name": "eventobject",
            "value": "eventobject"
        }, {
            "name": "neworientation",
            "value": "neworientation"
        }],
        "language": "js",
        "actions": [{
            "id": "expression_init_43483201224763060",
            "type": "ADD_SNIPPET",
            "codeSnippet": "popupAddToMyBills.enabledForIdleTimeout = true"
        }]
    }
}