{
    "p2kwiet2012247628618_btnBackFacebook_onClick_seq0": {
        "id": "p2kwiet2012247628618_btnBackFacebook_onClick_seq0",
        "type": "ACTION_SEQUENCE",
        "params": [{
            "name": "eventobject",
            "value": "eventobject"
        }],
        "language": "js",
        "actions": [{
            "id": "expression_onClick_13258201224765379",
            "type": "ADD_SNIPPET",
            "codeSnippet": "var form = kony.application.getPreviousForm();\n var condition = null;\n if(form.id.search(\"MyRecipient\") > 0){\n condition = \"1\";\n }\n else if(form.id == \"frmeditMyProfile\"){\n condition = \"2\";\n }\n else{\n condition = \"3\";\n }\n gblPOWstateTrack = true;"
        }, {
            "id": "decision_onClick_8922201224761749",
            "type": "IF_CONDITION",
            "conditions": [{
                "leftValueType": "expression",
                "leftValue": "condition == \"1\""
            }],
            "criteria": "all"
        }, {
            "id": "decision_onClick_78084201224767582",
            "type": "ELSE_CONDITION",
            "conditions": [],
            "criteria": "all"
        }, {
            "id": "customcode_onClick_18857201224763627",
            "type": "INVOKE_FUNCTION",
            "sequenceKUID": "postOnWallAfter",
            "display": "postOnWallAfter",
            "inputparams": [],
            "parentId": "decision_onClick_350120122476601",
            "source": "module"
        }, {
            "id": "customcode_onClick_86149201224761594",
            "type": "INVOKE_FUNCTION",
            "sequenceKUID": "getFriendListFromFacebook",
            "display": "getFriendListFromFacebook",
            "inputparams": [{
                "name": "eventobject",
                "value": "eventobject"
            }],
            "parentId": "decision_onClick_8922201224761749",
            "source": "module"
        }, {
            "id": "expression_onClick_13092201224764427",
            "type": "ADD_SNIPPET",
            "codeSnippet": "gblMyFBdelinkTrack = true;",
            "parentId": "decision_onClick_868462012247626"
        }, {
            "id": "customcode_onClick_73177201224766280",
            "type": "INVOKE_FUNCTION",
            "sequenceKUID": "fbprofileviewServiceCall",
            "display": "fbprofileviewServiceCall",
            "inputparams": [],
            "parentId": "decision_onClick_868462012247626",
            "source": "module"
        }, {
            "id": "decision_onClick_868462012247626",
            "type": "IF_CONDITION",
            "conditions": [{
                "leftValueType": "expression",
                "leftValue": "condition == \"2\""
            }],
            "parentId": "decision_onClick_78084201224767582",
            "criteria": "all"
        }, {
            "id": "decision_onClick_350120122476601",
            "type": "ELSE_CONDITION",
            "conditions": [],
            "parentId": "decision_onClick_78084201224767582",
            "criteria": "all"
        }]
    }
}