{
    "p2kwiet2012247626788_btnAgreeSpa_onClick_seq0": {
        "id": "p2kwiet2012247626788_btnAgreeSpa_onClick_seq0",
        "type": "ACTION_SEQUENCE",
        "params": [{
            "name": "eventobject",
            "value": "eventobject"
        }],
        "language": "js",
        "actions": [{
            "id": "decision_onClick_69254201224768699",
            "type": "IF_CONDITION",
            "conditions": [{
                "leftValueType": "expression",
                "leftValue": "checkMaxBillerCountOnConfirmMB()"
            }],
            "criteria": "all"
        }, {
            "id": "decision_onClick_72147201224768369",
            "type": "ELSE_CONDITION",
            "conditions": [],
            "criteria": "all"
        }, {
            "id": "customcode_onClick_4094920122476674",
            "type": "INVOKE_FUNCTION",
            "sequenceKUID": "onMytopUpConfirm",
            "display": "onMytopUpConfirm",
            "inputparams": [],
            "parentId": "decision_onClick_69254201224768699",
            "source": "module"
        }, {
            "id": "expression_onClick_89322201224767951",
            "type": "ADD_SNIPPET",
            "codeSnippet": "var segData=frmAddTopUpBillerconfrmtn.segConfirmationList.data;\n var listData=myTopupListMB;\n var maxBillAllowed= parseInt(GLOBAL_MAX_BILL_COUNT);\n var TotalBillerCanBeAdded = maxBillAllowed - listData.length ;\n alert(kony.i18n.getLocalizedString(\"Valid_CantAddMore\") + TotalBillerCanBeAdded + kony.i18n.getLocalizedString(\"keyBillersIB\"));",
            "parentId": "decision_onClick_72147201224768369"
        }]
    }
}