{
    "p2kwiet2012247635380_btnConfirm_onClick_seq0": {
        "id": "p2kwiet2012247635380_btnConfirm_onClick_seq0",
        "type": "ACTION_SEQUENCE",
        "params": [{
            "name": "eventobject",
            "value": "eventobject"
        }],
        "language": "js",
        "actions": [{
            "id": "customcode_onClick_97680201224767036",
            "type": "INVOKE_FUNCTION",
            "sequenceKUID": "showTransPwdPopForOpenDS",
            "display": "showTransPwdPopForOpenDS",
            "inputparams": [],
            "source": "module"
        }]
    }
}