{
    "p2kwiet2012247629538_hbxCC_onClick_seq0": {
        "id": "p2kwiet2012247629538_hbxCC_onClick_seq0",
        "type": "ACTION_SEQUENCE",
        "params": [{
            "name": "eventobject",
            "value": "eventobject"
        }],
        "language": "js",
        "actions": [{
            "id": "customcode_onClick_54272201224765961",
            "type": "INVOKE_FUNCTION",
            "sequenceKUID": "onClickCreditCardImg",
            "display": "onClickCreditCardImg",
            "inputparams": [],
            "source": "module"
        }]
    }
}