{
    "p2kwiet2012247630047_button508341360444971_onClick_seq0": {
        "id": "p2kwiet2012247630047_button508341360444971_onClick_seq0",
        "type": "ACTION_SEQUENCE",
        "params": [{
            "name": "eventobject",
            "value": "eventobject"
        }],
        "language": "js",
        "actions": [{
            "id": "customcode_onClick_961992012247658",
            "type": "INVOKE_FUNCTION",
            "sequenceKUID": "onClickAnyIDRegTnCAgree",
            "display": "onClickAnyIDRegTnCAgree",
            "inputparams": [],
            "source": "module"
        }]
    }
}