{
    "p2kwiet15245716321099_button475004897851_onClick_seq0": {
        "id": "p2kwiet15245716321099_button475004897851_onClick_seq0",
        "type": "ACTION_SEQUENCE",
        "params": [{
            "name": "eventobject",
            "value": "eventobject"
        }],
        "language": "js",
        "actions": [{
            "id": "customcode_onClick_8824315245716328053",
            "type": "INVOKE_FUNCTION",
            "sequenceKUID": "fullMinSpecButtonColorSet",
            "display": "fullMinSpecButtonColorSet",
            "inputparams": [{
                "name": "eventObject",
                "value": "eventobject"
            }],
            "source": "module"
        }, {
            "id": "customcode_onClick_336241524571632594",
            "type": "INVOKE_FUNCTION",
            "sequenceKUID": "minPress",
            "display": "minPress",
            "inputparams": [],
            "source": "module"
        }]
    }
}