{
    "p2kwiet2012247628422_btnnext_onClick_seq0": {
        "id": "p2kwiet2012247628422_btnnext_onClick_seq0",
        "type": "ACTION_SEQUENCE",
        "params": [{
            "name": "eventobject",
            "value": "eventobject"
        }],
        "language": "js",
        "actions": [{
            "id": "customcode_onClick_89914201224763286",
            "type": "INVOKE_FUNCTION",
            "sequenceKUID": "OnclickShowCheckContactInfo",
            "display": "OnclickShowCheckContactInfo",
            "inputparams": [],
            "source": "module"
        }]
    }
}