{
    "p2kwiet2012247637405_btnRight_onClick_seq0": {
        "id": "p2kwiet2012247637405_btnRight_onClick_seq0",
        "type": "ACTION_SEQUENCE",
        "params": [{
            "name": "eventobject",
            "value": "eventobject"
        }],
        "language": "js",
        "actions": [{
            "id": "customcode_onClick_98251201224765706",
            "type": "INVOKE_FUNCTION",
            "sequenceKUID": "eh_frmSelectBiller_btnRight_onClick",
            "display": "eh_frmSelectBiller_btnRight_onClick",
            "inputparams": [],
            "source": "module"
        }]
    }
}