{
    "p2kwiet2012247631967_frmMBMyActivities_preshow_seq0": {
        "id": "p2kwiet2012247631967_frmMBMyActivities_preshow_seq0",
        "type": "ACTION_SEQUENCE",
        "params": [{
            "name": "eventobject",
            "value": "eventobject"
        }, {
            "name": "neworientation",
            "value": "neworientation"
        }],
        "language": "js",
        "actions": [{
            "id": "customcode_preshow_49738201224761930",
            "type": "INVOKE_FUNCTION",
            "sequenceKUID": "frmMBMyActivitiesMenuPreshow",
            "display": "frmMBMyActivitiesMenuPreshow",
            "inputparams": [],
            "source": "module"
        }]
    }
}