{
    "p2kwiet2012247650480_button200183618910538_onClick_seq0": {
        "id": "p2kwiet2012247650480_button200183618910538_onClick_seq0",
        "type": "ACTION_SEQUENCE",
        "params": [{
            "name": "eventobject",
            "value": "eventobject"
        }],
        "language": "js",
        "actions": [{
            "id": "customcode_onClick_97204201224762460",
            "type": "INVOKE_FUNCTION",
            "sequenceKUID": "cbCloseServerDetailsPopup",
            "display": "cbCloseServerDetailsPopup",
            "inputparams": [],
            "source": "module"
        }]
    }
}