{
    "p2kwiet2012247634837_textbox247327209467957_iPhone_onBeginEditing_seq0": {
        "id": "p2kwiet2012247634837_textbox247327209467957_iPhone_onBeginEditing_seq0",
        "type": "ACTION_SEQUENCE",
        "params": [{
            "name": "eventobject",
            "value": "eventobject"
        }, {
            "name": "changedtext",
            "value": "changedtext"
        }],
        "language": "js",
        "actions": [{
            "id": "expression_onBeginEditing_88744201224763919",
            "type": "ADD_SNIPPET",
            "codeSnippet": "frmMyRecipientSelectMobile.textbox247327209467957.skin=\"txtSearchboxBigFont\";\n frmMyRecipientSelectMobile.textbox247327209467957.text=\"\""
        }]
    }
}