{
    "p2kwiet2012247630700_flexPdf_onTouchEnd_seq0": {
        "id": "p2kwiet2012247630700_flexPdf_onTouchEnd_seq0",
        "type": "ACTION_SEQUENCE",
        "params": [{
            "name": "eventobject",
            "value": "eventobject"
        }, {
            "name": "x",
            "value": "x"
        }, {
            "name": "y",
            "value": "y"
        }, {
            "name": "contextInfo",
            "value": "contextInfo"
        }],
        "language": "js",
        "actions": [{
            "id": "expression_onTouchEnd_83204201224768295",
            "type": "ADD_SNIPPET",
            "codeSnippet": "frmMBCashAdvanceTnC.flexPdf.skin=\"flexWhiteBG\";\n frmMBCashAdvanceTnC.buttonPdf.skin=\"btnPdfSC\";"
        }, {
            "id": "variable_onTouchEnd_91622201224766390",
            "type": "ADD_LOCAL_VARIABLE",
            "name": "pdfFlowType",
            "valuetype": "constant",
            "datatype": "string",
            "value": "\"\""
        }, {
            "id": "customcode_onTouchEnd_91264201224761942",
            "type": "INVOKE_FUNCTION",
            "sequenceKUID": "onClickDownloadTnC",
            "display": "onClickDownloadTnC",
            "inputparams": [{
                "name": "filetype",
                "value": "\"pdf\""
            }, {
                "name": "filename",
                "value": "\"TMBCashAdvance\""
            }],
            "source": "module"
        }]
    }
}