{
    "p2kwiet2012247626636_hbox475124774240_onClick_seq0": {
        "id": "p2kwiet2012247626636_hbox475124774240_onClick_seq0",
        "type": "ACTION_SEQUENCE",
        "params": [{
            "name": "eventobject",
            "value": "eventobject"
        }],
        "language": "js",
        "actions": [{
            "id": "customcode_onClick_25953201224767852",
            "type": "INVOKE_FUNCTION",
            "sequenceKUID": "onClickForInnerBoxes",
            "display": "onClickForInnerBoxes",
            "inputparams": [],
            "source": "module"
        }]
    }
}