{
    "p2kwiet2012247633781_segTMBAccntDetails_onRowClick_seq0": {
        "id": "p2kwiet2012247633781_segTMBAccntDetails_onRowClick_seq0",
        "type": "ACTION_SEQUENCE",
        "params": [{
            "name": "eventobject",
            "value": "eventobject"
        }, {
            "name": "sectionNumber",
            "value": "sectionNumber"
        }, {
            "name": "rowNumber",
            "value": "rowNumber"
        }],
        "language": "js",
        "actions": [{
            "id": "customcode_onRowClick_63356201224766347",
            "type": "INVOKE_FUNCTION",
            "sequenceKUID": "viewAccountTMB",
            "display": "viewAccountTMB",
            "inputparams": [{
                "name": "index",
                "value": "frmMyAccountList.segTMBAccntDetails.selectedIndex[1]"
            }, {
                "name": "accNo",
                "value": "frmMyAccountList.segTMBAccntDetails.selectedItems[0].hiddenAccountNo"
            }, {
                "name": "segID",
                "value": "eventobject[\"id\"]"
            }],
            "source": "module"
        }, {
            "id": "expression_onRowClick_11728201224769877",
            "type": "ADD_SNIPPET",
            "codeSnippet": "frmMyAccountView.imgcomplete.isVisible = false;"
        }]
    }
}