{
    "p2kwiet2012247649999_btnClose_onClick_seq0": {
        "id": "p2kwiet2012247649999_btnClose_onClick_seq0",
        "type": "ACTION_SEQUENCE",
        "params": [{
            "name": "eventobject",
            "value": "eventobject"
        }],
        "language": "js",
        "actions": [{
            "id": "expression_onClick_73062201224763371",
            "type": "ADD_SNIPPET",
            "codeSnippet": "popExgRateDisclaimer.dismiss();"
        }]
    }
}