{
    "p2kwiet2012247631642_btnRequestPin_onClick_seq0": {
        "id": "p2kwiet2012247631642_btnRequestPin_onClick_seq0",
        "type": "ACTION_SEQUENCE",
        "params": [{
            "name": "eventobject",
            "value": "eventobject"
        }],
        "language": "js",
        "actions": [{
            "id": "customcode_onClick_71090201224769678",
            "type": "INVOKE_FUNCTION",
            "sequenceKUID": "onClickOfRequestNewPinMenu",
            "display": "onClickOfRequestNewPinMenu",
            "inputparams": [],
            "source": "module"
        }]
    }
}