{
    "p2kwiet2012247635100_txbSearch_onTextChange_seq0": {
        "id": "p2kwiet2012247635100_txbSearch_onTextChange_seq0",
        "type": "ACTION_SEQUENCE",
        "params": [{
            "name": "eventobject",
            "value": "eventobject"
        }, {
            "name": "changedtext",
            "value": "changedtext"
        }],
        "language": "js",
        "actions": [{
            "id": "decision_onTextChange_74528201224762276",
            "type": "IF_CONDITION",
            "conditions": [{
                "leftValueType": "expression",
                "leftValue": "gblMyBillerTopUpBB == 2"
            }],
            "criteria": "all"
        }, {
            "id": "decision_onTextChange_10218201224767232",
            "type": "ELSE_CONDITION",
            "conditions": [],
            "criteria": "all"
        }, {
            "id": "customcode_onTextChange_71522201224769911",
            "type": "INVOKE_FUNCTION",
            "sequenceKUID": "validateSearch",
            "display": "validateSearch",
            "inputparams": [{
                "name": "searchText",
                "value": ""
            }],
            "parentId": "decision_onTextChange_74528201224762276",
            "source": "module"
        }, {
            "id": "customcode_onTextChange_12106201224761279",
            "type": "INVOKE_FUNCTION",
            "sequenceKUID": "searchSugBillerMBBB",
            "display": "searchSugBillerMBBB",
            "inputparams": [],
            "parentId": "decision_onTextChange_74528201224762276",
            "source": "module"
        }, {
            "id": "customcode_onTextChange_78007201224762214",
            "type": "INVOKE_FUNCTION",
            "sequenceKUID": "validateSearch",
            "display": "validateSearch",
            "inputparams": [{
                "name": "searchText",
                "value": ""
            }],
            "parentId": "decision_onTextChange_10218201224767232",
            "source": "module"
        }, {
            "id": "customcode_onTextChange_14723201224762123",
            "type": "INVOKE_FUNCTION",
            "sequenceKUID": "searchSugBillerMB",
            "display": "searchSugBillerMB",
            "inputparams": [],
            "parentId": "decision_onTextChange_10218201224767232",
            "source": "module"
        }]
    }
}