{
    "p2kwiet2012247630531_btnCallCenter_onClick_seq0": {
        "id": "p2kwiet2012247630531_btnCallCenter_onClick_seq0",
        "type": "ACTION_SEQUENCE",
        "params": [{
            "name": "eventobject",
            "value": "eventobject"
        }],
        "language": "js",
        "actions": [{
            "id": "customcode_onClick_85510201224767851",
            "type": "INVOKE_FUNCTION",
            "sequenceKUID": "frmMBBlockCCChangeAddressOnClickBtnCallCenter",
            "display": "frmMBBlockCCChangeAddressOnClickBtnCallCenter",
            "inputparams": [],
            "source": "module"
        }]
    }
}