{
    "p2kwiet2012247631604_frmMBListDebitCard_postshow_seq0": {
        "id": "p2kwiet2012247631604_frmMBListDebitCard_postshow_seq0",
        "type": "ACTION_SEQUENCE",
        "params": [{
            "name": "eventobject",
            "value": "eventobject"
        }],
        "language": "js",
        "actions": [{
            "id": "customcode_postshow_9256520122476426",
            "type": "INVOKE_FUNCTION",
            "sequenceKUID": "postShowDebitCardRibbon",
            "display": "postShowDebitCardRibbon",
            "inputparams": [],
            "source": "module"
        }, {
            "id": "customcode_postshow_13015201224767271",
            "type": "INVOKE_FUNCTION",
            "sequenceKUID": "postShowCardList",
            "display": "postShowCardList",
            "inputparams": [],
            "source": "module"
        }]
    }
}