{
    "p2kwiet2012247637067_calScheduleStartDate_onSelection_seq0": {
        "id": "p2kwiet2012247637067_calScheduleStartDate_onSelection_seq0",
        "type": "ACTION_SEQUENCE",
        "params": [{
            "name": "eventobject",
            "value": "eventobject"
        }, {
            "name": "isValidDateSelected",
            "value": "isValidDateSelected"
        }],
        "language": "js",
        "actions": [{
            "id": "customcode_onSelection_89042201224769630",
            "type": "INVOKE_FUNCTION",
            "sequenceKUID": "validateOnSelectDate",
            "display": "validateOnSelectDate",
            "inputparams": [],
            "source": "module"
        }]
    }
}