{
    "p2kwiet2012247626596_btn1_onClick_seq0": {
        "id": "p2kwiet2012247626596_btn1_onClick_seq0",
        "type": "ACTION_SEQUENCE",
        "params": [{
            "name": "eventobject",
            "value": "eventobject"
        }],
        "language": "js",
        "actions": [{
            "id": "customcode_onClick_37446201224769792",
            "type": "INVOKE_FUNCTION",
            "sequenceKUID": "onCCMonth1Click",
            "display": "onCCMonth1Click",
            "inputparams": [],
            "source": "module"
        }]
    }
}