{
    "p2kwiet15245716321099_lblRef1Value_onTextChange_seq0": {
        "id": "p2kwiet15245716321099_lblRef1Value_onTextChange_seq0",
        "type": "ACTION_SEQUENCE",
        "params": [{
            "name": "eventobject",
            "value": "eventobject"
        }, {
            "name": "changedtext",
            "value": "changedtext"
        }],
        "language": "js",
        "actions": [{
            "id": "customcode_onTextChange_6509615245716329055",
            "type": "INVOKE_FUNCTION",
            "sequenceKUID": "onTextChangeOfRef1AndRef2",
            "display": "onTextChangeOfRef1AndRef2",
            "inputparams": [],
            "source": "module"
        }]
    }
}