{
    "p2kwiet2012247632069_btnEmailto_onClick_seq0": {
        "id": "p2kwiet2012247632069_btnEmailto_onClick_seq0",
        "type": "ACTION_SEQUENCE",
        "params": [{
            "name": "eventobject",
            "value": "eventobject"
        }],
        "language": "js",
        "actions": [{
            "id": "customcode_onClick_24490201224765288",
            "type": "INVOKE_FUNCTION",
            "sequenceKUID": "postOnFBPointredemptionComplete",
            "display": "postOnFBPointredemptionComplete",
            "inputparams": [],
            "source": "module"
        }]
    }
}