{
    "p2kwiet2012247627714_vbxOthers_onClick_seq0": {
        "id": "p2kwiet2012247627714_vbxOthers_onClick_seq0",
        "type": "ACTION_SEQUENCE",
        "params": [{
            "name": "eventobject",
            "value": "eventobject"
        }],
        "language": "js",
        "actions": [{
            "id": "decision_onClick_71106201224765088",
            "type": "IF_CONDITION",
            "conditions": [{
                "leftValueType": "expression",
                "leftValue": "gblActivityIds == \"27\" || gblActivityIds == \"28\" || gblActivityIds == \"027\" || gblActivityIds == \"028\""
            }],
            "criteria": "all"
        }, {
            "id": "decision_onClick_51069201224767995",
            "type": "ELSE_CONDITION",
            "conditions": [],
            "criteria": "all"
        }, {
            "id": "customcode_onClick_18857201224764038",
            "type": "INVOKE_FUNCTION",
            "sequenceKUID": "shareIntentmoreCall",
            "display": "shareIntentmoreCall",
            "inputparams": [{
                "name": "message",
                "value": "\"more\""
            }, {
                "name": "module",
                "value": "\"TopupPayment\""
            }],
            "parentId": "preprocessdecision_onClick_23405201224764154",
            "source": "module"
        }, {
            "id": "customcode_onClick_90282201224764038",
            "type": "INVOKE_FUNCTION",
            "sequenceKUID": "shareIntentmoreCallandroid",
            "display": "shareIntentmoreCallandroid",
            "inputparams": [{
                "name": "message",
                "value": "\"more\""
            }, {
                "name": "module",
                "value": "\"BillPayment\""
            }],
            "parentId": "preprocessdecision_onClick_1475201224764890",
            "source": "module"
        }, {
            "id": "customcode_onClick_42438201224768865",
            "type": "INVOKE_FUNCTION",
            "sequenceKUID": "shareIntentmoreCall",
            "display": "shareIntentmoreCall",
            "inputparams": [{
                "name": "message",
                "value": "\"more\""
            }, {
                "name": "module",
                "value": "\"BillPayment\""
            }],
            "parentId": "preprocessdecision_onClick_10924201224762476",
            "source": "module"
        }, {
            "id": "preprocessdecision_onClick_10924201224762476",
            "type": "CHANNEL_CONDITION",
            "platforms": ["iphone"],
            "parentId": "decision_onClick_71106201224765088"
        }, {
            "id": "preprocessdecision_onClick_1475201224764890",
            "type": "CHANNEL_CONDITION",
            "platforms": ["android"],
            "parentId": "decision_onClick_71106201224765088"
        }, {
            "id": "customcode_onClick_52614201224764839",
            "type": "INVOKE_FUNCTION",
            "sequenceKUID": "shareIntentmoreCallandroid",
            "display": "shareIntentmoreCallandroid",
            "inputparams": [{
                "name": "message",
                "value": "\"more\""
            }, {
                "name": "module",
                "value": "\"TopupPayment\""
            }],
            "parentId": "preprocessdecision_onClick_76203201224769788",
            "source": "module"
        }, {
            "id": "preprocessdecision_onClick_23405201224764154",
            "type": "CHANNEL_CONDITION",
            "platforms": ["iphone"],
            "parentId": "decision_onClick_51069201224767995"
        }, {
            "id": "preprocessdecision_onClick_76203201224769788",
            "type": "CHANNEL_CONDITION",
            "platforms": ["android"],
            "parentId": "decision_onClick_51069201224767995"
        }]
    }
}