{
    "p2kwiet2012247629253_btnAgree_onClick_seq0": {
        "id": "p2kwiet2012247629253_btnAgree_onClick_seq0",
        "type": "ACTION_SEQUENCE",
        "params": [{
            "name": "eventobject",
            "value": "eventobject"
        }],
        "language": "js",
        "actions": [{
            "id": "expression_onClick_80226201224768108",
            "type": "ADD_SNIPPET",
            "codeSnippet": "getMBFATCATermsAndCondition();"
        }]
    }
}