{
    "p2kwiet2012247650395_btnPayBillConfirm_onClick_seq0": {
        "id": "p2kwiet2012247650395_btnPayBillConfirm_onClick_seq0",
        "type": "ACTION_SEQUENCE",
        "params": [{
            "name": "eventobject",
            "value": "eventobject"
        }],
        "language": "js",
        "actions": [{
            "id": "customcode_onClick_90594201224767933",
            "type": "INVOKE_FUNCTION",
            "sequenceKUID": "onConfirmClickAddFromAccountSummaryPopUpMB",
            "display": "onConfirmClickAddFromAccountSummaryPopUpMB",
            "inputparams": [],
            "source": "module"
        }]
    }
}