{
    "p2kwiet2012247626596_btnBackSpa_onClick_seq0": {
        "id": "p2kwiet2012247626596_btnBackSpa_onClick_seq0",
        "type": "ACTION_SEQUENCE",
        "params": [{
            "name": "eventobject",
            "value": "eventobject"
        }],
        "language": "js",
        "actions": [{
            "id": "expression_onClick_22549201224767613",
            "type": "ADD_SNIPPET",
            "codeSnippet": "frmAccountStatementMB.segcredit.removeAll();\n gblStmntSessionFlag= \"2\";\n //TMBUtil.DestroyForm(frmAccountStatementMB);\n shortCutActDetailsPage();\n frmAccountDetailsMB.show();\n //frmAccountStatementMBDummy.show();"
        }]
    }
}