{
    "p2kwiet2012247630833_frmMBChangePINEnterExistsPin_Android_onDeviceMenu_seq0": {
        "id": "p2kwiet2012247630833_frmMBChangePINEnterExistsPin_Android_onDeviceMenu_seq0",
        "type": "ACTION_SEQUENCE",
        "params": [{
            "name": "eventobject",
            "value": "eventobject"
        }],
        "language": "js",
        "actions": [{
            "id": "customcode_onDeviceMenu_70924201224761238",
            "type": "INVOKE_FUNCTION",
            "sequenceKUID": "disableBackButton",
            "display": "disableBackButton",
            "inputparams": [],
            "source": "module"
        }]
    }
}