{
    "p2kwiet2012247629927_hbxActivationIB_onClick_seq0": {
        "id": "p2kwiet2012247629927_hbxActivationIB_onClick_seq0",
        "type": "ACTION_SEQUENCE",
        "params": [{
            "name": "eventobject",
            "value": "eventobject"
        }],
        "language": "js",
        "actions": [{
            "id": "expression_onClick_31032201224765981",
            "type": "ADD_SNIPPET",
            "codeSnippet": "gblMBActivationVia=\"2\""
        }, {
            "id": "customcode_onClick_78980201224761861",
            "type": "INVOKE_FUNCTION",
            "sequenceKUID": "navigateToTandC",
            "display": "navigateToTandC",
            "inputparams": [],
            "source": "module"
        }]
    }
}