{
    "p2kwiet2012247637818_frmTransfersAck_preshow_seq0": {
        "id": "p2kwiet2012247637818_frmTransfersAck_preshow_seq0",
        "type": "ACTION_SEQUENCE",
        "params": [{
            "name": "eventobject",
            "value": "eventobject"
        }, {
            "name": "neworientation",
            "value": "neworientation"
        }],
        "language": "js",
        "actions": [{
            "id": "customcode_preshow_14033201224766941",
            "type": "INVOKE_FUNCTION",
            "sequenceKUID": "frmTransfersAckMenuPreshow",
            "display": "frmTransfersAckMenuPreshow",
            "inputparams": [],
            "source": "module"
        }, {
            "id": "INVOKE_FUNCTION___cf395427231f473ba6e78030b7a12648",
            "type": "INVOKE_FUNCTION",
            "sequenceKUID": "changeStatusBarColor",
            "display": "changeStatusBarColor",
            "inputparams": [],
            "parentId": null,
            "callbackType": null,
            "disabled": null,
            "source": "module"
        }]
    }
}