{
    "p2kwiet2012247628486_txtAccessPwd_onTextChange_seq0": {
        "id": "p2kwiet2012247628486_txtAccessPwd_onTextChange_seq0",
        "type": "ACTION_SEQUENCE",
        "params": [{
            "name": "eventobject",
            "value": "eventobject"
        }, {
            "name": "changedtext",
            "value": "changedtext"
        }],
        "language": "js",
        "actions": [{
            "id": "expression_onTextChange_3903201224767696",
            "type": "ADD_SNIPPET",
            "codeSnippet": "//#ifdef iphone\nvar str = frmCMChgAccessPin.txtAccessPwd.text;\n if (str != null && str.length >=1 ){\n popAccessPinBubble.destroy();\n }\n else {\n var context = {\n \"widget\": frmCMChgAccessPin.hbox4769997143083,\n \"anchor\": \"right\",\n \"sizetoanchorwidth\": false\n };\n popAccessPinBubble.setContext(context); \n popAccessPinBubble.show();\n }\n//#endif"
        }]
    }
}