{
    "p2kwiet2012247634417_btnFaceBook_onClick_seq0": {
        "id": "p2kwiet2012247634417_btnFaceBook_onClick_seq0",
        "type": "ACTION_SEQUENCE",
        "params": [{
            "name": "eventobject",
            "value": "eventobject"
        }],
        "language": "js",
        "actions": [{
            "id": "expression_onClick_82399201224769342",
            "type": "ADD_SNIPPET",
            "codeSnippet": "requestFromForm=\"editprofile\";"
        }, {
            "id": "customcode_onClick_76044201224765320",
            "type": "INVOKE_FUNCTION",
            "sequenceKUID": "checkContactPermissionsInAddProfile",
            "display": "checkContactPermissionsInAddProfile",
            "inputparams": [],
            "source": "module"
        }]
    }
}