{
    "p2kwiet15245716321099_tbxMyNoteValue_Android_onBeginEditing_seq0": {
        "id": "p2kwiet15245716321099_tbxMyNoteValue_Android_onBeginEditing_seq0",
        "type": "ACTION_SEQUENCE",
        "params": [{
            "name": "eventobject",
            "value": "eventobject"
        }, {
            "name": "changedtext",
            "value": "changedtext"
        }],
        "language": "js",
        "actions": [{
            "id": "customcode_onBeginEditing_1131915245716324941",
            "type": "INVOKE_FUNCTION",
            "sequenceKUID": "assignTextNoEmoji",
            "display": "assignTextNoEmoji",
            "inputparams": [{
                "name": "eventObj",
                "value": "eventobject"
            }],
            "source": "module"
        }]
    }
}