{
    "p2kwiet2012247633176_btnCancel_onClick_seq0": {
        "id": "p2kwiet2012247633176_btnCancel_onClick_seq0",
        "type": "ACTION_SEQUENCE",
        "params": [{
            "name": "eventobject",
            "value": "eventobject"
        }],
        "language": "js",
        "actions": [{
            "id": "decision_onClick_22183201224769934",
            "type": "IF_CONDITION",
            "conditions": [{
                "leftValueType": "expression",
                "leftValue": "isMenuShown == false"
            }],
            "criteria": "all"
        }, {
            "id": "decision_onClick_39537201224767899",
            "type": "ELSE_CONDITION",
            "conditions": [],
            "criteria": "all"
        }, {
            "id": "customcode_onClick_77636201224762110",
            "type": "INVOKE_FUNCTION",
            "sequenceKUID": "onClickOfCancelSogoood",
            "display": "onClickOfCancelSogoood",
            "inputparams": [],
            "parentId": "decision_onClick_22183201224769934",
            "source": "module"
        }, {
            "id": "expression_onClick_89863201224764261",
            "type": "ADD_SNIPPET",
            "codeSnippet": "frmMBSoGooodPlanList.scrollboxMain.scrollToEnd();\n isMenuShown = false;",
            "parentId": "decision_onClick_39537201224767899"
        }]
    }
}