{
    "p2kwiet2012247626788_btnCancelSpa_onClick_seq0": {
        "id": "p2kwiet2012247626788_btnCancelSpa_onClick_seq0",
        "type": "ACTION_SEQUENCE",
        "params": [{
            "name": "eventobject",
            "value": "eventobject"
        }],
        "language": "js",
        "actions": [{
            "id": "decision_onClick_31872201224762976",
            "type": "IF_CONDITION",
            "conditions": [{
                "leftValueType": "expression",
                "leftValue": "isMenuShown == false"
            }],
            "criteria": "all"
        }, {
            "id": "decision_onClick_50674201224762555",
            "type": "ELSE_CONDITION",
            "conditions": [],
            "criteria": "all"
        }, {
            "id": "expression_onClick_4692201224768230",
            "type": "ADD_SNIPPET",
            "codeSnippet": "gblAddBillerFromPay = false;\n \n frmMyTopUpList.show();\n \n frmAddTopUpBillerconfrmtn.segConfirmationList.data=[];\n gblFlagConfirmDataAddedMB=0;\n frmMyTopUpList.button1010778103103263.setEnabled(true);\n enableAddButtonTopUpBillerConfirm();\n frmMyTopUpList.segSuggestedBillers.setEnabled(true);",
            "parentId": "decision_onClick_31872201224762976"
        }, {
            "id": "expression_onClick_7386201224764832",
            "type": "ADD_SNIPPET",
            "codeSnippet": "frmAddTopUpBillerconfrmtn.scrollboxMain.scrollToEnd();\n isMenuShown = false;\n gblAddBillerFromPay = false;",
            "parentId": "decision_onClick_50674201224762555"
        }]
    }
}