{
    "p2kwiet2012247627519_vbxImage_onClick_seq0": {
        "id": "p2kwiet2012247627519_vbxImage_onClick_seq0",
        "type": "ACTION_SEQUENCE",
        "params": [{
            "name": "eventobject",
            "value": "eventobject"
        }],
        "language": "js",
        "actions": [{
            "id": "decision_onClick_96389201224763314",
            "type": "IF_CONDITION",
            "conditions": [{
                "leftValueType": "expression",
                "leftValue": "gblMyBillerTopUpBB==\"0\""
            }],
            "criteria": "all"
        }, {
            "id": "decision_onClick_27920201224766390",
            "type": "ELSE_CONDITION",
            "conditions": [],
            "criteria": "all"
        }, {
            "id": "customcode_onClick_6928720122476392",
            "type": "INVOKE_FUNCTION",
            "sequenceKUID": "screenShotCall",
            "display": "screenShotCall",
            "inputparams": [{
                "name": "message",
                "value": "\"screenshot\""
            }],
            "parentId": "preprocessdecision_onClick_42597201224767561",
            "source": "module"
        }, {
            "id": "customcode_onClick_45223201224766984",
            "type": "INVOKE_FUNCTION",
            "sequenceKUID": "shareIntentmoreCallandroid",
            "display": "shareIntentmoreCallandroid",
            "inputparams": [{
                "name": "message",
                "value": "\"screenshot\""
            }, {
                "name": "module",
                "value": "\"BillPayment\""
            }],
            "parentId": "preprocessdecision_onClick_2330201224761860",
            "source": "module"
        }, {
            "id": "customcode_onClick_50282201224769389",
            "type": "INVOKE_FUNCTION",
            "sequenceKUID": "screenShotCall",
            "display": "screenShotCall",
            "inputparams": [{
                "name": "message",
                "value": "\"screenshot\""
            }],
            "parentId": "preprocessdecision_onClick_80675201224769069",
            "source": "module"
        }, {
            "id": "preprocessdecision_onClick_80675201224769069",
            "type": "CHANNEL_CONDITION",
            "platforms": ["iphone"],
            "parentId": "decision_onClick_96389201224763314"
        }, {
            "id": "preprocessdecision_onClick_2330201224761860",
            "type": "CHANNEL_CONDITION",
            "platforms": ["android"],
            "parentId": "decision_onClick_96389201224763314"
        }, {
            "id": "customcode_onClick_32377201224764752",
            "type": "INVOKE_FUNCTION",
            "sequenceKUID": "shareIntentmoreCallandroid",
            "display": "shareIntentmoreCallandroid",
            "inputparams": [{
                "name": "message",
                "value": "\"screenshot\""
            }, {
                "name": "module",
                "value": "\"TopupPayment\""
            }],
            "parentId": "preprocessdecision_onClick_76303201224766733",
            "source": "module"
        }, {
            "id": "preprocessdecision_onClick_42597201224767561",
            "type": "CHANNEL_CONDITION",
            "platforms": ["iphone"],
            "parentId": "decision_onClick_27920201224766390"
        }, {
            "id": "preprocessdecision_onClick_76303201224766733",
            "type": "CHANNEL_CONDITION",
            "platforms": ["android"],
            "parentId": "decision_onClick_27920201224766390"
        }]
    }
}