{
    "p2kwiet2012247630531_btnclose_onClick_seq0": {
        "id": "p2kwiet2012247630531_btnclose_onClick_seq0",
        "type": "ACTION_SEQUENCE",
        "params": [{
            "name": "eventobject",
            "value": "eventobject"
        }],
        "language": "js",
        "actions": [{
            "id": "customcode_onClick_41873201224768145",
            "type": "INVOKE_FUNCTION",
            "sequenceKUID": "frmMBBlockCCChangeAddressOnClickBtnClose",
            "display": "frmMBBlockCCChangeAddressOnClickBtnClose",
            "inputparams": [],
            "source": "module"
        }]
    }
}