{
    "p2kwiet2012247632394_frmMBPreLoginAccessesPin_Android_onDeviceBack_seq0": {
        "id": "p2kwiet2012247632394_frmMBPreLoginAccessesPin_Android_onDeviceBack_seq0",
        "type": "ACTION_SEQUENCE",
        "params": [{
            "name": "eventobject",
            "value": "eventobject"
        }],
        "language": "js",
        "actions": [{
            "id": "customcode_onDeviceBack_5086201224763750",
            "type": "INVOKE_FUNCTION",
            "sequenceKUID": "closeApplicationBackBtn",
            "display": "closeApplicationBackBtn",
            "inputparams": [],
            "source": "module"
        }]
    }
}