{
    "p2kwiet2012247626596_btnm5_onClick_seq0": {
        "id": "p2kwiet2012247626596_btnm5_onClick_seq0",
        "type": "ACTION_SEQUENCE",
        "params": [{
            "name": "eventobject",
            "value": "eventobject"
        }],
        "language": "js",
        "actions": [{
            "id": "customcode_onClick_1697420122476744",
            "type": "INVOKE_FUNCTION",
            "sequenceKUID": "onMonth5Click",
            "display": "onMonth5Click",
            "inputparams": [],
            "source": "module"
        }, {
            "id": "customcode_onClick_90741201224763779",
            "type": "INVOKE_FUNCTION",
            "sequenceKUID": "getDateFormatStmt",
            "display": "getDateFormatStmt",
            "inputparams": [{
                "name": "btntext",
                "value": "frmAccountStatementMB.btnm5.text "
            }, {
                "name": "btnno",
                "value": "\"4\" "
            }],
            "source": "module"
        }]
    }
}