{
    "p2kwiet2012247634624_frmMyRecipientSelectContactsConf_preshow_seq0": {
        "id": "p2kwiet2012247634624_frmMyRecipientSelectContactsConf_preshow_seq0",
        "type": "ACTION_SEQUENCE",
        "params": [{
            "name": "eventobject",
            "value": "eventobject"
        }, {
            "name": "neworientation",
            "value": "neworientation"
        }],
        "language": "js",
        "actions": [{
            "id": "customcode_preshow_7854201224767981",
            "type": "INVOKE_FUNCTION",
            "sequenceKUID": "frmMyRecipientSelectContactsConfMenuPreshow",
            "display": "frmMyRecipientSelectContactsConfMenuPreshow",
            "inputparams": [],
            "source": "module"
        }]
    }
}