{
    "p2kwiet2012247633297_lblSel_onTouchEnd_seq0": {
        "id": "p2kwiet2012247633297_lblSel_onTouchEnd_seq0",
        "type": "ACTION_SEQUENCE",
        "params": [{
            "name": "eventobject",
            "value": "eventobject"
        }, {
            "name": "x",
            "value": "x"
        }, {
            "name": "y",
            "value": "y"
        }, {
            "name": "contextInfo",
            "value": "contextInfo"
        }],
        "language": "js",
        "actions": [{
            "id": "customcode_onTouchEnd_8627201224765550",
            "type": "INVOKE_FUNCTION",
            "sequenceKUID": "selectAllMB",
            "display": "selectAllMB",
            "inputparams": [],
            "source": "module"
        }]
    }
}