{
    "p2kwiet2012247636405_btnRight_onClick_seq0": {
        "id": "p2kwiet2012247636405_btnRight_onClick_seq0",
        "type": "ACTION_SEQUENCE",
        "params": [{
            "name": "eventobject",
            "value": "eventobject"
        }],
        "language": "js",
        "actions": [{
            "id": "customcode_onClick_55450201224765012",
            "type": "INVOKE_FUNCTION",
            "sequenceKUID": "enableAckList",
            "display": "enableAckList",
            "inputparams": [{
                "name": "frmName",
                "value": "frmOpenActTDAck "
            }],
            "source": "module"
        }]
    }
}