{
    "p2kwiet2012247638017_lnkConfirmBB_onClick_seq0": {
        "id": "p2kwiet2012247638017_lnkConfirmBB_onClick_seq0",
        "type": "ACTION_SEQUENCE",
        "params": [{
            "name": "eventobject",
            "value": "eventobject"
        }],
        "language": "js",
        "actions": [{
            "id": "customcode_onClick_81642201224765690",
            "type": "INVOKE_FUNCTION",
            "sequenceKUID": "onClickBillersApplyBBLink",
            "display": "onClickBillersApplyBBLink",
            "inputparams": [],
            "source": "module"
        }]
    }
}