{
    "p2kwiet2012247637673_hbxTranLandRecNote_onClick_seq0": {
        "id": "p2kwiet2012247637673_hbxTranLandRecNote_onClick_seq0",
        "type": "ACTION_SEQUENCE",
        "params": [{
            "name": "eventobject",
            "value": "eventobject"
        }],
        "language": "js",
        "actions": [{
            "id": "customcode_onClick_69599201224762711",
            "type": "INVOKE_FUNCTION",
            "sequenceKUID": "ehFrmTransferLandingHbxRecNoteSmsOnClick",
            "display": "ehFrmTransferLandingHbxRecNoteSmsOnClick",
            "inputparams": [],
            "source": "module"
        }]
    }
}