{
    "p2kwiet2012247628486_txtAccessPwd_Android_onEndEditing_seq0": {
        "id": "p2kwiet2012247628486_txtAccessPwd_Android_onEndEditing_seq0",
        "type": "ACTION_SEQUENCE",
        "params": [{
            "name": "eventobject",
            "value": "eventobject"
        }, {
            "name": "changedtext",
            "value": "changedtext"
        }],
        "language": "js",
        "actions": [{
            "id": "expression_onEndEditing_53905201224766086",
            "type": "ADD_SNIPPET",
            "codeSnippet": "popAccessPinBubble.destroy();"
        }]
    }
}