{
    "p2kwiet2012247649987_btnPopTransactionCancel_onClick_seq0": {
        "id": "p2kwiet2012247649987_btnPopTransactionCancel_onClick_seq0",
        "type": "ACTION_SEQUENCE",
        "params": [{
            "name": "eventobject",
            "value": "eventobject"
        }],
        "language": "js",
        "actions": [{
            "id": "expression_onClick_14758201224769374",
            "type": "ADD_SNIPPET",
            "codeSnippet": "popEditBillPayTransactionPwd.dismiss();"
        }]
    }
}