{
    "p2kwiet2012247629960_btnRight_onClick_seq0": {
        "id": "p2kwiet2012247629960_btnRight_onClick_seq0",
        "type": "ACTION_SEQUENCE",
        "params": [{
            "name": "eventobject",
            "value": "eventobject"
        }],
        "language": "js",
        "actions": [{
            "id": "preprocessdecision_onClick_93688201224763938",
            "type": "CHANNEL_CONDITION",
            "platforms": ["android", "iphone"]
        }, {
            "id": "preprocessdecision_onClick_41202201224767510",
            "type": "CHANNEL_CONDITION",
            "platforms": ["spaip", "spabbnth", "spawinphone8", "spaan", "spabb", "spawindows"]
        }, {
            "id": "expression_onClick_31343201224764451",
            "type": "ADD_SNIPPET",
            "codeSnippet": " currForm = frmMBAnyIDRegAcceptTnC;\n var deviceHght = kony.os.deviceInfo().deviceHeight;\n var osType = kony.os.deviceInfo().name;\n // alert(\"Screen Name is: \"+currForm);\n \n if (currForm.hboxSaveCamEmail.isVisible == false) {\n currForm.hboxSaveCamEmail.isVisible = true;\n currForm.imgHeaderRight.src = \"arrowtop.png\"\n currForm.imgHeaderMiddle.src = \"empty.png\"\n currForm.btnRight.skin = \"btnShareFoc\";\n /*if(deviceHght > 567 && osType == \"iPhone\"){\n currForm.scrollbox474135225108084.containerHeight = 73.7;\n }else\n currForm.scrollbox474135225108084.containerHeight = 68.8;\n //#ifdef android\n currForm.scrollbox474135225108084.containerHeight = 68.9;\n //#endif\n */\n } else {\n currForm.hboxSaveCamEmail.isVisible = false;\n currForm.imgHeaderMiddle.src = \"arrowtop.png\"\n currForm.imgHeaderRight.src = \"empty.png\"\n currForm.btnRight.skin = \"btnShare\";\n /*if(deviceHght > 567 && osType == \"iPhone\"){\n currForm.scrollbox474135225108084.containerHeight = 83.8;\n }else\n currForm.scrollbox474135225108084.containerHeight = 81;\n //#ifdef android\n currForm.scrollbox474135225108084.containerHeight = 78;\n //#endif\n */\n }\n \n ",
            "parentId": "preprocessdecision_onClick_93688201224763938"
        }, {
            "id": "expression_onClick_3703220122476680",
            "type": "ADD_SNIPPET",
            "codeSnippet": "var skin = frmMBAnyIDRegAcceptTnC.btnRight.skin\n \n if(frmMBAnyIDRegAcceptTnC.hboxSaveCamEmail.isVisible == false){\n frmMBAnyIDRegAcceptTnC.hboxSaveCamEmail.isVisible = true;\n frmMBAnyIDRegAcceptTnC.imgHeaderRight.src = \"arrowtop.png\"\n frmMBAnyIDRegAcceptTnC.imgHeaderMiddle.src = \"empty.png\"\n frmMBAnyIDRegAcceptTnC.btnRight.skin = \"btnShareFoc\";\n }else{\n frmMBAnyIDRegAcceptTnC.hboxSaveCamEmail.isVisible = false;\n frmMBAnyIDRegAcceptTnC.imgHeaderMiddle.src = \"arrowtop.png\"\n frmMBAnyIDRegAcceptTnC.imgHeaderRight.src = \"empty.png\"\n frmMBAnyIDRegAcceptTnC.btnRight.skin = \"btnShare\";\n }\n ",
            "parentId": "preprocessdecision_onClick_41202201224767510"
        }]
    }
}