{
    "p2kwiet2012247650086_btnPopDeleteCancel_onClick_seq0": {
        "id": "p2kwiet2012247650086_btnPopDeleteCancel_onClick_seq0",
        "type": "ACTION_SEQUENCE",
        "params": [{
            "name": "eventobject",
            "value": "eventobject"
        }],
        "language": "js",
        "actions": [{
            "id": "decision_onClick_49619201224769416",
            "type": "IF_CONDITION",
            "conditions": [{
                "leftValueType": "expression",
                "leftValue": "(kony.application.getCurrentForm().id == \"frmeditMyProfile\")"
            }],
            "criteria": "all"
        }, {
            "id": "decision_onClick_81624201224764392",
            "type": "ELSE_CONDITION",
            "conditions": [],
            "criteria": "all"
        }, {
            "id": "customcode_onClick_84669201224763486",
            "type": "INVOKE_FUNCTION",
            "sequenceKUID": "openGalleryinEditProfilePopUp",
            "display": "openGalleryinEditProfilePopUp",
            "inputparams": [],
            "parentId": "decision_onClick_49619201224769416",
            "source": "module"
        }, {
            "id": "customcode_onClick_16694201224765177",
            "type": "INVOKE_FUNCTION",
            "sequenceKUID": "openMediaGalleryinPopUp",
            "display": "openMediaGalleryinPopUp",
            "inputparams": [],
            "parentId": "decision_onClick_81624201224764392",
            "source": "module"
        }]
    }
}