{
    "p2kwiet2012247632223_btnCashbackAccounts_onClick_seq0": {
        "id": "p2kwiet2012247632223_btnCashbackAccounts_onClick_seq0",
        "type": "ACTION_SEQUENCE",
        "params": [{
            "name": "eventobject",
            "value": "eventobject"
        }],
        "language": "js",
        "actions": [{
            "id": "customcode_onClick_895201224767512",
            "type": "INVOKE_FUNCTION",
            "sequenceKUID": "onClickToAccountForCashback",
            "display": "onClickToAccountForCashback",
            "inputparams": [],
            "source": "module"
        }]
    }
}