{
    "p2kwiet2012247632544_frmMBRequestPinSuccess_preshow_seq0": {
        "id": "p2kwiet2012247632544_frmMBRequestPinSuccess_preshow_seq0",
        "type": "ACTION_SEQUENCE",
        "params": [{
            "name": "eventobject",
            "value": "eventobject"
        }],
        "language": "js",
        "actions": [{
            "id": "customcode_preshow_4683201224761951",
            "type": "INVOKE_FUNCTION",
            "sequenceKUID": "frmMBRequestPinSuccessPreshow",
            "display": "frmMBRequestPinSuccessPreshow",
            "inputparams": [],
            "source": "module"
        }]
    }
}