{
    "p2kwiet2012247633925_button104026732090595_onClick_seq0": {
        "id": "p2kwiet2012247633925_button104026732090595_onClick_seq0",
        "type": "ACTION_SEQUENCE",
        "params": [{
            "name": "eventobject",
            "value": "eventobject"
        }],
        "language": "js",
        "actions": [{
            "id": "expression_onClick_5386201224762982",
            "type": "ADD_SNIPPET",
            "codeSnippet": "TMBUtil.DestroyForm(frmCMChgTransPwd);\n if(gblIBFlowStatus == \"04\") {\n \n popTransferConfirmOTPLock.show();\n \n kony.print(\"IB_USER_STATUS_ID is 04\");\n return false;\n }\n else\n {\n chngUseridspa=false\n chngPwdspa=true\n }\n "
        }, {
            "id": "navigation_onClick_92716201224761161",
            "type": "NAVIGATE_TO_FORM",
            "formId": "frmCMChgPwdSPA",
            "formKUID": "p2kwiet2012247628524",
            "mappings": {},
            "mappingsOrder": [],
            "parentId": "",
            "enableMappingEditor": true,
            "package": ""
        }]
    }
}