{
    "p2kwiet2012247627976_btnConfirm_onClick_seq0": {
        "id": "p2kwiet2012247627976_btnConfirm_onClick_seq0",
        "type": "ACTION_SEQUENCE",
        "params": [{
            "name": "eventobject",
            "value": "eventobject"
        }],
        "language": "js",
        "actions": [{
            "id": "customcode_onClick_86516201224762758",
            "type": "INVOKE_FUNCTION",
            "sequenceKUID": "isBPScheduleEdited",
            "display": "isBPScheduleEdited",
            "inputparams": [],
            "source": "module"
        }]
    }
}