{
    "p2kwiet2012247630266_frmMBAssignAtmPin_preshow_seq0": {
        "id": "p2kwiet2012247630266_frmMBAssignAtmPin_preshow_seq0",
        "type": "ACTION_SEQUENCE",
        "params": [{
            "name": "eventobject",
            "value": "eventobject"
        }, {
            "name": "neworientation",
            "value": "neworientation"
        }],
        "language": "js",
        "actions": [{
            "id": "customcode_preshow_91887201224763546",
            "type": "INVOKE_FUNCTION",
            "sequenceKUID": "frmMBAssignAtmPinMenuPreshow",
            "display": "frmMBAssignAtmPinMenuPreshow",
            "inputparams": [],
            "source": "module"
        }]
    }
}