{
    "p2kwiet2012247633239_btnSelect1_onClick_seq0": {
        "id": "p2kwiet2012247633239_btnSelect1_onClick_seq0",
        "type": "ACTION_SEQUENCE",
        "params": [{
            "name": "eventobject",
            "value": "eventobject"
        }],
        "language": "js",
        "actions": [{
            "id": "customcode_onClick_41627201224766496",
            "type": "INVOKE_FUNCTION",
            "sequenceKUID": "OnNewPlanSelectService",
            "display": "OnNewPlanSelectService",
            "inputparams": [{
                "name": "eventObject",
                "value": "eventobject"
            }],
            "source": "module"
        }]
    }
}