{
    "p2kwiet2012247632223_txtPointsBeingRedeemed_SPA_onBeginEditing_seq0": {
        "id": "p2kwiet2012247632223_txtPointsBeingRedeemed_SPA_onBeginEditing_seq0",
        "type": "ACTION_SEQUENCE",
        "params": [{
            "name": "eventobject",
            "value": "eventobject"
        }, {
            "name": "changedtext",
            "value": "changedtext"
        }],
        "language": "js",
        "actions": [{
            "id": "expression_onBeginEditing_32818201224767263",
            "type": "ADD_SNIPPET",
            "codeSnippet": "frmMBPointRedemptionLanding.txtPointsBeingRedeemed.text = removeCommas(frmMBPointRedemptionLanding.txtPointsBeingRedeemed.text);"
        }]
    }
}