{
    "p2kwiet2012247629927_frmMBanking_preshow_seq0": {
        "id": "p2kwiet2012247629927_frmMBanking_preshow_seq0",
        "type": "ACTION_SEQUENCE",
        "params": [{
            "name": "eventobject",
            "value": "eventobject"
        }, {
            "name": "neworientation",
            "value": "neworientation"
        }],
        "language": "js",
        "actions": [{
            "id": "customcode_preshow_75497201224768734",
            "type": "INVOKE_FUNCTION",
            "sequenceKUID": "frmMBankingMenuPreshow",
            "display": "frmMBankingMenuPreshow",
            "inputparams": [],
            "source": "module"
        }]
    }
}