{
    "p2kwiet2012247637385_btnTouchID_onClick_seq0": {
        "id": "p2kwiet2012247637385_btnTouchID_onClick_seq0",
        "type": "ACTION_SEQUENCE",
        "params": [{
            "name": "eventobject",
            "value": "eventobject"
        }],
        "language": "js",
        "actions": [{
            "id": "expression_onClick_7767201224761465",
            "type": "ADD_SNIPPET",
            "codeSnippet": "//TMBUtil.DestroyForm(frmAccountSummaryLanding); \n showAccuntSummaryScreen();\n gblActivationFlow = false;"
        }]
    }
}