{
    "p2kwiet2012247634072_btnTransfer_onClick_seq0": {
        "id": "p2kwiet2012247634072_btnTransfer_onClick_seq0",
        "type": "ACTION_SEQUENCE",
        "params": [{
            "name": "eventobject",
            "value": "eventobject"
        }, {
            "name": "context",
            "value": "context"
        }],
        "language": "js",
        "actions": [{
            "id": "expression_onClick_97108201224765842",
            "type": "ADD_SNIPPET",
            "codeSnippet": "gblTransferFromRecipient=true\n gbltransferFromForm = \"frmMyRecipientAddAccComplete\""
        }, {
            "id": "customcode_onClick_21001201224761372",
            "type": "INVOKE_FUNCTION",
            "sequenceKUID": "getTransferFromAccounts",
            "display": "getTransferFromAccounts",
            "inputparams": [],
            "source": "module"
        }]
    }
}