{
    "p2kwiet2012247636959_bttnBack_onClick_seq0": {
        "id": "p2kwiet2012247636959_bttnBack_onClick_seq0",
        "type": "ACTION_SEQUENCE",
        "params": [{
            "name": "eventobject",
            "value": "eventobject"
        }],
        "language": "js",
        "actions": [{
            "id": "customcode_onClick_55753201224767385",
            "type": "INVOKE_FUNCTION",
            "sequenceKUID": "onClickBackPromotionDetails",
            "display": "onClickBackPromotionDetails",
            "inputparams": [],
            "source": "module"
        }, {
            "id": "customcode_onClick_12026201224768491",
            "type": "INVOKE_FUNCTION",
            "sequenceKUID": "stopPromotionsTimer",
            "display": "stopPromotionsTimer",
            "inputparams": [],
            "source": "module"
        }]
    }
}