{
    "p2kwiet2012247630531_frmMBBlockCCChangeAddress_Android_onDeviceBack_seq0": {
        "id": "p2kwiet2012247630531_frmMBBlockCCChangeAddress_Android_onDeviceBack_seq0",
        "type": "ACTION_SEQUENCE",
        "params": [{
            "name": "eventobject",
            "value": "eventobject"
        }],
        "language": "js",
        "actions": [{
            "id": "customcode_onDeviceBack_72691201224765722",
            "type": "INVOKE_FUNCTION",
            "sequenceKUID": "disableBackButton",
            "display": "disableBackButton",
            "inputparams": [],
            "source": "module"
        }]
    }
}