{
    "p2kwiet2012247630833_btnCancel_onClick_seq0": {
        "id": "p2kwiet2012247630833_btnCancel_onClick_seq0",
        "type": "ACTION_SEQUENCE",
        "params": [{
            "name": "eventobject",
            "value": "eventobject"
        }],
        "language": "js",
        "actions": [{
            "id": "customcode_onClick_92638201224769738",
            "type": "INVOKE_FUNCTION",
            "sequenceKUID": "btnCancelEventExistChangePin",
            "display": "btnCancelEventExistChangePin",
            "inputparams": [],
            "source": "module"
        }]
    }
}