{
    "p2kwiet2012247629892_txtPassword_iPhone_onBeginEditing_seq0": {
        "id": "p2kwiet2012247629892_txtPassword_iPhone_onBeginEditing_seq0",
        "type": "ACTION_SEQUENCE",
        "params": [{
            "name": "eventobject",
            "value": "eventobject"
        }, {
            "name": "changedtext",
            "value": "changedtext"
        }],
        "language": "js",
        "actions": [{
            "id": "expression_onBeginEditing_2894220122476725",
            "type": "ADD_SNIPPET",
            "codeSnippet": "frmMBActivationIBLogin.hbox502735421204261.skin = \"hboxLightBlue\""
        }]
    }
}