{
    "p2kwiet2012247631416_frmMBFTEditCnfrmtn_preshow_seq0": {
        "id": "p2kwiet2012247631416_frmMBFTEditCnfrmtn_preshow_seq0",
        "type": "ACTION_SEQUENCE",
        "params": [{
            "name": "eventobject",
            "value": "eventobject"
        }, {
            "name": "neworientation",
            "value": "neworientation"
        }],
        "language": "js",
        "actions": [{
            "id": "customcode_preshow_517620122476561",
            "type": "INVOKE_FUNCTION",
            "sequenceKUID": "frmMBFTEditCnfrmtnMenuPreshow",
            "display": "frmMBFTEditCnfrmtnMenuPreshow",
            "inputparams": [],
            "source": "module"
        }]
    }
}