{
    "p2kwiet2012247630833_btnClr_onClick_seq0": {
        "id": "p2kwiet2012247630833_btnClr_onClick_seq0",
        "type": "ACTION_SEQUENCE",
        "params": [{
            "name": "eventobject",
            "value": "eventobject"
        }],
        "language": "js",
        "actions": [{
            "id": "customcode_onClick_93631201224762659",
            "type": "INVOKE_FUNCTION",
            "sequenceKUID": "clearExistChangePIN",
            "display": "clearExistChangePIN",
            "inputparams": [],
            "source": "module"
        }]
    }
}