{
    "p2kwiet2012247651244_btnBack_onClick_seq0": {
        "id": "p2kwiet2012247651244_btnBack_onClick_seq0",
        "type": "ACTION_SEQUENCE",
        "params": [{
            "name": "eventobject",
            "value": "eventobject"
        }],
        "language": "js",
        "actions": [{
            "id": "navigation_onClick_15942201224761442",
            "type": "NAVIGATE_TO_FORM",
            "formId": "frmMyAccountList",
            "formKUID": "p2kwiet2012247633781",
            "mappings": {},
            "mappingsOrder": [],
            "parentId": "",
            "enableMappingEditor": true,
            "package": ""
        }]
    }
}