{
    "p2kwiet2012247634671_btnReturn_onClick_seq0": {
        "id": "p2kwiet2012247634671_btnReturn_onClick_seq0",
        "type": "ACTION_SEQUENCE",
        "params": [{
            "name": "eventobject",
            "value": "eventobject"
        }],
        "language": "js",
        "actions": [{
            "id": "navigation_onClick_82162201224763328",
            "type": "NAVIGATE_TO_FORM",
            "formId": "frmMyRecipients",
            "formKUID": "p2kwiet2012247634505",
            "mappings": {},
            "mappingsOrder": [],
            "parentId": "",
            "enableMappingEditor": true,
            "package": ""
        }]
    }
}