{
    "p2kwiet2012247629833_txtActivationCode_iPhone_onEndEditing_seq0": {
        "id": "p2kwiet2012247629833_txtActivationCode_iPhone_onEndEditing_seq0",
        "type": "ACTION_SEQUENCE",
        "params": [{
            "name": "eventobject",
            "value": "eventobject"
        }, {
            "name": "changedtext",
            "value": "changedtext"
        }],
        "language": "js",
        "actions": [{
            "id": "expression_onEndEditing_41650201224769931",
            "type": "ADD_SNIPPET",
            "codeSnippet": "frmMBActivation.hbxHoldActTextHelpIcon.skin = \"NoSkin\"; "
        }]
    }
}