{
    "p2kwiet2012247628742_lblMnthlySavingVal_iPhone_onBeginEditing_seq0": {
        "id": "p2kwiet2012247628742_lblMnthlySavingVal_iPhone_onBeginEditing_seq0",
        "type": "ACTION_SEQUENCE",
        "params": [{
            "name": "eventobject",
            "value": "eventobject"
        }, {
            "name": "changedtext",
            "value": "changedtext"
        }],
        "language": "js",
        "actions": [{
            "id": "expression_onBeginEditing_28466201224761099",
            "type": "ADD_SNIPPET",
            "codeSnippet": "frmDreamCalculator.lblMnthlySavingVal.skin=\"txtFocusBG\"\n var textmonthAmount = frmDreamCalculator.lblMnthlySavingVal.text\n \n frmDreamCalculator.lblMnthlySavingVal.text = textmonthAmount.replace(kony.i18n.getLocalizedString(\"currencyThaiBaht\"), \"\");\n \n "
        }]
    }
}