{
    "p2kwiet2012247634590_hbxAdv_onClick_seq0": {
        "id": "p2kwiet2012247634590_hbxAdv_onClick_seq0",
        "type": "ACTION_SEQUENCE",
        "params": [{
            "name": "eventobject",
            "value": "eventobject"
        }],
        "language": "js",
        "actions": [{
            "id": "customcode_onClick_69124201224767682",
            "type": "INVOKE_FUNCTION",
            "sequenceKUID": "getCampaignResult",
            "display": "getCampaignResult",
            "inputparams": [],
            "source": "module"
        }]
    }
}