{
    "p2kwiet2012247627874_hbox47792425956439_onClick_seq0": {
        "id": "p2kwiet2012247627874_hbox47792425956439_onClick_seq0",
        "type": "ACTION_SEQUENCE",
        "params": [{
            "name": "eventobject",
            "value": "eventobject"
        }],
        "language": "js",
        "actions": [{
            "id": "customcode_onClick_46566201224764559",
            "type": "INVOKE_FUNCTION",
            "sequenceKUID": "onClickForInnerBoxes",
            "display": "onClickForInnerBoxes",
            "inputparams": [],
            "source": "module"
        }]
    }
}