{
    "p2kwiet2012247633925_button104026732091045_onClick_seq0": {
        "id": "p2kwiet2012247633925_button104026732091045_onClick_seq0",
        "type": "ACTION_SEQUENCE",
        "params": [{
            "name": "eventobject",
            "value": "eventobject"
        }],
        "language": "js",
        "actions": [{
            "id": "expression_onClick_94555201224764090",
            "type": "ADD_SNIPPET",
            "codeSnippet": "if(gblIBFlowStatus == \"04\") {\n \n popTransferConfirmOTPLock.show();\n \n kony.print(\"IB_USER_STATUS_ID is 04\");\n return false;\n }\n else\n {\n chngUseridspa = true\n if (spaCaptchaisVisible) {\n frmCMChgAccessPin.hboxCaptcha.setVisibility(true);\n frmCMChgAccessPin.hboxCaptchaText.setVisibility(true);\n } else {\n frmCMChgAccessPin.hboxCaptcha.setVisibility(false);\n frmCMChgAccessPin.hboxCaptchaText.setVisibility(false);\n }\n }"
        }, {
            "id": "navigation_onClick_59775201224769725",
            "type": "NAVIGATE_TO_FORM",
            "formId": "frmCMChgAccessPin",
            "formKUID": "p2kwiet2012247628486",
            "mappings": {},
            "mappingsOrder": [],
            "parentId": "",
            "enableMappingEditor": true,
            "package": ""
        }]
    }
}