{
    "p2kwiet2012247631081_frmMBEStatementTnC_preshow_seq0": {
        "id": "p2kwiet2012247631081_frmMBEStatementTnC_preshow_seq0",
        "type": "ACTION_SEQUENCE",
        "params": [{
            "name": "eventobject",
            "value": "eventobject"
        }, {
            "name": "neworientation",
            "value": "neworientation"
        }],
        "language": "js",
        "actions": [{
            "id": "customcode_preshow_30254201224769553",
            "type": "INVOKE_FUNCTION",
            "sequenceKUID": "frmMBEStatementTnCMenuPreshow",
            "display": "frmMBEStatementTnCMenuPreshow",
            "inputparams": [],
            "source": "module"
        }]
    }
}