{
    "p2kwiet2012247650226_tbxRecipientName_Android_onEndEditing_seq0": {
        "id": "p2kwiet2012247650226_tbxRecipientName_Android_onEndEditing_seq0",
        "type": "ACTION_SEQUENCE",
        "params": [{
            "name": "eventobject",
            "value": "eventobject"
        }, {
            "name": "changedtext",
            "value": "changedtext"
        }],
        "language": "js",
        "actions": [{
            "id": "customcode_onEndEditing_74582201224767948",
            "type": "INVOKE_FUNCTION",
            "sequenceKUID": "onDoneAddRecipientName",
            "display": "onDoneAddRecipientName",
            "inputparams": [],
            "source": "module"
        }]
    }
}