{
    "p2kwiet2012247627017_frmApplySoGooODComplete_preshow_seq0": {
        "id": "p2kwiet2012247627017_frmApplySoGooODComplete_preshow_seq0",
        "type": "ACTION_SEQUENCE",
        "params": [{
            "name": "eventobject",
            "value": "eventobject"
        }, {
            "name": "neworientation",
            "value": "neworientation"
        }],
        "language": "js",
        "actions": [{
            "id": "customcode_preshow_69179201224762266",
            "type": "INVOKE_FUNCTION",
            "sequenceKUID": "frmApplySoGooODCompleteMenuPreshow",
            "display": "frmApplySoGooODCompleteMenuPreshow",
            "inputparams": [],
            "source": "module"
        }]
    }
}