{
    "p2kwiet2012247626702_btnPopUpTerminationSpa_onClick_seq0": {
        "id": "p2kwiet2012247626702_btnPopUpTerminationSpa_onClick_seq0",
        "type": "ACTION_SEQUENCE",
        "params": [{
            "name": "eventobject",
            "value": "eventobject"
        }],
        "language": "js",
        "actions": [{
            "id": "customcode_onClick_57439201224762928",
            "type": "INVOKE_FUNCTION",
            "sequenceKUID": "ehFrmAccTrcPwdInter_btnPopUpTerminationSpa_onClick",
            "display": "ehFrmAccTrcPwdInter_btnPopUpTerminationSpa_onClick",
            "inputparams": [{
                "name": "eventobject",
                "value": "eventobject"
            }],
            "source": "module"
        }]
    }
}