{
    "p2kwiet2012247628742_frmDreamCalculator_preshow_seq0": {
        "id": "p2kwiet2012247628742_frmDreamCalculator_preshow_seq0",
        "type": "ACTION_SEQUENCE",
        "params": [{
            "name": "eventobject",
            "value": "eventobject"
        }, {
            "name": "neworientation",
            "value": "neworientation"
        }],
        "language": "js",
        "actions": [{
            "id": "customcode_preshow_45763201224767213",
            "type": "INVOKE_FUNCTION",
            "sequenceKUID": "frmDreamCalculatorMenuPreshow",
            "display": "frmDreamCalculatorMenuPreshow",
            "inputparams": [],
            "source": "module"
        }]
    }
}