{
    "p2kwiet2012247630143_btnTryAgain_onClick_seq0": {
        "id": "p2kwiet2012247630143_btnTryAgain_onClick_seq0",
        "type": "ACTION_SEQUENCE",
        "params": [{
            "name": "eventobject",
            "value": "eventobject"
        }],
        "language": "js",
        "actions": [{
            "id": "customcode_onClick_39377201224764201",
            "type": "INVOKE_FUNCTION",
            "sequenceKUID": "performTryAgain",
            "display": "performTryAgain",
            "inputparams": [],
            "source": "module"
        }]
    }
}