{
    "p2kwiet2012247634671_btnMore_onClick_seq0": {
        "id": "p2kwiet2012247634671_btnMore_onClick_seq0",
        "type": "ACTION_SEQUENCE",
        "params": [{
            "name": "eventobject",
            "value": "eventobject"
        }],
        "language": "js",
        "actions": [{
            "id": "expression_onClick_61549201224763649",
            "type": "ADD_SNIPPET",
            "codeSnippet": "var tempOffset = parseInt(gblOffsetMB) + 100;\n var tempLimit = parseInt(gblLimitMB) + 100;\n gblOffsetMB = tempOffset.toString();\n gblLimitMB = tempLimit.toString();\n gblSearch = \"0\";\n gblStart = \"1\";\n gblMORE = true;"
        }, {
            "id": "customcode_onClick_37377201224765819",
            "type": "INVOKE_FUNCTION",
            "sequenceKUID": "getFriendListFromFacebook",
            "display": "getFriendListFromFacebook",
            "inputparams": [{
                "name": "eventobject",
                "value": "\"0\""
            }],
            "source": "module"
        }]
    }
}