{
    "p2kwiet2012247628524_txtTransPass_onDone_seq0": {
        "id": "p2kwiet2012247628524_txtTransPass_onDone_seq0",
        "type": "ACTION_SEQUENCE",
        "params": [{
            "name": "eventobject",
            "value": "eventobject"
        }, {
            "name": "changedtext",
            "value": "changedtext"
        }],
        "language": "js",
        "actions": [{
            "id": "expression_onDone_87000201224763330",
            "type": "ADD_SNIPPET",
            "codeSnippet": "frmCMChgPwdSPA.hbxPassword.skin = \"NoSkin\""
        }]
    }
}