{
    "p2kwiet2012247632872_btnnext_onClick_seq0": {
        "id": "p2kwiet2012247632872_btnnext_onClick_seq0",
        "type": "ACTION_SEQUENCE",
        "params": [{
            "name": "eventobject",
            "value": "eventobject"
        }],
        "language": "js",
        "actions": [{
            "id": "customcode_onClick_7629201224764107",
            "type": "INVOKE_FUNCTION",
            "sequenceKUID": "onclickConfirmProductBrief",
            "display": "onclickConfirmProductBrief",
            "inputparams": [],
            "source": "module"
        }]
    }
}