{
    "p2kwiet2012247632862_frmMBSavingsCareOccupationInfo_postshow_seq0": {
        "id": "p2kwiet2012247632862_frmMBSavingsCareOccupationInfo_postshow_seq0",
        "type": "ACTION_SEQUENCE",
        "params": [{
            "name": "eventobject",
            "value": "eventobject"
        }],
        "language": "js",
        "actions": [{
            "id": "customcode_postshow_40344201224769563",
            "type": "INVOKE_FUNCTION",
            "sequenceKUID": "frmMBSavingsCareOccupationInfoMenuPostshow",
            "display": "frmMBSavingsCareOccupationInfoMenuPostshow",
            "inputparams": [],
            "source": "module"
        }]
    }
}