{
    "p2kwiet2012247631023_btnOfficeAddr_onClick_seq0": {
        "id": "p2kwiet2012247631023_btnOfficeAddr_onClick_seq0",
        "type": "ACTION_SEQUENCE",
        "params": [{
            "name": "eventobject",
            "value": "eventobject"
        }, {
            "name": "context",
            "value": "context"
        }],
        "language": "js",
        "actions": [{
            "id": "customcode_onClick_63512201224761967",
            "type": "INVOKE_FUNCTION",
            "sequenceKUID": "onClickEStmtChooseAddressButton",
            "display": "onClickEStmtChooseAddressButton",
            "inputparams": [{
                "name": "widgetName",
                "value": "\"btnOfficeAddr\""
            }],
            "source": "module"
        }]
    }
}