{
    "p2kwiet2012247632804_btnnext_onClick_seq0": {
        "id": "p2kwiet2012247632804_btnnext_onClick_seq0",
        "type": "ACTION_SEQUENCE",
        "params": [{
            "name": "eventobject",
            "value": "eventobject"
        }],
        "language": "js",
        "actions": [{
            "id": "customcode_onClick_72927201224768202",
            "type": "INVOKE_FUNCTION",
            "sequenceKUID": "OnclickShowSavingsCareOccupationInfo",
            "display": "OnclickShowSavingsCareOccupationInfo",
            "inputparams": [],
            "source": "module"
        }]
    }
}