{
    "p2kwiet2012247630143_flexPdf_onTouchEnd_seq0": {
        "id": "p2kwiet2012247630143_flexPdf_onTouchEnd_seq0",
        "type": "ACTION_SEQUENCE",
        "params": [{
            "name": "eventobject",
            "value": "eventobject"
        }, {
            "name": "x",
            "value": "x"
        }, {
            "name": "y",
            "value": "y"
        }, {
            "name": "contextInfo",
            "value": "contextInfo"
        }],
        "language": "js",
        "actions": [{
            "id": "expression_onTouchEnd_49703201224763814",
            "type": "ADD_SNIPPET",
            "codeSnippet": "frmMBApplySoGooodComplete.flexPdf.skin=\"flexWhiteBG\";\nfrmMBApplySoGooodComplete.btnPDF.skin=\"btnPdfSC\";"
        }, {
            "id": "customcode_onTouchEnd_88908201224766185",
            "type": "INVOKE_FUNCTION",
            "sequenceKUID": "saveSoGooODCompleteAsPDFImage",
            "display": "saveSoGooODCompleteAsPDFImage",
            "inputparams": [{
                "name": "filetype"
            }],
            "source": "module"
        }]
    }
}