{
    "p2kwiet2012247633717_btnAgreeSpa_onClick_seq0": {
        "id": "p2kwiet2012247633717_btnAgreeSpa_onClick_seq0",
        "type": "ACTION_SEQUENCE",
        "params": [{
            "name": "eventobject",
            "value": "eventobject"
        }],
        "language": "js",
        "actions": [{
            "id": "customcode_onClick_91906201224769132",
            "type": "INVOKE_FUNCTION",
            "sequenceKUID": "spaAddaccntToeknExchng",
            "display": "spaAddaccntToeknExchng",
            "inputparams": [],
            "source": "module"
        }, {
            "id": "preprocessdecision_onClick_112520122476199",
            "type": "CHANNEL_CONDITION",
            "platforms": ["j2me", "bb", "winphone8", "palm", "android", "winmobile", "iphone", "symbian", "winmobile6x"]
        }, {
            "id": "customcode_onClick_64946201224765724",
            "type": "INVOKE_FUNCTION",
            "sequenceKUID": "showOTPPopup",
            "display": "showOTPPopup",
            "inputparams": [{
                "name": "lblText",
                "value": "kony.i18n.getLocalizedString(\"TransactionPass\")+\":\""
            }, {
                "name": "refNo",
                "value": "\"\""
            }, {
                "name": "mobNO",
                "value": "\"\""
            }, {
                "name": "callBackConfirm",
                "value": "onpopconfirmaccnt"
            }],
            "parentId": "preprocessdecision_onClick_112520122476199",
            "source": "module"
        }]
    }
}