{
    "p2kwiet2012247627519_frmBillPaymentComplete_preshow_seq0": {
        "id": "p2kwiet2012247627519_frmBillPaymentComplete_preshow_seq0",
        "type": "ACTION_SEQUENCE",
        "params": [{
            "name": "eventobject",
            "value": "eventobject"
        }, {
            "name": "neworientation",
            "value": "neworientation"
        }],
        "language": "js",
        "actions": [{
            "id": "customcode_preshow_12178201224762998",
            "type": "INVOKE_FUNCTION",
            "sequenceKUID": "frmBillPaymentCompleteMenuPreshow",
            "display": "frmBillPaymentCompleteMenuPreshow",
            "inputparams": [],
            "source": "module"
        }]
    }
}