{
    "p2kwiet2012247637673_txtTranLandAmt_onDone_seq0": {
        "id": "p2kwiet2012247637673_txtTranLandAmt_onDone_seq0",
        "type": "ACTION_SEQUENCE",
        "params": [{
            "name": "eventobject",
            "value": "eventobject"
        }, {
            "name": "changedtext",
            "value": "changedtext"
        }],
        "language": "js",
        "actions": [{
            "id": "customcode_onDone_14941201224765245",
            "type": "INVOKE_FUNCTION",
            "sequenceKUID": "transAmountOnDone",
            "display": "transAmountOnDone",
            "inputparams": [{
                "name": "isFromTextBox",
                "value": "true"
            }, {
                "name": "isServiceCallNeeded",
                "value": "true"
            }],
            "source": "module"
        }]
    }
}