{
    "p2kwiet2012247633010_txtTransPass_onDone_seq0": {
        "id": "p2kwiet2012247633010_txtTransPass_onDone_seq0",
        "type": "ACTION_SEQUENCE",
        "params": [{
            "name": "eventobject",
            "value": "eventobject"
        }, {
            "name": "changedtext",
            "value": "changedtext"
        }],
        "language": "js",
        "actions": [{
            "id": "decision_onDone_64035201224767362",
            "type": "IF_CONDITION",
            "conditions": [{
                "leftValueType": "expression",
                "leftValue": "frmMBsetPasswd.lblHdrTxt.text != kony.i18n.getLocalizedString(\"keyConfirmPwd\")"
            }],
            "criteria": "all"
        }, {
            "id": "decision_onDone_74722201224762510",
            "type": "ELSE_CONDITION",
            "conditions": [],
            "criteria": "all"
        }, {
            "id": "expression_onDone_2271201224765083",
            "type": "ADD_SNIPPET",
            "codeSnippet": "frmMBsetPasswd.hbox50285458142.skin = \"NoSkin\""
        }]
    }
}