{
    "p2kwiet2012247630679_frmMBCashAdvanceCardInfo_postshow_seq0": {
        "id": "p2kwiet2012247630679_frmMBCashAdvanceCardInfo_postshow_seq0",
        "type": "ACTION_SEQUENCE",
        "params": [{
            "name": "eventobject",
            "value": "eventobject"
        }],
        "language": "js",
        "actions": [{
            "id": "customcode_postshow_54157201224762895",
            "type": "INVOKE_FUNCTION",
            "sequenceKUID": "frmMBCashAdvanceCardInfoMenuPostshow",
            "display": "frmMBCashAdvanceCardInfoMenuPostshow",
            "inputparams": [],
            "source": "module"
        }]
    }
}