{
    "p2kwiet2012247635762_segSliderOpenDream_onswipe_seq0": {
        "id": "p2kwiet2012247635762_segSliderOpenDream_onswipe_seq0",
        "type": "ACTION_SEQUENCE",
        "params": [{
            "name": "seguiWidget",
            "value": "seguiWidget"
        }, {
            "name": "sectionIndex",
            "value": "sectionIndex"
        }, {
            "name": "rowIndex",
            "value": "rowIndex"
        }],
        "language": "js",
        "actions": [{
            "id": "preprocessdecision_onswipe_3342201224761444",
            "type": "CHANNEL_CONDITION",
            "platforms": ["android", "iphone"]
        }, {
            "id": "expression_onswipe_87355201224769849",
            "type": "ADD_SNIPPET",
            "codeSnippet": "var modScroll = new getOPenActMBIndex();\n modScroll.paginationSwitch( sectionIndex, rowIndex,frmOpenAcDreamSaving.segSliderOpenDream );\n ",
            "parentId": "preprocessdecision_onswipe_3342201224761444"
        }]
    }
}