{
    "p2kwiet2012247628706_frmContactUsMB_postshow_seq0": {
        "id": "p2kwiet2012247628706_frmContactUsMB_postshow_seq0",
        "type": "ACTION_SEQUENCE",
        "params": [{
            "name": "eventobject",
            "value": "eventobject"
        }, {
            "name": "neworientation",
            "value": "neworientation"
        }],
        "language": "js",
        "actions": [{
            "id": "customcode_postshow_79195201224764706",
            "type": "INVOKE_FUNCTION",
            "sequenceKUID": "frmContactUsMBMenuPostshow",
            "display": "frmContactUsMBMenuPostshow",
            "inputparams": [],
            "source": "module"
        }]
    }
}