{
    "p2kwiet2012247628153_frmCAPaymentPlanConfirmation_postshow_seq0": {
        "id": "p2kwiet2012247628153_frmCAPaymentPlanConfirmation_postshow_seq0",
        "type": "ACTION_SEQUENCE",
        "params": [{
            "name": "eventobject",
            "value": "eventobject"
        }],
        "language": "js",
        "actions": [{
            "id": "customcode_postshow_34442201224763496",
            "type": "INVOKE_FUNCTION",
            "sequenceKUID": "frmCAPaymentPlanConfirmationPostshow",
            "display": "frmCAPaymentPlanConfirmationPostshow",
            "inputparams": [],
            "source": "module"
        }]
    }
}