{
    "p2kwiet2012247637335_tbxExcludingBillerOneOld_iPhone_onEndEditing_seq0": {
        "id": "p2kwiet2012247637335_tbxExcludingBillerOneOld_iPhone_onEndEditing_seq0",
        "type": "ACTION_SEQUENCE",
        "params": [{
            "name": "eventobject",
            "value": "eventobject"
        }, {
            "name": "changedtext",
            "value": "changedtext"
        }],
        "language": "js",
        "actions": [{
            "id": "expression_onEndEditing_62721201224769732",
            "type": "ADD_SNIPPET",
            "codeSnippet": "if(frmTopUp.tbxExcludingBillerOne.text == \"\"){\n frmTopUp.tbxExcludingBillerOne.text = \"0.00 \" + kony.i18n.getLocalizedString(\"currencyThaiBaht\");\n }else {\n frmTopUp.tbxExcludingBillerOne.text = commaFormatted(parseFloat(removeCommos(frmTopUp.tbxExcludingBillerOne.text)).toFixed(2)) + \" \" + kony.i18n.getLocalizedString(\"currencyThaiBaht\");\n }\n "
        }]
    }
}