{
    "p2kwiet2012247649843_btnPopUpTractCancel_onClick_seq0": {
        "id": "p2kwiet2012247649843_btnPopUpTractCancel_onClick_seq0",
        "type": "ACTION_SEQUENCE",
        "params": [{
            "name": "eventobject",
            "value": "eventobject"
        }],
        "language": "js",
        "actions": [{
            "id": "expression_onClick_83099201224763278",
            "type": "ADD_SNIPPET",
            "codeSnippet": "BillPayTopUpConf.destroy();\n "
        }, {
            "id": "customcode_onClick_2618920122476383",
            "type": "INVOKE_FUNCTION",
            "sequenceKUID": "clearBillerDetails",
            "display": "clearBillerDetails",
            "inputparams": [],
            "source": "module"
        }]
    }
}