{
    "p2kwiet2012247650086_camera1_onCapture_seq0": {
        "id": "p2kwiet2012247650086_camera1_onCapture_seq0",
        "type": "ACTION_SEQUENCE",
        "params": [{
            "name": "eventobject",
            "value": "eventobject"
        }],
        "language": "js",
        "actions": [{
            "id": "customcode_onCapture_864912012247612",
            "type": "INVOKE_FUNCTION",
            "sequenceKUID": "invokeCameraFromPopup",
            "display": "invokeCameraFromPopup",
            "inputparams": [],
            "source": "module"
        }]
    }
}