{
    "p2kwiet2012247630522_frmMBBlockCardSuccess_preshow_seq0": {
        "id": "p2kwiet2012247630522_frmMBBlockCardSuccess_preshow_seq0",
        "type": "ACTION_SEQUENCE",
        "params": [{
            "name": "eventobject",
            "value": "eventobject"
        }],
        "language": "js",
        "actions": [{
            "id": "customcode_preshow_73478201224765477",
            "type": "INVOKE_FUNCTION",
            "sequenceKUID": "frmMBBlockCardSuccessMenuPreshow",
            "display": "frmMBBlockCardSuccessMenuPreshow",
            "inputparams": [],
            "source": "module"
        }]
    }
}