{
    "p2kwiet2012247630571_frmMBBlockDebitCardConfirm_postshow_seq0": {
        "id": "p2kwiet2012247630571_frmMBBlockDebitCardConfirm_postshow_seq0",
        "type": "ACTION_SEQUENCE",
        "params": [{
            "name": "eventobject",
            "value": "eventobject"
        }],
        "language": "js",
        "actions": [{
            "id": "customcode_postshow_71285201224768542",
            "type": "INVOKE_FUNCTION",
            "sequenceKUID": "frmMBBlockDebitCardConfirmMenuPostshow",
            "display": "frmMBBlockDebitCardConfirmMenuPostshow",
            "inputparams": [],
            "source": "module"
        }]
    }
}