{
    "p2kwiet2012247637818_vbxOthers_onClick_seq0": {
        "id": "p2kwiet2012247637818_vbxOthers_onClick_seq0",
        "type": "ACTION_SEQUENCE",
        "params": [{
            "name": "eventobject",
            "value": "eventobject"
        }],
        "language": "js",
        "actions": [{
            "id": "preprocessdecision_onClick_32913201224763631",
            "type": "CHANNEL_CONDITION",
            "platforms": ["iphone"]
        }, {
            "id": "preprocessdecision_onClick_27555201224769713",
            "type": "CHANNEL_CONDITION",
            "platforms": ["android"]
        }, {
            "id": "customcode_onClick_64398201224761452",
            "type": "INVOKE_FUNCTION",
            "sequenceKUID": "shareIntentmoreCall",
            "display": "shareIntentmoreCall",
            "inputparams": [{
                "name": "message",
                "value": "\"more\""
            }, {
                "name": "module",
                "value": "\"Transfer\""
            }],
            "parentId": "preprocessdecision_onClick_32913201224763631",
            "source": "module"
        }, {
            "id": "customcode_onClick_47002201224763332",
            "type": "INVOKE_FUNCTION",
            "sequenceKUID": "shareIntentmoreCallandroid",
            "display": "shareIntentmoreCallandroid",
            "inputparams": [{
                "name": "message",
                "value": "\"more\""
            }, {
                "name": "module",
                "value": "\"Transfer\""
            }],
            "parentId": "preprocessdecision_onClick_27555201224769713",
            "source": "module"
        }]
    }
}