{
    "p2kwiet2012247632878_frmMBSavingsCareRelationshipBeneficiary_preshow_seq0": {
        "id": "p2kwiet2012247632878_frmMBSavingsCareRelationshipBeneficiary_preshow_seq0",
        "type": "ACTION_SEQUENCE",
        "params": [{
            "name": "eventobject",
            "value": "eventobject"
        }],
        "language": "js",
        "actions": [{
            "id": "customcode_preshow_3456220122476836",
            "type": "INVOKE_FUNCTION",
            "sequenceKUID": "frmMBSavingsCareRelationshipBeneficiaryMenuPreshow",
            "display": "frmMBSavingsCareRelationshipBeneficiaryMenuPreshow",
            "inputparams": [],
            "source": "module"
        }]
    }
}