{
    "p2kwiet2012247637191_button763357907444134_onClick_seq0": {
        "id": "p2kwiet2012247637191_button763357907444134_onClick_seq0",
        "type": "ACTION_SEQUENCE",
        "params": [{
            "name": "eventobject",
            "value": "eventobject"
        }],
        "language": "js",
        "actions": [{
            "id": "expression_onClick_49251201224768674",
            "type": "ADD_SNIPPET",
            "codeSnippet": "gblCCDBCardFlow= \"DEBIT_CARD_REISSUE\";\n success=true;"
        }, {
            "id": "customcode_onClick_92165201224766179",
            "type": "INVOKE_FUNCTION",
            "sequenceKUID": "navigateforCard",
            "display": "navigateforCard",
            "inputparams": [],
            "source": "module"
        }]
    }
}