{
    "p2kwiet2012247628742_btnCancel_onClick_seq0": {
        "id": "p2kwiet2012247628742_btnCancel_onClick_seq0",
        "type": "ACTION_SEQUENCE",
        "params": [{
            "name": "eventobject",
            "value": "eventobject"
        }],
        "language": "js",
        "actions": [{
            "id": "expression_onClick_46544201224769617",
            "type": "ADD_SNIPPET",
            "codeSnippet": "if (flowSpa) {\n gblcarouselwidgetflow = \"Savings\"\n }"
        }, {
            "id": "navigation_onClick_5829820122476305",
            "type": "NAVIGATE_TO_FORM",
            "formId": "frmDreamSavingEdit",
            "formKUID": "p2kwiet2012247628805",
            "mappings": {},
            "mappingsOrder": [],
            "parentId": "",
            "enableMappingEditor": true,
            "package": ""
        }]
    }
}