{
    "p2kwiet2012247630369_frmMBAssignAtmPinOld_onhide_seq0": {
        "id": "p2kwiet2012247630369_frmMBAssignAtmPinOld_onhide_seq0",
        "type": "ACTION_SEQUENCE",
        "params": [{
            "name": "eventobject",
            "value": "eventobject"
        }, {
            "name": "neworientation",
            "value": "neworientation"
        }],
        "language": "js",
        "actions": [{
            "id": "decision_onhide_70490201224762225",
            "type": "IF_CONDITION",
            "conditions": [{
                "leftValueType": "expression",
                "leftValue": "gblLang_flag"
            }],
            "criteria": "all"
        }, {
            "id": "decision_onhide_82130201224768957",
            "type": "ELSE_CONDITION",
            "conditions": [],
            "criteria": "all"
        }, {
            "id": "expression_onhide_24027201224763488",
            "type": "ADD_SNIPPET",
            "codeSnippet": "TMBUtil.DestroyForm(frmMBEnterATMPin)",
            "parentId": "decision_onhide_70490201224762225"
        }, {
            "id": "expression_onhide_4594320122476911",
            "type": "ADD_SNIPPET",
            "codeSnippet": "gblLang_flag = false",
            "parentId": "decision_onhide_82130201224768957"
        }]
    }
}