{
    "p2kwiet2012247626745_frmAddTopUpBiller_preshow_seq0": {
        "id": "p2kwiet2012247626745_frmAddTopUpBiller_preshow_seq0",
        "type": "ACTION_SEQUENCE",
        "params": [{
            "name": "eventobject",
            "value": "eventobject"
        }, {
            "name": "neworientation",
            "value": "neworientation"
        }],
        "language": "js",
        "actions": [{
            "id": "customcode_preshow_88601201224762769",
            "type": "INVOKE_FUNCTION",
            "sequenceKUID": "frmAddTopUpBillerMenuPreshow",
            "display": "frmAddTopUpBillerMenuPreshow",
            "inputparams": [],
            "source": "module"
        }]
    }
}