{
    "p2kwiet2012247631214_btnFTEdit_onClick_seq0": {
        "id": "p2kwiet2012247631214_btnFTEdit_onClick_seq0",
        "type": "ACTION_SEQUENCE",
        "params": [{
            "name": "eventobject",
            "value": "eventobject"
        }],
        "language": "js",
        "actions": [{
            "id": "customcode_onClick_9638201224763319",
            "type": "INVOKE_FUNCTION",
            "sequenceKUID": "ehFrmMBFTEdit_btnFTEdit_onClick",
            "display": "ehFrmMBFTEdit_btnFTEdit_onClick",
            "inputparams": [{
                "name": "eventobject",
                "value": "eventobject"
            }],
            "source": "module"
        }]
    }
}