{
    "p2kwiet2012247632957_btnCheckBox_onClick_seq0": {
        "id": "p2kwiet2012247632957_btnCheckBox_onClick_seq0",
        "type": "ACTION_SEQUENCE",
        "params": [{
            "name": "eventobject",
            "value": "eventobject"
        }],
        "language": "js",
        "actions": [{
            "id": "customcode_onClick_84664201224767316",
            "type": "INVOKE_FUNCTION",
            "sequenceKUID": "showHidePin",
            "display": "showHidePin",
            "inputparams": [],
            "source": "module"
        }]
    }
}