{
    "p2kwiet2012247634837_textbox247327209467957_onTextChange_seq0": {
        "id": "p2kwiet2012247634837_textbox247327209467957_onTextChange_seq0",
        "type": "ACTION_SEQUENCE",
        "params": [{
            "name": "eventobject",
            "value": "eventobject"
        }, {
            "name": "changedtext",
            "value": "changedtext"
        }],
        "language": "js",
        "actions": [{
            "id": "customcode_onTextChange_68770201224766915",
            "type": "INVOKE_FUNCTION",
            "sequenceKUID": "searchContacts",
            "display": "searchContacts",
            "inputparams": [{
                "name": "eventobject",
                "value": "eventobject"
            }],
            "source": "module"
        }]
    }
}