{
    "p2kwiet2012247634182_tbxEmail_SPA_onBeginEditing_seq0": {
        "id": "p2kwiet2012247634182_tbxEmail_SPA_onBeginEditing_seq0",
        "type": "ACTION_SEQUENCE",
        "params": [{
            "name": "eventobject",
            "value": "eventobject"
        }, {
            "name": "changedtext",
            "value": "changedtext"
        }],
        "language": "js",
        "actions": [{
            "id": "expression_onBeginEditing_2291920122476783",
            "type": "ADD_SNIPPET",
            "codeSnippet": "frmMyRecipientAddProfile.tbxEmail.skin=\"txtFocusBG\";"
        }]
    }
}