{
    "p2kwiet2012247630627_btnDCOpenAC_onClick_seq0": {
        "id": "p2kwiet2012247630627_btnDCOpenAC_onClick_seq0",
        "type": "ACTION_SEQUENCE",
        "params": [{
            "name": "eventobject",
            "value": "eventobject"
        }],
        "language": "js",
        "actions": [{
            "id": "customcode_onClick_13218201224766824",
            "type": "INVOKE_FUNCTION",
            "sequenceKUID": "openURLfrmMBCardProductURL",
            "display": "openURLfrmMBCardProductURL",
            "inputparams": [{
                "name": "urlType",
                "value": "\"Open Account\""
            }],
            "source": "module"
        }]
    }
}