{
    "p2kwiet2012247636133_hbox101271281131304_onClick_seq0": {
        "id": "p2kwiet2012247636133_hbox101271281131304_onClick_seq0",
        "type": "ACTION_SEQUENCE",
        "params": [{
            "name": "eventobject",
            "value": "eventobject"
        }],
        "language": "js",
        "actions": [{
            "id": "customcode_onClick_90218201224762683",
            "type": "INVOKE_FUNCTION",
            "sequenceKUID": "hideUnhideOA",
            "display": "hideUnhideOA",
            "inputparams": [{
                "name": "lblBal",
                "value": "frmOpenActSavingCareCnfNAck.lblOpenActCnfmBal "
            }, {
                "name": "lblBalValue",
                "value": "frmOpenActSavingCareCnfNAck.lblOpenActCnfmBalAmt "
            }, {
                "name": "lblHide",
                "value": "frmOpenActSavingCareCnfNAck.lblHide "
            }],
            "source": "module"
        }]
    }
}