{
    "p2kwiet2012247628567_txtTransPass_onDone_seq0": {
        "id": "p2kwiet2012247628567_txtTransPass_onDone_seq0",
        "type": "ACTION_SEQUENCE",
        "params": [{
            "name": "eventobject",
            "value": "eventobject"
        }, {
            "name": "changedtext",
            "value": "changedtext"
        }],
        "language": "js",
        "actions": [{
            "id": "customcode_onDone_39911201224769012",
            "type": "INVOKE_FUNCTION",
            "sequenceKUID": "ehFrmCMChgTransPwd_txtTransPass_onDone",
            "display": "ehFrmCMChgTransPwd_txtTransPass_onDone",
            "inputparams": [{
                "name": "eventobject",
                "value": " eventobject"
            }, {
                "name": "changedtext",
                "value": " changedtext"
            }],
            "source": "module"
        }]
    }
}