{
    "p2kwiet2012247637673_vbxTranLandEmail_onClick_seq0": {
        "id": "p2kwiet2012247637673_vbxTranLandEmail_onClick_seq0",
        "type": "ACTION_SEQUENCE",
        "params": [{
            "name": "eventobject",
            "value": "eventobject"
        }],
        "language": "js",
        "actions": [{
            "id": "customcode_onClick_81185201224761512",
            "type": "INVOKE_FUNCTION",
            "sequenceKUID": "ehFrmTransferLandingBtnTranLandEmailOnClick",
            "display": "ehFrmTransferLandingBtnTranLandEmailOnClick",
            "inputparams": [],
            "source": "module"
        }]
    }
}