{
    "p2kwiet2012247630488_btnback_onClick_seq0": {
        "id": "p2kwiet2012247630488_btnback_onClick_seq0",
        "type": "ACTION_SEQUENCE",
        "params": [{
            "name": "eventobject",
            "value": "eventobject"
        }],
        "language": "js",
        "actions": [{
            "id": "navigation_onClick_12627201224765801",
            "type": "NAVIGATE_TO_FORM",
            "formId": "frmMBBlockCardCCDBConfirm",
            "formKUID": "p2kwiet2012247630469",
            "mappings": {},
            "mappingsOrder": [],
            "parentId": "",
            "enableMappingEditor": true,
            "package": ""
        }]
    }
}