{
    "p2kwiet2012247629892_txtUserId_Android_onBeginEditing_seq0": {
        "id": "p2kwiet2012247629892_txtUserId_Android_onBeginEditing_seq0",
        "type": "ACTION_SEQUENCE",
        "params": [{
            "name": "eventobject",
            "value": "eventobject"
        }, {
            "name": "changedtext",
            "value": "changedtext"
        }],
        "language": "js",
        "actions": [{
            "id": "expression_onBeginEditing_76553201224762158",
            "type": "ADD_SNIPPET",
            "codeSnippet": "frmMBActivationIBLogin.hbox502735421204231.skin = \"hboxLightBlue\""
        }]
    }
}