{
    "p2kwiet2012247634841_btnMobileNo1_onClick_seq0": {
        "id": "p2kwiet2012247634841_btnMobileNo1_onClick_seq0",
        "type": "ACTION_SEQUENCE",
        "params": [{
            "name": "eventobject",
            "value": "eventobject"
        }, {
            "name": "context",
            "value": "context"
        }],
        "language": "js",
        "actions": [{
            "id": "expression_onClick_19448201224761003",
            "type": "ADD_SNIPPET",
            "codeSnippet": "var temp = frmMyRecipientSelectMobile.segMyRecipient.selectedIndex;\n temp = temp[1];\n \n if((fl || previousSelectedIndex) && previousSelectedIndex!=temp){//previously selected\n previousSelectedItems[\"imgchbxbtn\"]=\"radiobtn2.png\";\n if(previousSelectedItems[\"btnMobileNo1\"]){\n previousSelectedItems[\"btnMobileNo1\"][\"skin\"]=\"btnRadioFoc\";\n }\n if(previousSelectedItems[\"btnMobileNo2\"]){\n previousSelectedItems[\"btnMobileNo2\"][\"skin\"]=\"btnRadio\";\n }\n if(previousSelectedItems[\"btnMobileNo3\"]){\n previousSelectedItems[\"btnMobileNo3\"][\"skin\"]=\"btnRadio\";\n }\n //frmMyRecipientSelectMobile.segMyRecipient.removeAt(previousSelectedIndex);\n //frmMyRecipientSelectMobile.segMyRecipient.addDataAt(previousSelectedItems, previousSelectedIndex);\n frmMyRecipientSelectMobile.segMyRecipient.setDataAt(previousSelectedItems, previousSelectedIndex);\n }\n \n var index = frmMyRecipientSelectMobile.segMyRecipient.selectedIndex;\n index = index[1];\n previousSelectedIndex = index;\n fl=1;\n \n var items = frmMyRecipientSelectMobile.segMyRecipient.selectedItems;\n previousSelectedItems = items[0];\n items[0][\"btnMobileNo1\"][\"skin\"]=\"btnRadioFoc\";\n if(items[0][\"btnMobileNo2\"]){\n items[0][\"btnMobileNo2\"][\"skin\"]=\"btnRadio\";\n }\n if(items[0][\"btnMobileNo3\"]){\n items[0][\"btnMobileNo3\"][\"skin\"]=\"btnRadio\";\n }\n items[0][\"imgchbxbtn\"]=\"radiobtn.png\";\n \n selectedMobile = items[0][\"lblMobileNo1\"];//check if getting this\n kony.print(selectedMobile);\n \n frmMyRecipientSelectMobile.segMyRecipient.setDataAt(items[0], index);\n //frmMyRecipientSelectMobile.segMyRecipient.removeAt(index);\n //frmMyRecipientSelectMobile.segMyRecipient.addDataAt(items[0], index);"
        }]
    }
}