{
    "p2kwiet2012247634886_button47327209489399_onClick_seq0": {
        "id": "p2kwiet2012247634886_button47327209489399_onClick_seq0",
        "type": "ACTION_SEQUENCE",
        "params": [{
            "name": "eventobject",
            "value": "eventobject"
        }],
        "language": "js",
        "actions": [{
            "id": "decision_onClick_22698201224761869",
            "type": "IF_CONDITION",
            "conditions": [{
                "leftValueType": "expression",
                "leftValue": "gblUserLockStatusMB == gblFinancialTxnMBLock"
            }],
            "criteria": "all"
        }, {
            "id": "decision_onClick_2895120122476614",
            "type": "ELSE_CONDITION",
            "conditions": [],
            "criteria": "all"
        }, {
            "id": "customcode_onClick_63080201224763328",
            "type": "INVOKE_FUNCTION",
            "sequenceKUID": "alertUserStatusLocked",
            "display": "alertUserStatusLocked",
            "inputparams": [],
            "parentId": "decision_onClick_22698201224761869",
            "source": "module"
        }, {
            "id": "customcode_onClick_68160201224763891",
            "type": "INVOKE_FUNCTION",
            "sequenceKUID": "deleteAccountFromRecipientView",
            "display": "deleteAccountFromRecipientView",
            "inputparams": [],
            "parentId": "decision_onClick_2895120122476614",
            "source": "module"
        }]
    }
}