{
    "p2kwiet2012247631416_btnCancelSPA_onClick_seq0": {
        "id": "p2kwiet2012247631416_btnCancelSPA_onClick_seq0",
        "type": "ACTION_SEQUENCE",
        "params": [{
            "name": "eventobject",
            "value": "eventobject"
        }],
        "language": "js",
        "actions": [{
            "id": "customcode_onClick_19241201224769833",
            "type": "INVOKE_FUNCTION",
            "sequenceKUID": "ehFrmMBFTEditCnfrmtn_btnCancelSPA_onClick",
            "display": "ehFrmMBFTEditCnfrmtn_btnCancelSPA_onClick",
            "inputparams": [],
            "source": "module"
        }]
    }
}