{
    "p2kwiet2012247626342_btnPointRedeem_onClick_seq0": {
        "id": "p2kwiet2012247626342_btnPointRedeem_onClick_seq0",
        "type": "ACTION_SEQUENCE",
        "params": [{
            "name": "eventobject",
            "value": "eventobject"
        }],
        "language": "js",
        "actions": [{
            "id": "customcode_onClick_27022201224768925",
            "type": "INVOKE_FUNCTION",
            "sequenceKUID": "checkMBCustStatus",
            "display": "checkMBCustStatus",
            "inputparams": [],
            "source": "module"
        }]
    }
}