{
    "p2kwiet2012247632223_txtLastName_Android_onEndEditing_seq0": {
        "id": "p2kwiet2012247632223_txtLastName_Android_onEndEditing_seq0",
        "type": "ACTION_SEQUENCE",
        "params": [{
            "name": "eventobject",
            "value": "eventobject"
        }, {
            "name": "changedtext",
            "value": "changedtext"
        }],
        "language": "js",
        "actions": [{
            "id": "customcode_onEndEditing_47393201224764205",
            "type": "INVOKE_FUNCTION",
            "sequenceKUID": "checkMinLastNameLength",
            "display": "checkMinLastNameLength",
            "inputparams": [],
            "source": "module"
        }]
    }
}