{
    "p2kwiet2012247634789_textbox247327209467957_onTextChange_seq0": {
        "id": "p2kwiet2012247634789_textbox247327209467957_onTextChange_seq0",
        "type": "ACTION_SEQUENCE",
        "params": [{
            "name": "eventobject",
            "value": "eventobject"
        }, {
            "name": "changedtext",
            "value": "changedtext"
        }],
        "language": "js",
        "actions": [{
            "id": "decision_onTextChange_4927420122476610",
            "type": "IF_CONDITION",
            "conditions": [{
                "leftValueType": "expression",
                "leftValue": "frmMyRecipientSelectFbID.textbox247327209467957.text.length >= 3"
            }],
            "criteria": "all"
        }, {
            "id": "decision_onTextChange_22708201224765555",
            "type": "ELSE_CONDITION",
            "conditions": [],
            "criteria": "all"
        }, {
            "id": "expression_onTextChange_87262201224768177",
            "type": "ADD_SNIPPET",
            "codeSnippet": "if(kony.string.containsChars(frmMyRecipientSelectFbID.textbox247327209467957.text, charsArr)){\n alert(\"Enter Valid Search String\");\n return;\n }\n gblOffsetMB = \"0\";\n gblLimitMB = \"0\";\n gblStart = \"1\";\n gblSearch = frmMyRecipientSelectFbID.textbox247327209467957.text;",
            "parentId": "decision_onTextChange_4927420122476610"
        }, {
            "id": "customcode_onTextChange_79651201224769222",
            "type": "INVOKE_FUNCTION",
            "sequenceKUID": "getFriendListFromFacebook",
            "display": "getFriendListFromFacebook",
            "inputparams": [{
                "name": "eventobject",
                "value": "\"0\""
            }],
            "parentId": "decision_onTextChange_4927420122476610",
            "source": "module"
        }, {
            "id": "expression_onTextChange_19568201224763949",
            "type": "ADD_SNIPPET",
            "codeSnippet": "gblFBListChanged = true;",
            "parentId": "decision_onTextChange_4927420122476610"
        }, {
            "id": "expression_onTextChange_92767201224767968",
            "type": "ADD_SNIPPET",
            "codeSnippet": "gblOffsetMB = \"0\";\n gblLimitMB = \"99\";\n gblStart = \"1\";\n gblSearch = \"0\";",
            "parentId": "decision_onTextChange_21338201224765348"
        }, {
            "id": "customcode_onTextChange_6429820122476244",
            "type": "INVOKE_FUNCTION",
            "sequenceKUID": "getFriendListFromFacebook",
            "display": "getFriendListFromFacebook",
            "inputparams": [{
                "name": "eventobject",
                "value": "\"0\""
            }],
            "parentId": "decision_onTextChange_21338201224765348",
            "source": "module"
        }, {
            "id": "expression_onTextChange_81035201224769206",
            "type": "ADD_SNIPPET",
            "codeSnippet": "gblFBListChanged = false;",
            "parentId": "decision_onTextChange_21338201224765348"
        }, {
            "id": "decision_onTextChange_21338201224765348",
            "type": "IF_CONDITION",
            "conditions": [{
                "leftValueType": "expression",
                "leftValue": "gblFBListChanged"
            }],
            "parentId": "decision_onTextChange_22708201224765555",
            "criteria": "all"
        }, {
            "id": "decision_onTextChange_51132201224767712",
            "type": "ELSE_CONDITION",
            "conditions": [],
            "parentId": "decision_onTextChange_22708201224765555",
            "criteria": "all"
        }]
    }
}