{
    "p2kwiet2012247631318_hbox47792425956437_onClick_seq0": {
        "id": "p2kwiet2012247631318_hbox47792425956437_onClick_seq0",
        "type": "ACTION_SEQUENCE",
        "params": [{
            "name": "eventobject",
            "value": "eventobject"
        }],
        "language": "js",
        "actions": [{
            "id": "decision_onClick_9542020122476931",
            "type": "IF_CONDITION",
            "conditions": [{
                "leftValueType": "expression",
                "leftValue": "isMenuShown == false"
            }],
            "criteria": "all"
        }, {
            "id": "decision_onClick_96848201224761831",
            "type": "ELSE_CONDITION",
            "conditions": [],
            "criteria": "all"
        }, {
            "id": "customcode_onClick_2790020122476248",
            "type": "INVOKE_FUNCTION",
            "sequenceKUID": "handleMenuBtn",
            "display": "handleMenuBtn",
            "inputparams": [],
            "parentId": "decision_onClick_9542020122476931",
            "source": "module"
        }, {
            "id": "customcode_onClick_68977201224769023",
            "type": "INVOKE_FUNCTION",
            "sequenceKUID": "onClickForInnerBoxes",
            "display": "onClickForInnerBoxes",
            "inputparams": [],
            "parentId": "decision_onClick_96848201224761831",
            "source": "module"
        }]
    }
}