{
    "p2kwiet2012247634417_tbxEmail_SPA_onEndEditing_seq0": {
        "id": "p2kwiet2012247634417_tbxEmail_SPA_onEndEditing_seq0",
        "type": "ACTION_SEQUENCE",
        "params": [{
            "name": "eventobject",
            "value": "eventobject"
        }, {
            "name": "changedtext",
            "value": "changedtext"
        }],
        "language": "js",
        "actions": [{
            "id": "expression_onEndEditing_94424201224763733",
            "type": "ADD_SNIPPET",
            "codeSnippet": "frmMyRecipientEditProfile.tbxEmail.skin=\"txtNormalBG\";"
        }]
    }
}