{
    "p2kwiet15245716321319_hbxAddToMyBills_onClick_seq0": {
        "id": "p2kwiet15245716321319_hbxAddToMyBills_onClick_seq0",
        "type": "ACTION_SEQUENCE",
        "params": [{
            "name": "eventobject",
            "value": "eventobject"
        }],
        "language": "js",
        "actions": [{
            "id": "customcode_onClick_4997415245716322544",
            "type": "INVOKE_FUNCTION",
            "sequenceKUID": "onClickAddToMyBills",
            "display": "onClickAddToMyBills",
            "inputparams": [],
            "source": "module"
        }]
    }
}