{
    "p2kwiet2012247636606_btnOpenProdCancel_onClick_seq0": {
        "id": "p2kwiet2012247636606_btnOpenProdCancel_onClick_seq0",
        "type": "ACTION_SEQUENCE",
        "params": [{
            "name": "eventobject",
            "value": "eventobject"
        }],
        "language": "js",
        "actions": [{
            "id": "expression_onClick_73438201224765169",
            "type": "ADD_SNIPPET",
            "codeSnippet": "//frmOpenProdDetnTnC.scrollbox474135225108084.containerHeight = 81"
        }, {
            "id": "expression_onClick_24285201224768111",
            "type": "ADD_SNIPPET",
            "codeSnippet": "frmOpenActSelProdPreShow();\n frmOpenActSelProd.show();"
        }]
    }
}