{
    "p2kwiet2012247628580_btnBackHome_onClick_seq0": {
        "id": "p2kwiet2012247628580_btnBackHome_onClick_seq0",
        "type": "ACTION_SEQUENCE",
        "params": [{
            "name": "eventobject",
            "value": "eventobject"
        }],
        "language": "js",
        "actions": []
    }
}