{
    "p2kwiet2012247633448_FlexScrollContainer0e763baec53954e_onTouchMove_seq0": {
        "id": "p2kwiet2012247633448_FlexScrollContainer0e763baec53954e_onTouchMove_seq0",
        "type": "ACTION_SEQUENCE",
        "params": [{
            "name": "eventobject",
            "value": "eventobject"
        }, {
            "name": "x",
            "value": "x"
        }, {
            "name": "y",
            "value": "y"
        }, {
            "name": "contextInfo",
            "value": "contextInfo"
        }],
        "language": "js",
        "actions": [{
            "id": "customcode_onTouchMove_55095201224763508",
            "type": "INVOKE_FUNCTION",
            "sequenceKUID": "disableBackButton",
            "display": "disableBackButton",
            "inputparams": [],
            "source": "module"
        }]
    }
}