{
    "p2kwiet2012247637941_hbxMoreHide_onClick_seq0": {
        "id": "p2kwiet2012247637941_hbxMoreHide_onClick_seq0",
        "type": "ACTION_SEQUENCE",
        "params": [{
            "name": "eventobject",
            "value": "eventobject"
        }],
        "language": "js",
        "actions": [{
            "id": "customcode_onClick_6776201224769266",
            "type": "INVOKE_FUNCTION",
            "sequenceKUID": "showHideMegaTransferDetails",
            "display": "showHideMegaTransferDetails",
            "inputparams": [],
            "source": "module"
        }]
    }
}