{
    "p2kwiet2012247632619_button761510865391611_onClick_seq0": {
        "id": "p2kwiet2012247632619_button761510865391611_onClick_seq0",
        "type": "ACTION_SEQUENCE",
        "params": [{
            "name": "eventobject",
            "value": "eventobject"
        }],
        "language": "js",
        "actions": [{
            "id": "navigation_onClick_21725201224769154",
            "type": "NAVIGATE_TO_FORM",
            "formId": "frmMBSavingsCareAddNickName",
            "formKUID": "p2kwiet2012247632653",
            "mappings": {},
            "mappingsOrder": [],
            "parentId": "",
            "enableMappingEditor": true,
            "package": ""
        }]
    }
}