{
    "p2kwiet2012247630833_lblrequestnewpin_onTouchEnd_seq0": {
        "id": "p2kwiet2012247630833_lblrequestnewpin_onTouchEnd_seq0",
        "type": "ACTION_SEQUENCE",
        "params": [{
            "name": "eventobject",
            "value": "eventobject"
        }, {
            "name": "x",
            "value": "x"
        }, {
            "name": "y",
            "value": "y"
        }, {
            "name": "contextInfo",
            "value": "contextInfo"
        }],
        "language": "js",
        "actions": [{
            "id": "customcode_onTouchEnd_17483201224761959",
            "type": "INVOKE_FUNCTION",
            "sequenceKUID": "onClickForgotPINToRequestNewPIN",
            "display": "onClickForgotPINToRequestNewPIN",
            "inputparams": [],
            "source": "module"
        }]
    }
}