{
    "p2kwiet2012247650114_segDreamSaveDate_onRowClick_seq0": {
        "id": "p2kwiet2012247650114_segDreamSaveDate_onRowClick_seq0",
        "type": "ACTION_SEQUENCE",
        "params": [{
            "name": "eventobject",
            "value": "eventobject"
        }, {
            "name": "sectionNumber",
            "value": "sectionNumber"
        }, {
            "name": "rowNumber",
            "value": "rowNumber"
        }],
        "language": "js",
        "actions": [{
            "id": "expression_onRowClick_7158020122476633",
            "type": "ADD_SNIPPET",
            "codeSnippet": "frmOpenAccDreamSelAct.btnDreamSavecombo.text = popSelDate.segDreamSaveDate.selectedItems[0].lblDreamSaveDate;\n popSelDate.dismiss();"
        }]
    }
}