{
    "p2kwiet2012247630915_frmMBEnterATMPin_onhide_seq0": {
        "id": "p2kwiet2012247630915_frmMBEnterATMPin_onhide_seq0",
        "type": "ACTION_SEQUENCE",
        "params": [{
            "name": "eventobject",
            "value": "eventobject"
        }, {
            "name": "neworientation",
            "value": "neworientation"
        }],
        "language": "js",
        "actions": [{
            "id": "decision_onhide_55910201224768895",
            "type": "IF_CONDITION",
            "conditions": [{
                "leftValueType": "expression",
                "leftValue": "gblLang_flag"
            }],
            "criteria": "all"
        }, {
            "id": "decision_onhide_11063201224768469",
            "type": "ELSE_CONDITION",
            "conditions": [],
            "criteria": "all"
        }, {
            "id": "expression_onhide_81804201224766822",
            "type": "ADD_SNIPPET",
            "codeSnippet": "TMBUtil.DestroyForm(frmMBEnterATMPin)",
            "parentId": "decision_onhide_55910201224768895"
        }, {
            "id": "expression_onhide_50789201224764878",
            "type": "ADD_SNIPPET",
            "codeSnippet": "gblLang_flag = false",
            "parentId": "decision_onhide_11063201224768469"
        }]
    }
}