{
    "p2kwiet2012247629485_richtext4483370253244_onClick_seq0": {
        "id": "p2kwiet2012247629485_richtext4483370253244_onClick_seq0",
        "type": "ACTION_SEQUENCE",
        "params": [{
            "name": "eventobject",
            "value": "eventobject"
        }, {
            "name": "linktext",
            "value": "linktext"
        }, {
            "name": "attributes",
            "value": "attributes"
        }],
        "language": "js",
        "actions": [{
            "id": "customcode_onClick_59262201224768",
            "type": "INVOKE_FUNCTION",
            "sequenceKUID": "dummy",
            "display": "dummy",
            "inputparams": [],
            "source": "module"
        }]
    }
}