{
    "p2kwiet2012247633010_frmMBsetPasswd_onhide_seq0": {
        "id": "p2kwiet2012247633010_frmMBsetPasswd_onhide_seq0",
        "type": "ACTION_SEQUENCE",
        "params": [{
            "name": "eventobject",
            "value": "eventobject"
        }, {
            "name": "neworientation",
            "value": "neworientation"
        }],
        "language": "js",
        "actions": [{
            "id": "decision_onhide_21169201224764892",
            "type": "IF_CONDITION",
            "conditions": [{
                "leftValueType": "expression",
                "leftValue": "gblLang_flag"
            }],
            "criteria": "all"
        }, {
            "id": "decision_onhide_22518201224768758",
            "type": "ELSE_CONDITION",
            "conditions": [],
            "criteria": "all"
        }, {
            "id": "expression_onhide_23063201224764530",
            "type": "ADD_SNIPPET",
            "codeSnippet": "TMBUtil.DestroyForm(frmMBsetPasswd)",
            "parentId": "decision_onhide_21169201224764892"
        }, {
            "id": "expression_onhide_68290201224763133",
            "type": "ADD_SNIPPET",
            "codeSnippet": "gblLang_flag = false",
            "parentId": "decision_onhide_22518201224768758"
        }]
    }
}