{
    "p2kwiet2012247629833_btnConfirmSpa_onClick_seq0": {
        "id": "p2kwiet2012247629833_btnConfirmSpa_onClick_seq0",
        "type": "ACTION_SEQUENCE",
        "params": [{
            "name": "eventobject",
            "value": "eventobject"
        }],
        "language": "js",
        "actions": [{
            "id": "decision_onClick_69939201224761414",
            "type": "IF_CONDITION",
            "conditions": [{
                "leftValueType": "expression",
                "leftValue": "isMenuShown == false"
            }],
            "criteria": "all"
        }, {
            "id": "decision_onClick_52096201224769953",
            "type": "ELSE_CONDITION",
            "conditions": [],
            "criteria": "all"
        }, {
            "id": "customcode_onClick_37311201224764421",
            "type": "INVOKE_FUNCTION",
            "sequenceKUID": "mbActivationValidatn",
            "display": "mbActivationValidatn",
            "inputparams": [],
            "parentId": "decision_onClick_69939201224761414",
            "source": "module"
        }, {
            "id": "expression_onClick_6744201224761957",
            "type": "ADD_SNIPPET",
            "codeSnippet": "frmMBActivation.scrollboxMain.scrollToEnd();",
            "parentId": "decision_onClick_52096201224769953"
        }]
    }
}