{
    "p2kwiet2012247628486_btnPwdOff_onClick_seq0": {
        "id": "p2kwiet2012247628486_btnPwdOff_onClick_seq0",
        "type": "ACTION_SEQUENCE",
        "params": [{
            "name": "eventobject",
            "value": "eventobject"
        }],
        "language": "js",
        "actions": [{
            "id": "expression_onClick_28625201224765111",
            "type": "ADD_SNIPPET",
            "codeSnippet": "gblTxtFocusFlag = 5;"
        }, {
            "id": "customcode_onClick_54583201224763971",
            "type": "INVOKE_FUNCTION",
            "sequenceKUID": "onClickChnAxOffBtn",
            "display": "onClickChnAxOffBtn",
            "inputparams": [],
            "source": "module"
        }]
    }
}