{
    "p2kwiet2012247633781_frmMyAccountList_preshow_seq0": {
        "id": "p2kwiet2012247633781_frmMyAccountList_preshow_seq0",
        "type": "ACTION_SEQUENCE",
        "params": [{
            "name": "eventobject",
            "value": "eventobject"
        }, {
            "name": "neworientation",
            "value": "neworientation"
        }],
        "language": "js",
        "actions": [{
            "id": "customcode_preshow_8840420122476916",
            "type": "INVOKE_FUNCTION",
            "sequenceKUID": "frmMyAccountListMenuPreshow",
            "display": "frmMyAccountListMenuPreshow",
            "inputparams": [],
            "source": "module"
        }]
    }
}