{
    "p2kwiet2012247628805_lblNicknameVal_onTextChange_seq0": {
        "id": "p2kwiet2012247628805_lblNicknameVal_onTextChange_seq0",
        "type": "ACTION_SEQUENCE",
        "params": [{
            "name": "eventobject",
            "value": "eventobject"
        }, {
            "name": "changedtext",
            "value": "changedtext"
        }],
        "language": "js",
        "actions": [{
            "id": "expression_onTextChange_45376201224764078",
            "type": "ADD_SNIPPET",
            "codeSnippet": "frmDreamSavingEdit.lblNicknameVal.skin = \"txtNormalBG\";"
        }]
    }
}