{
    "p2kwiet2012247637405_frmTranfersToRecipents_preshow_seq0": {
        "id": "p2kwiet2012247637405_frmTranfersToRecipents_preshow_seq0",
        "type": "ACTION_SEQUENCE",
        "params": [{
            "name": "eventobject",
            "value": "eventobject"
        }, {
            "name": "neworientation",
            "value": "neworientation"
        }],
        "language": "js",
        "actions": [{
            "id": "customcode_preshow_7875420122476370",
            "type": "INVOKE_FUNCTION",
            "sequenceKUID": "frmTranfersToRecipentsMenuPreshow",
            "display": "frmTranfersToRecipentsMenuPreshow",
            "inputparams": [],
            "source": "module"
        }]
    }
}