{
    "p2kwiet2012247634671_textbox247327209467957_onTextChange_seq0": {
        "id": "p2kwiet2012247634671_textbox247327209467957_onTextChange_seq0",
        "type": "ACTION_SEQUENCE",
        "params": [{
            "name": "eventobject",
            "value": "eventobject"
        }, {
            "name": "changedtext",
            "value": "changedtext"
        }],
        "language": "js",
        "actions": [{
            "id": "decision_onTextChange_75347201224768322",
            "type": "IF_CONDITION",
            "conditions": [{
                "leftValueType": "expression",
                "leftValue": "frmMyRecipientSelectFacebook.textbox247327209467957.text.length >= 3"
            }],
            "criteria": "all"
        }, {
            "id": "decision_onTextChange_25195201224767494",
            "type": "ELSE_CONDITION",
            "conditions": [],
            "criteria": "all"
        }, {
            "id": "expression_onTextChange_44866201224762632",
            "type": "ADD_SNIPPET",
            "codeSnippet": "if(kony.string.containsChars(frmMyRecipientSelectFacebook.textbox247327209467957.text, charsArr)){\n alert(\"Enter Valid Search String\");\n return;\n }\n gblOffsetMB = \"0\";\n gblLimitMB = \"0\";\n gblStart = \"1\";\n gblSearch = frmMyRecipientSelectFacebook.textbox247327209467957.text;",
            "parentId": "decision_onTextChange_75347201224768322"
        }, {
            "id": "customcode_onTextChange_59187201224767394",
            "type": "INVOKE_FUNCTION",
            "sequenceKUID": "getFriendListFromFacebook",
            "display": "getFriendListFromFacebook",
            "inputparams": [{
                "name": "eventobject",
                "value": "\"0\""
            }],
            "parentId": "decision_onTextChange_75347201224768322",
            "source": "module"
        }, {
            "id": "expression_onTextChange_62382201224766064",
            "type": "ADD_SNIPPET",
            "codeSnippet": "gblFBListChanged = true;",
            "parentId": "decision_onTextChange_75347201224768322"
        }, {
            "id": "expression_onTextChange_27306201224768451",
            "type": "ADD_SNIPPET",
            "codeSnippet": "gblOffsetMB = \"0\";\n gblLimitMB = \"99\";\n gblStart = \"1\";\n gblSearch = \"0\";",
            "parentId": "decision_onTextChange_8392201224769117"
        }, {
            "id": "customcode_onTextChange_92331201224769391",
            "type": "INVOKE_FUNCTION",
            "sequenceKUID": "getFriendListFromFacebook",
            "display": "getFriendListFromFacebook",
            "inputparams": [{
                "name": "eventobject",
                "value": "\"0\""
            }],
            "parentId": "decision_onTextChange_8392201224769117",
            "source": "module"
        }, {
            "id": "expression_onTextChange_43440201224767328",
            "type": "ADD_SNIPPET",
            "codeSnippet": "gblFBListChanged = false;",
            "parentId": "decision_onTextChange_8392201224769117"
        }, {
            "id": "decision_onTextChange_8392201224769117",
            "type": "IF_CONDITION",
            "conditions": [{
                "leftValueType": "expression",
                "leftValue": "gblFBListChanged"
            }],
            "parentId": "decision_onTextChange_25195201224767494",
            "criteria": "all"
        }, {
            "id": "decision_onTextChange_5403420122476414",
            "type": "ELSE_CONDITION",
            "conditions": [],
            "parentId": "decision_onTextChange_25195201224767494",
            "criteria": "all"
        }]
    }
}