{
    "p2kwiet2012247630074_btnNext_onClick_seq0": {
        "id": "p2kwiet2012247630074_btnNext_onClick_seq0",
        "type": "ACTION_SEQUENCE",
        "params": [{
            "name": "eventobject",
            "value": "eventobject"
        }],
        "language": "js",
        "actions": [{
            "id": "expression_onClick_84233201224769460",
            "type": "ADD_SNIPPET",
            "codeSnippet": "isMBRegister=false;\n isCIRegister=false;\n userMBChanged=false;\n userCIChanged=false;\n isMBDeregister=false;\n isCIDeregister=false;\n fromBack=false;"
        }, {
            "id": "customcode_onClick_23363201224765267",
            "type": "INVOKE_FUNCTION",
            "sequenceKUID": "onClickAnyIDRegTnCAgree",
            "display": "onClickAnyIDRegTnCAgree",
            "inputparams": [],
            "source": "module"
        }]
    }
}