{
    "p2kwiet2012247629710_btnNext_onClick_seq0": {
        "id": "p2kwiet2012247629710_btnNext_onClick_seq0",
        "type": "ACTION_SEQUENCE",
        "params": [{
            "name": "eventobject",
            "value": "eventobject"
        }],
        "language": "js",
        "actions": [{
            "id": "customcode_onClick_26657201224762479",
            "type": "INVOKE_FUNCTION",
            "sequenceKUID": "onClickAnyIDRegRequestOtp",
            "display": "onClickAnyIDRegRequestOtp",
            "inputparams": [],
            "source": "module"
        }]
    }
}