{
    "p2kwiet2012247629260_frmFBLogin_postshow_seq0": {
        "id": "p2kwiet2012247629260_frmFBLogin_postshow_seq0",
        "type": "ACTION_SEQUENCE",
        "params": [{
            "name": "eventobject",
            "value": "eventobject"
        }, {
            "name": "neworientation",
            "value": "neworientation"
        }],
        "language": "js",
        "actions": [{
            "id": "customcode_postshow_150201224769534",
            "type": "INVOKE_FUNCTION",
            "sequenceKUID": "frmFBLoginMenuPostshow",
            "display": "frmFBLoginMenuPostshow",
            "inputparams": [],
            "source": "module"
        }]
    }
}