{
    "p2kwiet2012247629606_frmMBActiConfirm_onhide_seq0": {
        "id": "p2kwiet2012247629606_frmMBActiConfirm_onhide_seq0",
        "type": "ACTION_SEQUENCE",
        "params": [{
            "name": "eventobject",
            "value": "eventobject"
        }, {
            "name": "neworientation",
            "value": "neworientation"
        }],
        "language": "js",
        "actions": [{
            "id": "decision_onhide_62062201224767771",
            "type": "IF_CONDITION",
            "conditions": [{
                "leftValueType": "expression",
                "leftValue": "gblLang_flag"
            }],
            "criteria": "all"
        }, {
            "id": "decision_onhide_32237201224762006",
            "type": "ELSE_CONDITION",
            "conditions": [],
            "criteria": "all"
        }, {
            "id": "expression_onhide_14095201224761635",
            "type": "ADD_SNIPPET",
            "codeSnippet": "TMBUtil.DestroyForm(frmMBActiConfirm)",
            "parentId": "decision_onhide_62062201224767771"
        }, {
            "id": "expression_onhide_5407920122476545",
            "type": "ADD_SNIPPET",
            "codeSnippet": "gblLang_flag = false",
            "parentId": "decision_onhide_32237201224762006"
        }]
    }
}