{
    "p2kwiet2012247650236_segBanklist_onRowClick_seq0": {
        "id": "p2kwiet2012247650236_segBanklist_onRowClick_seq0",
        "type": "ACTION_SEQUENCE",
        "params": [{
            "name": "eventobject",
            "value": "eventobject"
        }, {
            "name": "sectionNumber",
            "value": "sectionNumber"
        }, {
            "name": "rowNumber",
            "value": "rowNumber"
        }],
        "language": "js",
        "actions": [{
            "id": "customcode_onRowClick_53744201224765090",
            "type": "INVOKE_FUNCTION",
            "sequenceKUID": "selectRecepientBank",
            "display": "selectRecepientBank",
            "inputparams": [],
            "source": "module"
        }]
    }
}