{
    "p2kwiet2012247637149_segMyBills_onRowClick_seq0": {
        "id": "p2kwiet2012247637149_segMyBills_onRowClick_seq0",
        "type": "ACTION_SEQUENCE",
        "params": [{
            "name": "eventobject",
            "value": "eventobject"
        }, {
            "name": "sectionNumber",
            "value": "sectionNumber"
        }, {
            "name": "rowNumber",
            "value": "rowNumber"
        }],
        "language": "js",
        "actions": [{
            "id": "decision_onRowClick_58396201224763486",
            "type": "IF_CONDITION",
            "conditions": [{
                "leftValueType": "expression",
                "leftValue": "GblBillTopFlag"
            }],
            "criteria": "all"
        }, {
            "id": "decision_onRowClick_23802201224761084",
            "type": "ELSE_CONDITION",
            "conditions": [],
            "criteria": "all"
        }, {
            "id": "customcode_onRowClick_5771201224769482",
            "type": "INVOKE_FUNCTION",
            "sequenceKUID": "myBillersSegmentRowSelct",
            "display": "myBillersSegmentRowSelct",
            "inputparams": [],
            "parentId": "decision_onRowClick_58396201224763486",
            "source": "module"
        }, {
            "id": "customcode_onRowClick_7156201224767455",
            "type": "INVOKE_FUNCTION",
            "sequenceKUID": "myTopUpSegmentRowSelct",
            "display": "myTopUpSegmentRowSelct",
            "inputparams": [],
            "parentId": "decision_onRowClick_23802201224761084",
            "source": "module"
        }]
    }
}