{
    "p2kwiet2012247632619_btnclose_onClick_seq0": {
        "id": "p2kwiet2012247632619_btnclose_onClick_seq0",
        "type": "ACTION_SEQUENCE",
        "params": [{
            "name": "eventobject",
            "value": "eventobject"
        }],
        "language": "js",
        "actions": [{
            "id": "customcode_onClick_58733201224767131",
            "type": "INVOKE_FUNCTION",
            "sequenceKUID": "onClickEditBenifBack",
            "display": "onClickEditBenifBack",
            "inputparams": [],
            "source": "module"
        }]
    }
}