{
    "p2kwiet2012247634671_btnSearchRecipeints_onClick_seq0": {
        "id": "p2kwiet2012247634671_btnSearchRecipeints_onClick_seq0",
        "type": "ACTION_SEQUENCE",
        "params": [{
            "name": "eventobject",
            "value": "eventobject"
        }],
        "language": "js",
        "actions": [{
            "id": "decision_onClick_49815201224765390",
            "type": "IF_CONDITION",
            "conditions": [{
                "leftValueType": "expression",
                "leftValue": "frmMyRecipientSelectFacebook.textbox247327209467957.text.length >= 3"
            }],
            "criteria": "all"
        }, {
            "id": "decision_onClick_85998201224764787",
            "type": "ELSE_CONDITION",
            "conditions": [],
            "criteria": "all"
        }, {
            "id": "expression_onClick_40687201224761353",
            "type": "ADD_SNIPPET",
            "codeSnippet": "if(kony.string.containsChars(frmMyRecipientSelectFacebook.textbox247327209467957.text, charsArr)){\n alert(\"Enter Valid Search String\");\n return;\n }\n gblOffsetMB = \"0\";\n gblLimitMB = \"0\";\n gblStart = \"1\";\n gblSearch = frmMyRecipientSelectFacebook.textbox247327209467957.text;",
            "parentId": "decision_onClick_49815201224765390"
        }, {
            "id": "customcode_onClick_6363020122476103",
            "type": "INVOKE_FUNCTION",
            "sequenceKUID": "getFriendListFromFacebook",
            "display": "getFriendListFromFacebook",
            "inputparams": [{
                "name": "eventobject",
                "value": "\"0\""
            }],
            "parentId": "decision_onClick_49815201224765390",
            "source": "module"
        }]
    }
}