{
    "p2kwiet2012247636921_cbxPromotion_onSelection_seq0": {
        "id": "p2kwiet2012247636921_cbxPromotion_onSelection_seq0",
        "type": "ACTION_SEQUENCE",
        "params": [{
            "name": "eventobject",
            "value": "eventobject"
        }],
        "language": "js",
        "actions": [{
            "id": "customcode_onSelection_630412012247678",
            "type": "INVOKE_FUNCTION",
            "sequenceKUID": "onSelectPromtionPopUpdrop",
            "display": "onSelectPromtionPopUpdrop",
            "inputparams": [],
            "source": "module"
        }]
    }
}