{
    "p2kwiet2012247634837_frmMyRecipientSelectMobile_preshow_seq0": {
        "id": "p2kwiet2012247634837_frmMyRecipientSelectMobile_preshow_seq0",
        "type": "ACTION_SEQUENCE",
        "params": [{
            "name": "eventobject",
            "value": "eventobject"
        }, {
            "name": "neworientation",
            "value": "neworientation"
        }],
        "language": "js",
        "actions": [{
            "id": "preprocessdecision_preshow_47552201224766963",
            "type": "CHANNEL_CONDITION",
            "platforms": ["j2me", "bb", "winphone8", "palm", "android", "iphone", "winmobile", "symbian", "winmobile6x"]
        }, {
            "id": "expression_preshow_16846201224767258",
            "type": "ADD_SNIPPET",
            "codeSnippet": "gblIndex = -1;\n isMenuShown = false;\n isSignedUser = true;\n frmMyRecipientSelectMobile.textbox247327209467957.skin=\"txtSearchbox\";\n frmMyRecipientSelectMobile.textbox247327209467957.text=\"\"\n frmMyRecipientSelectMobile.label475095112172022.text=kony.i18n.getLocalizedString(\"NoContacts\");\n frmMyRecipientSelectMobile.segMyRecipient.removeAll();\n \n "
        }, {
            "id": "customcode_preshow_26342201224764888",
            "type": "INVOKE_FUNCTION",
            "sequenceKUID": "DisableFadingEdges",
            "display": "DisableFadingEdges",
            "inputparams": [{
                "name": "CurrentformId",
                "value": "frmMyRecipientSelectMobile"
            }],
            "source": "module"
        }, {
            "id": "expression_preshow_98240201224766803",
            "type": "ADD_SNIPPET",
            "codeSnippet": "frmMyRecipientSelectMobile.scrollboxMain.scrollToEnd();",
            "parentId": "preprocessdecision_preshow_47552201224766963"
        }]
    }
}