{
    "p2kwiet2012247635925_frmOpenActDSAckCalendar_postshow_seq0": {
        "id": "p2kwiet2012247635925_frmOpenActDSAckCalendar_postshow_seq0",
        "type": "ACTION_SEQUENCE",
        "params": [{
            "name": "eventobject",
            "value": "eventobject"
        }, {
            "name": "neworientation",
            "value": "neworientation"
        }],
        "language": "js",
        "actions": [{
            "id": "customcode_postshow_84438201224761042",
            "type": "INVOKE_FUNCTION",
            "sequenceKUID": "frmOpenActDSAckCalendarMenuPostshow",
            "display": "frmOpenActDSAckCalendarMenuPostshow",
            "inputparams": [],
            "source": "module"
        }]
    }
}