{
    "p2kwiet2012247633010_txtTempAccess_onTextChange_seq0": {
        "id": "p2kwiet2012247633010_txtTempAccess_onTextChange_seq0",
        "type": "ACTION_SEQUENCE",
        "params": [{
            "name": "eventobject",
            "value": "eventobject"
        }, {
            "name": "changedtext",
            "value": "changedtext"
        }],
        "language": "js",
        "actions": [{
            "id": "expression_onTextChange_3748620122476127",
            "type": "ADD_SNIPPET",
            "codeSnippet": "var str = frmMBsetPasswd.txtTempAccess.text;\n \n //if (str != null && str.length >=1 ){\n // popAccessPinBubble.dismiss();\n //}\n //else {\n //popAccessPinBubble.show();\n //}\n \n frmMBsetPasswd.hbox50285458140.skin = \"hboxBG\""
        }]
    }
}