{
    "p2kwiet2012247628327_btnAddAmount_onClick_seq0": {
        "id": "p2kwiet2012247628327_btnAddAmount_onClick_seq0",
        "type": "ACTION_SEQUENCE",
        "params": [{
            "name": "eventobject",
            "value": "eventobject"
        }],
        "language": "js",
        "actions": [{
            "id": "customcode_onClick_87300201224762444",
            "type": "INVOKE_FUNCTION",
            "sequenceKUID": "addPlanAmount",
            "display": "addPlanAmount",
            "inputparams": [],
            "source": "module"
        }]
    }
}