{
    "p2kwiet2012247629441_cbxAscenDescend_onSelection_seq0": {
        "id": "p2kwiet2012247629441_cbxAscenDescend_onSelection_seq0",
        "type": "ACTION_SEQUENCE",
        "params": [{
            "name": "eventobject",
            "value": "eventobject"
        }],
        "language": "js",
        "actions": [{
            "id": "customcode_onSelection_94609201224761605",
            "type": "INVOKE_FUNCTION",
            "sequenceKUID": "popupSortOrderFunc",
            "display": "popupSortOrderFunc",
            "inputparams": [],
            "source": "module"
        }]
    }
}