{
    "p2kwiet2012247633297_frmMBSoGooODTranasactions_preshow_seq0": {
        "id": "p2kwiet2012247633297_frmMBSoGooODTranasactions_preshow_seq0",
        "type": "ACTION_SEQUENCE",
        "params": [{
            "name": "eventobject",
            "value": "eventobject"
        }],
        "language": "js",
        "actions": [{
            "id": "customcode_preshow_5883201224767362",
            "type": "INVOKE_FUNCTION",
            "sequenceKUID": "frmMBSoGooODTranasactionsMenuPreshow",
            "display": "frmMBSoGooODTranasactionsMenuPreshow",
            "inputparams": [],
            "source": "module"
        }]
    }
}