{
    "p2kwiet2012247628422_frmCheckContactInfo_onhide_seq0": {
        "id": "p2kwiet2012247628422_frmCheckContactInfo_onhide_seq0",
        "type": "ACTION_SEQUENCE",
        "params": [{
            "name": "eventobject",
            "value": "eventobject"
        }, {
            "name": "neworientation",
            "value": "neworientation"
        }],
        "language": "js",
        "actions": [{
            "id": "customcode_onhide_713542012247627",
            "type": "INVOKE_FUNCTION",
            "sequenceKUID": "ehFrmTransfersAck_frmTransfersAck_onhide",
            "display": "ehFrmTransfersAck_frmTransfersAck_onhide",
            "inputparams": [],
            "source": "module"
        }]
    }
}