{
    "p2kwiet2012247626847_btnRef2Dropdown_onClick_seq0": {
        "id": "p2kwiet2012247626847_btnRef2Dropdown_onClick_seq0",
        "type": "ACTION_SEQUENCE",
        "params": [{
            "name": "eventobject",
            "value": "eventobject"
        }],
        "language": "js",
        "actions": [{
            "id": "expression_onClick_60312201224767069",
            "type": "ADD_SNIPPET",
            "codeSnippet": "popUpMyBillers.lblFlag.text = \"frmAddTopUpToMB\";"
        }, {
            "id": "customcode_onClick_90011201224769481",
            "type": "INVOKE_FUNCTION",
            "sequenceKUID": "onSelectRef2BB",
            "display": "onSelectRef2BB",
            "inputparams": [],
            "source": "module"
        }]
    }
}