{
    "p2kwiet2012247629787_button363582120224309_onClick_seq0": {
        "id": "p2kwiet2012247629787_button363582120224309_onClick_seq0",
        "type": "ACTION_SEQUENCE",
        "params": [{
            "name": "eventobject",
            "value": "eventobject"
        }],
        "language": "js",
        "actions": [{
            "id": "customcode_onClick_577172012247642",
            "type": "INVOKE_FUNCTION",
            "sequenceKUID": "verifyCVVRenderMB",
            "display": "verifyCVVRenderMB",
            "inputparams": [{
                "name": "pin",
                "value": "eventobject[\"text\"]"
            }],
            "source": "module"
        }]
    }
}