{
    "p2kwiet2012247651061_button156335099532181_onClick_seq0": {
        "id": "p2kwiet2012247651061_button156335099532181_onClick_seq0",
        "type": "ACTION_SEQUENCE",
        "params": [{
            "name": "eventobject",
            "value": "eventobject"
        }],
        "language": "js",
        "actions": [{
            "id": "expression_onClick_79152201224767013",
            "type": "ADD_SNIPPET",
            "codeSnippet": "frmTransferLanding.show();"
        }]
    }
}