{
    "p2kwiet2012247628742_lblMnthlySavingVal_SPA_onEndEditing_seq0": {
        "id": "p2kwiet2012247628742_lblMnthlySavingVal_SPA_onEndEditing_seq0",
        "type": "ACTION_SEQUENCE",
        "params": [{
            "name": "eventobject",
            "value": "eventobject"
        }, {
            "name": "changedtext",
            "value": "changedtext"
        }],
        "language": "js",
        "actions": [{
            "id": "expression_onEndEditing_80859201224761325",
            "type": "ADD_SNIPPET",
            "codeSnippet": "frmDreamCalculator.lblMnthlySavingVal.skin=\"txtNormalBG\""
        }, {
            "id": "customcode_onEndEditing_93630201224766303",
            "type": "INVOKE_FUNCTION",
            "sequenceKUID": "calculateMnthCalculator",
            "display": "calculateMnthCalculator",
            "inputparams": [],
            "source": "module"
        }]
    }
}