{
    "p2kwiet2012247633536_cmbMFDates_onSelection_seq0": {
        "id": "p2kwiet2012247633536_cmbMFDates_onSelection_seq0",
        "type": "ACTION_SEQUENCE",
        "params": [{
            "name": "eventobject",
            "value": "eventobject"
        }],
        "language": "js",
        "actions": [{
            "id": "customcode_onSelection_75902201224764723",
            "type": "INVOKE_FUNCTION",
            "sequenceKUID": "onRowSelectMFMonth",
            "display": "onRowSelectMFMonth",
            "inputparams": [],
            "source": "module"
        }]
    }
}