{
    "p2kwiet2012247633448_btnMenuBillPay_onClick_seq0": {
        "id": "p2kwiet2012247633448_btnMenuBillPay_onClick_seq0",
        "type": "ACTION_SEQUENCE",
        "params": [{
            "name": "eventobject",
            "value": "eventobject"
        }],
        "language": "js",
        "actions": [{
            "id": "customcode_onClick_9629820122476908",
            "type": "INVOKE_FUNCTION",
            "sequenceKUID": "callBillPaymentFromMenu",
            "display": "callBillPaymentFromMenu",
            "inputparams": [],
            "source": "module"
        }]
    }
}