{
    "p2kwiet2012247637527_btnEditMenu_onClick_seq0": {
        "id": "p2kwiet2012247637527_btnEditMenu_onClick_seq0",
        "type": "ACTION_SEQUENCE",
        "params": [{
            "name": "eventobject",
            "value": "eventobject"
        }],
        "language": "js",
        "actions": [{
            "id": "customcode_onClick_27102201224764445",
            "type": "INVOKE_FUNCTION",
            "sequenceKUID": "onEditTransConfirm",
            "display": "onEditTransConfirm",
            "inputparams": [],
            "source": "module"
        }]
    }
}