{
    "p2kwiet2012247633925_button47497021216186_onClick_seq0": {
        "id": "p2kwiet2012247633925_button47497021216186_onClick_seq0",
        "type": "ACTION_SEQUENCE",
        "params": [{
            "name": "eventobject",
            "value": "eventobject"
        }],
        "language": "js",
        "actions": [{
            "id": "expression_onClick_74600201224762197",
            "type": "ADD_SNIPPET",
            "codeSnippet": "gblChangePWDFlag = 1;\n //getHeader(mobileMethod, \"Change Password\" , 0,0,0);\n \n //frmAccTrcPwdInter.show();\n "
        }, {
            "id": "expression_onClick_82811201224763127",
            "type": "ADD_SNIPPET",
            "codeSnippet": "editbuttonflag=\"transpass\";\n "
        }, {
            "id": "customcode_onClick_1990820122476727",
            "type": "INVOKE_FUNCTION",
            "sequenceKUID": "getIBMBEditProfileStatus",
            "display": "getIBMBEditProfileStatus",
            "inputparams": [],
            "source": "module"
        }]
    }
}