{
    "p2kwiet2012247637335_btnback_onClick_seq0": {
        "id": "p2kwiet2012247637335_btnback_onClick_seq0",
        "type": "ACTION_SEQUENCE",
        "params": [{
            "name": "eventobject",
            "value": "eventobject"
        }],
        "language": "js",
        "actions": [{
            "id": "customcode_onClick_84114201224762831",
            "type": "INVOKE_FUNCTION",
            "sequenceKUID": "gotoTopUpSelectBillerForm",
            "display": "gotoTopUpSelectBillerForm",
            "inputparams": [],
            "source": "module"
        }]
    }
}