{
    "p2kwiet2012247633381_btnEmailto_onClick_seq0": {
        "id": "p2kwiet2012247633381_btnEmailto_onClick_seq0",
        "type": "ACTION_SEQUENCE",
        "params": [{
            "name": "eventobject",
            "value": "eventobject"
        }],
        "language": "js",
        "actions": [{
            "id": "expression_onClick_61302201224763855",
            "type": "ADD_SNIPPET",
            "codeSnippet": "if(gblEmailTCSelect==false){\n gblEmailTCSelect=true;\n }else{\n gblEmailTCSelect=false;\n }\n if(gblEmailTCSelect){\n alert(kony.i18n.getLocalizedString(\"keyTermsAndConditionsPopUp\"));\n }"
        }]
    }
}