{
    "p2kwiet2012247626677_frmAccountSummaryLanding_postshow_seq0": {
        "id": "p2kwiet2012247626677_frmAccountSummaryLanding_postshow_seq0",
        "type": "ACTION_SEQUENCE",
        "params": [{
            "name": "eventobject",
            "value": "eventobject"
        }, {
            "name": "neworientation",
            "value": "neworientation"
        }],
        "language": "js",
        "actions": [{
            "id": "preprocessdecision_postshow_5066620122476438",
            "type": "CHANNEL_CONDITION",
            "platforms": ["spaip"]
        }, {
            "id": "expression_postshow_62116201224767130",
            "type": "ADD_SNIPPET",
            "codeSnippet": "deviceInfo = kony.os.deviceInfo();\n if (deviceInfo[\"name\"] == \"thinclient\" & deviceInfo[\"type\"]==\"spa\")\n {\n isMenuRendered = false;\n isMenuShown = false;\n //frmAccountSummaryLanding.scrollboxMain.scrollToEnd();\n }\n \n "
        }, {
            "id": "customcode_postshow_58501201224768273",
            "type": "INVOKE_FUNCTION",
            "sequenceKUID": "commonMBPostShow",
            "display": "commonMBPostShow",
            "inputparams": [],
            "parentId": "preprocessdecision_postshow_5066620122476438",
            "source": "module"
        }]
    }
}