{
    "p2kwiet2012247635060_btnSelectCat_onClick_seq0": {
        "id": "p2kwiet2012247635060_btnSelectCat_onClick_seq0",
        "type": "ACTION_SEQUENCE",
        "params": [{
            "name": "eventobject",
            "value": "eventobject"
        }],
        "language": "js",
        "actions": [{
            "id": "decision_onClick_96099201224762021",
            "type": "IF_CONDITION",
            "conditions": [{
                "leftValueType": "expression",
                "leftValue": "gblMyBillerTopUpBB == 2"
            }],
            "criteria": "all"
        }, {
            "id": "decision_onClick_23175201224768967",
            "type": "ELSE_CONDITION",
            "conditions": [],
            "criteria": "all"
        }, {
            "id": "expression_onClick_98864201224767008",
            "type": "ADD_SNIPPET",
            "codeSnippet": "popUpMyBillers.lblFlag.text = \"frmMyTopUpList\";\n \n popUpMyBillers.segPop.setData(gblBillerCategoriesBBMB);\n popUpMyBillers.show();",
            "parentId": "decision_onClick_96099201224762021"
        }, {
            "id": "expression_onClick_75348201224767439",
            "type": "ADD_SNIPPET",
            "codeSnippet": "popUpMyBillers.lblFlag.text = \"frmMyTopUpList\";",
            "parentId": "decision_onClick_23175201224768967"
        }, {
            "id": "customcode_onClick_84827201224766712",
            "type": "INVOKE_FUNCTION",
            "sequenceKUID": "startDisplayTopUpCategoryService",
            "display": "startDisplayTopUpCategoryService",
            "inputparams": [],
            "parentId": "decision_onClick_23175201224768967",
            "source": "module"
        }]
    }
}