{
    "p2kwiet2012247637975_frmTransferToRecipentsMobile_preshow_seq0": {
        "id": "p2kwiet2012247637975_frmTransferToRecipentsMobile_preshow_seq0",
        "type": "ACTION_SEQUENCE",
        "params": [{
            "name": "eventobject",
            "value": "eventobject"
        }, {
            "name": "neworientation",
            "value": "neworientation"
        }],
        "language": "js",
        "actions": [{
            "id": "customcode_preshow_55334201224765771",
            "type": "INVOKE_FUNCTION",
            "sequenceKUID": "frmTransferToRecipentsMobileMenuPreshow",
            "display": "frmTransferToRecipentsMobileMenuPreshow",
            "inputparams": [],
            "source": "module"
        }]
    }
}