{
    "p2kwiet2012247626596_btnBack_onClick_seq0": {
        "id": "p2kwiet2012247626596_btnBack_onClick_seq0",
        "type": "ACTION_SEQUENCE",
        "params": [{
            "name": "eventobject",
            "value": "eventobject"
        }],
        "language": "js",
        "actions": [{
            "id": "expression_onClick_30194201224769192",
            "type": "ADD_SNIPPET",
            "codeSnippet": "frmAccountStatementMB.segcredit.removeAll();\n gblStmntSessionFlag= \"2\";\n //TMBUtil.DestroyForm(frmAccountStatementMB);\n shortCutActDetailsPage();\n if (gblStatementFlow == \"frmMBManageCard\") {\n frmMBManageCard.show();\n } else if (gblStatementFlow == \"frmAccountDetailsMB\") {\n frmAccountDetailsMB.show();\n } else {\n frmAccountDetailsMB.show();\n }\n //frmAccountStatementMBDummy.show();"
        }]
    }
}