{
    "p2kwiet2012247629538_hbxATM_onClick_seq0": {
        "id": "p2kwiet2012247629538_hbxATM_onClick_seq0",
        "type": "ACTION_SEQUENCE",
        "params": [{
            "name": "eventobject",
            "value": "eventobject"
        }],
        "language": "js",
        "actions": [{
            "id": "customcode_onClick_37562201224765449",
            "type": "INVOKE_FUNCTION",
            "sequenceKUID": "onClickATMCardImg",
            "display": "onClickATMCardImg",
            "inputparams": [],
            "source": "module"
        }]
    }
}