{
    "p2kwiet2012247629710_button508341360534625_onClick_seq0": {
        "id": "p2kwiet2012247629710_button508341360534625_onClick_seq0",
        "type": "ACTION_SEQUENCE",
        "params": [{
            "name": "eventobject",
            "value": "eventobject"
        }],
        "language": "js",
        "actions": [{
            "id": "expression_onClick_7180920122476362",
            "type": "ADD_SNIPPET",
            "codeSnippet": "gblMobNoTransLimitFlag=true;\n //s2sBusinessHrsFlag = \"true\";\n gblRegisterWithAnyId = \"true\";\n \n "
        }, {
            "id": "expression_onClick_47455201224763323",
            "type": "ADD_SNIPPET",
            "codeSnippet": "frmChangeMobNoTransLimitMB.txtChangeMobileNumber.text = \"\";\n "
        }, {
            "id": "customcode_onClick_1506920122476134",
            "type": "INVOKE_FUNCTION",
            "sequenceKUID": "checkAnyIDEditProfile",
            "display": "checkAnyIDEditProfile",
            "inputparams": [],
            "source": "module"
        }]
    }
}