{
    "p2kwiet2012247628567_btnPwdOn_onClick_seq0": {
        "id": "p2kwiet2012247628567_btnPwdOn_onClick_seq0",
        "type": "ACTION_SEQUENCE",
        "params": [{
            "name": "eventobject",
            "value": "eventobject"
        }],
        "language": "js",
        "actions": [{
            "id": "customcode_onClick_3746720122476271",
            "type": "INVOKE_FUNCTION",
            "sequenceKUID": "ehFrmCMChgTransPwd_btnPwdOn_onClick",
            "display": "ehFrmCMChgTransPwd_btnPwdOn_onClick",
            "inputparams": [{
                "name": "eventobject",
                "value": "eventobject"
            }],
            "source": "module"
        }]
    }
}