{
    "p2kwiet15245716321319_frmBillPaymentComplete_postshow_seq0": {
        "id": "p2kwiet15245716321319_frmBillPaymentComplete_postshow_seq0",
        "type": "ACTION_SEQUENCE",
        "params": [{
            "name": "eventobject",
            "value": "eventobject"
        }, {
            "name": "neworientation",
            "value": "neworientation"
        }],
        "language": "js",
        "actions": [{
            "id": "customcode_postshow_9631715245716329148",
            "type": "INVOKE_FUNCTION",
            "sequenceKUID": "frmBillPaymentCompleteMenuPostshow",
            "display": "frmBillPaymentCompleteMenuPostshow",
            "inputparams": [],
            "source": "module"
        }, {
            "id": "CHANNEL_CONDITION__e63179b780ce4c999d322b0aa0f4c1eb",
            "type": "CHANNEL_CONDITION",
            "platforms": ["iphone"],
            "parentId": null
        }, {
            "id": "INVOKE_FUNCTION___dfbc4694555b4159a06ec44de7c3aa4b",
            "type": "INVOKE_FUNCTION",
            "sequenceKUID": "screenShotCall",
            "display": "screenShotCall",
            "inputparams": [{
                "name": "message",
                "value": "\"screenshot\""
            }],
            "parentId": "CHANNEL_CONDITION__e63179b780ce4c999d322b0aa0f4c1eb",
            "source": "module"
        }]
    }
}