{
    "p2kwiet2012247633176_btnRight_onClick_seq0": {
        "id": "p2kwiet2012247633176_btnRight_onClick_seq0",
        "type": "ACTION_SEQUENCE",
        "params": [{
            "name": "eventobject",
            "value": "eventobject"
        }],
        "language": "js",
        "actions": [{
            "id": "customcode_onClick_98430201224765783",
            "type": "INVOKE_FUNCTION",
            "sequenceKUID": "loadRemainingSoGoooDTransactionsMB",
            "display": "loadRemainingSoGoooDTransactionsMB",
            "inputparams": [],
            "source": "module"
        }]
    }
}