{
    "p2kwiet2012247629011_btnPhoto_onClick_seq0": {
        "id": "p2kwiet2012247629011_btnPhoto_onClick_seq0",
        "type": "ACTION_SEQUENCE",
        "params": [{
            "name": "eventobject",
            "value": "eventobject"
        }],
        "language": "js",
        "actions": [{
            "id": "customcode_onClick_3000920122476111",
            "type": "INVOKE_FUNCTION",
            "sequenceKUID": "onClickGeneratePDFImageForEditMB",
            "display": "onClickGeneratePDFImageForEditMB",
            "inputparams": [{
                "name": "filetype",
                "value": "\"png\""
            }],
            "source": "module"
        }]
    }
}