{
    "p2kwiet2012247629995_btnHome_onClick_seq0": {
        "id": "p2kwiet2012247629995_btnHome_onClick_seq0",
        "type": "ACTION_SEQUENCE",
        "params": [{
            "name": "eventobject",
            "value": "eventobject"
        }],
        "language": "js",
        "actions": [{
            "id": "customcode_onClick_26847201224766178",
            "type": "INVOKE_FUNCTION",
            "sequenceKUID": "onClickOfAccountDetailsBack",
            "display": "onClickOfAccountDetailsBack",
            "inputparams": [],
            "source": "module"
        }]
    }
}