{
    "p2kwiet2012247628805_lblTargetAmntVal_iPhone_onEndEditing_seq0": {
        "id": "p2kwiet2012247628805_lblTargetAmntVal_iPhone_onEndEditing_seq0",
        "type": "ACTION_SEQUENCE",
        "params": [{
            "name": "eventobject",
            "value": "eventobject"
        }, {
            "name": "changedtext",
            "value": "changedtext"
        }],
        "language": "js",
        "actions": [{
            "id": "expression_onEndEditing_34603201224768813",
            "type": "ADD_SNIPPET",
            "codeSnippet": "frmDreamSavingEdit.lblTargetAmntVal.skin=\"txtNormalBG\"\n "
        }, {
            "id": "expression_onEndEditing_42372201224761705",
            "type": "ADD_SNIPPET",
            "codeSnippet": "\n if(frmDreamSavingEdit.lblTargetAmntVal.text==\"0\"){\n \n frmDreamSavingEdit.button86682510925150.setEnabled(false);\n frmDreamSavingEdit.button86682510925150.skin = \"buttonCalDis\";\n }\n frmDreamSavingEdit.lblTargetAmntVal.skin = \"txtNormalBG\";\n if(frmDreamSavingEdit.lblTargetAmntVal.text!=\"0\"){\n \n frmDreamSavingEdit.button86682510925150.setEnabled(true);\n frmDreamSavingEdit.button86682510925150.skin = \"btnCalculate\";\n }"
        }, {
            "id": "customcode_onEndEditing_60265201224768953",
            "type": "INVOKE_FUNCTION",
            "sequenceKUID": "checkSymbol",
            "display": "checkSymbol",
            "inputparams": [],
            "source": "module"
        }]
    }
}