{
    "p2kwiet2012247637673_txtCitizenID_onDone_seq0": {
        "id": "p2kwiet2012247637673_txtCitizenID_onDone_seq0",
        "type": "ACTION_SEQUENCE",
        "params": [{
            "name": "eventobject",
            "value": "eventobject"
        }, {
            "name": "changedtext",
            "value": "changedtext"
        }],
        "language": "js",
        "actions": [{
            "id": "customcode_onDone_43647201224765707",
            "type": "INVOKE_FUNCTION",
            "sequenceKUID": "onDoneValidateCITransfer",
            "display": "onDoneValidateCITransfer",
            "inputparams": [{
                "name": "data"
            }],
            "source": "module"
        }]
    }
}