{
    "p2kwiet2012247633536_btnunbilled_onClick_seq0": {
        "id": "p2kwiet2012247633536_btnunbilled_onClick_seq0",
        "type": "ACTION_SEQUENCE",
        "params": [{
            "name": "eventobject",
            "value": "eventobject"
        }],
        "language": "js",
        "actions": [{
            "id": "expression_onClick_21886201224761051",
            "type": "ADD_SNIPPET",
            "codeSnippet": "frmMFFullStatementMB.segcredit.removeAll();\n frmMFFullStatementMB.btnunbilled.skin= \"btnunbilledfoc\";\n frmMFFullStatementMB.btnunbilled.focusSkin = \"btnunbilledfoc\";\n frmMFFullStatementMB.btnbilled.skin= \"btnunbilled\";\n frmMFFullStatementMB.cmbMFDates.selectedKey=0;\n frmMFFullStatementMB.hbxbilled.setVisibility(false);\n gblViewType = \"F\";\n currentpageStmt=1;\n setSortBtnSkinMBMF();\n frmMBMFAcctFullStatementPreShow();\n "
        }]
    }
}