{
    "p2kwiet2012247649953_btnPopDeleteCancel_onClick_seq0": {
        "id": "p2kwiet2012247649953_btnPopDeleteCancel_onClick_seq0",
        "type": "ACTION_SEQUENCE",
        "params": [{
            "name": "eventobject",
            "value": "eventobject"
        }],
        "language": "js",
        "actions": [{
            "id": "expression_onClick_4058520122476190",
            "type": "ADD_SNIPPET",
            "codeSnippet": "popDelRecipient.dismiss();"
        }]
    }
}