{
    "p2kwiet2012247636763_segNSSlider_onRowClick_seq0": {
        "id": "p2kwiet2012247636763_segNSSlider_onRowClick_seq0",
        "type": "ACTION_SEQUENCE",
        "params": [{
            "name": "eventobject",
            "value": "eventobject"
        }, {
            "name": "sectionNumber",
            "value": "sectionNumber"
        }, {
            "name": "rowNumber",
            "value": "rowNumber"
        }],
        "language": "js",
        "actions": [{
            "id": "customcode_onRowClick_65282201224766097",
            "type": "INVOKE_FUNCTION",
            "sequenceKUID": "onClickConnectDSSeg",
            "display": "onClickConnectDSSeg",
            "inputparams": [{
                "name": "currForm",
                "value": "frmOpnActSelAct.segNSSlider "
            }],
            "source": "module"
        }]
    }
}