{
    "p2kwiet2012247629441_frmInboxHome_Android_onDeviceBack_seq0": {
        "id": "p2kwiet2012247629441_frmInboxHome_Android_onDeviceBack_seq0",
        "type": "ACTION_SEQUENCE",
        "params": [{
            "name": "eventobject",
            "value": "eventobject"
        }, {
            "name": "neworientation",
            "value": "neworientation"
        }],
        "language": "js",
        "actions": [{
            "id": "customcode_onDeviceBack_8619201224761947",
            "type": "INVOKE_FUNCTION",
            "sequenceKUID": "callDummy",
            "display": "callDummy",
            "inputparams": [],
            "source": "module"
        }]
    }
}