{
    "p2kwiet2012247628742_lblMnthTODReamVal_iPhone_onBeginEditing_seq0": {
        "id": "p2kwiet2012247628742_lblMnthTODReamVal_iPhone_onBeginEditing_seq0",
        "type": "ACTION_SEQUENCE",
        "params": [{
            "name": "eventobject",
            "value": "eventobject"
        }, {
            "name": "changedtext",
            "value": "changedtext"
        }],
        "language": "js",
        "actions": [{
            "id": "expression_onBeginEditing_52982201224769609",
            "type": "ADD_SNIPPET",
            "codeSnippet": "frmDreamCalculator.lblMnthTODReamVal.skin=\"txtFocusBG\"\n \n \n var textmonth = frmDreamCalculator.lblMnthTODReamVal.text\n \n frmDreamCalculator.lblMnthTODReamVal.text = textmonth.replace(kony.i18n.getLocalizedString(\"keymonths\"), \"\");"
        }]
    }
}