{
    "p2kwiet2012247631019_frmMBEStatementLanding_postshow_seq0": {
        "id": "p2kwiet2012247631019_frmMBEStatementLanding_postshow_seq0",
        "type": "ACTION_SEQUENCE",
        "params": [{
            "name": "eventobject",
            "value": "eventobject"
        }, {
            "name": "neworientation",
            "value": "neworientation"
        }],
        "language": "js",
        "actions": [{
            "id": "customcode_postshow_82405201224768577",
            "type": "INVOKE_FUNCTION",
            "sequenceKUID": "frmMBEStatementLandingMenuPostshow",
            "display": "frmMBEStatementLandingMenuPostshow",
            "inputparams": [],
            "source": "module"
        }]
    }
}