{
    "p2kwiet2012247633925_link508395714292481_onClick_seq0": {
        "id": "p2kwiet2012247633925_link508395714292481_onClick_seq0",
        "type": "ACTION_SEQUENCE",
        "params": [{
            "name": "eventobject",
            "value": "eventobject"
        }],
        "language": "js",
        "actions": [{
            "id": "customcode_onClick_63628201224763615",
            "type": "INVOKE_FUNCTION",
            "sequenceKUID": "viewRequestHistoryMB",
            "display": "viewRequestHistoryMB",
            "inputparams": [{
                "name": "type",
                "value": "2"
            }],
            "source": "module"
        }]
    }
}