{
    "p2kwiet2012247636969_btnRegNow_onClick_seq0": {
        "id": "p2kwiet2012247636969_btnRegNow_onClick_seq0",
        "type": "ACTION_SEQUENCE",
        "params": [{
            "name": "eventobject",
            "value": "eventobject"
        }],
        "language": "js",
        "actions": [{
            "id": "customcode_onClick_59628201224761106",
            "type": "INVOKE_FUNCTION",
            "sequenceKUID": "onClickOfRegNowFrmRegAnyIdAnnouncement",
            "display": "onClickOfRegNowFrmRegAnyIdAnnouncement",
            "inputparams": [],
            "source": "module"
        }]
    }
}