{
    "p2kwiet2012247626480_lnkApplySoGooOD_onClick_seq0": {
        "id": "p2kwiet2012247626480_lnkApplySoGooOD_onClick_seq0",
        "type": "ACTION_SEQUENCE",
        "params": [{
            "name": "eventobject",
            "value": "eventobject"
        }],
        "language": "js",
        "actions": [{
            "id": "customcode_onClick_43907201224762316",
            "type": "INVOKE_FUNCTION",
            "sequenceKUID": "onClickApplySoGooODLink",
            "display": "onClickApplySoGooODLink",
            "inputparams": [],
            "source": "module"
        }]
    }
}