{
    "p2kwiet2012247629606_button50288422184100_onClick_seq0": {
        "id": "p2kwiet2012247629606_button50288422184100_onClick_seq0",
        "type": "ACTION_SEQUENCE",
        "params": [{
            "name": "eventobject",
            "value": "eventobject"
        }],
        "language": "js",
        "actions": [{
            "id": "expression_onClick_4942201224767576",
            "type": "ADD_SNIPPET",
            "codeSnippet": "gblLastClicked = null;"
        }, {
            "id": "decision_onClick_2635201224762112",
            "type": "IF_CONDITION",
            "conditions": [{
                "leftValueType": "expression",
                "leftValue": "isMenuShown == false"
            }],
            "criteria": "all"
        }, {
            "id": "decision_onClick_39234201224762314",
            "type": "ELSE_CONDITION",
            "conditions": [],
            "criteria": "all"
        }, {
            "id": "customcode_onClick_99273201224768911",
            "type": "INVOKE_FUNCTION",
            "sequenceKUID": "onClickActiConfirm",
            "display": "onClickActiConfirm",
            "inputparams": [],
            "parentId": "decision_onClick_2635201224762112",
            "source": "module"
        }, {
            "id": "expression_onClick_49296201224767490",
            "type": "ADD_SNIPPET",
            "codeSnippet": "frmMBActiConfirm.scrollboxMain.scrollToEnd();\n dismissLoadingScreen();\n ",
            "parentId": "decision_onClick_39234201224762314"
        }]
    }
}