{
    "p2kwiet2012247631115_btnReactivate_onClick_seq0": {
        "id": "p2kwiet2012247631115_btnReactivate_onClick_seq0",
        "type": "ACTION_SEQUENCE",
        "params": [{
            "name": "eventobject",
            "value": "eventobject"
        }],
        "language": "js",
        "actions": [{
            "id": "expression_onClick_83769201224762001",
            "type": "ADD_SNIPPET",
            "codeSnippet": "frmMBanking.show();\n \n "
        }]
    }
}