{
    "p2kwiet2012247651236_btnSave_onClick_seq0": {
        "id": "p2kwiet2012247651236_btnSave_onClick_seq0",
        "type": "ACTION_SEQUENCE",
        "params": [{
            "name": "eventobject",
            "value": "eventobject"
        }],
        "language": "js",
        "actions": [{
            "id": "expression_onClick_8494201224761712",
            "type": "ADD_SNIPPET",
            "codeSnippet": "frmViewAccount.imgcomplete.setVisibility(true);"
        }]
    }
}