{
    "p2kwiet2012247636606_frmOpenProdDetnTnC_postshow_seq0": {
        "id": "p2kwiet2012247636606_frmOpenProdDetnTnC_postshow_seq0",
        "type": "ACTION_SEQUENCE",
        "params": [{
            "name": "eventobject",
            "value": "eventobject"
        }, {
            "name": "neworientation",
            "value": "neworientation"
        }],
        "language": "js",
        "actions": [{
            "id": "customcode_postshow_34623201224764543",
            "type": "INVOKE_FUNCTION",
            "sequenceKUID": "frmOpenProdDetnTnCMenuPostshow",
            "display": "frmOpenProdDetnTnCMenuPostshow",
            "inputparams": [],
            "source": "module"
        }]
    }
}