{
    "p2kwiet2012247632326_txbXferSearch_onTextChange_seq0": {
        "id": "p2kwiet2012247632326_txbXferSearch_onTextChange_seq0",
        "type": "ACTION_SEQUENCE",
        "params": [{
            "name": "eventobject",
            "value": "eventobject"
        }, {
            "name": "changedtext",
            "value": "changedtext"
        }],
        "language": "js",
        "actions": [{
            "id": "customcode_onTextChange_80177201224766145",
            "type": "INVOKE_FUNCTION",
            "sequenceKUID": "searchToAccountsRewardsMB",
            "display": "searchToAccountsRewardsMB",
            "inputparams": [{
                "name": "fromWidgetName",
                "value": "\"txbXferSearch\""
            }],
            "source": "module"
        }]
    }
}