{
    "p2kwiet2012247650353_btnClosePop_onClick_seq0": {
        "id": "p2kwiet2012247650353_btnClosePop_onClick_seq0",
        "type": "ACTION_SEQUENCE",
        "params": [{
            "name": "eventobject",
            "value": "eventobject"
        }],
        "language": "js",
        "actions": [{
            "id": "customcode_onClick_10867201224764970",
            "type": "INVOKE_FUNCTION",
            "sequenceKUID": "closeMEAPopup",
            "display": "closeMEAPopup",
            "inputparams": [],
            "source": "module"
        }]
    }
}