{
    "p2kwiet2012247635066_btnAddBiller_onClick_seq0": {
        "id": "p2kwiet2012247635066_btnAddBiller_onClick_seq0",
        "type": "ACTION_SEQUENCE",
        "params": [{
            "name": "eventobject",
            "value": "eventobject"
        }, {
            "name": "context",
            "value": "context"
        }],
        "language": "js",
        "actions": [{
            "id": "decision_onClick_41413201224762059",
            "type": "IF_CONDITION",
            "conditions": [{
                "leftValueType": "expression",
                "leftValue": "gblMyBillerTopUpBB == 2"
            }],
            "criteria": "all"
        }, {
            "id": "decision_onClick_35898201224761821",
            "type": "ELSE_CONDITION",
            "conditions": [],
            "criteria": "all"
        }, {
            "id": "preprocessdecision_onClick_99707201224768265",
            "type": "CHANNEL_CONDITION",
            "platforms": ["j2me", "bb", "bb10", "winphone8", "palm", "android", "iphone", "winmobile", "symbian", "winmobile6x"],
            "parentId": "decision_onClick_20990201224761226"
        }, {
            "id": "preprocessdecision_onClick_16352201224765948",
            "type": "CHANNEL_CONDITION",
            "platforms": ["spaip", "spabbnth", "spawinphone8", "wap", "spaan", "spabb", "spawindows"],
            "parentId": "decision_onClick_20990201224761226"
        }, {
            "id": "alert_onClick_9444201224766567",
            "type": "SHOW_ALERT",
            "alertType": "constants.ALERT_TYPE_ERROR",
            "alertTitle": "",
            "yesLabel": "Ok",
            "noLabel": "No",
            "alertMessage": "kony.i18n.getLocalizedString(\"Valid_MoreThan50\")",
            "messageType": "expression",
            "parentId": "decision_onClick_33537201224765064",
            "alertTitlei18n": "",
            "yesLabeli18n": "",
            "noLabeli18n": "",
            "alertMessagei18n": "",
            "iconPosition": "constants.ALERT_ICON_POSITION_LEFT"
        }, {
            "id": "expression_onClick_19711201224766221",
            "type": "ADD_SNIPPET",
            "codeSnippet": "TMBUtil.DestroyForm(frmAddTopUpToMB);\n //if(flowSpa)\n //{\n //frmAddTopUpToMBGlobals();\n //}",
            "parentId": "decision_onClick_41413201224762059"
        }, {
            "id": "customcode_onClick_49964201224764363",
            "type": "INVOKE_FUNCTION",
            "sequenceKUID": "onSelectSugBillerBB",
            "display": "onSelectSugBillerBB",
            "inputparams": [],
            "parentId": "decision_onClick_41413201224762059",
            "source": "module"
        }, {
            "id": "customcode_onClick_83284201224764823",
            "type": "INVOKE_FUNCTION",
            "sequenceKUID": "showAccountListBBMB",
            "display": "showAccountListBBMB",
            "inputparams": [],
            "parentId": "decision_onClick_41413201224762059",
            "source": "module"
        }, {
            "id": "expression_onClick_9038201224761528",
            "type": "ADD_SNIPPET",
            "codeSnippet": "kony.print(\"Adding biller is disabled\");",
            "parentId": "decision_onClick_87667201224765549"
        }, {
            "id": "expression_onClick_11800201224769825",
            "type": "ADD_SNIPPET",
            "codeSnippet": "alert(kony.i18n.getLocalizedString(\"Receipent_OTPLocked\"))\n ",
            "parentId": "decision_onClick_65348201224763361"
        }, {
            "id": "alert_onClick_71708201224762741",
            "type": "SHOW_ALERT",
            "alertType": "constants.ALERT_TYPE_ERROR",
            "alertTitle": "",
            "yesLabel": "Ok",
            "noLabel": "No",
            "alertMessage": "kony.i18n.getLocalizedString(\"Valid_MoreThan50\")",
            "messageType": "expression",
            "parentId": "decision_onClick_44967201224763420",
            "alertTitlei18n": "",
            "yesLabeli18n": "",
            "noLabeli18n": "",
            "alertMessagei18n": "",
            "iconPosition": "constants.ALERT_ICON_POSITION_LEFT"
        }, {
            "id": "expression_onClick_8454320122476836",
            "type": "ADD_SNIPPET",
            "codeSnippet": "//alert(kony.i18n.getLocalizedString(\"keyTranxPwdLocked\"))\n popTransferConfirmOTPLock.show();\n \n ",
            "parentId": "decision_onClick_44813201224769595"
        }, {
            "id": "decision_onClick_3722220122476378",
            "type": "IF_CONDITION",
            "conditions": [{
                "leftValueType": "expression",
                "leftValue": "checkMaxBillerCountMB()"
            }],
            "parentId": "decision_onClick_31944201224765878",
            "criteria": "all"
        }, {
            "id": "decision_onClick_44967201224763420",
            "type": "ELSE_CONDITION",
            "conditions": [],
            "parentId": "decision_onClick_31944201224765878",
            "criteria": "all"
        }, {
            "id": "decision_onClick_44813201224769595",
            "type": "IF_CONDITION",
            "conditions": [{
                "leftValueType": "expression",
                "leftValue": "kony.string.equals(gblTranxLockedForBiller, \"03\") "
            }],
            "parentId": "preprocessdecision_onClick_99707201224768265",
            "criteria": "all"
        }, {
            "id": "decision_onClick_249082012247651",
            "type": "ELSE_CONDITION",
            "conditions": [],
            "parentId": "preprocessdecision_onClick_99707201224768265",
            "criteria": "all"
        }, {
            "id": "customcode_onClick_12615201224767799",
            "type": "INVOKE_FUNCTION",
            "sequenceKUID": "onclickOfSuggestedBillersAdd",
            "display": "onclickOfSuggestedBillersAdd",
            "inputparams": [],
            "parentId": "decision_onClick_69066201224765196",
            "source": "module"
        }, {
            "id": "customcode_onClick_6025201224761412",
            "type": "INVOKE_FUNCTION",
            "sequenceKUID": "onclickOfSuggestedBillersAdd",
            "display": "onclickOfSuggestedBillersAdd",
            "inputparams": [],
            "parentId": "decision_onClick_3722220122476378",
            "source": "module"
        }, {
            "id": "decision_onClick_69066201224765196",
            "type": "IF_CONDITION",
            "conditions": [{
                "leftValueType": "expression",
                "leftValue": "checkMaxBillerCountMB()"
            }],
            "parentId": "decision_onClick_249082012247651",
            "criteria": "all"
        }, {
            "id": "decision_onClick_33537201224765064",
            "type": "ELSE_CONDITION",
            "conditions": [],
            "parentId": "decision_onClick_249082012247651",
            "criteria": "all"
        }, {
            "id": "decision_onClick_65348201224763361",
            "type": "IF_CONDITION",
            "conditions": [{
                "leftValueType": "expression",
                "leftValue": "kony.string.equals(gblIBFlowStatus, \"04\") "
            }],
            "parentId": "preprocessdecision_onClick_16352201224765948",
            "criteria": "all"
        }, {
            "id": "decision_onClick_31944201224765878",
            "type": "ELSE_CONDITION",
            "conditions": [],
            "parentId": "preprocessdecision_onClick_16352201224765948",
            "criteria": "all"
        }, {
            "id": "decision_onClick_87667201224765549",
            "type": "IF_CONDITION",
            "conditions": [{
                "leftValueType": "expression",
                "leftValue": "gblBlockBillerTopUpAdd"
            }],
            "parentId": "decision_onClick_35898201224761821",
            "criteria": "all"
        }, {
            "id": "decision_onClick_20990201224761226",
            "type": "ELSE_CONDITION",
            "conditions": [],
            "parentId": "decision_onClick_35898201224761821",
            "criteria": "all"
        }]
    }
}