{
    "p2kwiet2012247632069_frmMBPointRedemptionComplete_onhide_seq0": {
        "id": "p2kwiet2012247632069_frmMBPointRedemptionComplete_onhide_seq0",
        "type": "ACTION_SEQUENCE",
        "params": [{
            "name": "eventobject",
            "value": "eventobject"
        }, {
            "name": "neworientation",
            "value": "neworientation"
        }],
        "language": "js",
        "actions": [{
            "id": "expression_onhide_3968820122476404",
            "type": "ADD_SNIPPET",
            "codeSnippet": "frmMBPointRedemptionComplete.hboxaddfblist.isVisible = false;\n frmMBPointRedemptionComplete.btnRight.skin = \"btnShare\";\n frmMBPointRedemptionComplete.imgHeaderMiddle1.src = \"arrowtop.png\";\n frmMBPointRedemptionComplete.imgHeaderRight1.src = \"empty.png\";"
        }]
    }
}