{
    "p2kwiet2012247633659_textbx4_onTextChange_seq0": {
        "id": "p2kwiet2012247633659_textbx4_onTextChange_seq0",
        "type": "ACTION_SEQUENCE",
        "params": [{
            "name": "eventobject",
            "value": "eventobject"
        }, {
            "name": "changedtext",
            "value": "changedtext"
        }],
        "language": "js",
        "actions": [{
            "id": "customcode_onTextChange_5605120122476262",
            "type": "INVOKE_FUNCTION",
            "sequenceKUID": "fcsTxt4",
            "display": "fcsTxt4",
            "inputparams": [],
            "source": "module"
        }]
    }
}