{
    "p2kwiet2012247627164_segATMListDetails_onRowClick_seq0": {
        "id": "p2kwiet2012247627164_segATMListDetails_onRowClick_seq0",
        "type": "ACTION_SEQUENCE",
        "params": [{
            "name": "eventobject",
            "value": "eventobject"
        }, {
            "name": "sectionNumber",
            "value": "sectionNumber"
        }, {
            "name": "rowNumber",
            "value": "rowNumber"
        }],
        "language": "js",
        "actions": [{
            "id": "customcode_onRowClick_96916201224766252",
            "type": "INVOKE_FUNCTION",
            "sequenceKUID": "onClickListDetails",
            "display": "onClickListDetails",
            "inputparams": [],
            "source": "module"
        }]
    }
}