{
    "p2kwiet2012247630833_btn4_onClick_seq0": {
        "id": "p2kwiet2012247630833_btn4_onClick_seq0",
        "type": "ACTION_SEQUENCE",
        "params": [{
            "name": "eventobject",
            "value": "eventobject"
        }],
        "language": "js",
        "actions": [{
            "id": "customcode_onClick_52813201224767732",
            "type": "INVOKE_FUNCTION",
            "sequenceKUID": "changeBtnPinClick",
            "display": "changeBtnPinClick",
            "inputparams": [{
                "name": "eventobject",
                "value": "eventobject"
            }],
            "source": "module"
        }]
    }
}