{
    "p2kwiet2012247626480_lnkMyActivities_onClick_seq0": {
        "id": "p2kwiet2012247626480_lnkMyActivities_onClick_seq0",
        "type": "ACTION_SEQUENCE",
        "params": [{
            "name": "eventobject",
            "value": "eventobject"
        }],
        "language": "js",
        "actions": [{
            "id": "customcode_onClick_59442201224769006",
            "type": "INVOKE_FUNCTION",
            "sequenceKUID": "onLinkMyActivitiesClickMB",
            "display": "onLinkMyActivitiesClickMB",
            "inputparams": [],
            "source": "module"
        }]
    }
}