{
    "p2kwiet2012247626342_btnDreamSavings_onClick_seq0": {
        "id": "p2kwiet2012247626342_btnDreamSavings_onClick_seq0",
        "type": "ACTION_SEQUENCE",
        "params": [{
            "name": "eventobject",
            "value": "eventobject"
        }],
        "language": "js",
        "actions": [{
            "id": "customcode_onClick_11209201224763014",
            "type": "INVOKE_FUNCTION",
            "sequenceKUID": "callDepositAccntsummmry",
            "display": "callDepositAccntsummmry",
            "inputparams": [],
            "source": "module"
        }]
    }
}