{
    "p2kwiet2012247635696_frmOpenAccTermDepositToSpa_preshow_seq0": {
        "id": "p2kwiet2012247635696_frmOpenAccTermDepositToSpa_preshow_seq0",
        "type": "ACTION_SEQUENCE",
        "params": [{
            "name": "eventobject",
            "value": "eventobject"
        }, {
            "name": "neworientation",
            "value": "neworientation"
        }],
        "language": "js",
        "actions": [{
            "id": "customcode_preshow_4549120122476111",
            "type": "INVOKE_FUNCTION",
            "sequenceKUID": "frmOpenAccTermDepositToSpaMenuPreshow",
            "display": "frmOpenAccTermDepositToSpaMenuPreshow",
            "inputparams": [],
            "source": "module"
        }]
    }
}