{
    "p2kwiet2012247631604_btnIssueCard_onClick_seq0": {
        "id": "p2kwiet2012247631604_btnIssueCard_onClick_seq0",
        "type": "ACTION_SEQUENCE",
        "params": [{
            "name": "eventobject",
            "value": "eventobject"
        }],
        "language": "js",
        "actions": [{
            "id": "customcode_onClick_76947201224765139",
            "type": "INVOKE_FUNCTION",
            "sequenceKUID": "frmMBNewTncNewDCShow",
            "display": "frmMBNewTncNewDCShow",
            "inputparams": [],
            "source": "module"
        }]
    }
}