{
    "p2kwiet2012247636763_frmOpnActSelAct_preshow_seq0": {
        "id": "p2kwiet2012247636763_frmOpnActSelAct_preshow_seq0",
        "type": "ACTION_SEQUENCE",
        "params": [{
            "name": "eventobject",
            "value": "eventobject"
        }, {
            "name": "neworientation",
            "value": "neworientation"
        }],
        "language": "js",
        "actions": [{
            "id": "customcode_preshow_6926320122476350",
            "type": "INVOKE_FUNCTION",
            "sequenceKUID": "frmOpnActSelActMenuPreshow",
            "display": "frmOpnActSelActMenuPreshow",
            "inputparams": [],
            "source": "module"
        }]
    }
}