{
    "p2kwiet2012247636648_btnEditSave_onClick_seq0": {
        "id": "p2kwiet2012247636648_btnEditSave_onClick_seq0",
        "type": "ACTION_SEQUENCE",
        "params": [{
            "name": "eventobject",
            "value": "eventobject"
        }],
        "language": "js",
        "actions": [{
            "id": "customcode_onClick_34942201224766820",
            "type": "INVOKE_FUNCTION",
            "sequenceKUID": "openProductAddressValidation",
            "display": "openProductAddressValidation",
            "inputparams": [],
            "source": "module"
        }]
    }
}