{
    "p2kwiet2012247635762_txtODMyDream_Android_onBeginEditing_seq0": {
        "id": "p2kwiet2012247635762_txtODMyDream_Android_onBeginEditing_seq0",
        "type": "ACTION_SEQUENCE",
        "params": [{
            "name": "eventobject",
            "value": "eventobject"
        }, {
            "name": "changedtext",
            "value": "changedtext"
        }],
        "language": "js",
        "actions": [{
            "id": "expression_onBeginEditing_97921201224766552",
            "type": "ADD_SNIPPET",
            "codeSnippet": "frmOpenAcDreamSaving.txtODMyDream.skin= \"txtFocusBG\"\n var removeOpenBahtDreamMntmTODream = frmOpenAcDreamSaving.txtODMyDream.text\n frmOpenAcDreamSaving.txtODMyDream.text = removeOpenBahtDreamMntmTODream.replace(kony.i18n.getLocalizedString(\"keymonths\"),\"\")"
        }]
    }
}