{
    "p2kwiet2012247637360_frmTouchIdIntermediateLogin_preshow_seq0": {
        "id": "p2kwiet2012247637360_frmTouchIdIntermediateLogin_preshow_seq0",
        "type": "ACTION_SEQUENCE",
        "params": [{
            "name": "eventobject",
            "value": "eventobject"
        }, {
            "name": "neworientation",
            "value": "neworientation"
        }],
        "language": "js",
        "actions": [{
            "id": "customcode_preshow_4637320122476103",
            "type": "INVOKE_FUNCTION",
            "sequenceKUID": "frmTouchIdIntermediateLoginMenuPreshow",
            "display": "frmTouchIdIntermediateLoginMenuPreshow",
            "inputparams": [],
            "source": "module"
        }]
    }
}