{
    "p2kwiet2012247633121_btnCancel_onClick_seq0": {
        "id": "p2kwiet2012247633121_btnCancel_onClick_seq0",
        "type": "ACTION_SEQUENCE",
        "params": [{
            "name": "eventobject",
            "value": "eventobject"
        }],
        "language": "js",
        "actions": [{
            "id": "decision_onClick_26598201224768000",
            "type": "IF_CONDITION",
            "conditions": [{
                "leftValueType": "expression",
                "leftValue": "isMenuShown == false"
            }],
            "criteria": "all"
        }, {
            "id": "decision_onClick_1341620122476228",
            "type": "ELSE_CONDITION",
            "conditions": [],
            "criteria": "all"
        }, {
            "id": "customcode_onClick_2729220122476957",
            "type": "INVOKE_FUNCTION",
            "sequenceKUID": "onClickOfCancelSogoood",
            "display": "onClickOfCancelSogoood",
            "inputparams": [],
            "parentId": "decision_onClick_26598201224768000",
            "source": "module"
        }, {
            "id": "expression_onClick_7633820122476928",
            "type": "ADD_SNIPPET",
            "codeSnippet": "frmMBSoGooodConf.scrollboxMain.scrollToEnd();\n isMenuShown = false;",
            "parentId": "decision_onClick_1341620122476228"
        }]
    }
}