{
    "p2kwiet2012247626636_frmAccountSummaryLanding_Android_onDeviceBack_seq0": {
        "id": "p2kwiet2012247626636_frmAccountSummaryLanding_Android_onDeviceBack_seq0",
        "type": "ACTION_SEQUENCE",
        "params": [{
            "name": "eventobject",
            "value": "eventobject"
        }, {
            "name": "neworientation",
            "value": "neworientation"
        }],
        "language": "js",
        "actions": [{
            "id": "expression_onDeviceBack_28240201224766611",
            "type": "ADD_SNIPPET",
            "codeSnippet": "try{\n if (isMenuShown == false){\n if(!gblTimerFlg){\n showToastMsg();\n kony.timer.schedule(\"btnTimer\", callback, 4, false);\n popGoback.show();\n gblTimerFlg = true;\n gblExitByBackBtn = true;\n resetValues(); \n }\n }\n \n \n function callback(){\n popGoback.destroy();\n popGoback.dismiss();\n kony.timer.cancel(\"btnTimer\");\n gblTimerFlg = false; \n kony.print(\"FPRINT making gblCallPrePost to true\");\n gblCallPrePost=true;\t   \n }\n }\n catch(Error){\n alert(\"back btn\");\n }\n "
        }]
    }
}