{
    "p2kwiet2012247635380_btnCancel_onClick_seq0": {
        "id": "p2kwiet2012247635380_btnCancel_onClick_seq0",
        "type": "ACTION_SEQUENCE",
        "params": [{
            "name": "eventobject",
            "value": "eventobject"
        }],
        "language": "js",
        "actions": [{
            "id": "expression_onClick_77342201224765504",
            "type": "ADD_SNIPPET",
            "codeSnippet": "frmOpenActSelProd.lblHdrTxt.text = kony.i18n.getLocalizedString(\"keyOpenAcc\");\n frmOpenActSelProd.label47505874734422.text = kony.i18n.getLocalizedString(\"keyopenselectCategory\");\n \n \n if(flowSpa)\n {\n frmOpenActSelProd.label473361467796309.text = kony.i18n.getLocalizedString(\"forUse\");\n frmOpenActSelProd.label473361467796317.text = kony.i18n.getLocalizedString(\"forSave\");\n frmOpenActSelProd.label473361467796313.text = kony.i18n.getLocalizedString(\"TermDepositMB\");\n }else{\n frmOpenActSelProd.label47505874734002.text = kony.i18n.getLocalizedString(\"forUse\");\n frmOpenActSelProd.label47505874734014.text = kony.i18n.getLocalizedString(\"forSave\");\n frmOpenActSelProd.label47505874734008.text = kony.i18n.getLocalizedString(\"TermDepositMB\");\n }\n \n setDataForUse();\n "
        }, {
            "id": "navigation_onClick_67587201224763110",
            "type": "NAVIGATE_TO_FORM",
            "formId": "frmOpenActSelProd",
            "formKUID": "p2kwiet2012247636306",
            "mappings": {},
            "mappingsOrder": [],
            "parentId": "",
            "enableMappingEditor": true,
            "package": ""
        }]
    }
}