{
    "p2kwiet2012247630627_frmMBCardProductLink_preshow_seq0": {
        "id": "p2kwiet2012247630627_frmMBCardProductLink_preshow_seq0",
        "type": "ACTION_SEQUENCE",
        "params": [{
            "name": "eventobject",
            "value": "eventobject"
        }],
        "language": "js",
        "actions": [{
            "id": "customcode_preshow_7968320122476296",
            "type": "INVOKE_FUNCTION",
            "sequenceKUID": "preshowMBCardProductLink",
            "display": "preshowMBCardProductLink",
            "inputparams": [],
            "source": "module"
        }]
    }
}