{
    "p2kwiet2012247633659_tbxSuffix_onTextChange_seq0": {
        "id": "p2kwiet2012247633659_tbxSuffix_onTextChange_seq0",
        "type": "ACTION_SEQUENCE",
        "params": [{
            "name": "eventobject",
            "value": "eventobject"
        }, {
            "name": "changedtext",
            "value": "changedtext"
        }],
        "language": "js",
        "actions": [{
            "id": "customcode_onTextChange_81435201224763145",
            "type": "INVOKE_FUNCTION",
            "sequenceKUID": "testsuffix",
            "display": "testsuffix",
            "inputparams": [],
            "source": "module"
        }]
    }
}