{
    "p2kwiet2012247631214_btnCancelSPA_onClick_seq0": {
        "id": "p2kwiet2012247631214_btnCancelSPA_onClick_seq0",
        "type": "ACTION_SEQUENCE",
        "params": [{
            "name": "eventobject",
            "value": "eventobject"
        }],
        "language": "js",
        "actions": [{
            "id": "customcode_onClick_8152201224764703",
            "type": "INVOKE_FUNCTION",
            "sequenceKUID": "ehFfrmMBFTEdit_btnCancelSPA_onClick",
            "display": "ehFfrmMBFTEdit_btnCancelSPA_onClick",
            "inputparams": [{
                "name": "eventobject",
                "value": "eventobject"
            }],
            "source": "module"
        }]
    }
}