{
    "p2kwiet2012247634886_btnRight_onClick_seq0": {
        "id": "p2kwiet2012247634886_btnRight_onClick_seq0",
        "type": "ACTION_SEQUENCE",
        "params": [{
            "name": "eventobject",
            "value": "eventobject"
        }],
        "language": "js",
        "actions": [{
            "id": "customcode_onClick_7562201224766361",
            "type": "INVOKE_FUNCTION",
            "sequenceKUID": "onClickContactList",
            "display": "onClickContactList",
            "inputparams": [],
            "source": "module"
        }]
    }
}