{
    "p2kwiet2012247631967_btnNext_onClick_seq0": {
        "id": "p2kwiet2012247631967_btnNext_onClick_seq0",
        "type": "ACTION_SEQUENCE",
        "params": [{
            "name": "eventobject",
            "value": "eventobject"
        }],
        "language": "js",
        "actions": [{
            "id": "customcode_onClick_36491201224762103",
            "type": "INVOKE_FUNCTION",
            "sequenceKUID": "navigateToNextMonth",
            "display": "navigateToNextMonth",
            "inputparams": [],
            "source": "module"
        }]
    }
}