{
    "p2kwiet2012247627714_btnCancel_onClick_seq0": {
        "id": "p2kwiet2012247627714_btnCancel_onClick_seq0",
        "type": "ACTION_SEQUENCE",
        "params": [{
            "name": "eventobject",
            "value": "eventobject"
        }],
        "language": "js",
        "actions": [{
            "id": "expression_onClick_36209201224769729",
            "type": "ADD_SNIPPET",
            "codeSnippet": "//frmMBMyActivities.show();\n //showCalendar(gsSelectedDate,frmMBMyActivities);\n MBMyActivitiesShowCalendar();"
        }]
    }
}