{
    "p2kwiet2012247629204_btnEngR_onClick_seq0": {
        "id": "p2kwiet2012247629204_btnEngR_onClick_seq0",
        "type": "ACTION_SEQUENCE",
        "params": [{
            "name": "eventobject",
            "value": "eventobject"
        }],
        "language": "js",
        "actions": [{
            "id": "preprocessdecision_onClick_80121201224767582",
            "type": "CHANNEL_CONDITION",
            "platforms": ["spaip", "spabbnth", "spawinphone8", "spaan", "spabb", "spawindows"]
        }, {
            "id": "preprocessdecision_onClick_97268201224763278",
            "type": "CHANNEL_CONDITION",
            "platforms": ["android", "iphone"]
        }, {
            "id": "expression_onClick_15004201224768495",
            "type": "ADD_SNIPPET",
            "codeSnippet": "gblLang_flag = \"en_US\";\n //#ifdef android\n //kony.application.showLoadingScreen(\"LocBlock\",kony.i18n.getLocalizedString(\"keyLocaleChangeEngMessage\"), \"center\" , true, true, false);\n showLoadingScreen();\n //#endif\n showLoadingScreen();\n setLocaleEng();\n frmFATCAQuestionnaire1.btnEngR.skin = btnOnFocus;\n frmFATCAQuestionnaire1.btnThaiR.skin = btnOffFocus;\n ",
            "parentId": "decision_onClick_58942201224761987"
        }, {
            "id": "decision_onClick_58942201224761987",
            "type": "IF_CONDITION",
            "conditions": [{
                "leftValueType": "expression",
                "leftValue": "kony.i18n.getCurrentLocale() != \"en_US\""
            }],
            "parentId": "preprocessdecision_onClick_97268201224763278",
            "criteria": "all"
        }, {
            "id": "decision_onClick_67379201224767941",
            "type": "ELSE_CONDITION",
            "conditions": [],
            "parentId": "preprocessdecision_onClick_97268201224763278",
            "criteria": "all"
        }, {
            "id": "decision_onClick_1881201224763487",
            "type": "IF_CONDITION",
            "conditions": [{
                "leftValueType": "expression",
                "leftValue": "kony.i18n.getCurrentLocale() != \"en_US\""
            }],
            "parentId": "preprocessdecision_onClick_80121201224767582",
            "criteria": "all"
        }, {
            "id": "decision_onClick_40575201224763932",
            "type": "ELSE_CONDITION",
            "conditions": [],
            "parentId": "preprocessdecision_onClick_80121201224767582",
            "criteria": "all"
        }, {
            "id": "expression_onClick_16114201224761589",
            "type": "ADD_SNIPPET",
            "codeSnippet": "gblLang_flag = \"en_US\";\n \n //#ifdef android\n //kony.application.showLoadingScreen(\"LocBlock\",kony.i18n.getLocalizedString(\"keyLocaleChangeEngMessage\"), \"center\" , true, true, false);\n showLoadingScreen();\n //#endif\n \n //gblLang_flag = \"en_US\";\n //kony.i18n.setCurrentLocaleAsync(\"en_US\", onSuccessLocaleChange, onFailureLocaleChange, \"\");\n //frmMBTnC.lblTandCSpa.text=\"\";\n setLocaleEng();\n frmFATCAQuestionnaire1.btnEngR.skin = btnOnFocus;\n frmFATCAQuestionnaire1.btnThaiR.skin = btnOffFocus;\n if(gblFATCAPage == 1)\n frmFATCAQuestionnaire1PreShow();\n else frmFATCAQuestionnaire2PreShow();",
            "parentId": "decision_onClick_1881201224763487"
        }]
    }
}