{
    "p2kwiet2012247628706_hbxContact_onClick_seq0": {
        "id": "p2kwiet2012247628706_hbxContact_onClick_seq0",
        "type": "ACTION_SEQUENCE",
        "params": [{
            "name": "eventobject",
            "value": "eventobject"
        }],
        "language": "js",
        "actions": [{
            "id": "expression_onClick_91903201224767070",
            "type": "ADD_SNIPPET",
            "codeSnippet": "TMBCallPopup.label506459299657124.setVisibility(false);\nTMBCallPopup.button506459299657128.text = kony.i18n.getLocalizedString(\"keyCancelButton\");\n TMBCallPopup.button506459299657130.text = kony.i18n.getLocalizedString(\"keyCall\");"
        }, {
            "id": "navigation_onClick_61763201224766756",
            "type": "DISPLAY_POPUP",
            "popupId": "TMBCallPopup",
            "popupKUID": "p2kwiet2012247650486",
            "mappings": {},
            "mappingsOrder": [],
            "enableMappingEditor": true
        }]
    }
}