{
    "p2kwiet15245716321099_hbxMyNote_onClick_seq0": {
        "id": "p2kwiet15245716321099_hbxMyNote_onClick_seq0",
        "type": "ACTION_SEQUENCE",
        "params": [{
            "name": "eventobject",
            "value": "eventobject"
        }],
        "language": "js",
        "actions": [{
            "id": "customcode_onClick_5472515245716321150",
            "type": "INVOKE_FUNCTION",
            "sequenceKUID": "ehFrmTransferLanding_hbxTranLandMyNote_onClick",
            "display": "ehFrmTransferLanding_hbxTranLandMyNote_onClick",
            "inputparams": [],
            "source": "module"
        }]
    }
}