{
    "p2kwiet2012247634789_frmMyRecipientSelectFbID_postshow_seq0": {
        "id": "p2kwiet2012247634789_frmMyRecipientSelectFbID_postshow_seq0",
        "type": "ACTION_SEQUENCE",
        "params": [{
            "name": "eventobject",
            "value": "eventobject"
        }, {
            "name": "neworientation",
            "value": "neworientation"
        }],
        "language": "js",
        "actions": [{
            "id": "preprocessdecision_postshow_8598820122476947",
            "type": "CHANNEL_CONDITION",
            "platforms": ["spaip"]
        }, {
            "id": "preprocessdecision_postshow_83916201224769648",
            "type": "CHANNEL_CONDITION",
            "platforms": ["spaip", "spabbnth", "spawinphone8", "spaan", "spabb", "spawindows"]
        }, {
            "id": "expression_postshow_70157201224766805",
            "type": "ADD_SNIPPET",
            "codeSnippet": "gblOffsetMB = \"0\";\n gblLimitMB = \"99\";\n gblSearch = \"0\";\n gblStart = \"0\";\n multiSelectedFacebook.length = 0;"
        }, {
            "id": "preprocessdecision_postshow_58834201224767893",
            "type": "CHANNEL_CONDITION",
            "platforms": ["bb", "winphone8", "spaip", "spabbnth", "palm", "wap", "android", "spabb", "iphone", "symbian", "spawindows", "j2me", "bb10", "spawinphone8", "spaan", "winmobile", "winmobile6x"]
        }, {
            "id": "customcode_postshow_1065720122476342",
            "type": "INVOKE_FUNCTION",
            "sequenceKUID": "commonMBPostShow",
            "display": "commonMBPostShow",
            "inputparams": [],
            "parentId": "preprocessdecision_postshow_8598820122476947",
            "source": "module"
        }, {
            "id": "customcode_postshow_97598201224769897",
            "type": "INVOKE_FUNCTION",
            "sequenceKUID": "getFriendListFromFacebook",
            "display": "getFriendListFromFacebook",
            "inputparams": [{
                "name": "eventobject",
                "value": "\"0\""
            }],
            "parentId": "preprocessdecision_postshow_58834201224767893",
            "source": "module"
        }, {
            "id": "expression_postshow_4058920122476121",
            "type": "ADD_SNIPPET",
            "codeSnippet": "frmMyRecipientSelectFbID.scrollboxMain.scrollToEnd();",
            "parentId": "preprocessdecision_postshow_83916201224769648"
        }]
    }
}