{
    "p2kwiet2012247650286_btnPopupConfCancel_onClick_seq0": {
        "id": "p2kwiet2012247650286_btnPopupConfCancel_onClick_seq0",
        "type": "ACTION_SEQUENCE",
        "params": [{
            "name": "eventobject",
            "value": "eventobject"
        }],
        "language": "js",
        "actions": [{
            "id": "expression_onClick_89582201224769668",
            "type": "ADD_SNIPPET",
            "codeSnippet": "popupDeRegister.dismiss();\n "
        }]
    }
}