{
    "p2kwiet2012247637941_btnTransNPbAckMakeAnthr_onClick_seq0": {
        "id": "p2kwiet2012247637941_btnTransNPbAckMakeAnthr_onClick_seq0",
        "type": "ACTION_SEQUENCE",
        "params": [{
            "name": "eventobject",
            "value": "eventobject"
        }],
        "language": "js",
        "actions": [{
            "id": "customcode_onClick_794201224762887",
            "type": "INVOKE_FUNCTION",
            "sequenceKUID": "transferAgainFromCalenderTransaction",
            "display": "transferAgainFromCalenderTransaction",
            "inputparams": [],
            "source": "module"
        }]
    }
}