{
    "p2kwiet2012247627714_btnRight_onClick_seq0": {
        "id": "p2kwiet2012247627714_btnRight_onClick_seq0",
        "type": "ACTION_SEQUENCE",
        "params": [{
            "name": "eventobject",
            "value": "eventobject"
        }],
        "language": "js",
        "actions": [{
            "id": "customcode_onClick_94441201224761169",
            "type": "INVOKE_FUNCTION",
            "sequenceKUID": "onClickShareBillpayCalendar",
            "display": "onClickShareBillpayCalendar",
            "inputparams": [],
            "source": "module"
        }]
    }
}