{
    "p2kwiet2012247633536_btnbilled_onClick_seq0": {
        "id": "p2kwiet2012247633536_btnbilled_onClick_seq0",
        "type": "ACTION_SEQUENCE",
        "params": [{
            "name": "eventobject",
            "value": "eventobject"
        }],
        "language": "js",
        "actions": [{
            "id": "expression_onClick_31795201224768430",
            "type": "ADD_SNIPPET",
            "codeSnippet": "frmMFFullStatementMB.segcredit.removeAll();\n frmMFFullStatementMB.btnunbilled.skin= \"btnunbilled\";\n frmMFFullStatementMB.btnbilled.skin= \"btnunbilledfoc\";\n frmMFFullStatementMB.hbxaccnt.setVisibility(false);\n frmMFFullStatementMB.hbxSegHeader.setVisibility(false);\n frmMFFullStatementMB.hbxOnHandClick.setVisibility(false);\n gblViewType=\"O\";\n onCCMonth1ClickMF();\n //startCCstatementservice(\"billed\", \"1\");\n "
        }]
    }
}