{
    "p2kwiet2012247635104_btnAddBiller_onClick_seq0": {
        "id": "p2kwiet2012247635104_btnAddBiller_onClick_seq0",
        "type": "ACTION_SEQUENCE",
        "params": [{
            "name": "eventobject",
            "value": "eventobject"
        }, {
            "name": "context",
            "value": "context"
        }],
        "language": "js",
        "actions": [{
            "id": "decision_onClick_43380201224763862",
            "type": "IF_CONDITION",
            "conditions": [{
                "leftValueType": "expression",
                "leftValue": "gblMyBillerTopUpBB == 2"
            }],
            "criteria": "all"
        }, {
            "id": "decision_onClick_18325201224763091",
            "type": "ELSE_CONDITION",
            "conditions": [],
            "criteria": "all"
        }, {
            "id": "customcode_onClick_20636201224765962",
            "type": "INVOKE_FUNCTION",
            "sequenceKUID": "selctedTopUpBiller",
            "display": "selctedTopUpBiller",
            "inputparams": [],
            "parentId": "decision_onClick_43380201224763862",
            "source": "module"
        }, {
            "id": "customcode_onClick_9924201224767733",
            "type": "INVOKE_FUNCTION",
            "sequenceKUID": "selctedTopUpBiller",
            "display": "selctedTopUpBiller",
            "inputparams": [],
            "parentId": "decision_onClick_18325201224763091",
            "source": "module"
        }]
    }
}