{
    "p2kwiet2012247633925_button47497021216176_onClick_seq0": {
        "id": "p2kwiet2012247633925_button47497021216176_onClick_seq0",
        "type": "ACTION_SEQUENCE",
        "params": [{
            "name": "eventobject",
            "value": "eventobject"
        }],
        "language": "js",
        "actions": [{
            "id": "expression_onClick_28588201224766101",
            "type": "ADD_SNIPPET",
            "codeSnippet": "TMBUtil.DestroyForm(frmCMChgAccessPin);\n gblChangePWDFlag = 0;\n //getHeader(mobileMethod, \"Change Password\" , 0,0,0);\n \n \n //frmAccTrcPwdInter.show();\n "
        }, {
            "id": "expression_onClick_34889201224768162",
            "type": "ADD_SNIPPET",
            "codeSnippet": "editbuttonflag=\"pin\";\n "
        }, {
            "id": "customcode_onClick_28479201224762211",
            "type": "INVOKE_FUNCTION",
            "sequenceKUID": "getIBMBEditProfileStatus",
            "display": "getIBMBEditProfileStatus",
            "inputparams": [],
            "source": "module"
        }]
    }
}