{
    "p2kwiet2012247636606_btnOpenProdContinue_onClick_seq0": {
        "id": "p2kwiet2012247636606_btnOpenProdContinue_onClick_seq0",
        "type": "ACTION_SEQUENCE",
        "params": [{
            "name": "eventobject",
            "value": "eventobject"
        }],
        "language": "js",
        "actions": [{
            "id": "customcode_onClick_8437201224768718",
            "type": "INVOKE_FUNCTION",
            "sequenceKUID": "loadTermsNConditionOpenAccountMB",
            "display": "loadTermsNConditionOpenAccountMB",
            "inputparams": [],
            "source": "module"
        }]
    }
}