{
    "p2kwiet2012247650308_buttonConfirm_onClick_seq0": {
        "id": "p2kwiet2012247650308_buttonConfirm_onClick_seq0",
        "type": "ACTION_SEQUENCE",
        "params": [{
            "name": "eventobject",
            "value": "eventobject"
        }],
        "language": "js",
        "actions": [{
            "id": "expression_onClick_2628520122476754",
            "type": "ADD_SNIPPET",
            "codeSnippet": "popupFTdel.dismiss();\n gblFtDelMB = true;"
        }, {
            "id": "customcode_onClick_32377201224762662",
            "type": "INVOKE_FUNCTION",
            "sequenceKUID": "srvFutureTransferDeleteMB",
            "display": "srvFutureTransferDeleteMB",
            "inputparams": [],
            "source": "module"
        }]
    }
}