{
    "p2kwiet2012247631989_flexEmail_onTouchEnd_seq0": {
        "id": "p2kwiet2012247631989_flexEmail_onTouchEnd_seq0",
        "type": "ACTION_SEQUENCE",
        "params": [{
            "name": "eventobject",
            "value": "eventobject"
        }, {
            "name": "x",
            "value": "x"
        }, {
            "name": "y",
            "value": "y"
        }, {
            "name": "contextInfo",
            "value": "contextInfo"
        }],
        "language": "js",
        "actions": [{
            "id": "expression_onTouchEnd_54756201224768171",
            "type": "ADD_SNIPPET",
            "codeSnippet": "frmMBNewTnC.flexEmail.skin=\"flexWhiteBG\";\n frmMBNewTnC.buttonEmail.skin=\"btnEmailSC\""
        }, {
            "id": "customcode_onTouchEnd_83266201224768328",
            "type": "INVOKE_FUNCTION",
            "sequenceKUID": "onClickBtnEmailFrmMBNewTnC",
            "display": "onClickBtnEmailFrmMBNewTnC",
            "inputparams": [],
            "source": "module"
        }]
    }
}