{
    "p2kwiet2012247636763_btnDreamSavecombo_onClick_seq0": {
        "id": "p2kwiet2012247636763_btnDreamSavecombo_onClick_seq0",
        "type": "ACTION_SEQUENCE",
        "params": [{
            "name": "eventobject",
            "value": "eventobject"
        }],
        "language": "js",
        "actions": [{
            "id": "customcode_onClick_93194201224765472",
            "type": "INVOKE_FUNCTION",
            "sequenceKUID": "showDateDreamSav",
            "display": "showDateDreamSav",
            "inputparams": [],
            "source": "module"
        }]
    }
}