{
    "p2kwiet2012247637405_frmTranfersToRecipents_postshow_seq0": {
        "id": "p2kwiet2012247637405_frmTranfersToRecipents_postshow_seq0",
        "type": "ACTION_SEQUENCE",
        "params": [{
            "name": "eventobject",
            "value": "eventobject"
        }, {
            "name": "neworientation",
            "value": "neworientation"
        }],
        "language": "js",
        "actions": [{
            "id": "customcode_postshow_57509201224765283",
            "type": "INVOKE_FUNCTION",
            "sequenceKUID": "frmTranfersToRecipentsMenuPostshow",
            "display": "frmTranfersToRecipentsMenuPostshow",
            "inputparams": [],
            "source": "module"
        }]
    }
}