{
    "p2kwiet2012247634505_button47428498625_onClick_seq0": {
        "id": "p2kwiet2012247634505_button47428498625_onClick_seq0",
        "type": "ACTION_SEQUENCE",
        "params": [{
            "name": "eventobject",
            "value": "eventobject"
        }],
        "language": "js",
        "actions": [{
            "id": "customcode_onClick_1775201224769959",
            "type": "INVOKE_FUNCTION",
            "sequenceKUID": "checkNoOfRecipientsMax",
            "display": "checkNoOfRecipientsMax",
            "inputparams": [{
                "name": "eventobject",
                "value": "eventobject"
            }],
            "source": "module"
        }, {
            "id": "expression_onClick_62767201224768869",
            "type": "ADD_SNIPPET",
            "codeSnippet": "gblAddMoreRcTrack = 0;"
        }]
    }
}