{
    "p2kwiet2012247630865_frmMBChangePinSuccess_preshow_seq0": {
        "id": "p2kwiet2012247630865_frmMBChangePinSuccess_preshow_seq0",
        "type": "ACTION_SEQUENCE",
        "params": [{
            "name": "eventobject",
            "value": "eventobject"
        }],
        "language": "js",
        "actions": [{
            "id": "customcode_preshow_718552012247698",
            "type": "INVOKE_FUNCTION",
            "sequenceKUID": "frmMBChangePinSuccessMenuPreshow",
            "display": "frmMBChangePinSuccessMenuPreshow",
            "inputparams": [],
            "source": "module"
        }]
    }
}