{
    "p2kwiet2012247628742_frmDreamCalculator_WinPhone8_onDeviceBack_seq0": {
        "id": "p2kwiet2012247628742_frmDreamCalculator_WinPhone8_onDeviceBack_seq0",
        "type": "ACTION_SEQUENCE",
        "params": [{
            "name": "eventobject",
            "value": "eventobject"
        }, {
            "name": "neworientation",
            "value": "neworientation"
        }],
        "language": "js",
        "actions": [{
            "id": "customcode_onDeviceBack_56993201224761460",
            "type": "INVOKE_FUNCTION",
            "sequenceKUID": "dummy",
            "display": "dummy",
            "inputparams": [],
            "source": "module"
        }]
    }
}