{
    "p2kwiet2012247626899_btnInternetBankingNext_onClick_seq0": {
        "id": "p2kwiet2012247626899_btnInternetBankingNext_onClick_seq0",
        "type": "ACTION_SEQUENCE",
        "params": [{
            "name": "eventobject",
            "value": "eventobject"
        }],
        "language": "js",
        "actions": [{
            "id": "decision_onClick_75147201224768231",
            "type": "IF_CONDITION",
            "conditions": [{
                "leftValueType": "expression",
                "leftValue": "isMenuShown==false"
            }],
            "criteria": "all"
        }, {
            "id": "decision_onClick_75000201224765473",
            "type": "ELSE_CONDITION",
            "conditions": [],
            "criteria": "all"
        }, {
            "id": "customcode_onClick_96893201224769917",
            "type": "INVOKE_FUNCTION",
            "sequenceKUID": "onClickNext",
            "display": "onClickNext",
            "inputparams": [],
            "parentId": "decision_onClick_75147201224768231",
            "source": "module"
        }, {
            "id": "expression_onClick_86902201224763949",
            "type": "ADD_SNIPPET",
            "codeSnippet": "frmApplyInternetBankingMB.scrollboxMain.scrollToEnd();",
            "parentId": "decision_onClick_75000201224765473"
        }]
    }
}