{
    "p2kwiet2012247630369_hbxAtmPinConfirm_onClick_seq0": {
        "id": "p2kwiet2012247630369_hbxAtmPinConfirm_onClick_seq0",
        "type": "ACTION_SEQUENCE",
        "params": [{
            "name": "eventobject",
            "value": "eventobject"
        }],
        "language": "js",
        "actions": [{
            "id": "expression_onClick_97581201224763516",
            "type": "ADD_SNIPPET",
            "codeSnippet": "frmMBAssignAtmPin.txtAtmPinComfirm.setFocus(true);"
        }]
    }
}