{
    "p2kwiet2012247650293_buttonCancel_onClick_seq0": {
        "id": "p2kwiet2012247650293_buttonCancel_onClick_seq0",
        "type": "ACTION_SEQUENCE",
        "params": [{
            "name": "eventobject",
            "value": "eventobject"
        }],
        "language": "js",
        "actions": [{
            "id": "expression_onClick_46480201224763809",
            "type": "ADD_SNIPPET",
            "codeSnippet": "popupEditBPDele.dismiss();"
        }]
    }
}