{
    "p2kwiet2012247629833_txtIDPass_iPhone_onBeginEditing_seq0": {
        "id": "p2kwiet2012247629833_txtIDPass_iPhone_onBeginEditing_seq0",
        "type": "ACTION_SEQUENCE",
        "params": [{
            "name": "eventobject",
            "value": "eventobject"
        }, {
            "name": "changedtext",
            "value": "changedtext"
        }],
        "language": "js",
        "actions": [{
            "id": "customcode_onBeginEditing_65660201224765127",
            "type": "INVOKE_FUNCTION",
            "sequenceKUID": "onBeginEditOfCIorPPInActivationUsingActiCode",
            "display": "onBeginEditOfCIorPPInActivationUsingActiCode",
            "inputparams": [],
            "source": "module"
        }]
    }
}