{
    "p2kwiet2012247637673_txtTranLandAmt_iPhone_onBeginEditing_seq0": {
        "id": "p2kwiet2012247637673_txtTranLandAmt_iPhone_onBeginEditing_seq0",
        "type": "ACTION_SEQUENCE",
        "params": [{
            "name": "eventobject",
            "value": "eventobject"
        }, {
            "name": "changedtext",
            "value": "changedtext"
        }],
        "language": "js",
        "actions": [{
            "id": "customcode_onBeginEditing_18619201224768300",
            "type": "INVOKE_FUNCTION",
            "sequenceKUID": "transAmountOnClickMB",
            "display": "transAmountOnClickMB",
            "inputparams": [],
            "source": "module"
        }]
    }
}