{
    "p2kwiet2012247632758_frmMBSavingsCareConfirmation_postshow_seq0": {
        "id": "p2kwiet2012247632758_frmMBSavingsCareConfirmation_postshow_seq0",
        "type": "ACTION_SEQUENCE",
        "params": [{
            "name": "eventobject",
            "value": "eventobject"
        }],
        "language": "js",
        "actions": [{
            "id": "customcode_postshow_48918201224766975",
            "type": "INVOKE_FUNCTION",
            "sequenceKUID": "frmMBSavingsCareConfirmationMenuPostshow",
            "display": "frmMBSavingsCareConfirmationMenuPostshow",
            "inputparams": [],
            "source": "module"
        }]
    }
}