{
    "p2kwiet2012247630266_button1495287783233618_onClick_seq0": {
        "id": "p2kwiet2012247630266_button1495287783233618_onClick_seq0",
        "type": "ACTION_SEQUENCE",
        "params": [{
            "name": "eventobject",
            "value": "eventobject"
        }],
        "language": "js",
        "actions": [{
            "id": "customcode_onClick_6733201224761515",
            "type": "INVOKE_FUNCTION",
            "sequenceKUID": "assignATMPINRenderMB",
            "display": "assignATMPINRenderMB",
            "inputparams": [{
                "name": "pin",
                "value": "eventobject[\"text\"]"
            }],
            "source": "module"
        }]
    }
}