{
    "p2kwiet2012247634132_btnCancelSpa_onClick_seq0": {
        "id": "p2kwiet2012247634132_btnCancelSpa_onClick_seq0",
        "type": "ACTION_SEQUENCE",
        "params": [{
            "name": "eventobject",
            "value": "eventobject"
        }],
        "language": "js",
        "actions": [{
            "id": "decision_onClick_57605201224769571",
            "type": "IF_CONDITION",
            "conditions": [{
                "leftValueType": "expression",
                "leftValue": "recipientAddFromTransfer"
            }],
            "criteria": "all"
        }, {
            "id": "decision_onClick_74102201224766931",
            "type": "ELSE_CONDITION",
            "conditions": [],
            "criteria": "all"
        }, {
            "id": "navigation_onClick_40620201224768242",
            "type": "NAVIGATE_TO_FORM",
            "formId": "frmTransferLanding",
            "formKUID": "p2kwiet2012247637673",
            "mappings": {},
            "mappingsOrder": [],
            "parentId": "decision_onClick_57605201224769571",
            "enableMappingEditor": true,
            "package": ""
        }, {
            "id": "expression_onClick_19794201224768534",
            "type": "ADD_SNIPPET",
            "codeSnippet": "AddAccountList.length=0;\n isChMyRecipientsRs = false;",
            "parentId": "decision_onClick_74102201224766931"
        }, {
            "id": "navigation_onClick_744132012247680",
            "type": "NAVIGATE_TO_FORM",
            "formId": "frmMyRecipients",
            "formKUID": "p2kwiet2012247634505",
            "mappings": {},
            "mappingsOrder": [],
            "parentId": "decision_onClick_74102201224766931",
            "enableMappingEditor": true,
            "package": ""
        }]
    }
}