{
    "p2kwiet2012247637191_button96913044063342_onClick_seq0": {
        "id": "p2kwiet2012247637191_button96913044063342_onClick_seq0",
        "type": "ACTION_SEQUENCE",
        "params": [{
            "name": "eventobject",
            "value": "eventobject"
        }],
        "language": "js",
        "actions": [{
            "id": "expression_onClick_301201224765899",
            "type": "ADD_SNIPPET",
            "codeSnippet": "gblCCDBCardFlow= \"DEBIT_CARD_REISSUE\";\n success = false;\n "
        }, {
            "id": "customcode_onClick_80022201224761831",
            "type": "INVOKE_FUNCTION",
            "sequenceKUID": "navigateforCard",
            "display": "navigateforCard",
            "inputparams": [],
            "source": "module"
        }]
    }
}