{
    "p2kwiet2012247633176_btnNext_onClick_seq0": {
        "id": "p2kwiet2012247633176_btnNext_onClick_seq0",
        "type": "ACTION_SEQUENCE",
        "params": [{
            "name": "eventobject",
            "value": "eventobject"
        }],
        "language": "js",
        "actions": [{
            "id": "customcode_onClick_67213201224766837",
            "type": "INVOKE_FUNCTION",
            "sequenceKUID": "onClickOfApplySogooodPlan",
            "display": "onClickOfApplySogooodPlan",
            "inputparams": [],
            "source": "module"
        }]
    }
}