{
    "p2kwiet2012247630915_button363582120225207_onClick_seq0": {
        "id": "p2kwiet2012247630915_button363582120225207_onClick_seq0",
        "type": "ACTION_SEQUENCE",
        "params": [{
            "name": "eventobject",
            "value": "eventobject"
        }],
        "language": "js",
        "actions": [{
            "id": "customcode_onClick_32342201224769833",
            "type": "INVOKE_FUNCTION",
            "sequenceKUID": "verifyPinRenderMB",
            "display": "verifyPinRenderMB",
            "inputparams": [{
                "name": "pin",
                "value": "eventobject[\"text\"]"
            }],
            "source": "module"
        }]
    }
}