{
    "p2kwiet2012247634373_txtAccountNickName_SPA_onEndEditing_seq0": {
        "id": "p2kwiet2012247634373_txtAccountNickName_SPA_onEndEditing_seq0",
        "type": "ACTION_SEQUENCE",
        "params": [{
            "name": "eventobject",
            "value": "eventobject"
        }, {
            "name": "changedtext",
            "value": "changedtext"
        }],
        "language": "js",
        "actions": [{
            "id": "expression_onEndEditing_43853201224762451",
            "type": "ADD_SNIPPET",
            "codeSnippet": "frmMyRecipientEditAccount.txtAccountNickName.skin=\"tbxPopupBlue\";"
        }]
    }
}