{
    "p2kwiet2012247631967_btnMonthSpa_onClick_seq0": {
        "id": "p2kwiet2012247631967_btnMonthSpa_onClick_seq0",
        "type": "ACTION_SEQUENCE",
        "params": [{
            "name": "eventobject",
            "value": "eventobject"
        }],
        "language": "js",
        "actions": [{
            "id": "customcode_onClick_89094201224769430",
            "type": "INVOKE_FUNCTION",
            "sequenceKUID": "calendarShowMonthViewMB",
            "display": "calendarShowMonthViewMB",
            "inputparams": [],
            "source": "module"
        }]
    }
}