{
    "p2kwiet2012247630209_btnBack_onClick_seq0": {
        "id": "p2kwiet2012247630209_btnBack_onClick_seq0",
        "type": "ACTION_SEQUENCE",
        "params": [{
            "name": "eventobject",
            "value": "eventobject"
        }],
        "language": "js",
        "actions": [{
            "id": "navigation_onClick_8968120122476194",
            "type": "NAVIGATE_TO_FORM",
            "formId": "frmAccountDetailsMB",
            "formKUID": "p2kwiet2012247626342",
            "mappings": {},
            "mappingsOrder": [],
            "parentId": "",
            "enableMappingEditor": true,
            "package": ""
        }]
    }
}