{
    "p2kwiet15245716321515_frmBillPaymentCompleteCalendar_postshow_seq0": {
        "id": "p2kwiet15245716321515_frmBillPaymentCompleteCalendar_postshow_seq0",
        "type": "ACTION_SEQUENCE",
        "params": [{
            "name": "eventobject",
            "value": "eventobject"
        }, {
            "name": "neworientation",
            "value": "neworientation"
        }],
        "language": "js",
        "actions": [{
            "id": "customcode_postshow_758415245716326031",
            "type": "INVOKE_FUNCTION",
            "sequenceKUID": "frmBillPaymentCompleteCalendarMenuPostshow",
            "display": "frmBillPaymentCompleteCalendarMenuPostshow",
            "inputparams": [],
            "source": "module"
        }]
    }
}