{
    "p2kwiet2012247634934_btnAgree_onClick_seq0": {
        "id": "p2kwiet2012247634934_btnAgree_onClick_seq0",
        "type": "ACTION_SEQUENCE",
        "params": [{
            "name": "eventobject",
            "value": "eventobject"
        }],
        "language": "js",
        "actions": [{
            "id": "expression_onClick_22848201224763267",
            "type": "ADD_SNIPPET",
            "codeSnippet": "TMBUtil.DestroyForm(frmAddTopUpBillerconfrmtn);\n \n if(addAnotherValidValue < kony.os.toNumber(GLOBAL_MAX_BILL_COUNT))\n kony.print(\"addAnotherValidValue TRUE ------\"+ addAnotherValidValue);\n else\n kony.print(\"addAnotherValidValue FALSE------\"+ addAnotherValidValue);"
        }, {
            "id": "decision_onClick_68174201224769915",
            "type": "IF_CONDITION",
            "conditions": [{
                "leftValueType": "expression",
                "leftValue": "addAnotherValidValue < kony.os.toNumber(GLOBAL_MAX_BILL_COUNT) "
            }],
            "criteria": "all"
        }, {
            "id": "decision_onClick_93561201224761226",
            "type": "ELSE_CONDITION",
            "conditions": [],
            "criteria": "all"
        }, {
            "id": "expression_onClick_86632201224768460",
            "type": "ADD_SNIPPET",
            "codeSnippet": "frmAddTopUpToMB.imgAddedBiller.src = \"\";\n frmAddTopUpToMB.lblAddbillerName.text=\"\";\n frmAddTopUpToMB.lblAddedRef1.text = kony.i18n.getLocalizedString(\"keyRef1\");\n frmAddTopUpToMB.lblAddedRef2.text = kony.i18n.getLocalizedString(\"keyRef2\");\n frmAddTopUpToMB.show();",
            "parentId": "decision_onClick_68174201224769915"
        }, {
            "id": "alert_onClick_901201224762553",
            "type": "SHOW_ALERT",
            "alertType": "constants.ALERT_TYPE_ERROR",
            "alertTitle": "",
            "yesLabel": "Ok",
            "noLabel": "No",
            "alertMessage": "kony.i18n.getLocalizedString(\"Valid_MoreThan50\")",
            "messageType": "expression",
            "parentId": "decision_onClick_93561201224761226",
            "alertTitlei18n": "",
            "yesLabeli18n": "",
            "noLabeli18n": "",
            "alertMessagei18n": "",
            "iconPosition": "constants.ALERT_ICON_POSITION_LEFT"
        }]
    }
}