{
    "p2kwiet2012247629606_frmMBActiConfirm_init_seq0": {
        "id": "p2kwiet2012247629606_frmMBActiConfirm_init_seq0",
        "type": "ACTION_SEQUENCE",
        "params": [{
            "name": "eventobject",
            "value": "eventobject"
        }, {
            "name": "neworientation",
            "value": "neworientation"
        }],
        "language": "js",
        "actions": [{
            "id": "expression_init_70489201224761058",
            "type": "ADD_SNIPPET",
            "codeSnippet": "if(flowSpa)\n {\n frmMBActiConfirm.lblAccNoVal.text = frmMBActivation.txtAccountNumberspa.text;\n }\n else\n {\n frmMBActiConfirm.lblAccNoVal.text = frmMBActivation.txtAccountNumber.text;\n }\n frmMBActiConfirm.lblIDNoVal.text = frmMBActivation.txtIDPass.text;"
        }]
    }
}