{
    "p2kwiet2012247627099_btnBrch_onClick_seq0": {
        "id": "p2kwiet2012247627099_btnBrch_onClick_seq0",
        "type": "ACTION_SEQUENCE",
        "params": [{
            "name": "eventobject",
            "value": "eventobject"
        }],
        "language": "js",
        "actions": [{
            "id": "customcode_onClick_607201224767776",
            "type": "INVOKE_FUNCTION",
            "sequenceKUID": "onClickBranch",
            "display": "onClickBranch",
            "inputparams": [],
            "source": "module"
        }]
    }
}