{
    "p2kwiet2012247628706_button506459299445013_onClick_seq0": {
        "id": "p2kwiet2012247628706_button506459299445013_onClick_seq0",
        "type": "ACTION_SEQUENCE",
        "params": [{
            "name": "eventobject",
            "value": "eventobject"
        }],
        "language": "js",
        "actions": [{
            "id": "customcode_onClick_83538201224766347",
            "type": "INVOKE_FUNCTION",
            "sequenceKUID": "showFeedbackPage",
            "display": "showFeedbackPage",
            "inputparams": [{
                "name": "eo",
                "value": "eventobject"
            }],
            "source": "module"
        }]
    }
}