{
    "AS_Button_j9468d6e8b8043548f41d6f30f35e5af": {
        "id": "AS_Button_j9468d6e8b8043548f41d6f30f35e5af",
        "type": "ACTION_SEQUENCE",
        "name": "popDelImageUpload_Click_CancelDelete",
        "params": [{
            "datatype": "collection",
            "name": "eventobject"
        }],
        "contextObj": {
            "name": "popDelImageUpload",
            "type": "popups",
            "platform": null,
            "KUID": "hbb099ca2f0e443fbf67d5b2031b06a8"
        },
        "language": "js",
        "actions": [{
            "id": "INVOKE_FUNCTION___e536a10668aa48829270a8dd5354d2bb",
            "type": "INVOKE_FUNCTION",
            "sequenceKUID": "frmUploadManyFile_PopupClose_Action",
            "display": "frmUploadManyFile_PopupClose_Action",
            "inputparams": [],
            "parentId": null,
            "callbackType": null,
            "disabled": null,
            "source": "module"
        }]
    }
}