{
    "TMBpreappinit": {
        "id": "TMBpreappinit",
        "type": "ACTION_SEQUENCE",
        "params": [{
            "name": "params",
            "value": "params"
        }],
        "language": "js",
        "actions": [{
            "id": "ADD_SNIPPET__eb214056c8134f4e801d76c60103a1ec",
            "type": "ADD_SNIPPET",
            "codeSnippet": "    try {\n        kony.modules.loadFunctionalModule(\"preTemplates\");\n        kony.modules.loadFunctionalModule(\"preLoginModules\");\n      \tkony.modules.loadFunctionalModule(\"cardlessModule\");\n        \n    } catch (err) {\n        kony.print(\"Error loading functional modules\");\n    }\n",
            "parentId": null,
            "callbackType": null
        }, {
            "id": "customcode_preappinit_3614201224764158",
            "type": "INVOKE_FUNCTION",
            "sequenceKUID": "defineTMBGlobals",
            "display": "defineTMBGlobals",
            "inputparams": [],
            "source": "module"
        }, {
            "id": "ADD_SNIPPET__i4c276e08d5f48929fdbd130b7354e1d",
            "type": "ADD_SNIPPET",
            "codeSnippet": "preLoginLocaleSet();\nsetAppErrorHandler();\ninitializeMFSDK();\n\n",
            "parentId": null,
            "callbackType": null
        }]
    }
}