{
    "AS_TextField_c948ac8e490b48378f3a7edd9767893b": {
        "id": "AS_TextField_c948ac8e490b48378f3a7edd9767893b",
        "type": "ACTION_SEQUENCE",
        "name": "txtOnDoneEditBillPay",
        "params": [{
            "datatype": "collection",
            "name": "eventobject"
        }, {
            "datatype": "string",
            "name": "changedtext"
        }],
        "contextObj": {
            "name": "frmBillPaymentEditFutureNew",
            "type": "forms",
            "platform": "",
            "KUID": "e56a4bc3f5d94750a3b4bdd0bbf51526"
        },
        "language": "js",
        "actions": [{
            "id": "INVOKE_FUNCTION___fe2454f5a375458fbe3168c43594d9a2",
            "type": "INVOKE_FUNCTION",
            "sequenceKUID": "onDoneEditingBillPaymentOnDone",
            "display": "onDoneEditingBillPaymentOnDone",
            "inputparams": [],
            "parentId": null,
            "callbackType": null,
            "disabled": null,
            "source": "module"
        }]
    }
}