{
    "DNDConfig": null,
    "_enabled_": false,
    "_margin_": [
        0,
        0,
        0,
        0
    ],
    "_padding_": [
        0,
        3,
        0,
        3
    ],
    "_skin_": "s22bf955228241c5ad5889b9f8600be3",
    "_text_": "Details",
    "android": {
        "@class": "com.kony.gen.viz.model.component.property.button.AndroidButtonProperty",
        "_margin_": [
            20,
            0,
            0,
            0
        ],
        "_padding_": [
            0,
            0,
            0,
            0
        ],
        "displayText": true,
        "margin": [
            20,
            0,
            0,
            0
        ],
        "marginInPixel": false,
        "padding": [
            0,
            0,
            0,
            0
        ],
        "paddingInPixel": false,
        "render": false
    },
    "canUpdateUI": true,
    "containerweight": 50,
    "contentalignment": 5,
    "displaytext": true,
    "focusskin": "s22bf955228241c5ad5889b9f8600be3",
    "hexpand": true,
    "id": "btnDetls",
    "ide_onClick": "p2kwiet2012247652415_btnDetls_onClick_seq0",
    "info": null,
    "iphone": {
        "@class": "com.kony.gen.viz.model.component.property.button.IPhoneButtonProperty",
        "_margin_": [
            2,
            0,
            0,
            0
        ],
        "_padding_": [
            0,
            0,
            0,
            0
        ],
        "displayText": true,
        "margin": [
            2,
            0,
            0,
            0
        ],
        "marginInPixel": true,
        "padding": [
            0,
            0,
            0,
            0
        ],
        "paddingInPixel": false,
        "psp": {
            "glowEffect": false
        },
        "render": true
    },
    "isvisible": true,
    "kuid": "p2kwiet2012247652409",
    "margininpixel": false,
    "name": "kony.ui.Button",
    "paddinginpixel": false,
    "parent": "hbox451018089185752",
    "pf": "findTMBTemplate",
    "spa": {
        "@class": "com.kony.gen.viz.model.component.property.button.SPAButtonProperty",
        "displayText": true
    },
    "spaan": {
        "@class": "com.kony.gen.viz.model.component.property.button.SPAAndroidButtonProperty",
        "_margin_": [
            3,
            0,
            0,
            0
        ],
        "_padding_": [
            2,
            2,
            2,
            2
        ],
        "margin": [
            3,
            0,
            0,
            0
        ],
        "marginInPixel": false,
        "padding": [
            2,
            2,
            2,
            2
        ],
        "paddingInPixel": false,
        "render": true
    },
    "spabb": {
        "@class": "com.kony.gen.viz.model.component.property.button.SPABBButtonProperty",
        "_margin_": [
            3,
            0,
            0,
            0
        ],
        "_padding_": [
            2,
            2,
            2,
            2
        ],
        "margin": [
            3,
            0,
            0,
            0
        ],
        "marginInPixel": false,
        "padding": [
            2,
            2,
            2,
            2
        ],
        "paddingInPixel": false,
        "render": true
    },
    "spaip": {
        "@class": "com.kony.gen.viz.model.component.property.button.SPAIPhoneButtonProperty",
        "_margin_": [
            3,
            0,
            0,
            0
        ],
        "_padding_": [
            2,
            2,
            2,
            2
        ],
        "margin": [
            3,
            0,
            0,
            0
        ],
        "marginInPixel": false,
        "padding": [
            2,
            2,
            2,
            2
        ],
        "paddingInPixel": false,
        "render": true
    },
    "spawinphone8": {
        "@class": "com.kony.gen.viz.model.component.property.button.SPAWinPhone8ButtonProperty",
        "_margin_": [
            3,
            0,
            0,
            0
        ],
        "_padding_": [
            2,
            2,
            2,
            2
        ],
        "margin": [
            3,
            0,
            0,
            0
        ],
        "marginInPixel": false,
        "padding": [
            2,
            2,
            2,
            2
        ],
        "paddingInPixel": false,
        "render": true
    },
    "texti18n": "FindTMB_Details",
    "vexpand": false,
    "wType": "Button",
    "widgetalignment": 5,
    "winphone8": {
        "@class": "com.kony.gen.viz.model.component.property.button.WinPhone8ButtonProperty",
        "_margin_": [
            0,
            0,
            0,
            0
        ],
        "_padding_": [
            0,
            0,
            0,
            0
        ],
        "displayText": true,
        "margin": [
            0,
            0,
            0,
            0
        ],
        "marginInPixel": true,
        "padding": [
            0,
            0,
            0,
            0
        ],
        "paddingInPixel": false,
        "psp": {
            "enableCache": false
        },
        "render": true
    }
}