{
    "DNDConfig": null,
    "__parentReadjusting__": false,
    "_height_": {
        "type": "string",
        "value": "78.0%"
    },
    "_left_": {
        "type": "string",
        "value": "0dp"
    },
    "_margin_": [
        0,
        0,
        0,
        0
    ],
    "_padding_": [
        0,
        0,
        0,
        0
    ],
    "_skin_": "s3373e093be344b7b20626b3a149af8a",
    "_top_": {
        "type": "string",
        "value": "10.0%"
    },
    "_width_": {
        "type": "string",
        "value": "100%"
    },
    "allboxes": [],
    "allowhorizontalbounce": false,
    "allowverticalbounce": false,
    "android": {
        "@class": "com.kony.gen.viz.model.container.property.scrollflexcontainer.AndroidScrollFlexContainerProperty",
        "render": true
    },
    "bounces": false,
    "canUpdateUI": true,
    "children": [
        "flxAmount",
        "flxLine1",
        "CopyflxAmount0a9be84b3f66c43",
        "flxLine2",
        "flxBenifDetailsHeadings",
        "flxBenefDesc"
    ],
    "containerweight": 100,
    "contentoffset": {},
    "contentsize": {},
    "defaultunit": 2,
    "enablescrolling": true,
    "horizontalscrollindicator": true,
    "id": "flexBodyScroll",
    "iphone": {
        "@class": "com.kony.gen.viz.model.container.property.scrollflexcontainer.IPhoneScrollFlexContainerProperty",
        "psp": {
            "bouncesZoom": true,
            "maxZoomScale": 1,
            "minZoomScale": 1,
            "zoomScale": 1
        },
        "render": true
    },
    "isvisible": true,
    "kuid": "p2kwiet2012247632649",
    "layouttype": 4,
    "margininpixel": false,
    "name": "kony.ui.FlexScrollContainer",
    "paddinginpixel": false,
    "pagingenabled": false,
    "parent": "flxFullBody",
    "pf": "frmMBSavingsCareAddNickName",
    "scrolldirection": 2,
    "spa": {
        "@class": "com.kony.gen.viz.model.container.property.scrollflexcontainer.SPAScrollFlexContainerProperty"
    },
    "spaan": {
        "@class": "com.kony.gen.viz.model.container.property.scrollflexcontainer.SPAAndroidScrollFlexContainerProperty",
        "render": true
    },
    "spabb": {
        "@class": "com.kony.gen.viz.model.container.property.scrollflexcontainer.SPABBScrollFlexContainerProperty",
        "render": false
    },
    "spaip": {
        "@class": "com.kony.gen.viz.model.container.property.scrollflexcontainer.SPAIPhoneScrollFlexContainerProperty",
        "render": true
    },
    "spawinphone8": {
        "@class": "com.kony.gen.viz.model.container.property.scrollflexcontainer.SPAWinPhone8ScrollFlexContainerProperty",
        "render": true
    },
    "verticalscrollindicator": true,
    "wType": "FlexScrollContainer",
    "widgetalignment": 1,
    "winphone8": {
        "@class": "com.kony.gen.viz.model.container.property.scrollflexcontainer.WinPhone8ScrollFlexContainerProperty",
        "psp": {
            "enableCache": false
        },
        "render": true
    },
    "zindex": 1
}