{
    "@class": "com.kony.gen.viz.model.component.KVizLabel",
    "DNDConfig": null,
    "__parentReadjusting__": false,
    "_height_": {
        "type": "string",
        "value": "100%"
    },
    "_left_": {
        "type": "string",
        "value": "1%"
    },
    "_margin_": [
        1,
        1,
        1,
        1
    ],
    "_padding_": [
        0,
        0,
        0,
        0
    ],
    "_skin_": "s8be4d7fbb114206ae8a5ed8f34d1d36",
    "_text_": "11.24",
    "_top_": {
        "type": "string",
        "value": "0%"
    },
    "_width_": {
        "type": "string",
        "value": "10%"
    },
    "_wrapping_": 2,
    "android": {
        "textStyle": {
            "letterSpacing": 0,
            "strikeThrough": false
        }
    },
    "canUpdateUI": true,
    "centery": {
        "type": "string",
        "value": "57%"
    },
    "containerweight": 100,
    "contentalignment": 6,
    "id": "CopylblTime0d116734baf2544",
    "info": null,
    "ipad": {
        "psp": {
            "wrapping": 2
        }
    },
    "iphone": {
        "psp": {
            "wrapping": 2
        }
    },
    "isvisible": true,
    "kuid": "c8d1b6c6f74e4ec2854eefc7fe5448bf",
    "name": "kony.ui.Label",
    "parent": "CopyflexTransTime0ed54d0d2fb2f4b",
    "pf": "frmUVRequestHistory",
    "tooltip": "",
    "wType": "Label",
    "zindex": 1
}