{
    "DNDConfig": null,
    "__parentReadjusting__": false,
    "_height_": {
        "type": "string",
        "value": "100%"
    },
    "_left_": {
        "type": "string",
        "value": "0%"
    },
    "_margin_": [
        0,
        0,
        0,
        0
    ],
    "_orientation_": 6,
    "_padding_": [
        0,
        0,
        0,
        0
    ],
    "_percent_": true,
    "_skin_": "s918d2c198cc4b1b99c1a0fe1f4e0370",
    "_top_": {
        "type": "string",
        "value": "10%"
    },
    "_width_": {
        "type": "string",
        "value": "85%"
    },
    "allboxes": [],
    "autogrowmode": 0,
    "canUpdateUI": true,
    "children": [
        "CopyimgATM0g9b8c00cbe3945",
        "CopylblSource0gfb5fcbd8deb41",
        "CopylblSourceDesc0de9c458ab65347",
        "CopylblSourceDesc0e3231b60e99b4e"
    ],
    "clipbounds": true,
    "containerweight": 100,
    "enablescrolling": true,
    "id": "CopyflexDate0b7035b46412049",
    "info": null,
    "isvisible": true,
    "kuid": "j88038b65abd47b78a968885487496f0",
    "layouttype": 3,
    "name": "kony.ui.FlexContainer",
    "parent": "CopyflexTransTime0ed54d0d2fb2f4b",
    "pf": "frmUVRequestHistory",
    "snapgridsize": 10,
    "snaptogrid": true,
    "wType": "FlexContainer",
    "widgetalignment": 1,
    "zindex": 1
}