{
    "DNDConfig": null,
    "__parentReadjusting__": false,
    "_height_": {
        "type": "string",
        "value": "5%"
    },
    "_left_": {
        "type": "string",
        "value": "0%"
    },
    "_margin_": [
        0,
        0,
        0,
        0
    ],
    "_orientation_": 6,
    "_padding_": [
        0,
        0,
        0,
        0
    ],
    "_percent_": true,
    "_skin_": "s60a3bb5747a4dc397ce5a463c4eba92",
    "_top_": {
        "type": "string",
        "value": "0%"
    },
    "_width_": {
        "type": "string",
        "value": "100%"
    },
    "allboxes": [],
    "autogrowmode": 0,
    "canUpdateUI": true,
    "children": [
        "lblDetailDateDesc"
    ],
    "clipbounds": true,
    "containerweight": 100,
    "enablescrolling": true,
    "focusskin": "s60d3e7f3fb544ea96258083be54ed7b",
    "id": "FlexDetaildate",
    "info": null,
    "isvisible": true,
    "kuid": "ecbaccdd43a94285a3b79cf69133d62e",
    "layouttype": 2,
    "name": "kony.ui.FlexContainer",
    "parent": "flexBody",
    "pf": "frmUVRequestHistory",
    "snapgridsize": 10,
    "snaptogrid": true,
    "wType": "FlexContainer",
    "widgetalignment": 1,
    "zindex": 1
}