{
    "DNDConfig": null,
    "__parentReadjusting__": false,
    "_height_": {
        "type": "string",
        "value": "18%"
    },
    "_left_": {
        "type": "string",
        "value": "0%"
    },
    "_margin_": [
        0,
        0,
        0,
        0
    ],
    "_orientation_": 6,
    "_padding_": [
        0,
        0,
        0,
        0
    ],
    "_percent_": true,
    "_skin_": "s1f547f481cd409fa074c90f0a6debc1",
    "_top_": {
        "type": "string",
        "value": "-2%"
    },
    "_width_": {
        "type": "string",
        "value": "102%"
    },
    "allboxes": [],
    "autogrowmode": 0,
    "canUpdateUI": true,
    "centerx": {
        "type": "string",
        "value": "50%"
    },
    "children": [
        "CopyflexTransTime0e6ce90a531db4c",
        "CopyFlexContainer0eacb5e5d1ded49",
        "CopyflexTransTime0b5a9fb8ab2ab47"
    ],
    "clipbounds": true,
    "containerweight": 100,
    "enablescrolling": true,
    "id": "flexSourceDtls2",
    "ide_onTouchEnd": "AS_FlexContainer_g6c2dceaf6af4c3398ed05f25782707d",
    "info": null,
    "isvisible": true,
    "kuid": "b895eac7bff64572bf41399476fa569f",
    "layouttype": 4,
    "name": "kony.ui.FlexContainer",
    "parent": "flexBody",
    "pf": "frmUVRequestHistory",
    "snapgridsize": 10,
    "snaptogrid": true,
    "wType": "FlexContainer",
    "widgetalignment": 1,
    "zindex": 1
}