{
    "@class": "com.kony.gen.viz.model.component.KVizButton",
    "DNDConfig": null,
    "_margin_": [
        0,
        0,
        0,
        0
    ],
    "_padding_": [
        0,
        0,
        0,
        0
    ],
    "_skin_": "sf87b574355247c7b6007b6936f185c0",
    "_text_": "",
    "canUpdateUI": true,
    "containerweight": 10,
    "contentalignment": 6,
    "displaytext": true,
    "donotUpdateContainerWeight": false,
    "focusskin": "sb03125d6967435d9bab3829bc2d31d6",
    "id": "btnClose",
    "ide_onClick": "AS_Button_a237bda1659f4edfb14f6d8115cb0791",
    "info": null,
    "isvisible": true,
    "kuid": "a650c4515b2d41609c0c02e6da5b8901",
    "margininpixel": false,
    "name": "kony.ui.Button",
    "paddInPixel": [
        0,
        0,
        0,
        0
    ],
    "paddinginpixel": false,
    "parent": "hbxHdr",
    "pf": "popUpAccesspinPwd",
    "wType": "Button",
    "widgetalignment": 6
}