{
    "@class": "com.kony.gen.viz.model.container.KVizHBox",
    "DNDConfig": null,
    "_margin_": [
        0,
        0,
        0,
        0
    ],
    "_orientation_": 1,
    "_padding_": [
        0,
        0,
        0,
        0
    ],
    "_percent_": true,
    "_position_": 3,
    "_skin_": "s3240d32b9a74cc78d1e0768cd2cdf1b",
    "allboxes": [],
    "canUpdateUI": true,
    "children": [
        "vbxEmpty",
        "btnClose"
    ],
    "containerweight": 100,
    "contextmenu": null,
    "id": "hbxHdr",
    "info": null,
    "isvisible": true,
    "kuid": "h41f6abbdb754e0691672c7f069733f3",
    "layouttype": 0,
    "name": "kony.ui.Box",
    "parent": "popUpAccesspinPwd",
    "pf": "popUpAccesspinPwd",
    "wType": "HBox",
    "widgetalignment": 1
}