{
    "@class": "com.kony.gen.viz.model.component.KVizImage2",
    "DNDConfig": null,
    "_base64_": null,
    "_margin_": [
        5,
        0,
        0,
        0
    ],
    "_padding_": [
        0,
        0,
        0,
        0
    ],
    "_skin_": "s55d8a5125e74bb0b2eaca75c423dae1",
    "_src_": "icon_white_alert.png",
    "canUpdateUI": true,
    "containerweight": 100,
    "context": {
        "channel": "mobile",
        "ispercent": true,
        "platform": "iphone",
        "templateType": "forms",
        "topLevelBox": false
    },
    "id": "Image0a1770325642840",
    "imagescalemode": 1,
    "info": null,
    "invokedProperty": "src",
    "ispercent": true,
    "isvisible": true,
    "kuid": "a10b7cab653040d88d66ec887c26c87f",
    "margininpixel": false,
    "name": "kony.ui.Image2",
    "paddInPixel": [
        0,
        0,
        0,
        0
    ],
    "parent": "VBox0db337b02078949",
    "pf": "frmSelAccntMutualFund",
    "srcType": 1,
    "wType": "Image",
    "widgetalignment": 5
}