{
    "@class": "com.kony.gen.viz.model.component.KVizButton",
    "DNDConfig": null,
    "__parentReadjusting__": false,
    "_height_": {
        "type": "string",
        "value": "100%"
    },
    "_left_": {
        "type": "string",
        "value": "0dp"
    },
    "_margin_": [
        6,
        6,
        6,
        6
    ],
    "_padding_": [
        0,
        0,
        0,
        0
    ],
    "_right_": {
        "type": "string",
        "value": "50%"
    },
    "_skin_": "s8171222d58046a38f2f5a3b56bf44d1",
    "_text_": "Button",
    "_top_": {
        "type": "string",
        "value": "0dp"
    },
    "_width_": {
        "type": "string",
        "value": "50%"
    },
    "canUpdateUI": true,
    "containerweight": 100,
    "contentalignment": 5,
    "displaytext": true,
    "focusskin": "s419c782c9a84173930c9d27e2d927b5",
    "id": "btnSettingCancel",
    "info": null,
    "iphone": {
        "psp": {
            "showProgressIndicator": false
        }
    },
    "isvisible": true,
    "kuid": "aefb28815c6546a2a2598768c1cf2e15",
    "name": "kony.ui.Button",
    "parent": "FlexContainer0d0b26ca4004c46",
    "pf": "frmActivationAttention",
    "showprogressindicator": false,
    "texti18n": "keyCancelButton",
    "wType": "Button",
    "zindex": 1
}