{
    "@class": "com.kony.gen.viz.model.component.KVizRichText",
    "DNDConfig": null,
    "__parentReadjusting__": false,
    "_height_": {
        "type": "ref",
        "value": "preferred"
    },
    "_left_": {
        "type": "string",
        "value": "0dp"
    },
    "_margin_": [
        0,
        0,
        0,
        0
    ],
    "_padding_": [
        0,
        0,
        0,
        0
    ],
    "_skin_": "s745624ad7834ed99608cc92c4c99526",
    "_text_": "",
    "_top_": {
        "type": "string",
        "value": "0dp"
    },
    "_width_": {
        "type": "string",
        "value": "100%"
    },
    "_wrapping_": 2,
    "canUpdateUI": true,
    "containerweight": 100,
    "contentalignment": 5,
    "id": "richRegAttentiontext",
    "info": null,
    "isvisible": true,
    "kuid": "b22006eb9c4f44b0997a79b240d7c2d3",
    "name": "kony.ui.RichText",
    "parent": "flexRichTextAttention",
    "pf": "frmActivationAttention",
    "texti18n": "CKM_txtTopic",
    "wType": "RichText",
    "widgetalignment": 5,
    "zindex": 1
}