{
    "DNDConfig": null,
    "_enabled_": false,
    "_margin_": [
        0,
        20,
        0,
        0
    ],
    "_padding_": [
        0,
        13,
        0,
        0
    ],
    "_skin_": "s570ffe54b7d421b9fdc5733e9b91dcb",
    "_text_": "",
    "canUpdateUI": true,
    "containerweight": 100,
    "contentalignment": 5,
    "desktopweb": {
        "@class": "com.kony.gen.viz.model.component.property.button.DesktopWebButtonProperty",
        "_padding_": [
            0,
            0,
            0,
            0
        ],
        "displayText": true,
        "padding": [
            0,
            0,
            0,
            0
        ],
        "paddingInPixel": false,
        "render": true
    },
    "disabledSkins": {
        "focusSkin": "s2bd792557dd4db6992411e9456329a4"
    },
    "displaytext": true,
    "hexpand": true,
    "id": "btnGotit",
    "ide_onClick": "AS_Button_c60bad179281426da0c70561b255a42a",
    "info": null,
    "isvisible": true,
    "kiosk": {
        "@class": "com.kony.gen.viz.model.component.property.button.KioskButtonProperty",
        "render": true
    },
    "kuid": "j63a42c25a8346baaae4b3a61e91d011",
    "margininpixel": false,
    "name": "kony.ui.Button",
    "paddInPixel": [
        0,
        0,
        0,
        0
    ],
    "paddinginpixel": false,
    "parent": "vboxAutosmartPopup",
    "pf": "frmIBMutualFundsPortfolio",
    "spa": {
        "@class": "com.kony.gen.viz.model.component.property.button.SPAButtonProperty",
        "displayText": true
    },
    "texti18n": "MF_I_Got_it",
    "vexpand": false,
    "wType": "Button",
    "widgetalignment": 5
}