{
    "@class": "com.kony.gen.viz.model.component.KVizComboBox",
    "DNDConfig": null,
    "_margin_": [
        0,
        0,
        0,
        0
    ],
    "_padding_": [
        0,
        0,
        0,
        0
    ],
    "_skin_": "s743f3875e3340d7a7482905f1bac9a2",
    "android": {
        "psp": {
            "viewType": 0
        }
    },
    "autosuggest": false,
    "canUpdateUI": true,
    "containerweight": 70,
    "contentalignment": 4,
    "donotUpdateContainerWeight": false,
    "editableareaskin": "",
    "groupcells": false,
    "id": "cmbFilterby",
    "ide_onSelection": "AS_ComboBox_h65c1b95f97d4be5830180b601c4c5d9",
    "info": null,
    "ipad": {
        "psp": {
            "viewType": 0
        }
    },
    "iphone": {
        "psp": {
            "viewType": 0
        }
    },
    "isvisible": true,
    "kuid": "jd92afb2347f40a3bd875e555b4ed2e6",
    "masterdata": [
        [
            "cb1",
            "Combobox One"
        ],
        [
            "cb2",
            "Combobox Two"
        ],
        [
            "cb3",
            "Combobox Three"
        ]
    ],
    "name": "kony.ui.ComboBox",
    "parent": "hbxFilterUnitholder",
    "pf": "frmIBMutualFundsPortfolio",
    "selectedkey": "cb1",
    "selectedkeyvalue": [
        "cb1",
        "Combobox One"
    ],
    "size": 18,
    "viewconfig": {
        "toggleViewConfig": {
            "viewStyle": 0
        }
    },
    "viewtype": 0,
    "wType": "ComboBox"
}