{
    "@class": "com.kony.gen.viz.model.container.KVizVBox",
    "DNDConfig": null,
    "_margin_": [
        0,
        0,
        0,
        0
    ],
    "_orientation_": 2,
    "_padding_": [
        0,
        0,
        0,
        0
    ],
    "_percent_": true,
    "_position_": 3,
    "_skin_": "s0e13ed4077f481ab090dae6b2e595ed",
    "allboxes": [],
    "canUpdateUI": true,
    "children": [
        "LabelUnrealize",
        "LabelUnrealized"
    ],
    "containerweight": 40,
    "contextmenu": null,
    "donotUpdateContainerWeight": false,
    "id": "CopyVBox0h9cfe3450c0245",
    "info": null,
    "isvisible": true,
    "kuid": "da453109d26b4f2eb8ce89ddf9011cbe",
    "layouttype": 0,
    "name": "kony.ui.Box",
    "paddInPixel": [
        0,
        0,
        0,
        0
    ],
    "parent": "HboxValues",
    "pf": "frmIBMutualFundsPortfolio",
    "templateType": "forms",
    "wType": "VBox",
    "widgetalignment": 1
}