{
    "@class": "com.kony.gen.viz.model.container.KVizHBox",
    "DNDConfig": null,
    "_margin_": [
        0,
        2,
        0,
        2
    ],
    "_orientation_": 1,
    "_padding_": [
        0,
        0,
        0,
        0
    ],
    "_percent_": true,
    "_position_": 3,
    "_skin_": "s3240d32b9a74cc78d1e0768cd2cdf1b",
    "allboxes": [],
    "canUpdateUI": true,
    "children": [],
    "containerweight": 100,
    "contextmenu": null,
    "id": "hbxChart",
    "info": null,
    "isvisible": true,
    "kuid": "b28c163787c64cffa1548b1e430a1334",
    "layouttype": 0,
    "margininpixel": false,
    "name": "kony.ui.Box",
    "parent": "vbox474969373109364",
    "pf": "frmIBMutualFundsPortfolio",
    "templateType": "forms",
    "wType": "HBox",
    "widgetalignment": 1
}