{
    "@class": "com.kony.gen.viz.model.container.KVizHBox",
    "DNDConfig": null,
    "_margin_": [
        0,
        50,
        0,
        0
    ],
    "_orientation_": 1,
    "_padding_": [
        0,
        0,
        0,
        0
    ],
    "_percent_": true,
    "_position_": 3,
    "_skin_": "s3240d32b9a74cc78d1e0768cd2cdf1b",
    "allboxes": [],
    "canUpdateUI": true,
    "children": [
        "TMBImage"
    ],
    "containerweight": 100,
    "contextmenu": null,
    "id": "hbxTMBImage",
    "info": null,
    "isvisible": true,
    "kuid": "fd344ee72ead4c6785621adeeb82e6df",
    "layouttype": 0,
    "margininpixel": false,
    "name": "kony.ui.Box",
    "parent": "vbox449290336673324",
    "pf": "frmIBMutualFundsPortfolio",
    "templateType": "forms",
    "wType": "HBox",
    "widgetalignment": 1
}