{
    "@class": "com.kony.gen.viz.model.component.KVizLabel",
    "DNDConfig": null,
    "_margin_": [
        1,
        1,
        1,
        1
    ],
    "_padding_": [
        0,
        0,
        5,
        0
    ],
    "_skin_": "s3e0b6377a06465fa26635351e25a64c",
    "_text_": "+1234.56",
    "_wrapping_": 2,
    "android": {
        "textStyle": {
            "letterSpacing": 0,
            "strikeThrough": false
        }
    },
    "canUpdateUI": true,
    "containerweight": 100,
    "contentalignment": 6,
    "id": "LabelUnrealized",
    "info": null,
    "ipad": {
        "psp": {
            "wrapping": 2
        }
    },
    "iphone": {
        "psp": {
            "wrapping": 2
        }
    },
    "isvisible": true,
    "kuid": "b56691dccfe746a08a9a8b111b67eb92",
    "name": "kony.ui.Label",
    "paddinginpixel": false,
    "parent": "CopyVBox0h9cfe3450c0245",
    "pf": "frmIBMutualFundsPortfolio",
    "tooltip": "",
    "wType": "Label"
}