{
    "@class": "com.kony.gen.viz.model.component.KVizLink",
    "DNDConfig": null,
    "_margin_": [
        0,
        0,
        0,
        0
    ],
    "_padding_": [
        0,
        0,
        0,
        0
    ],
    "_skin_": "s4827b9a014c4c64aef88304ed4f0a0b",
    "_text_": "Purchase",
    "canUpdateUI": true,
    "containerweight": 25,
    "contentalignment": 5,
    "desktopweb": {
        "psp": {
            "hoverSkin": "sfe01eb6e1f44a49a9ce0b8732982bdf"
        }
    },
    "donotUpdateContainerWeight": false,
    "id": "LinkPurchase",
    "ide_onClick": "AS_Link_j17b87f332974e5d9171d69eecb865f8",
    "info": null,
    "isvisible": true,
    "kuid": "b7db3a7ca8bf4d9b90f1598bd29bc528",
    "name": "kony.ui.Link",
    "paddInPixel": [
        0,
        0,
        0,
        0
    ],
    "parent": "HboxLinks",
    "pf": "frmIBMutualFundsPortfolio",
    "wType": "Link"
}