{
    "DNDConfig": null,
    "_enabled_": false,
    "_margin_": [
        0,
        0,
        0,
        0
    ],
    "_orientation_": 2,
    "_padding_": [
        0,
        0,
        0,
        0
    ],
    "_position_": 3,
    "_resize_": true,
    "_skin_": "s97cc6c86bf047e2b52aaaa0fedee429",
    "allboxes": [],
    "borderCollapse": false,
    "canUpdateUI": true,
    "children": [
        "lblMFAutoHeader",
        "lblMFAutoContent"
    ],
    "containerweight": 100,
    "desktopweb": {
        "@class": "com.kony.gen.viz.model.container.property.vbox.DesktopWebVBoxProperty",
        "_padding_": [
            2,
            0,
            4,
            0
        ],
        "padding": [
            2,
            0,
            4,
            0
        ],
        "paddingInPixel": false,
        "render": true
    },
    "donotUpdateContainerWeight": false,
    "id": "vboxMFAutoHeader",
    "info": null,
    "isvisible": true,
    "kiosk": {
        "@class": "com.kony.gen.viz.model.container.property.vbox.KioskVBoxProperty",
        "render": true
    },
    "kuid": "eb06bb2e835b4912a27411cc7437b6c1",
    "layouttype": 0,
    "margininpixel": false,
    "name": "kony.ui.Box",
    "paddInPixel": [
        5.4,
        0,
        10.8,
        0
    ],
    "paddinginpixel": false,
    "parent": "hboxMFAutoHeader",
    "pf": "frmIBMutualFundsPortfolio",
    "spa": {
        "@class": "com.kony.gen.viz.model.container.property.vbox.SPAVBoxProperty"
    },
    "templateType": "forms",
    "wType": "VBox",
    "widgetalignment": 5
}