{
    "DNDConfig": null,
    "__parentReadjusting__": false,
    "_enabled_": false,
    "_height_": {
        "type": "ref",
        "value": "preferred"
    },
    "_margin_": [
        0,
        0,
        0,
        0
    ],
    "_padding_": [
        0,
        5,
        0,
        0
    ],
    "_render_": true,
    "_skin_": "sa5c4f0674224233b8933ade0733384d",
    "_text_": "\n\n",
    "_top_": {
        "type": "string",
        "value": "44.0%"
    },
    "_width_": {
        "type": "string",
        "value": "80%"
    },
    "_wrapping_": 2,
    "android": {
        "@class": "com.kony.gen.viz.model.component.property.richtext.AndroidRichTextProperty",
        "render": true
    },
    "canUpdateUI": true,
    "centerx": {
        "type": "string",
        "value": "49.11%"
    },
    "containerweight": 0,
    "contentalignment": 2,
    "hexpand": true,
    "id": "rchAddress",
    "info": null,
    "iphone": {
        "@class": "com.kony.gen.viz.model.component.property.richtext.IPhoneRichTextProperty",
        "_wrapping_": 2,
        "render": true,
        "wrapping": 2
    },
    "isvisible": true,
    "kuid": "p2kwiet2012247630839",
    "margininpixel": false,
    "name": "kony.ui.RichText",
    "paddinginpixel": false,
    "parent": "flxCompleteImg",
    "pf": "frmMBChangePinFailure",
    "spa": {
        "@class": "com.kony.gen.viz.model.component.property.richtext.SPARichTextProperty"
    },
    "spaan": {
        "@class": "com.kony.gen.viz.model.component.property.richtext.SPAAndroidRichTextProperty",
        "render": true
    },
    "spabb": {
        "@class": "com.kony.gen.viz.model.component.property.richtext.SPABBRichTextProperty",
        "render": false
    },
    "spaip": {
        "@class": "com.kony.gen.viz.model.component.property.richtext.SPAIPhoneRichTextProperty",
        "render": true
    },
    "spawinphone8": {
        "@class": "com.kony.gen.viz.model.component.property.richtext.SPAWinPhone8RichTextProperty",
        "render": true
    },
    "texti18n": "PIN_Err_NotChange",
    "vexpand": false,
    "wType": "RichText",
    "widgetalignment": 5,
    "winphone8": {
        "@class": "com.kony.gen.viz.model.component.property.richtext.WinPhone8RichTextProperty",
        "psp": {
            "enableCache": false
        },
        "render": true
    },
    "zindex": 1
}