{
    "@class": "com.kony.gen.viz.model.container.KVizHBox",
    "DNDConfig": null,
    "_margin_": [
        0,
        0,
        0,
        0
    ],
    "_orientation_": 1,
    "_padding_": [
        0,
        0,
        0,
        0
    ],
    "_percent_": true,
    "_position_": 3,
    "_skin_": "sbf6371c8e33459897c5104ea9b4a027",
    "allboxes": [],
    "canUpdateUI": true,
    "children": [
        "Label0a912707c89e844",
        "ButtonClose"
    ],
    "containerweight": 100,
    "contextmenu": null,
    "id": "HBox0f55aecbf9a1d47",
    "info": null,
    "isvisible": true,
    "kuid": "d1368e4af0744c64b1c72ef9f6e54d74",
    "layouttype": 0,
    "name": "kony.ui.Box",
    "parent": "popupIBSelectFundHouseMF",
    "pf": "popupIBSelectFundHouseMF",
    "wType": "HBox",
    "widgetalignment": 1
}