{
    "@class": "com.kony.gen.viz.model.container.KVizScrollBox",
    "DNDConfig": null,
    "_margin_": [
        0,
        0,
        0,
        0
    ],
    "_orientation_": 2,
    "_padding_": [
        0,
        0,
        0,
        0
    ],
    "_percent_": true,
    "_position_": 3,
    "_skin_": "s283a3932cb2417c940a25a093e7a325",
    "allboxes": [],
    "canUpdateUI": true,
    "children": [
        "SegmentFundHouse"
    ],
    "containerheight": 53,
    "containerheightreference": 1,
    "containerweight": 100,
    "contextmenu": null,
    "enablescrollbypage": false,
    "id": "ScrollBox0a772b188373146",
    "info": null,
    "isvisible": true,
    "kuid": "ed53ff81f7f948c482da7fe6a3e28130",
    "name": "kony.ui.ScrollBox",
    "paddInPixel": [
        0,
        0,
        0,
        0
    ],
    "paddinginpixel": false,
    "parent": "HBox0b831b71ef61d4d",
    "pf": "popupIBSelectFundHouseMF",
    "scrollbar": "scrollbar",
    "scrolldirection": 2,
    "scrollingevents": null,
    "showscrollbars": false,
    "totalWt": 100,
    "wType": "ScrollBox",
    "widgetalignment": 5
}