{
    "DNDConfig": null,
    "_height_": {
        "type": "string",
        "value": "60dp"
    },
    "_margin_": [
        0,
        0,
        0,
        0
    ],
    "_orientation_": 6,
    "_padding_": [
        0,
        0,
        0,
        0
    ],
    "_percent_": true,
    "_skin_": "sd039b0bb2724f9f846c3d4922e5c971",
    "allboxes": [],
    "autogrowmode": 0,
    "canUpdateUI": true,
    "children": [
        "ImageCheckList1",
        "lblChecklistVal",
        "lblLineSeparator",
        "lblLineSeparatorAndroid",
        "flexAndroid",
        "flexIphone",
        "flxlblcircle1"
    ],
    "clipbounds": true,
    "containerId": true,
    "containerweight": 100,
    "enablescrolling": true,
    "id": "FlexContainer0je5a9230214f4f",
    "info": null,
    "isTemplate": true,
    "isvisible": true,
    "kuid": "e9e8b43a6ffd446d95365a6f3f16e9d5",
    "layouttype": 2,
    "name": "kony.ui.FlexContainer",
    "parent": "checklistTemp",
    "pf": "checklistTemp",
    "snapgridsize": 10,
    "snaptogrid": true,
    "wType": "FlexContainer",
    "widgetalignment": 1
}