{
    "DNDConfig": null,
    "_enabled_": false,
    "_margin_": [
        0,
        0,
        0,
        0
    ],
    "_orientation_": 1,
    "_padding_": [
        3,
        0,
        0,
        0
    ],
    "_percent_": false,
    "_position_": 3,
    "_resize_": true,
    "_skin_": "s203b13a9bf64e8bb11f0b216e66f26e",
    "allboxes": [],
    "borderCollapse": false,
    "canUpdateUI": true,
    "children": [
        "vbox506429346675022"
    ],
    "containerweight": 100,
    "desktopweb": {
        "@class": "com.kony.gen.viz.model.container.property.hbox.DesktopWebHBoxProperty",
        "_position_": 3,
        "position": 3,
        "psp": {
            "hoverSkin": "s7b2ed39a6214f0fa4294f9600e4d5a6"
        },
        "render": true
    },
    "focusskin": "s7b2ed39a6214f0fa4294f9600e4d5a6",
    "id": "hbxBillerRef1",
    "info": null,
    "isvisible": true,
    "kiosk": {
        "@class": "com.kony.gen.viz.model.container.property.hbox.KioskHBoxProperty",
        "_position_": 3,
        "position": 3,
        "render": true
    },
    "kuid": "p2kwiet2012247639235",
    "layoutalignment": 3,
    "layouttype": 0,
    "margininpixel": false,
    "name": "kony.ui.Box",
    "paddinginpixel": false,
    "parent": "vbxInputBillerDetails",
    "pf": "frmIBBeepAndBillApply",
    "spa": {
        "@class": "com.kony.gen.viz.model.container.property.hbox.SPAHBoxProperty"
    },
    "templateType": "forms",
    "wType": "HBox",
    "widgetalignment": 1
}