{
    "DNDConfig": null,
    "__parentReadjusting__": false,
    "_bottom_": {
        "type": "string",
        "value": "0%"
    },
    "_height_": {
        "type": "string",
        "value": "100%"
    },
    "_left_": {
        "type": "string",
        "value": "0%"
    },
    "_margin_": [
        0,
        0,
        0,
        0
    ],
    "_orientation_": 6,
    "_padding_": [
        0,
        0,
        0,
        0
    ],
    "_percent_": true,
    "_right_": {
        "type": "string",
        "value": "0%"
    },
    "_skin_": "sf16386922154a1ea965e4cdf033ea5e",
    "_top_": "0%",
    "_width_": {
        "type": "string",
        "value": "100%"
    },
    "allboxes": [],
    "autogrowmode": 0,
    "canUpdateUI": true,
    "children": [
        "btnMobilePopUpClose",
        "lblContactNoPopUp",
        "flxMobileNumber",
        "flxHomeExt",
        "flxMobileNoSave"
    ],
    "clipbounds": true,
    "containerweight": 100,
    "enablescrolling": true,
    "id": "flxMobilePopUp",
    "info": null,
    "isvisible": false,
    "kuid": "b56c6e3a48bf44878caec1db166a59c1",
    "layouttype": 4,
    "name": "kony.ui.FlexContainer",
    "parent": "frmLoanPersonalInfo",
    "pf": "frmLoanPersonalInfo",
    "snapgridsize": "0",
    "snaptogrid": true,
    "wType": "FlexContainer",
    "widgetalignment": 1,
    "zindex": 20
}