{
    "DNDConfig": null,
    "__parentReadjusting__": false,
    "_height_": {
        "type": "string",
        "value": "12%"
    },
    "_left_": {
        "type": "string",
        "value": "0%"
    },
    "_margin_": [
        0,
        0,
        0,
        0
    ],
    "_orientation_": 6,
    "_padding_": [
        0,
        0,
        0,
        0
    ],
    "_percent_": true,
    "_skin_": "s7f7ebc1956744cfbdd8a52809abeb5e",
    "_top_": {
        "type": "string",
        "value": "7%"
    },
    "_width_": {
        "type": "string",
        "value": "100%"
    },
    "allboxes": [],
    "autogrowmode": 0,
    "canUpdateUI": true,
    "children": [
        "lblPersonalInfo",
        "Image0ade4b91db0c645",
        "flxcircle"
    ],
    "clipbounds": true,
    "containerweight": 100,
    "enablescrolling": true,
    "id": "flxPersonalInfo",
    "info": null,
    "isvisible": true,
    "kuid": "d70254915b2541b4aa8594bcd7f893d0",
    "layouttype": 2,
    "name": "kony.ui.FlexContainer",
    "parent": "frmLoanPersonalInfo",
    "pf": "frmLoanPersonalInfo",
    "snapgridsize": 10,
    "snaptogrid": true,
    "wType": "FlexContainer",
    "widgetalignment": 1,
    "zindex": 1
}