{
    "DNDConfig": null,
    "__parentReadjusting__": false,
    "_height_": {
        "type": "string",
        "value": "35dp"
    },
    "_left_": {
        "type": "string",
        "value": "0dp"
    },
    "_margin_": [
        0,
        0,
        0,
        0
    ],
    "_orientation_": 6,
    "_padding_": [
        0,
        0,
        0,
        0
    ],
    "_percent_": true,
    "_skin_": "sb6449ce1dc141718cc9bad90e9a7a4e",
    "_top_": {
        "type": "string",
        "value": "0dp"
    },
    "_width_": {
        "type": "string",
        "value": "97%"
    },
    "allboxes": [],
    "autogrowmode": 0,
    "canUpdateUI": true,
    "centerx": {
        "type": "string",
        "value": "50%"
    },
    "centery": {
        "type": "string",
        "value": "50%"
    },
    "children": [
        "imgSearchicon",
        "tbxSearch"
    ],
    "clipbounds": true,
    "containerweight": 100,
    "defaultunit": 2,
    "enablescrolling": true,
    "id": "flxSearchField",
    "info": null,
    "iscustomlayout": false,
    "isvisible": true,
    "kuid": "d261aeb5f62a4ab092a9df93c9fd5a00",
    "layouttype": 3,
    "name": "kony.ui.FlexContainer",
    "parent": "flxSearch",
    "pf": "frmLoanPersonalInfo",
    "retaincontentalignment": false,
    "retainflexpositionproperties": false,
    "snapgridsize": 10,
    "snaptogrid": true,
    "wType": "FlexContainer",
    "widgetalignment": 1,
    "zindex": 1
}