{
    "DNDConfig": null,
    "__parentReadjusting__": false,
    "_height_": {
        "type": "string",
        "value": "100%"
    },
    "_left_": {
        "type": "string",
        "value": "0%"
    },
    "_margin_": [
        0,
        0,
        0,
        0
    ],
    "_orientation_": 6,
    "_padding_": [
        0,
        0,
        0,
        0
    ],
    "_percent_": true,
    "_skin_": "sf16386922154a1ea965e4cdf033ea5e",
    "_top_": {
        "type": "string",
        "value": "0%"
    },
    "_width_": {
        "type": "string",
        "value": "100%"
    },
    "allboxes": [],
    "autogrowmode": 0,
    "canUpdateUI": true,
    "children": [
        "btnCloseSIPopUp",
        "lblSIHeading",
        "flxSearch",
        "flxSourceOfIncomepopupline",
        "flxScrllSourceOfIncome",
        "flxInformationMsg"
    ],
    "clipbounds": true,
    "containerweight": 100,
    "enablescrolling": true,
    "id": "flxSupportsrcofcountry",
    "info": null,
    "isvisible": true,
    "kuid": "e6d96333c5c54b3089dd7f4eb37d01de",
    "layouttype": 4,
    "name": "kony.ui.FlexContainer",
    "parent": "flxSourceOfIncomePopUp",
    "pf": "frmLoanPersonalInfo",
    "snapgridsize": "0",
    "snaptogrid": true,
    "wType": "FlexContainer",
    "widgetalignment": 1,
    "zindex": 20
}