{
    "@class": "com.kony.gen.viz.model.container.KVizSegment2",
    "DNDConfig": null,
    "__parentReadjusting__": false,
    "_data_": [
        {
            "imgTick": {
                "@class": "com.viz.ide.model.segment.ImageSegmentData",
                "src": "tick_icon.png"
            },
            "lblEntryCode": {
                "@class": "com.viz.ide.model.segment.SimpleTextSegmentData",
                "text": "Label"
            },
            "lblName": {
                "@class": "com.viz.ide.model.segment.SimpleTextSegmentData",
                "text": "Label"
            },
            "lblSegRowLine": {
                "@class": "com.viz.ide.model.segment.SimpleTextSegmentData",
                "text": "Label"
            }
        },
        {
            "imgTick": {
                "@class": "com.viz.ide.model.segment.ImageSegmentData",
                "src": "tick_icon.png"
            },
            "lblEntryCode": {
                "@class": "com.viz.ide.model.segment.SimpleTextSegmentData",
                "text": "Label"
            },
            "lblName": {
                "@class": "com.viz.ide.model.segment.SimpleTextSegmentData",
                "text": "Label"
            },
            "lblSegRowLine": {
                "@class": "com.viz.ide.model.segment.SimpleTextSegmentData",
                "text": "Label"
            }
        },
        {
            "imgTick": {
                "@class": "com.viz.ide.model.segment.ImageSegmentData",
                "src": "tick_icon.png"
            },
            "lblEntryCode": {
                "@class": "com.viz.ide.model.segment.SimpleTextSegmentData",
                "text": "Label"
            },
            "lblName": {
                "@class": "com.viz.ide.model.segment.SimpleTextSegmentData",
                "text": "Label"
            },
            "lblSegRowLine": {
                "@class": "com.viz.ide.model.segment.SimpleTextSegmentData",
                "text": "Label"
            }
        }
    ],
    "_height_": {
        "type": "string",
        "value": "100%"
    },
    "_indicator_": "none",
    "_left_": {
        "type": "string",
        "value": "0"
    },
    "_margin_": [
        0,
        0,
        0,
        0
    ],
    "_orientation_": 2,
    "_padding_": [
        0,
        0,
        0,
        0
    ],
    "_top_": {
        "type": "number",
        "value": "0"
    },
    "_width_": {
        "type": "string",
        "value": "100%"
    },
    "alternaterowskin": "sa210dd8f8314cf581d230b3d99ab471",
    "autogrowmode": 0,
    "canUpdateUI": true,
    "containerweight": 100,
    "counter": "02",
    "focusedindex": null,
    "focuseditem": null,
    "generatedtemplate": "h43a22a6c0d0453895e059e66040904f",
    "groupcells": false,
    "hasSections": false,
    "id": "segSourceofIncome",
    "info": null,
    "ipad": {
        "psp": {
            "indicator": "rowselect"
        }
    },
    "iphone": {
        "psp": {
            "indicator": "none"
        }
    },
    "isvisible": true,
    "kuid": "c123b644f1cc4815812f6b03486a2173",
    "masterdata": {},
    "name": "kony.ui.SegmentedUI2",
    "needpageindicator": true,
    "pageoffdotimage": "pageoffdot.png",
    "pageondotimage": "pageondot.png",
    "paginationconfig": {
        "position": "bottom"
    },
    "parent": "flxScrllSourceOfIncome",
    "pf": "frmLoanPersonalInfo",
    "retainselection": false,
    "rowTemplateId": "e0dda84543cd4c2ea4dd0a9e8f8f1f7e",
    "rowcounter": 2,
    "rowfocusskin": "s01e0182a4d14a4da5e4e707eafeea1b",
    "rowskin": "s01e0182a4d14a4da5e4e707eafeea1b",
    "rowtemplate": "flxSegLoanGeneric",
    "screenlevelwidget": false,
    "seccounter": 0,
    "sectionHeaderTemplateId": null,
    "sectionheaderskin": "s8bfadf7251c4abfa23d31af10ef7493",
    "selectedRows": null,
    "selectedState": false,
    "selectedindex": null,
    "selectedindices": null,
    "selecteditems": null,
    "selectedsectionindex": 0,
    "selectionbehavior": "default",
    "separatorrequired": false,
    "showscrollbars": false,
    "viewtype": "tableview",
    "wType": "Segment",
    "widgetalignment": 5,
    "widgetdatamap": {
        "flxSegLoanGeneric": "flxSegLoanGeneric",
        "imgTick": "imgTick",
        "lblEntryCode": "lblEntryCode",
        "lblName": "lblName",
        "lblSegRowLine": "lblSegRowLine"
    },
    "widgetskin": "sa210dd8f8314cf581d230b3d99ab471",
    "zindex": 1
}