{
    "@class": "com.kony.gen.viz.model.component.KVizTextBox2",
    "DNDConfig": null,
    "__parentReadjusting__": false,
    "_bottom_": {
        "type": "string",
        "value": "0%"
    },
    "_height_": {
        "type": "string",
        "value": "50%"
    },
    "_left_": {
        "type": "string",
        "value": "1%"
    },
    "_margin_": [
        0,
        0,
        0,
        0
    ],
    "_padding_": [
        3,
        0,
        0,
        0
    ],
    "_placeholder_": "",
    "_right_": {
        "type": "string",
        "value": "0%"
    },
    "_skin_": "s7a4fad843aa4805901f183114695b78",
    "_text_": "",
    "_top_": {
        "type": "string",
        "value": "25%"
    },
    "_width_": {
        "type": "string",
        "value": "95%"
    },
    "android": {},
    "autocapitalize": "none",
    "autocomplete": false,
    "autocorrect": false,
    "autofilter": false,
    "canUpdateUI": true,
    "containerheight": "",
    "containerheightmode": 1,
    "containerweight": 100,
    "contentalignment": 4,
    "focusskin": "s7a4fad843aa4805901f183114695b78",
    "id": "tbxZipCode",
    "info": null,
    "iphone": {},
    "isvisible": true,
    "keyboardstyle": "A",
    "keyboardtype": "A",
    "kuid": "a04c6945a350404489abd5feb68934aa",
    "maxtextlength": 5,
    "mode": "N",
    "name": "kony.ui.TextBox2",
    "parent": "flxZipCode",
    "pf": "frmLoanPersonalInfo",
    "placeholderi18n": "Zipcode_label",
    "placeholderskin": "sc23291880fd47a792c18aafa5030cd2",
    "securetextentry": false,
    "textinputmode": "N",
    "viewtype": "default",
    "wType": "TextField",
    "zindex": 1
}