{
    "DNDConfig": null,
    "_enabled_": false,
    "_margin_": [
        5,
        5,
        0,
        10
    ],
    "_padding_": [
        0,
        0,
        0,
        0
    ],
    "_render_": true,
    "_skin_": "sfe79bc617b64b8dbb38b3b62062be86",
    "_text_": "",
    "_wrapping_": 2,
    "android": {
        "@class": "com.kony.gen.viz.model.component.property.richtext.AndroidRichTextProperty",
        "_margin_": [
            5,
            5,
            5,
            10
        ],
        "_padding_": [
            0,
            0,
            0,
            0
        ],
        "margin": [
            5,
            5,
            5,
            10
        ],
        "marginInPixel": false,
        "padding": [
            0,
            0,
            0,
            0
        ],
        "paddingInPixel": false,
        "render": true
    },
    "canUpdateUI": true,
    "containerweight": 100,
    "contentalignment": 4,
    "hexpand": true,
    "id": "lblPointRedemptionProdFeature",
    "info": null,
    "iphone": {
        "@class": "com.kony.gen.viz.model.component.property.richtext.IPhoneRichTextProperty",
        "_margin_": [
            5,
            5,
            5,
            10
        ],
        "_padding_": [
            10,
            0,
            10,
            0
        ],
        "_wrapping_": 2,
        "margin": [
            5,
            5,
            5,
            10
        ],
        "marginInPixel": false,
        "padding": [
            10,
            0,
            10,
            0
        ],
        "paddingInPixel": true,
        "render": true,
        "wrapping": 2
    },
    "isvisible": true,
    "kuid": "p2kwiet2012247632233",
    "margininpixel": false,
    "name": "kony.ui.RichText",
    "paddinginpixel": false,
    "parent": "sboxRight",
    "pf": "frmMBPointRedemptionProdFeature",
    "spa": {
        "@class": "com.kony.gen.viz.model.component.property.richtext.SPARichTextProperty"
    },
    "spaan": {
        "@class": "com.kony.gen.viz.model.component.property.richtext.SPAAndroidRichTextProperty",
        "_margin_": [
            5,
            5,
            5,
            10
        ],
        "_padding_": [
            0,
            0,
            0,
            0
        ],
        "margin": [
            5,
            5,
            5,
            10
        ],
        "marginInPixel": false,
        "padding": [
            0,
            0,
            0,
            0
        ],
        "paddingInPixel": false,
        "render": true
    },
    "spabb": {
        "@class": "com.kony.gen.viz.model.component.property.richtext.SPABBRichTextProperty",
        "_margin_": [
            5,
            5,
            5,
            10
        ],
        "_padding_": [
            0,
            0,
            0,
            0
        ],
        "margin": [
            5,
            5,
            5,
            10
        ],
        "marginInPixel": false,
        "padding": [
            0,
            0,
            0,
            0
        ],
        "paddingInPixel": false,
        "render": true
    },
    "spaip": {
        "@class": "com.kony.gen.viz.model.component.property.richtext.SPAIPhoneRichTextProperty",
        "_margin_": [
            5,
            5,
            5,
            10
        ],
        "_padding_": [
            0,
            0,
            0,
            0
        ],
        "margin": [
            5,
            5,
            5,
            10
        ],
        "marginInPixel": false,
        "padding": [
            0,
            0,
            0,
            0
        ],
        "paddingInPixel": false,
        "render": true
    },
    "spawinphone8": {
        "@class": "com.kony.gen.viz.model.component.property.richtext.SPAWinPhone8RichTextProperty",
        "_margin_": [
            5,
            5,
            5,
            10
        ],
        "margin": [
            5,
            5,
            5,
            10
        ],
        "marginInPixel": false,
        "render": true
    },
    "texti18n": "keyPointRedmptionProdFeature",
    "vexpand": false,
    "wType": "RichText",
    "widgetalignment": 5,
    "winphone8": {
        "@class": "com.kony.gen.viz.model.component.property.richtext.WinPhone8RichTextProperty",
        "_margin_": [
            5,
            5,
            5,
            10
        ],
        "_padding_": [
            0,
            0,
            0,
            0
        ],
        "margin": [
            5,
            5,
            5,
            10
        ],
        "marginInPixel": false,
        "padding": [
            0,
            0,
            0,
            0
        ],
        "paddingInPixel": false,
        "psp": {
            "enableCache": false
        },
        "render": true
    }
}