{
    "DNDConfig": null,
    "_enabled_": false,
    "_margin_": [
        0,
        0,
        0,
        0
    ],
    "_padding_": [
        0,
        0,
        0,
        0
    ],
    "_skin_": "s827aff42dc8499db07d034b489f8800",
    "_text_": "",
    "canUpdateUI": true,
    "containerweight": 11,
    "contentalignment": 4,
    "desktopweb": {
        "@class": "com.kony.gen.viz.model.component.property.link.DesktopWebLinkProperty",
        "render": true
    },
    "focusskin": "seb090c1aab54fc7b9003afc8949a88e",
    "hexpand": true,
    "id": "lblHide",
    "ide_onClick": "p2kwiet2012247647916_lblHide_onClick_seq0",
    "info": null,
    "isvisible": true,
    "kiosk": {
        "@class": "com.kony.gen.viz.model.component.property.link.KioskLinkProperty",
        "render": true
    },
    "kuid": "p2kwiet2012247647867",
    "margininpixel": false,
    "name": "kony.ui.Link",
    "paddinginpixel": false,
    "parent": "hbox445387715823357",
    "pf": "frmIBSSSExcuteTrnsfrCmplete",
    "spa": {
        "@class": "com.kony.gen.viz.model.component.property.link.SPALinkProperty"
    },
    "texti18n": "keyHideIB",
    "vexpand": false,
    "wType": "Link",
    "widgetalignment": 6
}