{
    "DNDConfig": null,
    "_enabled_": false,
    "_margin_": [
        0,
        0,
        1,
        0
    ],
    "_padding_": [
        0,
        0,
        0,
        0
    ],
    "_skin_": "s301fc12a2cd4f58a1af750e9ad0ed38",
    "_text_": "",
    "canUpdateUI": true,
    "containerweight": 15,
    "contentalignment": 5,
    "desktopweb": {
        "@class": "com.kony.gen.viz.model.component.property.button.DesktopWebButtonProperty",
        "displayText": true,
        "render": true
    },
    "displaytext": true,
    "focusskin": "s301fc12a2cd4f58a1af750e9ad0ed38",
    "hexpand": true,
    "id": "btn1",
    "ide_onClick": "p2kwiet2012247651270_btn1_onClick_seq0",
    "info": null,
    "isvisible": true,
    "kiosk": {
        "@class": "com.kony.gen.viz.model.component.property.button.KioskButtonProperty",
        "render": true
    },
    "kuid": "p2kwiet2012247651264",
    "margininpixel": false,
    "name": "kony.ui.Button",
    "paddinginpixel": false,
    "parent": "hbox59324032046854",
    "pf": "footerPreLogin",
    "spa": {
        "@class": "com.kony.gen.viz.model.component.property.button.SPAButtonProperty",
        "displayText": true
    },
    "vexpand": false,
    "wType": "Button",
    "widgetalignment": 5
}