{
    "DNDConfig": null,
    "_enabled_": false,
    "_margin_": [
        0,
        0,
        0,
        0
    ],
    "_padding_": [
        0,
        0,
        0,
        0
    ],
    "_skin_": "sad4fcc694304c99893ad3f72fd46250",
    "_text_": "WebChat",
    "canUpdateUI": true,
    "containerweight": 29,
    "contentalignment": 4,
    "desktopweb": {
        "@class": "com.kony.gen.viz.model.component.property.link.DesktopWebLinkProperty",
        "render": true
    },
    "focusskin": "sf8b352de513494eab3fd62bc505322e",
    "hexpand": true,
    "id": "linkWebChat",
    "ide_onClick": "p2kwiet2012247651270_linkWebChat_onClick_seq0",
    "info": null,
    "isvisible": true,
    "kiosk": {
        "@class": "com.kony.gen.viz.model.component.property.link.KioskLinkProperty",
        "render": true
    },
    "kuid": "p2kwiet2012247651257",
    "margininpixel": false,
    "name": "kony.ui.Link",
    "paddinginpixel": false,
    "parent": "hbox445625918108449",
    "pf": "footerPreLogin",
    "spa": {
        "@class": "com.kony.gen.viz.model.component.property.link.SPALinkProperty"
    },
    "texti18n": "keyIBFooterWebChat",
    "vexpand": false,
    "wType": "Link",
    "widgetalignment": 6
}