{
    "DNDConfig": null,
    "_enabled_": false,
    "_margin_": [
        1,
        0,
        0,
        0
    ],
    "_padding_": [
        0,
        0,
        0,
        0
    ],
    "_skin_": "s6ac48b6ab844f1c98d7dee9e94e9304",
    "_text_": "",
    "canUpdateUI": true,
    "containerweight": 12,
    "contentalignment": 4,
    "desktopweb": {
        "@class": "com.kony.gen.viz.model.component.property.link.DesktopWebLinkProperty",
        "_padding_": [
            0,
            0,
            0,
            0
        ],
        "padding": [
            0,
            0,
            0,
            0
        ],
        "paddingInPixel": false,
        "render": true
    },
    "focusskin": "scc783175ea24081871c07bba3b34382",
    "hexpand": true,
    "id": "linkSecurity",
    "ide_onClick": "p2kwiet2012247651270_linkSecurity_onClick_seq0",
    "info": null,
    "isvisible": true,
    "kiosk": {
        "@class": "com.kony.gen.viz.model.component.property.link.KioskLinkProperty",
        "render": true
    },
    "kuid": "p2kwiet2012247651251",
    "margininpixel": false,
    "name": "kony.ui.Link",
    "paddinginpixel": false,
    "parent": "hbox502795003206266",
    "pf": "footerPreLogin",
    "spa": {
        "@class": "com.kony.gen.viz.model.component.property.link.SPALinkProperty"
    },
    "texti18n": "keySecurityAdvices",
    "vexpand": false,
    "wType": "Link",
    "widgetalignment": 5
}