{
    "DNDConfig": null,
    "_enabled_": false,
    "_margin_": [
        5,
        0,
        0,
        0
    ],
    "_padding_": [
        0,
        7,
        0,
        7
    ],
    "_skin_": "s31ab88b30e8405fa988cfcd2bf35447",
    "_text_": "",
    "canUpdateUI": true,
    "containerweight": 48,
    "contentalignment": 5,
    "desktopweb": {
        "@class": "com.kony.gen.viz.model.component.property.button.DesktopWebButtonProperty",
        "_padding_": [
            0,
            7,
            0,
            7
        ],
        "displayText": true,
        "padding": [
            0,
            7,
            0,
            7
        ],
        "paddingInPixel": false,
        "render": true
    },
    "displaytext": true,
    "focusskin": "s7d3d0e15bfb4b849e48a24950abc225",
    "hexpand": true,
    "id": "btnAddFrmfb",
    "ide_onClick": "p2kwiet2012247644864_btnAddFrmfb_onClick_seq0",
    "info": null,
    "isvisible": true,
    "kiosk": {
        "@class": "com.kony.gen.viz.model.component.property.button.KioskButtonProperty",
        "render": true
    },
    "kuid": "p2kwiet2012247644799",
    "margininpixel": false,
    "name": "kony.ui.Button",
    "paddinginpixel": false,
    "parent": "hboxBtnContainer",
    "pf": "frmIBMyReceipentsAccounts",
    "spa": {
        "@class": "com.kony.gen.viz.model.component.property.button.SPAButtonProperty",
        "displayText": true
    },
    "vexpand": false,
    "wType": "Button",
    "widgetalignment": 5
}