{
    "DNDConfig": null,
    "_enabled_": false,
    "_padding_": [
        0,
        0,
        0,
        0
    ],
    "_skin_": "s3078a7e949b453491538f9eb9b4f666",
    "_text_": "",
    "canUpdateUI": true,
    "containerweight": 2,
    "contentalignment": 5,
    "desktopweb": {
        "@class": "com.kony.gen.viz.model.component.property.button.DesktopWebButtonProperty",
        "_margin_": [
            40,
            0,
            0,
            0
        ],
        "_padding_": [
            2,
            0,
            0,
            23
        ],
        "displayText": true,
        "margin": [
            40,
            0,
            0,
            0
        ],
        "marginInPixel": false,
        "padding": [
            2,
            0,
            0,
            23
        ],
        "paddingInPixel": false,
        "render": true
    },
    "displaytext": true,
    "focusskin": "s94b540087294553bb11a65d8e23b49e",
    "hexpand": true,
    "id": "btnAddAccount",
    "ide_onClick": "p2kwiet2012247644864_btnAddAccount_onClick_seq0",
    "info": null,
    "isvisible": true,
    "kiosk": {
        "@class": "com.kony.gen.viz.model.component.property.button.KioskButtonProperty",
        "render": true
    },
    "kuid": "p2kwiet2012247644829",
    "name": "kony.ui.Button",
    "paddinginpixel": false,
    "parent": "hboxRcAccountsTitle",
    "pf": "frmIBMyReceipentsAccounts",
    "spa": {
        "@class": "com.kony.gen.viz.model.component.property.button.SPAButtonProperty",
        "displayText": true
    },
    "vexpand": false,
    "wType": "Button",
    "widgetalignment": 6
}