{
    "DNDConfig": null,
    "_data_": [],
    "_enabled_": false,
    "_indicator_": "none",
    "_margin_": [
        0,
        0,
        0,
        0
    ],
    "_orientation_": 2,
    "_padding_": [
        0,
        0,
        0,
        0
    ],
    "_skin_": "seg2Normal",
    "canUpdateUI": true,
    "containerheightreference": 1,
    "containerweight": 100,
    "context": {
        "channel": "mobile",
        "formID": "AdvancedWidgetsSegements",
        "templateType": "segments",
        "topLevelBox": false
    },
    "counter": 3,
    "desktopweb": {
        "@class": "com.kony.gen.viz.model.container.property.segment2.DesktopWebSegment2Property",
        "_padding_": [
            0,
            0,
            0,
            0
        ],
        "padding": [
            0,
            0,
            0,
            0
        ],
        "paddingInPixel": false,
        "render": true
    },
    "focusedindex": null,
    "focuseditem": null,
    "groupcells": false,
    "hasSections": false,
    "hiddencolumns": {
        "selectedBankCD": "text"
    },
    "id": "segmentRcAccounts",
    "ide_onRowClick": "p2kwiet2012247644864_segmentRcAccounts_onRowClick_seq0",
    "info": null,
    "isvisible": true,
    "kiosk": {
        "@class": "com.kony.gen.viz.model.container.property.segment2.KioskSegment2Property",
        "render": true
    },
    "kuid": "p2kwiet2012247644831",
    "layoutalignment": 3,
    "layouttype": 0,
    "margininpixel": false,
    "name": "kony.ui.SegmentedUI2",
    "needpageindicator": true,
    "paddinginpixel": false,
    "paginationconfig": {
        "position": "bottom"
    },
    "parent": "scrollboxRcAccounts",
    "pf": "frmIBMyReceipentsAccounts",
    "retainselection": false,
    "rowTemplateId": "p2kwiet2012247652096",
    "rowcounter": 2,
    "rowfocusskin": "sbbc7f0678bf4c678c40fe82030b9661",
    "rowskin": "s01e0182a4d14a4da5e4e707eafeea1b",
    "rowtemplate": "hbox1010001831110156",
    "screenlevelwidget": false,
    "scrollingevents": false,
    "seccounter": 0,
    "sectionheaderskin": "s9bd6d2f2f8c4fce89dae24cc47abe06",
    "selectedRows": null,
    "selectedState": false,
    "selectedindex": null,
    "selectedindices": null,
    "selecteditems": null,
    "selectedsectionindex": 0,
    "selectionbehavior": "default",
    "selectionbehaviorconfig": {},
    "separatorcolor": "bebebe00",
    "separatorrequired": true,
    "separatorthickness": 1,
    "showscrollbars": false,
    "spa": {
        "@class": "com.kony.gen.viz.model.container.property.segment2.SPASegment2Property"
    },
    "viewtype": "tableview",
    "wType": "Segment",
    "widgetalignment": 1,
    "widgetdatamap": {
        "IBReceipentsFavoriteAccntTemplate": "IBReceipentsFavoriteAccntTemplate",
        "bankLogo": "bankLogo",
        "btnTransfer": "btnTransfer",
        "btnfav": "btnfav",
        "hBoxBank": "hBoxBank",
        "hbox1010001831110156": "hbox1010001831110156",
        "hbox390245065361989": "hbox390245065361989",
        "hboxAccountName": "hboxAccountName",
        "hboxNickName": "hboxNickName",
        "hboxNumber": "hboxNumber",
        "image21009972040133621": "image21009972040133621",
        "image2101000182910434": "image2101000182910434",
        "image21010001831146608": "image21010001831146608",
        "lblAccountName": "lblAccountName",
        "lblAccountNameTitle": "lblAccountNameTitle",
        "lblBankName": "lblBankName",
        "lblNickName": "lblNickName",
        "lblNickNameTitle": "lblNickNameTitle",
        "lblNumber": "lblNumber",
        "lblNumberTitle": "lblNumberTitle",
        "vboxRcDataMain": "vboxRcDataMain"
    }
}