{
    "@class": "com.kony.gen.viz.model.component.KVizButton",
    "DNDConfig": null,
    "__parentReadjusting__": false,
    "_height_": {
        "type": "string",
        "value": "100%"
    },
    "_left_": {
        "type": "string",
        "value": "0dp"
    },
    "_margin_": [
        6,
        6,
        6,
        6
    ],
    "_padding_": [
        0,
        0,
        0,
        0
    ],
    "_skin_": "s79822a23a114b70b6a9a9389e690e70",
    "_text_": "Search",
    "_top_": {
        "type": "string",
        "value": "0dp"
    },
    "_width_": {
        "type": "string",
        "value": "50%"
    },
    "canUpdateUI": true,
    "containerweight": 100,
    "contentalignment": 5,
    "disabledSkins": {},
    "displaytext": true,
    "focusskin": "s79822a23a114b70b6a9a9389e690e70",
    "id": "ButtonSearch",
    "info": null,
    "iphone": {
        "psp": {
            "showProgressIndicator": false
        }
    },
    "isvisible": true,
    "kuid": "j6e07947e83a4e1dbb0578376dc00dc8",
    "name": "kony.ui.Button",
    "parent": "FlexTab",
    "pf": "frmMFSeachFundPurchaseMB",
    "showprogressindicator": false,
    "wType": "Button",
    "zindex": 1
}