{
    "@class": "com.kony.gen.viz.model.container.KVizSegment2",
    "DNDConfig": null,
    "__parentReadjusting__": false,
    "_data_": [
        {
            "FundShortName": {
                "@class": "com.viz.ide.model.segment.SimpleTextSegmentData",
                "text": "Fund Name"
            },
            "LabelFundFullName": {
                "@class": "com.viz.ide.model.segment.SimpleTextSegmentData",
                "text": "Good Corporate Governance blah blah"
            },
            "imgWowPoint": {
                "@class": "com.viz.ide.model.segment.ImageSegmentData",
                "src": ""
            }
        },
        {
            "FundShortName": {
                "@class": "com.viz.ide.model.segment.SimpleTextSegmentData",
                "text": "Fund Name"
            },
            "LabelFundFullName": {
                "@class": "com.viz.ide.model.segment.SimpleTextSegmentData",
                "text": "Good Corporate Governance blah blah"
            },
            "imgWowPoint": {
                "@class": "com.viz.ide.model.segment.ImageSegmentData",
                "src": ""
            }
        },
        {
            "FundShortName": {
                "@class": "com.viz.ide.model.segment.SimpleTextSegmentData",
                "text": "Fund Name"
            },
            "LabelFundFullName": {
                "@class": "com.viz.ide.model.segment.SimpleTextSegmentData",
                "text": "Good Corporate Governance blah blah"
            },
            "imgWowPoint": {
                "@class": "com.viz.ide.model.segment.ImageSegmentData",
                "src": ""
            }
        }
    ],
    "_height_": {
        "type": "ref",
        "value": "preferred"
    },
    "_indicator_": "none",
    "_left_": {
        "type": "string",
        "value": "0dp"
    },
    "_margin_": [
        0,
        0,
        0,
        0
    ],
    "_orientation_": 2,
    "_padding_": [
        0,
        0,
        0,
        0
    ],
    "_top_": {
        "type": "string",
        "value": "0%"
    },
    "_width_": {
        "type": "string",
        "value": "100%"
    },
    "autogrowmode": 1,
    "canUpdateUI": true,
    "containerweight": 100,
    "counter": "02",
    "disabledSkins": {},
    "enabledictionary": false,
    "focusedindex": null,
    "focuseditem": null,
    "groupcells": false,
    "hasSections": false,
    "id": "SegmentFundList",
    "info": null,
    "ipad": {
        "psp": {
            "indicator": "rowselect"
        }
    },
    "iphone": {
        "psp": {
            "enableDictionary": false,
            "indicator": "none",
            "showProgressIndicator": true
        }
    },
    "isvisible": true,
    "kuid": "e1371019490746d899a8106272226f5b",
    "masterdata": {},
    "name": "kony.ui.SegmentedUI2",
    "needpageindicator": true,
    "pageoffdotimage": "pageoffdot.png",
    "pageondotimage": "pageondot.png",
    "paginationconfig": {
        "position": "bottom"
    },
    "parent": "FlexScrollListFund",
    "pf": "frmMFSeachFundPurchaseMB",
    "retainselection": false,
    "rowTemplateId": "b030b1cfc2844759b93dd266bf8d1ec4",
    "rowcounter": 2,
    "rowfocusskin": "s01e0182a4d14a4da5e4e707eafeea1b",
    "rowskin": "s01e0182a4d14a4da5e4e707eafeea1b",
    "rowtemplate": "FlexContainerMFFundName",
    "screenlevelwidget": false,
    "seccounter": 0,
    "sectionHeaderTemplateId": null,
    "sectionheaderskin": "s8bfadf7251c4abfa23d31af10ef7493",
    "selectedRows": null,
    "selectedState": false,
    "selectedindex": null,
    "selectedindices": null,
    "selecteditems": null,
    "selectedsectionindex": 0,
    "selectionbehavior": "default",
    "separatorrequired": false,
    "showprogressindicator": true,
    "showscrollbars": false,
    "viewtype": "tableview",
    "wType": "Segment",
    "widgetalignment": 5,
    "widgetdatamap": {
        "CopyFlexContainer0aa22f29c960d4d": "CopyFlexContainer0aa22f29c960d4d",
        "FlexContainerMFFundName": "FlexContainerMFFundName",
        "FundShortName": "FundShortName",
        "LabelFundFullName": "LabelFundFullName",
        "imgWowPoint": "imgWowPoint"
    },
    "zindex": 1
}