{
    "DNDConfig": null,
    "__parentReadjusting__": false,
    "_height_": {
        "type": "ref",
        "value": "preferred"
    },
    "_left_": {
        "type": "string",
        "value": "3%"
    },
    "_margin_": [
        0,
        0,
        0,
        0
    ],
    "_orientation_": 6,
    "_padding_": [
        0,
        0,
        0,
        0
    ],
    "_percent_": true,
    "_skin_": "s4e4a93dc3bb42cfbd8eaf003f506c1a",
    "_top_": {
        "type": "string",
        "value": "5dp"
    },
    "_width_": {
        "type": "string",
        "value": "94%"
    },
    "allboxes": [],
    "autogrowmode": 1,
    "canUpdateUI": true,
    "children": [
        "flxFundSource",
        "flxTargetFund",
        "flxSwitchingMethod",
        "flxTransaction",
        "CopyflxSwitchingMethod0b5d7c5491bad45"
    ],
    "clipbounds": true,
    "containerweight": 100,
    "enablescrolling": true,
    "id": "flexDetails",
    "info": null,
    "isvisible": true,
    "kuid": "d69e9618ff214ca48f185677e0314a9f",
    "layouttype": 4,
    "name": "kony.ui.FlexContainer",
    "parent": "FlexMainContainer",
    "pf": "frmMFSwitchCompleteMB",
    "snapgridsize": 10,
    "snaptogrid": true,
    "wType": "FlexContainer",
    "widgetalignment": 1,
    "zindex": 1
}