{
    "DNDConfig": null,
    "_enabled_": false,
    "_margin_": [
        3,
        0,
        3,
        0
    ],
    "_orientation_": 1,
    "_padding_": [
        0,
        0,
        0,
        0
    ],
    "_percent_": true,
    "_position_": 3,
    "_resize_": true,
    "_skin_": "scc56c8e7ddf448d8cab3882989deef9",
    "allboxes": [],
    "android": {
        "@class": "com.kony.gen.viz.model.container.property.hbox.AndroidHBoxProperty",
        "_margin_": [
            3,
            0,
            3,
            0
        ],
        "_position_": 3,
        "margin": [
            3,
            0,
            3,
            0
        ],
        "marginInPixel": false,
        "position": 3,
        "render": true
    },
    "borderCollapse": false,
    "canUpdateUI": true,
    "children": [
        "CopyvbxRepeatAs0bb65380b256942",
        "CopyvbxRepeatAs0fbdaf3760adc4a"
    ],
    "containerweight": 100,
    "id": "hbxSenderNotes",
    "info": null,
    "iphone": {
        "@class": "com.kony.gen.viz.model.container.property.hbox.IPhoneHBoxProperty",
        "_margin_": [
            3,
            0,
            3,
            0
        ],
        "_position_": 3,
        "margin": [
            3,
            0,
            3,
            0
        ],
        "marginInPixel": false,
        "position": 3,
        "render": true
    },
    "isvisible": false,
    "kuid": "h72b690f296441eaaf2bbb383df18b11",
    "layoutalignment": 3,
    "margininpixel": false,
    "name": "kony.ui.Box",
    "paddinginpixel": false,
    "parent": "vbxPart3",
    "pf": "frmTransfersAckCalendar",
    "spa": {
        "@class": "com.kony.gen.viz.model.container.property.hbox.SPAHBoxProperty"
    },
    "spaan": {
        "@class": "com.kony.gen.viz.model.container.property.hbox.SPAAndroidHBoxProperty",
        "_margin_": [
            3,
            0,
            3,
            0
        ],
        "margin": [
            3,
            0,
            3,
            0
        ],
        "marginInPixel": false,
        "render": true
    },
    "spabb": {
        "@class": "com.kony.gen.viz.model.container.property.hbox.SPABBHBoxProperty",
        "_margin_": [
            3,
            0,
            3,
            0
        ],
        "margin": [
            3,
            0,
            3,
            0
        ],
        "marginInPixel": false,
        "render": true
    },
    "spaip": {
        "@class": "com.kony.gen.viz.model.container.property.hbox.SPAIPhoneHBoxProperty",
        "_margin_": [
            3,
            0,
            3,
            0
        ],
        "margin": [
            3,
            0,
            3,
            0
        ],
        "marginInPixel": false,
        "render": true
    },
    "spawinphone8": {
        "@class": "com.kony.gen.viz.model.container.property.hbox.SPAWinPhone8HBoxProperty",
        "_margin_": [
            3,
            0,
            3,
            0
        ],
        "margin": [
            3,
            0,
            3,
            0
        ],
        "marginInPixel": false,
        "render": true
    },
    "templateType": "forms",
    "wType": "HBox",
    "widgetalignment": 1,
    "winphone8": {
        "@class": "com.kony.gen.viz.model.container.property.hbox.WinPhone8HBoxProperty",
        "_margin_": [
            3,
            0,
            3,
            0
        ],
        "_position_": 3,
        "margin": [
            3,
            0,
            3,
            0
        ],
        "marginInPixel": false,
        "position": 3,
        "psp": {
            "enableCache": false
        },
        "render": true
    }
}