{
    "@class": "com.kony.gen.viz.model.component.KVizLine",
    "DNDConfig": null,
    "_margin_": [
        0,
        0,
        0,
        0
    ],
    "_padding_": [
        0,
        0,
        0,
        0
    ],
    "_skin_": "s39db7d025404e4b94521036cef4b99f",
    "_thickness_": 1,
    "canUpdateUI": true,
    "containerWeightLocked": false,
    "containerweight": 100,
    "id": "LineSavePopup",
    "info": null,
    "iscustomlayout": false,
    "isvisible": true,
    "kuid": "i5fcd040d2d14106bd7e7796cb2e61c1",
    "name": "kony.ui.Line",
    "parent": "sboxRight",
    "pf": "frmTransfersAckCalendar",
    "retaincontentalignment": false,
    "retainflexpositionproperties": false,
    "wType": "Line"
}