{
    "DNDConfig": null,
    "_enabled_": false,
    "_margin_": [
        0,
        0,
        0,
        0
    ],
    "_padding_": [
        8,
        0,
        4,
        1
    ],
    "_skin_": "sa05d1814f0646ff809203c1e62d7ea0",
    "_text_": "",
    "canUpdateUI": true,
    "containerweight": 42,
    "contentalignment": 5,
    "desktopweb": {
        "@class": "com.kony.gen.viz.model.component.property.button.DesktopWebButtonProperty",
        "_margin_": [
            0,
            1,
            2,
            0
        ],
        "_padding_": [
            8,
            0,
            4,
            1
        ],
        "displayText": true,
        "margin": [
            0,
            1,
            2,
            0
        ],
        "marginInPixel": false,
        "padding": [
            8,
            0,
            4,
            1
        ],
        "paddingInPixel": false,
        "render": true
    },
    "displaytext": true,
    "focusskin": "sb851d93eb1f467187bbfb6864c4d174",
    "hexpand": true,
    "id": "btnCancel",
    "ide_onClick": "p2kwiet2012247650955_btnCancel_onClick_seq0",
    "info": null,
    "isvisible": true,
    "kiosk": {
        "@class": "com.kony.gen.viz.model.component.property.button.KioskButtonProperty",
        "_margin_": [
            0,
            1,
            2,
            0
        ],
        "_padding_": [
            8,
            0,
            4,
            1
        ],
        "margin": [
            0,
            1,
            2,
            0
        ],
        "marginInPixel": false,
        "padding": [
            8,
            0,
            4,
            1
        ],
        "paddingInPixel": false,
        "render": true
    },
    "kuid": "p2kwiet2012247650951",
    "margininpixel": false,
    "name": "kony.ui.Button",
    "paddinginpixel": false,
    "parent": "hbox44747680938086",
    "pf": "popUpIBXfersNwFailure",
    "spa": {
        "@class": "com.kony.gen.viz.model.component.property.button.SPAButtonProperty",
        "displayText": true
    },
    "texti18n": "keyCancelButton",
    "vexpand": false,
    "wType": "Button",
    "widgetalignment": 7
}