{
    "DNDConfig": null,
    "_enabled_": false,
    "_skin_": "s83a2d20a7614328b9020f30cc8e707e",
    "_text_": "",
    "_wrapping_": 2,
    "canUpdateUI": true,
    "containerweight": 7,
    "contentalignment": 4,
    "desktopweb": {
        "@class": "com.kony.gen.viz.model.component.property.label.DesktopWebLabelProperty",
        "_margin_": [
            0,
            0,
            0,
            0
        ],
        "_padding_": [
            2,
            1,
            0,
            1
        ],
        "margin": [
            0,
            0,
            0,
            0
        ],
        "marginInPixel": false,
        "padding": [
            2,
            1,
            0,
            1
        ],
        "paddingInPixel": false,
        "psp": {
            "textCopyable": false
        },
        "render": true
    },
    "hexpand": false,
    "id": "label10107168132696",
    "info": null,
    "isvisible": true,
    "kiosk": {
        "@class": "com.kony.gen.viz.model.component.property.label.KioskLabelProperty",
        "render": true
    },
    "kuid": "p2kwiet2012247645091",
    "name": "kony.ui.Label",
    "parent": "hbox10107168132694",
    "pf": "frmIBMyReceipentsAddContactManually",
    "spa": {
        "@class": "com.kony.gen.viz.model.component.property.label.SPALabelProperty",
        "psp": {
            "textCopyable": false
        }
    },
    "texti18n": "Receipent_FacebookID",
    "tooltip": "",
    "vexpand": false,
    "wType": "Label",
    "widgetalignment": 4
}