{
    "DNDConfig": null,
    "_enabled_": false,
    "_margin_": [
        0,
        5,
        0,
        5
    ],
    "_padding_": [
        0,
        0,
        0,
        0
    ],
    "_skin_": "s448600326824d79a6940df1dbfd429c",
    "_text_": "",
    "canUpdateUI": true,
    "containerweight": 96,
    "contentalignment": 4,
    "desktopweb": {
        "@class": "com.kony.gen.viz.model.component.property.link.DesktopWebLinkProperty",
        "_margin_": [
            2,
            5,
            0,
            5
        ],
        "_padding_": [
            0,
            0,
            0,
            0
        ],
        "margin": [
            2,
            5,
            0,
            5
        ],
        "marginInPixel": false,
        "padding": [
            0,
            0,
            0,
            0
        ],
        "paddingInPixel": false,
        "render": true
    },
    "focusskin": "s448600326824d79a6940df1dbfd429c",
    "hexpand": true,
    "id": "link50273743118087",
    "ide_onClick": "p2kwiet2012247645129_link50273743118087_onClick_seq0",
    "info": null,
    "isvisible": true,
    "kiosk": {
        "@class": "com.kony.gen.viz.model.component.property.link.KioskLinkProperty",
        "render": true
    },
    "kuid": "p2kwiet2012247645101",
    "margininpixel": false,
    "name": "kony.ui.Link",
    "paddinginpixel": false,
    "parent": "hbox101000183152453",
    "pf": "frmIBMyReceipentsAddContactManually",
    "spa": {
        "@class": "com.kony.gen.viz.model.component.property.link.SPALinkProperty"
    },
    "texti18n": "Receipent_AddBankAccount",
    "vexpand": false,
    "wType": "Link",
    "widgetalignment": 4
}