{
    "DNDConfig": null,
    "_enabled_": false,
    "_margin_": [
        0,
        0,
        0,
        0
    ],
    "_skin_": "s83a2d20a7614328b9020f30cc8e707e",
    "_text_": "",
    "_wrapping_": 2,
    "canUpdateUI": true,
    "containerweight": 88,
    "contentalignment": 4,
    "desktopweb": {
        "@class": "com.kony.gen.viz.model.component.property.label.DesktopWebLabelProperty",
        "_padding_": [
            2,
            1,
            0,
            1
        ],
        "padding": [
            2,
            1,
            0,
            1
        ],
        "paddingInPixel": false,
        "psp": {
            "textCopyable": false
        },
        "render": true
    },
    "hexpand": true,
    "id": "tbxFbID",
    "info": null,
    "isvisible": true,
    "kiosk": {
        "@class": "com.kony.gen.viz.model.component.property.label.KioskLabelProperty",
        "render": true
    },
    "kuid": "p2kwiet2012247645069",
    "margininpixel": false,
    "name": "kony.ui.Label",
    "parent": "hbox104300825096149",
    "pf": "frmIBMyReceipentsAddContactManually",
    "spa": {
        "@class": "com.kony.gen.viz.model.component.property.label.SPALabelProperty",
        "psp": {
            "textCopyable": false
        }
    },
    "tooltip": "",
    "vexpand": false,
    "wType": "Label",
    "widgetalignment": 4
}