{
    "DNDConfig": null,
    "__parentReadjusting__": false,
    "_height_": {
        "type": "string",
        "value": "100%"
    },
    "_left_": {
        "type": "number",
        "value": 0
    },
    "_margin_": [
        0,
        0,
        0,
        0
    ],
    "_orientation_": 6,
    "_padding_": [
        0,
        0,
        0,
        0
    ],
    "_percent_": true,
    "_skin_": "sb6449ce1dc141718cc9bad90e9a7a4e",
    "_top_": {
        "type": "number",
        "value": 0
    },
    "_width_": {
        "type": "string",
        "value": "100%"
    },
    "allboxes": [],
    "autogrowmode": 0,
    "canUpdateUI": true,
    "children": [
        "imgErrorIcon",
        "lblTryAgain",
        "flxMsgNotification"
    ],
    "clipbounds": true,
    "containerweight": 100,
    "enablescrolling": true,
    "id": "flxeKYCErrMsg",
    "info": null,
    "iscustomlayout": false,
    "isvisible": true,
    "kuid": "b7c32ceb7c1b4fca8cc4923bd06c29db",
    "layouttype": 4,
    "name": "kony.ui.FlexContainer",
    "parent": "frmEkycMobileNoErrorScreen",
    "pf": "frmEkycMobileNoErrorScreen",
    "retaincontentalignment": false,
    "retainflexpositionproperties": false,
    "snapgridsize": 10,
    "snaptogrid": true,
    "wType": "FlexContainer",
    "widgetalignment": 1,
    "zindex": 1
}