{
    "DNDConfig": null,
    "_enabled_": false,
    "_orientation_": 1,
    "_padding_": [
        0,
        2,
        0,
        2
    ],
    "_percent_": false,
    "_position_": 3,
    "_resize_": true,
    "_skin_": "s3cd729155364efe97d4fcd79c72daf8",
    "allboxes": [],
    "borderCollapse": false,
    "canUpdateUI": true,
    "children": [
        "lblAccountName",
        "tbxAccountName"
    ],
    "containerweight": 100,
    "desktopweb": {
        "@class": "com.kony.gen.viz.model.container.property.hbox.DesktopWebHBoxProperty",
        "_margin_": [
            4,
            2,
            0,
            0
        ],
        "_position_": 3,
        "margin": [
            4,
            2,
            0,
            0
        ],
        "marginInPixel": false,
        "position": 3,
        "render": true
    },
    "id": "hbxAccountName",
    "info": null,
    "isvisible": true,
    "kiosk": {
        "@class": "com.kony.gen.viz.model.container.property.hbox.KioskHBoxProperty",
        "_position_": 3,
        "position": 3,
        "render": true
    },
    "kuid": "p2kwiet2012247644051",
    "layoutalignment": 3,
    "layouttype": 0,
    "name": "kony.ui.Box",
    "paddinginpixel": false,
    "parent": "vboxAddNewAccnt",
    "pf": "frmIBMyAccnts",
    "spa": {
        "@class": "com.kony.gen.viz.model.container.property.hbox.SPAHBoxProperty"
    },
    "templateType": "forms",
    "wType": "HBox",
    "widgetalignment": 1
}