{
    "DNDConfig": null,
    "_enabled_": false,
    "_margin_": [
        0,
        0,
        0,
        0
    ],
    "_padding_": [
        0,
        0,
        0,
        0
    ],
    "_skin_": "s32f26474d1e41fcafe97345da016fec",
    "_text_": "",
    "autocapitalize": "none",
    "autocomplete": false,
    "autocorrect": false,
    "autofilter": false,
    "canUpdateUI": true,
    "containerheightmode": 1,
    "containerheightreference": 1,
    "containerweight": 17,
    "contentalignment": 4,
    "desktopweb": {
        "@class": "com.kony.gen.viz.model.component.property.textbox2.DesktopWebTextBox2Property",
        "_padding_": [
            15,
            1,
            1,
            1
        ],
        "containerHeightMode": 3,
        "ide_onBeginEditing": "p2kwiet2012247644098_txtCCNum1_DESKTOPWEB_onBeginEditing_seq0",
        "ide_onEndEditing": "p2kwiet2012247644098_txtCCNum1_DESKTOPWEB_onEndEditing_seq0",
        "ide_onKeyDown": "p2kwiet2012247644098_txtCCNum1_DESKTOPWEB_onKeyDown_seq0",
        "ide_onKeyUp": "p2kwiet2012247644098_txtCCNum1_DESKTOPWEB_onKeyUp_seq0",
        "padding": [
            15,
            1,
            1,
            1
        ],
        "paddingInPixel": false,
        "render": true
    },
    "focusskin": "s32f26474d1e41fcafe97345da016fec",
    "hexpand": true,
    "id": "txtCCNum1",
    "info": null,
    "isvisible": true,
    "keyboardstyle": "A",
    "keyboardtype": "A",
    "kiosk": {
        "@class": "com.kony.gen.viz.model.component.property.textbox2.KioskTextBox2Property",
        "render": true
    },
    "kuid": "p2kwiet2012247644028",
    "margininpixel": false,
    "maxtextlength": 4,
    "mode": "A",
    "name": "kony.ui.TextBox2",
    "paddinginpixel": false,
    "parent": "hbxCreditCardNum",
    "pf": "frmIBMyAccnts",
    "securetextentry": false,
    "spa": {
        "@class": "com.kony.gen.viz.model.component.property.textbox2.SPATextBox2Property",
        "autoCorrect": false,
        "containerHeightMode": 3
    },
    "textinputmode": "A",
    "vexpand": false,
    "viewtype": "default",
    "wType": "TextField",
    "widgetalignment": 5
}