{
    "DNDConfig": null,
    "_enabled_": false,
    "_margin_": [
        0,
        0,
        0,
        0
    ],
    "_padding_": [
        0,
        0,
        0,
        0
    ],
    "_skin_": "s060d2c7732e4ddc941e7342d3a67251",
    "_text_": "",
    "android": {
        "@class": "com.kony.gen.viz.model.component.property.button.AndroidButtonProperty",
        "_margin_": [
            5,
            3,
            6,
            3
        ],
        "_padding_": [
            0,
            0,
            0,
            0
        ],
        "displayText": true,
        "margin": [
            5,
            3,
            6,
            3
        ],
        "marginInPixel": false,
        "padding": [
            0,
            0,
            0,
            0
        ],
        "paddingInPixel": false,
        "render": false
    },
    "canUpdateUI": true,
    "containerweight": 100,
    "contentalignment": 5,
    "displaytext": true,
    "focusskin": "s060d2c7732e4ddc941e7342d3a67251",
    "hexpand": true,
    "id": "btnConfirmSPA",
    "ide_onClick": "p2kwiet2012247631565_btnConfirmSPA_onClick_seq0",
    "info": null,
    "iphone": {
        "@class": "com.kony.gen.viz.model.component.property.button.IPhoneButtonProperty",
        "_margin_": [
            6,
            3,
            6,
            3
        ],
        "_padding_": [
            0,
            2,
            0,
            2
        ],
        "displayText": true,
        "margin": [
            6,
            3,
            6,
            3
        ],
        "marginInPixel": false,
        "padding": [
            0,
            2,
            0,
            2
        ],
        "paddingInPixel": false,
        "psp": {
            "glowEffect": false
        },
        "render": false
    },
    "isvisible": true,
    "kuid": "p2kwiet2012247631560",
    "margininpixel": false,
    "name": "kony.ui.Button",
    "paddinginpixel": false,
    "parent": "sboxRight",
    "pf": "frmMBFTView",
    "spa": {
        "@class": "com.kony.gen.viz.model.component.property.button.SPAButtonProperty",
        "displayText": true
    },
    "spaan": {
        "@class": "com.kony.gen.viz.model.component.property.button.SPAAndroidButtonProperty",
        "_margin_": [
            4,
            3,
            4,
            3
        ],
        "_padding_": [
            0,
            3,
            0,
            3
        ],
        "margin": [
            4,
            3,
            4,
            3
        ],
        "marginInPixel": false,
        "padding": [
            0,
            3,
            0,
            3
        ],
        "paddingInPixel": false,
        "render": true
    },
    "spabb": {
        "@class": "com.kony.gen.viz.model.component.property.button.SPABBButtonProperty",
        "_margin_": [
            4,
            0,
            4,
            3
        ],
        "_padding_": [
            0,
            3,
            0,
            3
        ],
        "margin": [
            4,
            0,
            4,
            3
        ],
        "marginInPixel": false,
        "padding": [
            0,
            3,
            0,
            3
        ],
        "paddingInPixel": false,
        "render": true
    },
    "spaip": {
        "@class": "com.kony.gen.viz.model.component.property.button.SPAIPhoneButtonProperty",
        "_margin_": [
            4,
            5,
            4,
            5
        ],
        "_padding_": [
            0,
            3,
            0,
            3
        ],
        "margin": [
            4,
            5,
            4,
            5
        ],
        "marginInPixel": false,
        "padding": [
            0,
            3,
            0,
            3
        ],
        "paddingInPixel": false,
        "render": true
    },
    "spawinphone8": {
        "@class": "com.kony.gen.viz.model.component.property.button.SPAWinPhone8ButtonProperty",
        "render": true
    },
    "texti18n": "returnMB",
    "vexpand": false,
    "wType": "Button",
    "widgetalignment": 5,
    "winphone8": {
        "@class": "com.kony.gen.viz.model.component.property.button.WinPhone8ButtonProperty",
        "_margin_": [
            2,
            1,
            2,
            1
        ],
        "_padding_": [
            0,
            0,
            0,
            0
        ],
        "displayText": true,
        "margin": [
            2,
            1,
            2,
            1
        ],
        "marginInPixel": false,
        "padding": [
            0,
            0,
            0,
            0
        ],
        "paddingInPixel": true,
        "psp": {
            "enableCache": false
        },
        "render": false
    }
}