{
    "@class": "com.kony.gen.viz.model.component.KVizButton",
    "DNDConfig": null,
    "__parentReadjusting__": false,
    "_bottom_": {
        "type": "string",
        "value": "60dp"
    },
    "_height_": {
        "type": "string",
        "value": "10%"
    },
    "_margin_": [
        6,
        6,
        6,
        6
    ],
    "_padding_": [
        0,
        0,
        0,
        0
    ],
    "_skin_": "s7b820e1ee1243d0b1759fe1dd96e9f5",
    "_text_": "Save",
    "_width_": {
        "type": "string",
        "value": "90%"
    },
    "canUpdateUI": true,
    "centerx": {
        "type": "string",
        "value": "50%"
    },
    "containerweight": 100,
    "contentalignment": 5,
    "disabledSkins": {},
    "displaytext": true,
    "focusskin": "sb5f257d7fcf48a383a5bc7693bede2c",
    "id": "btnsave",
    "info": null,
    "iphone": {
        "psp": {
            "showProgressIndicator": false
        }
    },
    "isvisible": true,
    "kuid": "b66b28292687440d947371b85ff351e8",
    "name": "kony.ui.Button",
    "parent": "flexPaymentPopup",
    "pf": "frmFacilityInformation",
    "texti18n": "MF_RDM_30",
    "wType": "Button",
    "zindex": 1
}