{
    "DNDConfig": null,
    "__parentReadjusting__": false,
    "_height_": {
        "type": "string",
        "value": "40dp"
    },
    "_left_": {
        "type": "string",
        "value": "5%"
    },
    "_margin_": [
        0,
        0,
        0,
        0
    ],
    "_orientation_": 6,
    "_padding_": [
        0,
        0,
        0,
        0
    ],
    "_percent_": true,
    "_skin_": "sd039b0bb2724f9f846c3d4922e5c971",
    "_top_": {
        "type": "string",
        "value": "23.45%"
    },
    "_width_": {
        "type": "string",
        "value": "90%"
    },
    "allboxes": [],
    "autogrowmode": 0,
    "canUpdateUI": true,
    "children": [
        "btnDebitOld",
        "btnCashOld"
    ],
    "clipbounds": false,
    "containerweight": 100,
    "enablescrolling": true,
    "focusskin": "sd039b0bb2724f9f846c3d4922e5c971",
    "id": "flexPaymnettypeOld",
    "info": null,
    "isvisible": true,
    "kuid": "fa23b0dce6f04aee84c337a1531d6868",
    "layouttype": 2,
    "name": "kony.ui.FlexContainer",
    "parent": "flexPaymentPopup",
    "pf": "frmFacilityInformation",
    "snapgridsize": 10,
    "snaptogrid": true,
    "wType": "FlexContainer",
    "widgetalignment": 1,
    "zindex": 1
}