{
    "@class": "com.kony.gen.viz.model.component.KVizImage2",
    "DNDConfig": null,
    "__parentReadjusting__": false,
    "_base64_": null,
    "_height_": {
        "type": "string",
        "value": "20dp"
    },
    "_left_": {
        "type": "string",
        "value": "90%"
    },
    "_margin_": [
        0,
        0,
        0,
        0
    ],
    "_padding_": [
        0,
        0,
        0,
        0
    ],
    "_right_": {
        "type": "number",
        "value": "0"
    },
    "_skin_": "s55d8a5125e74bb0b2eaca75c423dae1",
    "_src_": "navarrowblue.png",
    "_top_": {
        "type": "string",
        "value": "18dp"
    },
    "_width_": {
        "type": "string",
        "value": "10dp"
    },
    "canUpdateUI": true,
    "containerweight": 100,
    "context": {
        "channel": "mobile",
        "formID": "frmFacilityInformation",
        "platform": "android",
        "templateType": "forms",
        "topLevelBox": null
    },
    "id": "imgArroowPmtCreteria",
    "imagescalemode": 1,
    "info": null,
    "isvisible": true,
    "kuid": "d3b6a0a3d1ee40488e95e6e405795f1e",
    "name": "kony.ui.Image2",
    "parent": "flexPmtCriteria",
    "pf": "frmFacilityInformation",
    "srcType": 1,
    "wType": "Image",
    "widgetalignment": 5,
    "zindex": 1
}