{
    "@class": "com.kony.gen.viz.model.component.KVizLabel",
    "DNDConfig": null,
    "__parentReadjusting__": false,
    "_height_": {
        "type": "string",
        "value": "31.67%"
    },
    "_left_": {
        "type": "string",
        "value": "4%"
    },
    "_margin_": [
        1,
        1,
        1,
        1
    ],
    "_padding_": [
        0,
        0,
        0,
        0
    ],
    "_skin_": "sa32253c28b140ff9f3f4d07bd878618",
    "_text_": "Direct Debit Account No.",
    "_top_": {
        "type": "string",
        "value": "13.57%"
    },
    "_width_": {
        "type": "string",
        "value": "80%"
    },
    "_wrapping_": 2,
    "android": {
        "textStyle": {
            "letterSpacing": 0,
            "strikeThrough": false
        }
    },
    "canUpdateUI": true,
    "containerweight": 100,
    "contentalignment": 4,
    "id": "lblDebitNo",
    "info": null,
    "ipad": {
        "psp": {
            "wrapping": 2
        }
    },
    "iphone": {
        "psp": {
            "wrapping": 2
        }
    },
    "isvisible": false,
    "kuid": "bfc206edfe5748e69e532ac10ba4c112",
    "name": "kony.ui.Label",
    "parent": "flexdebitOld",
    "pf": "frmFacilityInformation",
    "textstyle": {},
    "tooltip": "",
    "wType": "Label",
    "zindex": 1
}