{
    "@class": "com.kony.gen.viz.model.component.KVizTextBox2",
    "DNDConfig": null,
    "__parentReadjusting__": false,
    "_height_": {
        "type": "string",
        "value": "41%"
    },
    "_left_": {
        "type": "string",
        "value": "1%"
    },
    "_margin_": [
        0,
        0,
        0,
        0
    ],
    "_padding_": [
        3,
        0,
        0,
        0
    ],
    "_placeholder_": "",
    "_skin_": "s7a4fad843aa4805901f183114695b78",
    "_text_": "",
    "_top_": {
        "type": "string",
        "value": "50%"
    },
    "_width_": {
        "type": "string",
        "value": "100%"
    },
    "android": {
        "psp": {
            "keyboardActionLabel": 1
        }
    },
    "autocapitalize": "none",
    "autocomplete": false,
    "autocorrect": false,
    "autofilter": false,
    "canUpdateUI": true,
    "containerheight": "",
    "containerheightmode": 1,
    "containerweight": 100,
    "contentalignment": 4,
    "focusskin": "s7a4fad843aa4805901f183114695b78",
    "id": "txtdebitname",
    "info": null,
    "iphone": {
        "psp": {
            "pasteboardType": 4,
            "showClearButton": false,
            "showCloseButton": false
        }
    },
    "isvisible": false,
    "keyboardactionlabel": 1,
    "keyboardtype": "A",
    "kuid": "g6ff79189cc94538be1f64a3665ceaa7",
    "mode": "A",
    "name": "kony.ui.TextBox2",
    "parent": "flexdebitname",
    "pf": "frmFacilityInformation",
    "securetextentry": false,
    "textinputmode": "A",
    "viewtype": "default",
    "wType": "TextField",
    "zindex": 1
}