{
    "@class": "com.kony.gen.viz.model.component.KVizButton",
    "DNDConfig": null,
    "__parentReadjusting__": false,
    "_height_": {
        "type": "ref",
        "value": "preferred"
    },
    "_left_": {
        "type": "number",
        "value": "0"
    },
    "_margin_": [
        6,
        6,
        6,
        6
    ],
    "_padding_": [
        3,
        0,
        3,
        0
    ],
    "_skin_": "seae25c205c34fb8918b3cc8c82c281f",
    "_text_": "",
    "_top_": {
        "type": "string",
        "value": "5%"
    },
    "_width_": {
        "type": "string",
        "value": "100%"
    },
    "canUpdateUI": true,
    "centerx": {
        "type": "string",
        "value": "50%"
    },
    "containerweight": 100,
    "contentalignment": 2,
    "displaytext": true,
    "focusskin": "seae25c205c34fb8918b3cc8c82c281f",
    "id": "btnGoToAcctSum",
    "info": null,
    "iphone": {
        "psp": {
            "showProgressIndicator": false
        }
    },
    "isvisible": true,
    "kuid": "bb21ca5b79814cf3bbbe300a2aa2faf2",
    "name": "kony.ui.Button",
    "paddinginpixel": false,
    "parent": "flexBody",
    "pf": "frmUVApprovalCompletePopUpNew",
    "showprogressindicator": false,
    "texti18n": "Result_urlTxn14",
    "wType": "Button",
    "zindex": 1
}