{
    "DNDConfig": null,
    "_enabled_": false,
    "_margin_": [
        0,
        3,
        0,
        0
    ],
    "_padding_": [
        0,
        0,
        0,
        0
    ],
    "_skin_": "s560f961e9f24ce583844589baa1d94e",
    "_text_": "Cancel",
    "canUpdateUI": true,
    "containerweight": 100,
    "contentalignment": 5,
    "desktopweb": {
        "@class": "com.kony.gen.viz.model.component.property.button.DesktopWebButtonProperty",
        "_padding_": [
            0,
            0,
            0,
            0
        ],
        "displayText": true,
        "padding": [
            0,
            0,
            0,
            0
        ],
        "paddingInPixel": false,
        "render": true
    },
    "displaytext": true,
    "focusskin": "sa0e4d1b7f3645199287271b84bea1d8",
    "hexpand": true,
    "id": "btnForPassCancel",
    "ide_onClick": "p2kwiet2012247650858_btnForPassCancel_onClick_seq0",
    "info": null,
    "isvisible": true,
    "kiosk": {
        "@class": "com.kony.gen.viz.model.component.property.button.KioskButtonProperty",
        "render": true
    },
    "kuid": "p2kwiet2012247650853",
    "margininpixel": false,
    "name": "kony.ui.Button",
    "paddinginpixel": false,
    "parent": "hbxPopupTracbtn",
    "pf": "popupIBForgotPassword",
    "spa": {
        "@class": "com.kony.gen.viz.model.component.property.button.SPAButtonProperty",
        "displayText": true
    },
    "texti18n": "keyClose",
    "vexpand": false,
    "wType": "Button",
    "widgetalignment": 5
}