{
    "DNDConfig": null,
    "_enabled_": false,
    "_margin_": [
        0,
        0,
        0,
        3
    ],
    "_padding_": [
        0,
        0,
        0,
        0
    ],
    "_skin_": "s1a9b23f47234aff8b7d54abd30885c3",
    "_text_": "Forgot Password ?",
    "_wrapping_": 2,
    "canUpdateUI": true,
    "containerweight": 100,
    "contentalignment": 4,
    "desktopweb": {
        "@class": "com.kony.gen.viz.model.component.property.label.DesktopWebLabelProperty",
        "psp": {
            "textCopyable": false
        },
        "render": false
    },
    "hexpand": true,
    "id": "lblForgotpass",
    "info": null,
    "isvisible": false,
    "kiosk": {
        "@class": "com.kony.gen.viz.model.component.property.label.KioskLabelProperty",
        "render": false
    },
    "kuid": "p2kwiet2012247650852",
    "margininpixel": false,
    "name": "kony.ui.Label",
    "paddinginpixel": false,
    "parent": "vbox864977231643739",
    "pf": "popupIBForgotPassword",
    "spa": {
        "@class": "com.kony.gen.viz.model.component.property.label.SPALabelProperty",
        "psp": {
            "textCopyable": false
        }
    },
    "texti18n": "forPass",
    "tooltip": "",
    "vexpand": false,
    "wType": "Label",
    "widgetalignment": 5
}