{
    "DNDConfig": null,
    "__parentReadjusting__": false,
    "_height_": {
        "type": "string",
        "value": "100%"
    },
    "_left_": {
        "type": "string",
        "value": "0dp"
    },
    "_margin_": [
        0,
        0,
        0,
        0
    ],
    "_padding_": [
        0,
        0,
        0,
        0
    ],
    "_skin_": "s35553cbdcd64d06b81e2dc5d27f1b06",
    "_top_": {
        "type": "number",
        "value": "0"
    },
    "_width_": {
        "type": "string",
        "value": "100%"
    },
    "allboxes": [],
    "allowhorizontalbounce": true,
    "allowverticalbounce": true,
    "android": {
        "@class": "com.kony.gen.viz.model.container.property.scrollflexcontainer.AndroidScrollFlexContainerProperty",
        "render": true
    },
    "bounces": false,
    "canUpdateUI": true,
    "children": [
        "flxSubheader",
        "flexLineUp",
        "FlexIssueDate",
        "Line1",
        "FlexExpireDate",
        "Line2",
        "FlexExpireDateToggle",
        "Line3"
    ],
    "containerweight": 0,
    "contentoffset": {},
    "contentsize": {},
    "defaultunit": 2,
    "enablescrolling": true,
    "horizontalscrollindicator": true,
    "id": "flexBodyScroll",
    "iphone": {
        "@class": "com.kony.gen.viz.model.container.property.scrollflexcontainer.IPhoneScrollFlexContainerProperty",
        "psp": {
            "bouncesZoom": true,
            "maxZoomScale": 1,
            "minZoomScale": 1,
            "zoomScale": 1
        },
        "render": true
    },
    "isvisible": true,
    "kuid": "f2b76aa828194b4ab5eb3511c6a4a90c",
    "layouttype": 4,
    "margininpixel": false,
    "name": "kony.ui.FlexScrollContainer",
    "paddinginpixel": false,
    "pagingenabled": false,
    "parent": "frmMBeKYCCitezenIDInfo",
    "pf": "frmMBeKYCCitezenIDInfo",
    "scrolldirection": 2,
    "spa": {
        "@class": "com.kony.gen.viz.model.container.property.scrollflexcontainer.SPAScrollFlexContainerProperty"
    },
    "spaan": {
        "@class": "com.kony.gen.viz.model.container.property.scrollflexcontainer.SPAAndroidScrollFlexContainerProperty",
        "render": true
    },
    "spabb": {
        "@class": "com.kony.gen.viz.model.container.property.scrollflexcontainer.SPABBScrollFlexContainerProperty",
        "render": false
    },
    "spaip": {
        "@class": "com.kony.gen.viz.model.container.property.scrollflexcontainer.SPAIPhoneScrollFlexContainerProperty",
        "render": true
    },
    "spawinphone8": {
        "@class": "com.kony.gen.viz.model.container.property.scrollflexcontainer.SPAWinPhone8ScrollFlexContainerProperty",
        "render": true
    },
    "verticalscrollindicator": true,
    "wType": "FlexScrollContainer",
    "widgetalignment": 1,
    "winphone8": {
        "@class": "com.kony.gen.viz.model.container.property.scrollflexcontainer.WinPhone8ScrollFlexContainerProperty",
        "psp": {
            "enableCache": false
        },
        "render": true
    },
    "zindex": 1
}