{
    "@class": "com.kony.gen.viz.model.component.KVizLabel",
    "DNDConfig": null,
    "__parentReadjusting__": false,
    "_height_": {
        "type": "ref",
        "value": "preferred"
    },
    "_left_": {
        "type": "string",
        "value": "0"
    },
    "_margin_": [
        1,
        1,
        1,
        1
    ],
    "_padding_": [
        5,
        0,
        0,
        0
    ],
    "_skin_": "s68586940db64378a6b99ca0d85b420d",
    "_text_": "No Expiration Date",
    "_top_": {
        "type": "number",
        "value": "0"
    },
    "_width_": {
        "type": "string",
        "value": "100%"
    },
    "_wrapping_": 2,
    "android": {
        "textStyle": {
            "letterSpacing": 0,
            "strikeThrough": false
        }
    },
    "canUpdateUI": true,
    "centery": {
        "type": "string",
        "value": "50%"
    },
    "containerweight": 100,
    "contentalignment": 4,
    "id": "lblNoExpire",
    "info": null,
    "ipad": {
        "psp": {
            "wrapping": 2
        }
    },
    "iphone": {
        "psp": {
            "wrapping": 2
        }
    },
    "iscustomlayout": false,
    "isvisible": true,
    "kuid": "j991ff83a8444c7791063d0c3829f51f",
    "name": "kony.ui.Label",
    "paddinginpixel": false,
    "parent": "flxSubExp",
    "pf": "frmMBeKYCCitezenIDInfo",
    "retaincontentalignment": false,
    "retainflexpositionproperties": false,
    "texti18n": "CID_NeverExpired",
    "textstyle": {},
    "tooltip": "",
    "wType": "Label",
    "zindex": 1
}