{
    "@class": "com.kony.gen.viz.model.component.KVizTextBox2",
    "DNDConfig": null,
    "__parentReadjusting__": false,
    "_height_": {
        "type": "string",
        "value": "50dp"
    },
    "_margin_": [
        0,
        0,
        0,
        0
    ],
    "_padding_": [
        0,
        0,
        0,
        0
    ],
    "_placeholder_": "",
    "_skin_": "sce8557e175141d4a0f47f7babe97936",
    "_text_": "",
    "_top_": {
        "type": "string",
        "value": "15dp"
    },
    "_width_": {
        "type": "string",
        "value": "75%"
    },
    "autocapitalize": "all",
    "autocomplete": false,
    "autocorrect": false,
    "autofilter": false,
    "canUpdateUI": true,
    "centerx": {
        "type": "string",
        "value": "50%"
    },
    "containerheight": "",
    "containerheightmode": 1,
    "containerweight": 100,
    "contentalignment": 5,
    "disabledSkins": {},
    "focusskin": "sce8557e175141d4a0f47f7babe97936",
    "id": "txtLaserCode",
    "info": null,
    "iscustomlayout": false,
    "isvisible": false,
    "keyboardtype": "A",
    "kuid": "j86f73288e8c47e7a32197e744c91179",
    "maxtextlength": 14,
    "mode": "A",
    "name": "kony.ui.TextBox2",
    "paddinginpixel": false,
    "parent": "flxSubheader",
    "pf": "frmMBeKYCCitezenIDInfo",
    "placeholderskin": "s6f3e349b0364a6ca559f73d9c7fd3d5",
    "retaincontentalignment": false,
    "retainflexpositionproperties": false,
    "securetextentry": false,
    "textinputmode": "A",
    "tooltip": "",
    "viewtype": "default",
    "wType": "TextField",
    "zindex": 1
}