{
    "DNDConfig": null,
    "_enabled_": false,
    "_margin_": [
        0,
        0,
        0,
        0
    ],
    "_padding_": [
        0,
        0,
        0,
        0
    ],
    "_skin_": "s030b487403c4769b57959ce5ee61f0c",
    "_title_": "",
    "addWidgetsdone": false,
    "allboxes": [],
    "canUpdateUI": true,
    "canvasWidth": 1400,
    "children": [
        "hbxBPAll"
    ],
    "containerheightreference": 1,
    "containerweight": 100,
    "controllerInfo": {
        "default": {
            "channel": "desktop"
        }
    },
    "currentLocale": "en_US",
    "desktopweb": {
        "@class": "com.kony.gen.viz.model.container.property.form.DesktopWebFormProperty",
        "ide_onDeviceBack": "p2kwiet2012247645667_frmIBOpenActSelProd_DESKTOPWEB_onDeviceBack_seq0",
        "inTransitionConfig": {
            "formTransition": "none"
        },
        "isModal": false,
        "needAppMenu": true,
        "outTransitionConfig": {
            "formTransition": "none"
        },
        "psp": {
            "dockableAppMenu": true,
            "dockableFooter": true,
            "dockableHeader": true,
            "draggable": false,
            "minimizeOnLostFocus": false,
            "resizable": false
        },
        "render": true
    },
    "device": "desktopweb",
    "displayorientation": 3,
    "enabledforidletimeout": true,
    "footer": "frmIBMFSuitTest_footer",
    "footeroverlap": false,
    "footersId": "p2kwiet2012247651270",
    "header": "frmIBMFSuitTest_header",
    "headeroverlap": false,
    "headersId": "p2kwiet2012247651174",
    "id": "frmIBMFSuitTest",
    "ide_postShow": "AS_Form_f6be6843f3384bb5b0dcf35d32a2a549",
    "info": null,
    "initdone": false,
    "ismodal": false,
    "isvisible": true,
    "kiosk": {
        "@class": "com.kony.gen.viz.model.container.property.form.KioskFormProperty",
        "inTransitionConfig": {
            "transitionSpeed": 0
        },
        "needAppMenu": true,
        "outTransitionConfig": {
            "transitionSpeed": 0
        },
        "psp": {
            "animateHeaderFooter": false
        },
        "render": true
    },
    "kuid": "ce11c28ff1c040fb8e1e49b18b64505d",
    "layouttype": 0,
    "margininpixel": false,
    "menuposition": 2,
    "name": "kony.ui.Form2",
    "needappmenu": true,
    "paddinginpixel": false,
    "percent": true,
    "platform": "desktopweb",
    "prevDevice": "desktopweb",
    "prevPlatform": "desktopweb",
    "restorewidgetprototypes": true,
    "retainscrollposition": false,
    "shellCSS": "desktop",
    "spa": {
        "@class": "com.kony.gen.viz.model.container.property.form.SPAFormProperty",
        "isModal": false,
        "needAppMenu": false,
        "psp": {
            "dockableAppMenu": true,
            "dockableFooter": true,
            "dockableHeader": true
        }
    },
    "templateType": "forms",
    "titleBarSkin": "s4d78696e6a449938115e90fb37d4124",
    "titlebar": true,
    "transparencybehindthepopup": 100,
    "type": 3,
    "wType": "Form",
    "widgetalignment": 1
}