{
    "@class": "com.kony.gen.viz.model.component.KVizLabel",
    "DNDConfig": null,
    "__markedForDelete__": true,
    "_margin_": [
        2,
        1,
        1,
        0
    ],
    "_padding_": [
        0,
        0,
        0,
        0
    ],
    "_skin_": "s1cea515e85b4b3b98c5c8cd183bcc10",
    "_text_": "(5) My savings is sufficient for over 7 years of expenses",
    "_wrapping_": 2,
    "android": {
        "textStyle": {
            "letterSpacing": 0,
            "strikeThrough": false
        }
    },
    "canUpdateUI": true,
    "containerweight": 80,
    "contentalignment": 1,
    "donotUpdateContainerWeight": false,
    "id": "lblAnswer5",
    "info": null,
    "ipad": {
        "psp": {
            "wrapping": 2
        }
    },
    "iphone": {
        "psp": {
            "wrapping": 2
        }
    },
    "isvisible": true,
    "kuid": "f04a89acdf7147e2a0f35b901ea65393",
    "margininpixel": false,
    "name": "kony.ui.Label",
    "paddInPixel": [
        0,
        0,
        0,
        0
    ],
    "parent": "hbxAnswer5",
    "pf": "frmIBMFSuitTest",
    "tooltip": "",
    "wType": "Label",
    "widgetalignment": 1
}