{
    "@class": "com.kony.gen.viz.model.component.KVizLink",
    "DNDConfig": null,
    "_margin_": [
        0,
        0,
        0,
        0
    ],
    "_padding_": [
        0,
        0,
        0,
        0
    ],
    "_skin_": "s4827b9a014c4c64aef88304ed4f0a0b",
    "_text_": "",
    "canUpdateUI": true,
    "containerweight": 25,
    "contentalignment": 5,
    "desktopweb": {
        "psp": {
            "hoverSkin": "s878b21070784d2492b60c278b244c14"
        }
    },
    "donotUpdateContainerWeight": false,
    "id": "lblPurchase",
    "ide_onClick": "AS_Link_j17b87f332974e5d9171d69eecb865f8",
    "info": null,
    "isvisible": true,
    "kuid": "ae3df6c3343e4385ae0e5b1a38a21d91",
    "name": "kony.ui.Link",
    "paddInPixel": [
        0,
        0,
        0,
        0
    ],
    "parent": "hbxLinks",
    "pf": "frmIBMFSuitTest",
    "texti18n": "key_MF_Purchase",
    "wType": "Link"
}