{
    "@class": "com.kony.gen.viz.model.component.KVizLine",
    "DNDConfig": null,
    "_margin_": [
        0,
        0,
        0,
        0
    ],
    "_padding_": [
        0,
        0,
        0,
        0
    ],
    "_skin_": "sc36a5f9a4cd4e049a1e4f8c9d40f9a8",
    "_thickness_": 1,
    "canUpdateUI": true,
    "containerWeightLocked": false,
    "containerweight": 100,
    "id": "line4",
    "info": null,
    "isvisible": true,
    "kuid": "dfacfb8356374cbbb8fce0d776e0eec6",
    "name": "kony.ui.Line",
    "paddInPixel": [
        0,
        0,
        0,
        0
    ],
    "parent": "vbxLine4",
    "pf": "frmIBMFSuitTest",
    "wType": "Line"
}