{
    "@class": "com.kony.gen.viz.model.container.KVizVBox",
    "DNDConfig": null,
    "_margin_": [
        0,
        0,
        0,
        0
    ],
    "_orientation_": 2,
    "_padding_": [
        0,
        0,
        0,
        0
    ],
    "_percent_": true,
    "_position_": 3,
    "_skin_": "s0e13ed4077f481ab090dae6b2e595ed",
    "allboxes": [],
    "canUpdateUI": true,
    "children": [
        "line4"
    ],
    "containerweight": 8,
    "contextmenu": null,
    "donotUpdateContainerWeight": false,
    "id": "vbxLine4",
    "info": null,
    "isvisible": true,
    "kuid": "fef6d835967a47898f1d347abb4547f4",
    "layouttype": 0,
    "name": "kony.ui.Box",
    "paddInPixel": [
        0,
        0,
        0,
        0
    ],
    "parent": "hbxStepBar",
    "pf": "frmIBMFSuitTest",
    "wType": "VBox",
    "widgetalignment": 4
}