{
    "@class": "com.kony.gen.viz.model.container.KVizVBox",
    "DNDConfig": null,
    "_margin_": [
        1,
        1,
        1,
        1
    ],
    "_orientation_": 2,
    "_padding_": [
        0,
        0,
        0,
        0
    ],
    "_percent_": true,
    "_position_": 3,
    "_skin_": "s0e13ed4077f481ab090dae6b2e595ed",
    "allboxes": [],
    "canUpdateUI": true,
    "children": [
        "btnStep2"
    ],
    "containerweight": 11,
    "contextmenu": null,
    "donotUpdateContainerWeight": false,
    "id": "vbxStep2",
    "info": null,
    "isvisible": true,
    "kuid": "b8503adbd3a34099a2de72e4b041117c",
    "layouttype": 0,
    "margininpixel": false,
    "name": "kony.ui.Box",
    "paddInPixel": [
        0,
        0,
        0,
        0
    ],
    "parent": "hbxStepBar",
    "pf": "frmIBMFSuitTest",
    "wType": "VBox",
    "widgetalignment": 4
}