{
    "@class": "com.kony.gen.viz.model.container.KVizVBox",
    "DNDConfig": null,
    "_margin_": [
        6,
        1,
        0,
        0
    ],
    "_orientation_": 2,
    "_padding_": [
        0,
        0,
        0,
        0
    ],
    "_percent_": true,
    "_position_": 3,
    "_skin_": "s0e13ed4077f481ab090dae6b2e595ed",
    "allboxes": [],
    "canUpdateUI": true,
    "children": [
        "imgTick3"
    ],
    "containerweight": 15,
    "contextmenu": null,
    "id": "vbxTick3",
    "info": null,
    "isvisible": true,
    "kuid": "b62ae03d8ab24a36ac19ef81718c1132",
    "layouttype": 0,
    "margininpixel": false,
    "name": "kony.ui.Box",
    "paddInPixel": [
        0,
        0,
        0,
        0
    ],
    "parent": "hbxAnswer3",
    "pf": "frmIBMFSuitTest",
    "wType": "VBox",
    "widgetalignment": 2
}