{
    "DNDConfig": null,
    "_enabled_": false,
    "_margin_": [
        0,
        0,
        0,
        0
    ],
    "_padding_": [
        0,
        1,
        0,
        1
    ],
    "_skin_": "s289ac6bc75e4b75998138bb19c0b86e",
    "_text_": "",
    "android": {
        "@class": "com.kony.gen.viz.model.component.property.combobox.AndroidComboBoxProperty",
        "_margin_": [
            0,
            0,
            0,
            0
        ],
        "_padding_": [
            0,
            0,
            0,
            0
        ],
        "margin": [
            0,
            0,
            0,
            0
        ],
        "marginInPixel": false,
        "padding": [
            0,
            0,
            0,
            0
        ],
        "paddingInPixel": false,
        "render": true
    },
    "canUpdateUI": true,
    "containerweight": 56,
    "contentalignment": 4,
    "dropdownimage": "empty.png",
    "focusskin": "s289ac6bc75e4b75998138bb19c0b86e",
    "hexpand": true,
    "id": "cmbTxnType",
    "ide_onSelection": "p2kwiet2012247631967_cmbTxnType_onSelection_seq0",
    "info": null,
    "iphone": {
        "@class": "com.kony.gen.viz.model.component.property.combobox.IPhoneComboBoxProperty",
        "_margin_": [
            1,
            0,
            0,
            0
        ],
        "_padding_": [
            0,
            2,
            0,
            2
        ],
        "dropDownImage": "empty.png",
        "margin": [
            1,
            0,
            0,
            0
        ],
        "marginInPixel": true,
        "padding": [
            0,
            2,
            0,
            2
        ],
        "paddingInPixel": false,
        "psp": {
            "groupCells": false,
            "viewType": 0
        },
        "render": true
    },
    "isvisible": true,
    "kuid": "p2kwiet2012247631939",
    "margininpixel": false,
    "masterdata": [
        [
            "000",
            "Transaction Type",
            "keyCalendarTxnType"
        ],
        [
            "001",
            "Transfer",
            "Transfer"
        ],
        [
            "002",
            "Payment"
        ],
        [
            "003",
            "Withdraw"
        ],
        [
            "004",
            "Deposit",
            "keylblDeposit"
        ],
        [
            "005",
            "Top-Ups"
        ],
        [
            "006",
            "Cardless"
        ],
        [
            "007",
            "Beep & Bill"
        ],
        [
            "008",
            "Send to Save"
        ],
        [
            "009",
            "Open Account",
            "keyOpenAcc"
        ],
        [
            "999",
            "Other",
            "keyOtherRelation"
        ]
    ],
    "name": "kony.ui.ComboBox",
    "paddinginpixel": false,
    "parent": "hboxTxnType",
    "pf": "frmMBMyActivities",
    "selectedkey": "000",
    "selectedkeyvalue": [
        "000",
        "Transaction Type"
    ],
    "spa": {
        "@class": "com.kony.gen.viz.model.component.property.combobox.SPAComboBoxProperty"
    },
    "spaan": {
        "@class": "com.kony.gen.viz.model.component.property.combobox.SPAAndroidComboBoxProperty",
        "_margin_": [
            2,
            2,
            2,
            2
        ],
        "margin": [
            2,
            2,
            2,
            2
        ],
        "marginInPixel": false,
        "render": true
    },
    "spabb": {
        "@class": "com.kony.gen.viz.model.component.property.combobox.SPABBComboBoxProperty",
        "_margin_": [
            2,
            2,
            2,
            2
        ],
        "margin": [
            2,
            2,
            2,
            2
        ],
        "marginInPixel": false,
        "render": true
    },
    "spaip": {
        "@class": "com.kony.gen.viz.model.component.property.combobox.SPAIPhoneComboBoxProperty",
        "_margin_": [
            2,
            2,
            2,
            2
        ],
        "margin": [
            2,
            2,
            2,
            2
        ],
        "marginInPixel": false,
        "render": true
    },
    "spawinphone8": {
        "@class": "com.kony.gen.viz.model.component.property.combobox.SPAWinPhone8ComboBoxProperty",
        "_margin_": [
            2,
            2,
            2,
            2
        ],
        "margin": [
            2,
            2,
            2,
            2
        ],
        "marginInPixel": false,
        "render": true
    },
    "vexpand": false,
    "wType": "ComboBox",
    "widgetalignment": 5,
    "winphone8": {
        "@class": "com.kony.gen.viz.model.component.property.combobox.WinPhone8ComboBoxProperty",
        "_margin_": [
            1,
            1,
            1,
            1
        ],
        "margin": [
            1,
            1,
            1,
            1
        ],
        "marginInPixel": true,
        "psp": {
            "enableCache": false
        },
        "render": true
    }
}