{
    "DNDConfig": null,
    "_enabled_": false,
    "_margin_": [
        0,
        0,
        0,
        0
    ],
    "_orientation_": 1,
    "_padding_": [
        1,
        1,
        1,
        1
    ],
    "_percent_": true,
    "_position_": 1,
    "_resize_": true,
    "_skin_": "sdc47e346a7c4b5b85f5529f5639d601",
    "allboxes": [],
    "android": {
        "@class": "com.kony.gen.viz.model.container.property.hbox.AndroidHBoxProperty",
        "_margin_": [
            11,
            10,
            11,
            0
        ],
        "_padding_": [
            11,
            5,
            11,
            5
        ],
        "_position_": 3,
        "margin": [
            11,
            10,
            11,
            0
        ],
        "marginInPixel": true,
        "padding": [
            11,
            5,
            11,
            5
        ],
        "paddingInPixel": true,
        "position": 3,
        "render": true
    },
    "borderCollapse": false,
    "canUpdateUI": true,
    "children": [
        "label473277017409291",
        "cmbTxnType"
    ],
    "containerweight": 100,
    "focusskin": "sbbde3cb57404f16878217ba549614c0",
    "id": "hboxTxnType",
    "info": null,
    "iphone": {
        "@class": "com.kony.gen.viz.model.container.property.hbox.IPhoneHBoxProperty",
        "_margin_": [
            10,
            10,
            10,
            0
        ],
        "_padding_": [
            3,
            1,
            0,
            1
        ],
        "_position_": 3,
        "margin": [
            10,
            10,
            10,
            0
        ],
        "marginInPixel": true,
        "padding": [
            3,
            1,
            0,
            1
        ],
        "paddingInPixel": false,
        "position": 3,
        "render": true
    },
    "isvisible": true,
    "kuid": "p2kwiet2012247631940",
    "layoutalignment": 3,
    "margininpixel": false,
    "name": "kony.ui.Box",
    "paddinginpixel": false,
    "parent": "sboxRight",
    "pf": "frmMBMyActivities",
    "spa": {
        "@class": "com.kony.gen.viz.model.container.property.hbox.SPAHBoxProperty"
    },
    "spaan": {
        "@class": "com.kony.gen.viz.model.container.property.hbox.SPAAndroidHBoxProperty",
        "_margin_": [
            3,
            3,
            3,
            0
        ],
        "_padding_": [
            2,
            0,
            0,
            0
        ],
        "margin": [
            3,
            3,
            3,
            0
        ],
        "marginInPixel": false,
        "padding": [
            2,
            0,
            0,
            0
        ],
        "paddingInPixel": false,
        "render": true
    },
    "spabb": {
        "@class": "com.kony.gen.viz.model.container.property.hbox.SPABBHBoxProperty",
        "_margin_": [
            3,
            3,
            3,
            0
        ],
        "_padding_": [
            2,
            0,
            0,
            0
        ],
        "margin": [
            3,
            3,
            3,
            0
        ],
        "marginInPixel": false,
        "padding": [
            2,
            0,
            0,
            0
        ],
        "paddingInPixel": false,
        "render": true
    },
    "spaip": {
        "@class": "com.kony.gen.viz.model.container.property.hbox.SPAIPhoneHBoxProperty",
        "_margin_": [
            3,
            3,
            3,
            0
        ],
        "_padding_": [
            2,
            0,
            0,
            0
        ],
        "margin": [
            3,
            3,
            3,
            0
        ],
        "marginInPixel": false,
        "padding": [
            2,
            0,
            0,
            0
        ],
        "paddingInPixel": false,
        "render": true
    },
    "spawinphone8": {
        "@class": "com.kony.gen.viz.model.container.property.hbox.SPAWinPhone8HBoxProperty",
        "_margin_": [
            3,
            3,
            3,
            0
        ],
        "_padding_": [
            2,
            0,
            0,
            0
        ],
        "margin": [
            3,
            3,
            3,
            0
        ],
        "marginInPixel": false,
        "padding": [
            2,
            0,
            0,
            0
        ],
        "paddingInPixel": false,
        "render": true
    },
    "templateType": "forms",
    "wType": "HBox",
    "widgetalignment": 1,
    "winphone8": {
        "@class": "com.kony.gen.viz.model.container.property.hbox.WinPhone8HBoxProperty",
        "_margin_": [
            1,
            1,
            1,
            1
        ],
        "_position_": 1,
        "margin": [
            1,
            1,
            1,
            1
        ],
        "marginInPixel": true,
        "position": 1,
        "psp": {
            "enableCache": false
        },
        "render": true
    }
}