{
    "DNDConfig": null,
    "_enabled_": false,
    "_margin_": [
        0,
        0,
        0,
        0
    ],
    "_orientation_": 1,
    "_padding_": [
        0,
        0,
        0,
        0
    ],
    "_percent_": true,
    "_position_": 1,
    "_resize_": true,
    "_skin_": "sc7d4a69fa8c4edfb92ab6fd4ffbf89d",
    "allboxes": [],
    "android": {
        "@class": "com.kony.gen.viz.model.container.property.hbox.AndroidHBoxProperty",
        "_position_": 1,
        "position": 1,
        "render": true
    },
    "borderCollapse": false,
    "canUpdateUI": true,
    "children": [
        "btnMonthSpa",
        "spabtnList"
    ],
    "containerweight": 100,
    "focusskin": "sc7d4a69fa8c4edfb92ab6fd4ffbf89d",
    "id": "hbxMenuSpa",
    "info": null,
    "iphone": {
        "@class": "com.kony.gen.viz.model.container.property.hbox.IPhoneHBoxProperty",
        "_position_": 1,
        "position": 1,
        "render": true
    },
    "isvisible": true,
    "kuid": "p2kwiet2012247631737",
    "layoutalignment": 3,
    "margininpixel": false,
    "name": "kony.ui.Box",
    "paddinginpixel": false,
    "parent": "sboxRight",
    "pf": "frmMBMyActivities",
    "spa": {
        "@class": "com.kony.gen.viz.model.container.property.hbox.SPAHBoxProperty"
    },
    "spaan": {
        "@class": "com.kony.gen.viz.model.container.property.hbox.SPAAndroidHBoxProperty",
        "render": true
    },
    "spabb": {
        "@class": "com.kony.gen.viz.model.container.property.hbox.SPABBHBoxProperty",
        "render": true
    },
    "spaip": {
        "@class": "com.kony.gen.viz.model.container.property.hbox.SPAIPhoneHBoxProperty",
        "render": true
    },
    "spawinphone8": {
        "@class": "com.kony.gen.viz.model.container.property.hbox.SPAWinPhone8HBoxProperty",
        "render": true
    },
    "templateType": "forms",
    "wType": "HBox",
    "widgetalignment": 1,
    "winphone8": {
        "@class": "com.kony.gen.viz.model.container.property.hbox.WinPhone8HBoxProperty",
        "_position_": 1,
        "position": 1,
        "psp": {
            "enableCache": false
        },
        "render": true
    }
}