{
    "DNDConfig": null,
    "_enabled_": false,
    "_margin_": [
        0,
        0,
        0,
        0
    ],
    "_orientation_": 2,
    "_padding_": [
        0,
        0,
        0,
        0
    ],
    "_position_": 3,
    "_resize_": true,
    "_skin_": "s07d052e9c3246dc80df2a5b9ea1a81f",
    "allboxes": [],
    "android": {
        "@class": "com.kony.gen.viz.model.container.property.vbox.AndroidVBoxProperty",
        "_padding_": [
            0,
            1,
            0,
            1
        ],
        "padding": [
            0,
            1,
            0,
            1
        ],
        "paddingInPixel": false,
        "render": true
    },
    "borderCollapse": false,
    "canUpdateUI": true,
    "children": [
        "imgTxnTime26",
        "lbl26",
        "imgTxnStatus26"
    ],
    "containerweight": 14,
    "focusskin": "s9023aa970ce430fa89668ed665fc518",
    "id": "vbox26",
    "ide_onClick": "p2kwiet2012247631967_vbox26_onClick_seq0",
    "info": null,
    "iphone": {
        "@class": "com.kony.gen.viz.model.container.property.vbox.IPhoneVBoxProperty",
        "_padding_": [
            0,
            1,
            0,
            1
        ],
        "padding": [
            0,
            1,
            0,
            1
        ],
        "paddingInPixel": false,
        "render": true
    },
    "isvisible": true,
    "kuid": "p2kwiet2012247631872",
    "margininpixel": false,
    "name": "kony.ui.Box",
    "paddinginpixel": false,
    "parent": "hbox3",
    "pf": "frmMBMyActivities",
    "spa": {
        "@class": "com.kony.gen.viz.model.container.property.vbox.SPAVBoxProperty"
    },
    "spaan": {
        "@class": "com.kony.gen.viz.model.container.property.vbox.SPAAndroidVBoxProperty",
        "render": true
    },
    "spabb": {
        "@class": "com.kony.gen.viz.model.container.property.vbox.SPABBVBoxProperty",
        "render": true
    },
    "spaip": {
        "@class": "com.kony.gen.viz.model.container.property.vbox.SPAIPhoneVBoxProperty",
        "render": true
    },
    "spawinphone8": {
        "@class": "com.kony.gen.viz.model.container.property.vbox.SPAWinPhone8VBoxProperty",
        "render": true
    },
    "templateType": "forms",
    "wType": "VBox",
    "widgetalignment": 1,
    "winphone8": {
        "@class": "com.kony.gen.viz.model.container.property.vbox.WinPhone8VBoxProperty",
        "psp": {
            "enableCache": false
        },
        "render": true
    }
}