{
    "DNDConfig": null,
    "_enabled_": false,
    "_margin_": [
        0,
        0,
        0,
        2
    ],
    "_padding_": [
        0,
        0,
        0,
        4
    ],
    "_skin_": "sfcc80d0c4c84ec88c40b536edd562e5",
    "_text_": "",
    "canUpdateUI": true,
    "containerweight": 15,
    "contentalignment": 4,
    "desktopweb": {
        "@class": "com.kony.gen.viz.model.component.property.link.DesktopWebLinkProperty",
        "_margin_": [
            2,
            0,
            0,
            0
        ],
        "_padding_": [
            0,
            0,
            0,
            4
        ],
        "margin": [
            2,
            0,
            0,
            0
        ],
        "marginInPixel": false,
        "padding": [
            0,
            0,
            0,
            4
        ],
        "paddingInPixel": false,
        "render": true
    },
    "focusskin": "seb090c1aab54fc7b9003afc8949a88e",
    "hexpand": true,
    "id": "link474016987103118",
    "ide_onClick": "p2kwiet2012247639508_link474016987103118_onClick_seq0",
    "info": null,
    "isvisible": true,
    "kiosk": {
        "@class": "com.kony.gen.viz.model.component.property.link.KioskLinkProperty",
        "_margin_": [
            0,
            0,
            0,
            2
        ],
        "_padding_": [
            0,
            0,
            0,
            4
        ],
        "margin": [
            0,
            0,
            0,
            2
        ],
        "marginInPixel": false,
        "padding": [
            0,
            0,
            0,
            4
        ],
        "paddingInPixel": false,
        "render": true
    },
    "kuid": "p2kwiet2012247639424",
    "margininpixel": false,
    "name": "kony.ui.Link",
    "paddinginpixel": false,
    "parent": "hbxBalance",
    "pf": "frmIBBeepAndBillExecuteConfComp",
    "spa": {
        "@class": "com.kony.gen.viz.model.component.property.link.SPALinkProperty"
    },
    "texti18n": "Hide",
    "vexpand": false,
    "wType": "Link",
    "widgetalignment": 6
}