{
    "DNDConfig": null,
    "_enabled_": false,
    "_margin_": [
        0,
        0,
        0,
        0
    ],
    "_render_": true,
    "_skin_": "s5a349d50eb148608361ab116f28f2c2",
    "_text_": "",
    "_wrapping_": 2,
    "canUpdateUI": true,
    "containerweight": 99,
    "contentalignment": 4,
    "desktopweb": {
        "@class": "com.kony.gen.viz.model.component.property.richtext.DesktopWebRichTextProperty",
        "_padding_": [
            4,
            0,
            0,
            0
        ],
        "padding": [
            4,
            0,
            0,
            0
        ],
        "paddingInPixel": false,
        "render": true
    },
    "hexpand": true,
    "id": "richTxtLnkdAcctHidden",
    "info": null,
    "isvisible": true,
    "kiosk": {
        "@class": "com.kony.gen.viz.model.component.property.richtext.KioskRichTextProperty",
        "render": true
    },
    "kuid": "p2kwiet2012247639496",
    "margininpixel": false,
    "name": "kony.ui.RichText",
    "parent": "hbxHiddenAcc",
    "pf": "frmIBBeepAndBillExecuteConfComp",
    "spa": {
        "@class": "com.kony.gen.viz.model.component.property.richtext.SPARichTextProperty"
    },
    "vexpand": false,
    "wType": "RichText",
    "widgetalignment": 5
}