{
    "DNDConfig": null,
    "_enabled_": false,
    "_margin_": [
        0,
        0,
        0,
        0
    ],
    "_padding_": [
        0,
        0,
        0,
        0
    ],
    "_skin_": "s1b2054d44eb407088291b9188d92765",
    "_text_": "",
    "canUpdateUI": true,
    "containerweight": 100,
    "contentalignment": 5,
    "desktopweb": {
        "@class": "com.kony.gen.viz.model.component.property.button.DesktopWebButtonProperty",
        "_margin_": [
            0,
            4,
            0,
            0
        ],
        "displayText": true,
        "margin": [
            0,
            4,
            0,
            0
        ],
        "marginInPixel": false,
        "render": true
    },
    "displaytext": true,
    "focusskin": "sf0a6e2c34284fdb99d1d22b8ed0ea45",
    "hexpand": true,
    "id": "btnConfirmBillerNext",
    "ide_onClick": "p2kwiet2012247644730_btnConfirmBillerNext_onClick_seq0",
    "info": null,
    "isvisible": true,
    "kiosk": {
        "@class": "com.kony.gen.viz.model.component.property.button.KioskButtonProperty",
        "render": true
    },
    "kuid": "p2kwiet2012247644661",
    "margininpixel": false,
    "name": "kony.ui.Button",
    "paddinginpixel": false,
    "parent": "vbxBillersConfirm",
    "pf": "frmIBMyBillersHome",
    "spa": {
        "@class": "com.kony.gen.viz.model.component.property.button.SPAButtonProperty",
        "displayText": true
    },
    "texti18n": "Next",
    "vexpand": false,
    "wType": "Button",
    "widgetalignment": 5
}