{
    "DNDConfig": null,
    "_enabled_": false,
    "_margin_": [
        0,
        0,
        0,
        0
    ],
    "_padding_": [
        0,
        0,
        0,
        0
    ],
    "_skin_": "s827aff42dc8499db07d034b489f8800",
    "_text_": "",
    "canUpdateUI": true,
    "containerweight": 100,
    "contentalignment": 4,
    "desktopweb": {
        "@class": "com.kony.gen.viz.model.component.property.link.DesktopWebLinkProperty",
        "_padding_": [
            0,
            0,
            0,
            0
        ],
        "padding": [
            0,
            0,
            0,
            0
        ],
        "paddingInPixel": false,
        "render": true
    },
    "focusskin": "seb090c1aab54fc7b9003afc8949a88e",
    "hexpand": true,
    "id": "linkMoreSugBills",
    "ide_onClick": "p2kwiet2012247644730_linkMoreSugBills_onClick_seq0",
    "info": null,
    "isvisible": true,
    "kiosk": {
        "@class": "com.kony.gen.viz.model.component.property.link.KioskLinkProperty",
        "render": true
    },
    "kuid": "p2kwiet2012247644570",
    "margininpixel": false,
    "name": "kony.ui.Link",
    "paddinginpixel": false,
    "parent": "hbxMoreSug",
    "pf": "frmIBMyBillersHome",
    "spa": {
        "@class": "com.kony.gen.viz.model.component.property.link.SPALinkProperty"
    },
    "texti18n": "keyIBMoreBills",
    "vexpand": false,
    "wType": "Link",
    "widgetalignment": 5
}