{
    "DNDConfig": null,
    "_data_": [],
    "_enabled_": false,
    "_indicator_": "none",
    "_margin_": [
        0,
        0,
        0,
        0
    ],
    "_orientation_": 2,
    "_padding_": [
        0,
        0,
        0,
        0
    ],
    "_skin_": "seg2Normal",
    "canUpdateUI": true,
    "containerheightreference": 1,
    "containerweight": 100,
    "context": {
        "channel": "mobile",
        "formID": "AdvancedWidgetsSegements",
        "templateType": "segments",
        "topLevelBox": false
    },
    "counter": 3,
    "desktopweb": {
        "@class": "com.kony.gen.viz.model.container.property.segment2.DesktopWebSegment2Property",
        "_margin_": [
            0,
            0,
            0,
            0
        ],
        "_padding_": [
            0,
            0,
            0,
            0
        ],
        "margin": [
            0,
            0,
            0,
            0
        ],
        "marginInPixel": false,
        "padding": [
            0,
            0,
            0,
            0
        ],
        "paddingInPixel": false,
        "render": true
    },
    "focusedindex": null,
    "focuseditem": null,
    "groupcells": false,
    "hasSections": false,
    "hiddencolumns": {
        "BeepndBill": "text",
        "BillerCategoryID": "text",
        "BillerCompCode": "text",
        "BillerID": "text",
        "BillerNameEng": "text",
        "BillerNameThai": "text",
        "CustomerBillerID": "text",
        "lblViewBillerRef1ValueActual": "text"
    },
    "id": "segBillersList",
    "ide_onRowClick": "p2kwiet2012247644730_segBillersList_onRowClick_seq0",
    "info": null,
    "isvisible": true,
    "kiosk": {
        "@class": "com.kony.gen.viz.model.container.property.segment2.KioskSegment2Property",
        "render": true
    },
    "kuid": "p2kwiet2012247644567",
    "layoutalignment": 3,
    "layouttype": 0,
    "margininpixel": false,
    "name": "kony.ui.SegmentedUI2",
    "needpageindicator": true,
    "paddinginpixel": false,
    "paginationconfig": {
        "position": "bottom"
    },
    "parent": "scrollBoxBillersList",
    "pf": "frmIBMyBillersHome",
    "retainselection": true,
    "rowTemplateId": "p2kwiet2012247651995",
    "rowcounter": 2,
    "rowfocusskin": "sbbc7f0678bf4c678c40fe82030b9661",
    "rowskin": "s01e0182a4d14a4da5e4e707eafeea1b",
    "rowtemplate": "hbxBillersRow",
    "screenlevelwidget": false,
    "scrollingevents": false,
    "seccounter": 0,
    "sectionheaderskin": "s9bd6d2f2f8c4fce89dae24cc47abe06",
    "selectedRows": null,
    "selectedState": false,
    "selectedindex": null,
    "selectedindices": null,
    "selecteditems": null,
    "selectedsectionindex": 0,
    "selectionbehavior": "default",
    "selectionbehaviorconfig": {},
    "separatorcolor": "64646400",
    "separatorrequired": false,
    "separatorthickness": 1,
    "showscrollbars": false,
    "spa": {
        "@class": "com.kony.gen.viz.model.container.property.segment2.SPASegment2Property"
    },
    "viewtype": "tableview",
    "wType": "Segment",
    "widgetalignment": 1,
    "widgetdatamap": {
        "IBMyBillers": "IBMyBillers",
        "hbxBillersRow": "hbxBillersRow",
        "hbxRef1Row": "hbxRef1Row",
        "hbxRef2Row": "hbxRef2Row",
        "imgBillerLogo": "imgBillerLogo",
        "imgBillersRtArrow": "imgBillersRtArrow",
        "lblBillerName": "lblBillerName",
        "lblBillerNickname": "lblBillerNickname",
        "lblRef1": "lblRef1",
        "lblRef1Value": "lblRef1Value",
        "lblRef2": "lblRef2",
        "lblRef2Value": "lblRef2Value",
        "vbox1013461214420": "vbox1013461214420"
    }
}