{
    "DNDConfig": null,
    "_enabled_": false,
    "_margin_": [
        0,
        0,
        0,
        0
    ],
    "_padding_": [
        0,
        0,
        0,
        0
    ],
    "_skin_": "s7cb4bd8f34f4c6f8b44e225ffb9d24d",
    "_text_": "",
    "android": {
        "@class": "com.kony.gen.viz.model.component.property.switchh.AndroidSwitchProperty",
        "render": false
    },
    "canUpdateUI": true,
    "containerweight": 100,
    "contentalignment": 5,
    "hexpand": true,
    "id": "chkBoxGrp",
    "ide_onSlide": "p2kwiet2012247637385_chkBoxGrp_onslide_seq0",
    "info": null,
    "iphone": {
        "@class": "com.kony.gen.viz.model.component.property.switchh.IPhoneSwitchProperty",
        "render": true
    },
    "isvisible": true,
    "kuid": "p2kwiet2012247637373",
    "margininpixel": false,
    "name": "kony.ui.Switch",
    "onslide": null,
    "osPlatform": "iphone",
    "osVersion": "iOS7",
    "paddinginpixel": false,
    "parent": "vbox4501543995775",
    "pf": "frmTouchIdSettings",
    "spa": {
        "@class": "com.kony.gen.viz.model.component.property.switchh.SPASwitchProperty"
    },
    "spaan": {
        "@class": "com.kony.gen.viz.model.component.property.switchh.SPAAndroidSwitchProperty",
        "render": true
    },
    "spabb": {
        "@class": "com.kony.gen.viz.model.component.property.switchh.SPABBSwitchProperty",
        "render": true
    },
    "spaip": {
        "@class": "com.kony.gen.viz.model.component.property.switchh.SPAIPhoneSwitchProperty",
        "render": true
    },
    "spawinphone8": {
        "@class": "com.kony.gen.viz.model.component.property.switchh.SPAWinPhone8SwitchProperty",
        "render": true
    },
    "swidth": 165,
    "vexpand": false,
    "wType": "Switch",
    "widgetalignment": 5,
    "winphone8": {
        "@class": "com.kony.gen.viz.model.component.property.switchh.WinPhone8SwitchProperty",
        "psp": {
            "enableCache": false
        },
        "render": true
    }
}