{
    "@class": "com.kony.gen.viz.model.component.KVizImage2",
    "DNDConfig": null,
    "__parentReadjusting__": false,
    "_base64_": null,
    "_height_": {
        "type": "string",
        "value": "82%"
    },
    "_margin_": [
        0,
        0,
        0,
        0
    ],
    "_padding_": [
        0,
        0,
        0,
        0
    ],
    "_skin_": "s55d8a5125e74bb0b2eaca75c423dae1",
    "_src_": "bank_logo_04.png",
    "_width_": {
        "type": "string",
        "value": "35%"
    },
    "canUpdateUI": true,
    "centerx": {
        "type": "string",
        "value": "50%"
    },
    "centery": {
        "type": "string",
        "value": "55%"
    },
    "containerweight": 100,
    "context": {
        "channel": "mobile",
        "formID": "frmQRTransactionVerify",
        "platform": "android",
        "templateType": "forms",
        "topLevelBox": null
    },
    "id": "imgTransNPbAckFrm",
    "imagescalemode": 0,
    "info": null,
    "invokedProperty": "src",
    "isvisible": true,
    "kuid": "acb6cfb751a64c2c997f11d62c94f3ea",
    "name": "kony.ui.Image2",
    "parent": "FlexContainer0df7a37abf9ed45",
    "pf": "frmQRTransactionVerify",
    "srcType": 1,
    "wType": "Image",
    "widgetalignment": 5,
    "zindex": 1
}