{
    "p2kwiet2012247650496_button19723990786370_onClick_seq0": {
        "id": "p2kwiet2012247650496_button19723990786370_onClick_seq0",
        "type": "ACTION_SEQUENCE",
        "params": [{
            "name": "eventobject",
            "value": "eventobject"
        }],
        "language": "js",
        "actions": [{
            "id": "customcode_onClick_56067201224761636",
            "type": "INVOKE_FUNCTION",
            "sequenceKUID": "cbServerDetailsPreviewCodeClick",
            "display": "cbServerDetailsPreviewCodeClick",
            "inputparams": [],
            "source": "module"
        }]
    }
}