{
    "@class": "com.kony.gen.viz.model.component.KVizButton",
    "DNDConfig": null,
    "__parentReadjusting__": false,
    "_height_": {
        "type": "string",
        "value": "20dp"
    },
    "_left_": {
        "type": "string",
        "value": "90%"
    },
    "_margin_": [
        6,
        6,
        6,
        6
    ],
    "_padding_": [
        0,
        0,
        0,
        0
    ],
    "_skin_": "sd30e9e7a935436e9f0fa92b63b97f44",
    "_text_": "i",
    "_top_": {
        "type": "string",
        "value": "10%"
    },
    "_width_": {
        "type": "string",
        "value": "20dp"
    },
    "canUpdateUI": true,
    "containerweight": 100,
    "contentalignment": 5,
    "displaytext": true,
    "focusskin": "s9e766bf19954ae9b8291493f6762c26",
    "id": "btnFacilityInfoScrore",
    "info": null,
    "isvisible": true,
    "kuid": "b4e1283f7c0544d3bb4228726b336f01",
    "name": "kony.ui.Button",
    "parent": "flexCcScoreHelp",
    "pf": "frmLoanIncomeInfo",
    "wType": "Button",
    "zindex": 3
}