{
    "@class": "com.kony.gen.viz.model.component.KVizButton",
    "DNDConfig": null,
    "__parentReadjusting__": false,
    "_height_": {
        "type": "string",
        "value": "30%"
    },
    "_left_": {
        "type": "string",
        "value": "85%"
    },
    "_margin_": [
        6,
        6,
        6,
        6
    ],
    "_padding_": [
        0,
        0,
        0,
        0
    ],
    "_skin_": "s440a38038a7403a89d3abf4a18c5a3d",
    "_text_": "",
    "_top_": {
        "type": "string",
        "value": "34%"
    },
    "_width_": {
        "type": "string",
        "value": "13%"
    },
    "canUpdateUI": true,
    "containerweight": 100,
    "contentalignment": 5,
    "displaytext": true,
    "focusskin": "s440a38038a7403a89d3abf4a18c5a3d",
    "id": "buttonArrowBankDetails",
    "info": null,
    "isvisible": true,
    "kuid": "hb057c89ef1d481bbd766ecbb6626dfc",
    "name": "kony.ui.Button",
    "parent": "flxBankAccount",
    "pf": "frmLoanIncomeInfo",
    "wType": "Button",
    "zindex": 1
}