{
    "DNDConfig": null,
    "__parentReadjusting__": false,
    "_height_": {
        "type": "ref",
        "value": "preferred"
    },
    "_left_": {
        "type": "number",
        "value": "0"
    },
    "_margin_": [
        0,
        0,
        0,
        0
    ],
    "_orientation_": 6,
    "_padding_": [
        0,
        0,
        0,
        0
    ],
    "_percent_": true,
    "_right_": {
        "type": "number",
        "value": "0"
    },
    "_skin_": "s601cdd9fa3649ca93158b9088d5415b",
    "_top_": {
        "type": "string",
        "value": "20dp"
    },
    "_width_": {
        "type": "string",
        "value": "90%"
    },
    "allboxes": [],
    "autogrowmode": 1,
    "canUpdateUI": true,
    "centerx": {
        "type": "string",
        "value": "50.00%"
    },
    "children": [
        "lblCcScoring",
        "lblConsentValue",
        "flxConsentFlag"
    ],
    "clipbounds": true,
    "containerweight": 100,
    "enablescrolling": true,
    "id": "flexCcScoring",
    "info": null,
    "isvisible": true,
    "kuid": "a507b657d8a84a989dfa109fa0f4f030",
    "layouttype": 4,
    "minheight": {
        "type": "string",
        "value": "60dp"
    },
    "name": "kony.ui.FlexContainer",
    "parent": "flxMain",
    "pf": "frmLoanIncomeInfo",
    "snapgridsize": 10,
    "snaptogrid": true,
    "wType": "FlexContainer",
    "widgetalignment": 1,
    "zindex": 1
}