{
    "@class": "com.kony.gen.viz.model.component.KVizImage2",
    "DNDConfig": null,
    "__parentReadjusting__": false,
    "_base64_": null,
    "_bottom_": {
        "type": "string",
        "value": "0%"
    },
    "_height_": {
        "type": "string",
        "value": "30%"
    },
    "_left_": {
        "type": "string",
        "value": "85%"
    },
    "_margin_": [
        0,
        0,
        0,
        0
    ],
    "_padding_": [
        0,
        0,
        0,
        0
    ],
    "_right_": {
        "type": "string",
        "value": "0%"
    },
    "_skin_": "s55d8a5125e74bb0b2eaca75c423dae1",
    "_src_": "navarrowblue.png",
    "_top_": {
        "type": "string",
        "value": "34%"
    },
    "_width_": {
        "type": "string",
        "value": "13%"
    },
    "canUpdateUI": true,
    "containerweight": 100,
    "context": {
        "channel": "mobile",
        "formID": "frmLoanIncomeInfo",
        "platform": "android",
        "templateType": "forms",
        "topLevelBox": null
    },
    "id": "imgArrowBankDetails",
    "imagescalemode": 1,
    "info": null,
    "isvisible": true,
    "kuid": "bdfee8d227c64d7f9f31f0c3340f2a20",
    "name": "kony.ui.Image2",
    "parent": "flxBankAccount",
    "pf": "frmLoanIncomeInfo",
    "srcType": 1,
    "wType": "Image",
    "widgetalignment": 5,
    "zindex": 1
}