{
    "@class": "com.kony.gen.viz.model.component.KVizTextBox2",
    "DNDConfig": null,
    "__parentReadjusting__": false,
    "_height_": {
        "type": "string",
        "value": "41.33%"
    },
    "_left_": {
        "type": "string",
        "value": "1%"
    },
    "_margin_": [
        0,
        0,
        0,
        0
    ],
    "_padding_": [
        3,
        0,
        0,
        0
    ],
    "_placeholder_": "",
    "_skin_": "s7a4fad843aa4805901f183114695b78",
    "_text_": "",
    "_top_": {
        "type": "string",
        "value": "41.56%"
    },
    "_width_": {
        "type": "string",
        "value": "83%"
    },
    "android": {
        "psp": {
            "keyboardActionLabel": 4
        }
    },
    "autocapitalize": "none",
    "autocomplete": false,
    "autocorrect": false,
    "autofilter": false,
    "canUpdateUI": true,
    "containerheight": "",
    "containerheightmode": 1,
    "containerweight": 100,
    "contentalignment": 4,
    "focusskin": "s7a4fad843aa4805901f183114695b78",
    "id": "txtFieldBonusYearly",
    "info": null,
    "iphone": {
        "psp": {
            "closeButtonText": "Next",
            "keyboardActionLabel": 4,
            "showClearButton": true,
            "showCloseButton": true
        }
    },
    "isvisible": false,
    "keyboardactionlabel": 1,
    "keyboardstyle": "number",
    "keyboardtype": "A",
    "kuid": "b9e78f91d14249159ed14682c878d5ac",
    "maxtextlength": 14,
    "mode": "N",
    "name": "kony.ui.TextBox2",
    "parent": "flxBonusYearly",
    "pf": "frmLoanIncomeInfo",
    "securetextentry": false,
    "textinputmode": "N",
    "viewtype": "default",
    "wType": "TextField",
    "zindex": 1
}