{
    "DNDConfig": null,
    "__parentReadjusting__": false,
    "_height_": {
        "type": "ref",
        "value": "preferred"
    },
    "_left_": {
        "type": "string",
        "value": "0dp"
    },
    "_margin_": [
        0,
        0,
        0,
        0
    ],
    "_orientation_": 6,
    "_padding_": [
        0,
        0,
        0,
        0
    ],
    "_percent_": true,
    "_skin_": "s918d2c198cc4b1b99c1a0fe1f4e0370",
    "_top_": {
        "type": "string",
        "value": "0dp"
    },
    "_width_": {
        "type": "string",
        "value": "100%"
    },
    "allboxes": [],
    "autogrowmode": 1,
    "canUpdateUI": true,
    "children": [
        "FlexContainer0d33ba3feaeda44",
        "CopyFlexContainer0f3f9246b483b46",
        "flexWowPoints",
        "CopyFlexContainer0ic09daab510d48",
        "CopyFlexContainer0da027117ae7642"
    ],
    "clipbounds": true,
    "containerweight": 100,
    "enablescrolling": true,
    "id": "FlexContainerPaymentDetail",
    "info": null,
    "isvisible": true,
    "kuid": "e4763f4900ea4441bf00c48a9df8ca64",
    "layouttype": 4,
    "name": "kony.ui.FlexContainer",
    "parent": "FlexDetailNewDesign",
    "pf": "frmMFSelectPurchaseFundMB",
    "snapgridsize": 10,
    "snaptogrid": true,
    "wType": "FlexContainer",
    "widgetalignment": 1,
    "zindex": 1
}