{
    "@class": "com.kony.gen.viz.model.component.KVizTextBox2",
    "DNDConfig": null,
    "__parentReadjusting__": false,
    "_bottom_": {
        "type": "string",
        "value": "5dp"
    },
    "_height_": {
        "type": "ref",
        "value": "preferred"
    },
    "_left_": {
        "type": "string",
        "value": "5%"
    },
    "_margin_": [
        0,
        0,
        0,
        0
    ],
    "_padding_": [
        0,
        0,
        0,
        0
    ],
    "_placeholder_": "0.00",
    "_skin_": "scc89f529d384cd587c34c2efc92e2a2",
    "_text_": "",
    "_width_": {
        "type": "ref",
        "value": "preferred"
    },
    "android": {
        "keyBoardStyle": "number",
        "psp": {
            "keyboardActionLabel": 1
        }
    },
    "autocapitalize": "none",
    "autocomplete": false,
    "autocorrect": false,
    "autofilter": false,
    "canUpdateUI": true,
    "containerheight": "",
    "containerheightmode": 1,
    "containerweight": 100,
    "contentalignment": 4,
    "disabledSkins": {},
    "focusskin": "scc89f529d384cd587c34c2efc92e2a2",
    "id": "TextBoxAmount",
    "info": null,
    "iphone": {
        "@class": "com.kony.gen.viz.model.component.property.textbox2.IPhoneTextBox2Property",
        "containerHeightMode": 3,
        "psp": {
            "closeButtonText": "Done",
            "keyboardActionLabel": 1,
            "pasteboardType": 4,
            "showClearButton": false,
            "showCloseButton": true,
            "showProgressIndicator": false
        }
    },
    "isvisible": true,
    "keyboardactionlabel": 1,
    "keyboardstyle": "number",
    "keyboardtype": "A",
    "kuid": "g60edf37b0e24805ba74611a5f8e7a27",
    "maxtextlength": 14,
    "mode": "N",
    "name": "kony.ui.TextBox2",
    "paddinginpixel": false,
    "parent": "CopyFlexContainer0ic09daab510d48",
    "pasteboardtype": 4,
    "pf": "frmMFSelectPurchaseFundMB",
    "placeholderskin": "scc89f529d384cd587c34c2efc92e2a2",
    "securetextentry": false,
    "showclearbutton": true,
    "showoprogressindicator": false,
    "textinputmode": "N",
    "viewtype": "default",
    "wType": "TextField",
    "zindex": 1
}