{
    "@class": "com.kony.gen.viz.model.component.KVizButton",
    "DNDConfig": null,
    "__parentReadjusting__": false,
    "_height_": {
        "type": "string",
        "value": "20dp"
    },
    "_left_": {
        "type": "string",
        "value": "260dp"
    },
    "_margin_": [
        6,
        6,
        6,
        6
    ],
    "_padding_": [
        0,
        0,
        0,
        0
    ],
    "_skin_": "s66ee831c88a4e13a160bd383b846b31",
    "_text_": "",
    "_width_": {
        "type": "string",
        "value": "20dp"
    },
    "canUpdateUI": true,
    "centerx": {
        "type": "string",
        "value": "50%"
    },
    "centery": {
        "type": "string",
        "value": "50%"
    },
    "containerweight": 100,
    "contentalignment": 5,
    "disabledSkins": {
        "focusSkin": "s755ca8cadd04491acb481392f0e0db2"
    },
    "displaytext": true,
    "id": "btnClose",
    "info": null,
    "iphone": {
        "psp": {
            "showProgressIndicator": false
        }
    },
    "isvisible": true,
    "kuid": "ea2e83a094a24a3aa5a19c5e6473768c",
    "name": "kony.ui.Button",
    "parent": "flxClose",
    "pf": "frmAccountSummary",
    "showprogressindicator": false,
    "wType": "Button",
    "zindex": 1
}