{
    "@class": "com.kony.gen.viz.model.component.KVizLabel",
    "DNDConfig": null,
    "__parentReadjusting__": false,
    "_bottom_": {
        "type": "string",
        "value": "0%"
    },
    "_height_": {
        "type": "string",
        "value": "35%"
    },
    "_margin_": [
        1,
        1,
        1,
        1
    ],
    "_padding_": [
        0,
        0,
        0,
        5
    ],
    "_skin_": "s855045dbc0f4811a016c60b613c69fd",
    "_text_": "",
    "_top_": {
        "type": "string",
        "value": "65%"
    },
    "_width_": {
        "type": "string",
        "value": "100%"
    },
    "_wrapping_": 2,
    "android": {
        "textStyle": {
            "letterSpacing": 0,
            "strikeThrough": false
        }
    },
    "canUpdateUI": true,
    "centerx": {
        "type": "string",
        "value": "50%"
    },
    "containerweight": 100,
    "contentalignment": 2,
    "id": "lbliconScan",
    "info": null,
    "ipad": {
        "psp": {
            "wrapping": 2
        }
    },
    "iphone": {
        "psp": {
            "wrapping": 2
        }
    },
    "iscustomlayout": false,
    "isvisible": true,
    "kuid": "acbbb318044e4155aa3814dccad30167",
    "name": "kony.ui.Label",
    "paddinginpixel": false,
    "parent": "flxQR",
    "pf": "frmAccountSummary",
    "retaincontentalignment": false,
    "retainflexpositionproperties": false,
    "texti18n": "IbQRScan",
    "textstyle": {},
    "tooltip": "",
    "wType": "Label",
    "zindex": 1
}