{
    "DNDConfig": null,
    "_enabled_": false,
    "_margin_": [
        0,
        0,
        0,
        0
    ],
    "_padding_": [
        0,
        0,
        0,
        0
    ],
    "_skin_": "sd8eed75b8714a3d8b3863cb703076e1",
    "_text_": "",
    "canUpdateUI": true,
    "containerweight": 24,
    "contentalignment": 5,
    "desktopweb": {
        "@class": "com.kony.gen.viz.model.component.property.button.DesktopWebButtonProperty",
        "displayText": true,
        "render": true
    },
    "displaytext": true,
    "focusskin": "s72199194d864b76a8b938b41a0df516",
    "hexpand": true,
    "id": "btnAmtSpecified",
    "ide_onClick": "p2kwiet2012247640009_btnAmtSpecified_onClick_seq0",
    "info": null,
    "isvisible": true,
    "kiosk": {
        "@class": "com.kony.gen.viz.model.component.property.button.KioskButtonProperty",
        "render": true
    },
    "kuid": "p2kwiet2012247639950",
    "margininpixel": false,
    "name": "kony.ui.Button",
    "paddinginpixel": false,
    "parent": "hbxMinMax",
    "pf": "frmIBBillPaymentCW",
    "spa": {
        "@class": "com.kony.gen.viz.model.component.property.button.SPAButtonProperty",
        "displayText": true
    },
    "texti18n": "keyBillPaymentSpecified",
    "vexpand": false,
    "wType": "Button",
    "widgetalignment": 6
}