{
    "DNDConfig": null,
    "_enabled_": false,
    "_margin_": [
        0,
        0,
        0,
        0
    ],
    "_padding_": [
        0,
        0,
        0,
        0
    ],
    "_skin_": "s4d2152e09f949bf8064d468e7801bc0",
    "_text_": "",
    "_thickness_": 1,
    "canUpdateUI": true,
    "containerweight": 100,
    "contentalignment": 5,
    "desktopweb": {
        "@class": "com.kony.gen.viz.model.component.property.line.DesktopWebLineProperty",
        "_margin_": [
            2,
            3,
            7,
            3
        ],
        "margin": [
            2,
            3,
            7,
            3
        ],
        "marginInPixel": false,
        "render": true
    },
    "hexpand": true,
    "id": "line475152798334920",
    "info": null,
    "isvisible": false,
    "kiosk": {
        "@class": "com.kony.gen.viz.model.component.property.line.KioskLineProperty",
        "render": true
    },
    "kuid": "p2kwiet2012247639997",
    "margininpixel": false,
    "name": "kony.ui.Line",
    "paddinginpixel": false,
    "parent": "vbox507353026213307",
    "pf": "frmIBBillPaymentCW",
    "spa": {
        "@class": "com.kony.gen.viz.model.component.property.line.SPALineProperty"
    },
    "vexpand": false,
    "wType": "Line",
    "widgetalignment": 5
}