{
    "DNDConfig": null,
    "_enabled_": false,
    "_margin_": [
        0,
        0,
        0,
        0
    ],
    "_padding_": [
        0,
        0,
        0,
        0
    ],
    "_skin_": "s6e8a771d44842a184884d55ea6219b4",
    "_text_": "",
    "canUpdateUI": true,
    "containerweight": 34,
    "contentalignment": 5,
    "desktopweb": {
        "@class": "com.kony.gen.viz.model.component.property.button.DesktopWebButtonProperty",
        "_padding_": [
            0,
            4,
            0,
            4
        ],
        "displayText": true,
        "padding": [
            0,
            4,
            0,
            4
        ],
        "paddingInPixel": false,
        "render": true
    },
    "displaytext": true,
    "focusskin": "s4c940ff5b9143ebb38d965ed741f2da",
    "hexpand": true,
    "id": "btnAftr",
    "ide_onClick": "p2kwiet2012247643720_btnAftr_onClick_seq0",
    "info": null,
    "isvisible": true,
    "kiosk": {
        "@class": "com.kony.gen.viz.model.component.property.button.KioskButtonProperty",
        "render": true
    },
    "kuid": "p2kwiet2012247643694",
    "margininpixel": false,
    "name": "kony.ui.Button",
    "paddinginpixel": false,
    "parent": "hbxEndingBtns",
    "pf": "frmIBFTrnsrView",
    "spa": {
        "@class": "com.kony.gen.viz.model.component.property.button.SPAButtonProperty",
        "displayText": true
    },
    "texti18n": "Transfer_After",
    "vexpand": false,
    "wType": "Button",
    "widgetalignment": 5
}