{
    "DNDConfig": null,
    "_enabled_": false,
    "_margin_": [
        0,
        2,
        0,
        2
    ],
    "_orientation_": 1,
    "_padding_": [
        0,
        0,
        0,
        0
    ],
    "_percent_": true,
    "_position_": 3,
    "_resize_": true,
    "_skin_": "s5116c2dc7a043c79c4490aec46a1087",
    "allboxes": [],
    "borderCollapse": false,
    "canUpdateUI": true,
    "children": [
        "lblEditFtStartDate",
        "calStartDate"
    ],
    "containerweight": 100,
    "desktopweb": {
        "@class": "com.kony.gen.viz.model.container.property.hbox.DesktopWebHBoxProperty",
        "_padding_": [
            2,
            0,
            2,
            0
        ],
        "_position_": 3,
        "padding": [
            2,
            0,
            2,
            0
        ],
        "paddingInPixel": false,
        "position": 3,
        "psp": {
            "hoverSkin": "sd63b77769a9474db1865ec301d9ce41"
        },
        "render": true
    },
    "focusskin": "sd63b77769a9474db1865ec301d9ce41",
    "id": "hbox445417506921892",
    "info": null,
    "isvisible": true,
    "kiosk": {
        "@class": "com.kony.gen.viz.model.container.property.hbox.KioskHBoxProperty",
        "_position_": 3,
        "position": 3,
        "render": true
    },
    "kuid": "p2kwiet2012247643686",
    "layoutalignment": 3,
    "layouttype": 0,
    "margininpixel": false,
    "name": "kony.ui.Box",
    "paddinginpixel": false,
    "parent": "vbox445417506921774",
    "pf": "frmIBFTrnsrView",
    "spa": {
        "@class": "com.kony.gen.viz.model.container.property.hbox.SPAHBoxProperty"
    },
    "templateType": "forms",
    "wType": "HBox",
    "widgetalignment": 1
}