{
    "DNDConfig": null,
    "__parentReadjusting__": false,
    "_height_": {
        "type": "ref",
        "value": "preferred"
    },
    "_left_": {
        "type": "string",
        "value": "0dp"
    },
    "_margin_": [
        0,
        0,
        0,
        0
    ],
    "_orientation_": 6,
    "_padding_": [
        0,
        0,
        0,
        0
    ],
    "_percent_": true,
    "_skin_": "sb6449ce1dc141718cc9bad90e9a7a4e",
    "_top_": {
        "type": "string",
        "value": "0dp"
    },
    "_width_": {
        "type": "string",
        "value": "60%"
    },
    "allboxes": [],
    "autogrowmode": 1,
    "canUpdateUI": true,
    "children": [
        "lblUnrelizedProfitPer",
        "lblUnrelizedProfitVal",
        "lblUnrelizedProfit"
    ],
    "clipbounds": true,
    "containerweight": 100,
    "enablescrolling": true,
    "id": "FlexContainer0528614c3d36649",
    "info": null,
    "isvisible": true,
    "kuid": "e372a91d49484840b4fc57dcbbbae036",
    "layouttype": 4,
    "name": "kony.ui.FlexContainer",
    "parent": "FlexFSNavUnit",
    "pf": "frmMFFullStatementNFundSummary",
    "snapgridsize": 10,
    "snaptogrid": true,
    "wType": "FlexContainer",
    "widgetalignment": 1,
    "zindex": 1
}