{
    "DNDConfig": null,
    "__parentReadjusting__": false,
    "_height_": {
        "type": "string",
        "value": "100%"
    },
    "_left_": {
        "type": "string",
        "value": "0px"
    },
    "_margin_": [
        0,
        0,
        0,
        0
    ],
    "_orientation_": 6,
    "_padding_": [
        0,
        0,
        0,
        0
    ],
    "_percent_": true,
    "_right_": {
        "type": "string",
        "value": "0px"
    },
    "_skin_": "sfba1ee1611548a59789a2310536c97f",
    "_top_": {
        "type": "string",
        "value": "0px"
    },
    "_width_": {
        "type": "string",
        "value": "25%"
    },
    "allboxes": [],
    "autogrowmode": 0,
    "canUpdateUI": true,
    "children": [
        "Image0b49f20f50b8d49",
        "LabelSave"
    ],
    "clipbounds": true,
    "containerweight": 100,
    "enablescrolling": true,
    "id": "FlexSave",
    "ide_onTouchStart": "AS_FlexContainer_g96e7929102f42fd955629c1e89d7885",
    "info": null,
    "isvisible": true,
    "kuid": "b32dae5149564ee4b2308d230b9cff7f",
    "layouttype": 4,
    "name": "kony.ui.FlexContainer",
    "parent": "hbxShareOption",
    "pf": "frmQRPaymentSuccess",
    "snapgridsize": 10,
    "snaptogrid": true,
    "wType": "FlexContainer",
    "widgetalignment": 1,
    "zindex": 1
}