{
    "@class": "com.kony.gen.viz.model.container.KVizHBox",
    "DNDConfig": null,
    "_margin_": [
        0,
        0,
        0,
        0
    ],
    "_orientation_": 1,
    "_padding_": [
        0,
        0,
        0,
        0
    ],
    "_percent_": true,
    "_position_": 3,
    "_skin_": "s3240d32b9a74cc78d1e0768cd2cdf1b",
    "allboxes": [],
    "canUpdateUI": true,
    "children": [
        "lblPortfolio",
        "lblPurchase",
        "lblRedeem",
        "lblSuitability"
    ],
    "containerweight": 100,
    "contextmenu": null,
    "id": "hbxLinks",
    "info": null,
    "isvisible": true,
    "kuid": "cc773d06ec4441499a11b5320bf82cdc",
    "layouttype": 0,
    "name": "kony.ui.Box",
    "parent": "vbxContents",
    "pf": "frmIBMFSuitReview",
    "wType": "HBox",
    "widgetalignment": 1
}