{
    "@class": "com.kony.gen.viz.model.container.KVizVBox",
    "DNDConfig": null,
    "_margin_": [
        0,
        0,
        0,
        0
    ],
    "_orientation_": 2,
    "_padding_": [
        2,
        0,
        2,
        0
    ],
    "_percent_": true,
    "_position_": 3,
    "_skin_": "s406f84d3f3c4e988928ebd4c0c5064a",
    "allboxes": [],
    "canUpdateUI": true,
    "children": [
        "lblMFHearder",
        "hbxLinks",
        "hbxUrRiskAssesment",
        "hbxMFImg",
        "hbxMessage",
        "hbxDateOfExpiry",
        "hbxTypeOfInvest",
        "hbxTypeOfInvestVal",
        "hbxLine",
        "hbxDateOfExp",
        "hbxTakeItAgain"
    ],
    "containerweight": 100,
    "contextmenu": null,
    "id": "vbxContents",
    "info": null,
    "isvisible": true,
    "kuid": "da829efeeac0426286f3bd7a6b5a34bd",
    "layouttype": 0,
    "name": "kony.ui.Box",
    "paddInPixel": [
        10.02,
        0,
        10.02,
        0
    ],
    "paddinginpixel": false,
    "parent": "HboxContents",
    "pf": "frmIBMFSuitReview",
    "wType": "VBox",
    "widgetalignment": 1
}