{
    "DNDConfig": null,
    "_enabled_": false,
    "_margin_": [
        1,
        0,
        0,
        0
    ],
    "_padding_": [
        0,
        0,
        0,
        0
    ],
    "_skin_": "s034c85f657b484b97cb6c86858549aa",
    "_text_": "",
    "android": {
        "@class": "com.kony.gen.viz.model.component.property.link.AndroidLinkProperty",
        "_margin_": [
            1,
            0,
            0,
            0
        ],
        "margin": [
            1,
            0,
            0,
            0
        ],
        "marginInPixel": false,
        "render": true
    },
    "canUpdateUI": true,
    "containerweight": 95,
    "contentalignment": 4,
    "focusskin": "s448600326824d79a6940df1dbfd429c",
    "hexpand": true,
    "id": "linkMore",
    "ide_onClick": "p2kwiet2012247626596_linkMore_onClick_seq0",
    "info": null,
    "iphone": {
        "@class": "com.kony.gen.viz.model.component.property.link.IPhoneLinkProperty",
        "_margin_": [
            3,
            0,
            0,
            0
        ],
        "_padding_": [
            0,
            0,
            0,
            0
        ],
        "margin": [
            3,
            0,
            0,
            0
        ],
        "marginInPixel": true,
        "padding": [
            0,
            0,
            0,
            0
        ],
        "paddingInPixel": true,
        "psp": {
            "glowEffect": false
        },
        "render": true
    },
    "isvisible": true,
    "kuid": "p2kwiet2012247626582",
    "margininpixel": false,
    "name": "kony.ui.Link",
    "paddinginpixel": false,
    "parent": "hbxLink",
    "pf": "frmAccountStatementMB",
    "spa": {
        "@class": "com.kony.gen.viz.model.component.property.link.SPALinkProperty"
    },
    "spaan": {
        "@class": "com.kony.gen.viz.model.component.property.link.SPAAndroidLinkProperty",
        "_padding_": [
            0,
            0,
            0,
            0
        ],
        "padding": [
            0,
            0,
            0,
            0
        ],
        "paddingInPixel": false,
        "render": true
    },
    "spabb": {
        "@class": "com.kony.gen.viz.model.component.property.link.SPABBLinkProperty",
        "_padding_": [
            0,
            0,
            0,
            0
        ],
        "padding": [
            0,
            0,
            0,
            0
        ],
        "paddingInPixel": false,
        "render": true
    },
    "spaip": {
        "@class": "com.kony.gen.viz.model.component.property.link.SPAIPhoneLinkProperty",
        "_padding_": [
            0,
            0,
            0,
            0
        ],
        "padding": [
            0,
            0,
            0,
            0
        ],
        "paddingInPixel": false,
        "render": true
    },
    "spawinphone8": {
        "@class": "com.kony.gen.viz.model.component.property.link.SPAWinPhone8LinkProperty",
        "render": true
    },
    "texti18n": "More",
    "vexpand": false,
    "wType": "Link",
    "widgetalignment": 4,
    "winphone8": {
        "@class": "com.kony.gen.viz.model.component.property.link.WinPhone8LinkProperty",
        "_margin_": [
            3,
            0,
            0,
            0
        ],
        "_padding_": [
            1,
            1,
            1,
            1
        ],
        "margin": [
            3,
            0,
            0,
            0
        ],
        "marginInPixel": true,
        "padding": [
            1,
            1,
            1,
            1
        ],
        "paddingInPixel": true,
        "psp": {
            "enableCache": false
        },
        "render": true
    }
}