{
    "@class": "com.kony.gen.viz.model.component.KVizButton",
    "DNDConfig": null,
    "_margin_": [
        0,
        2,
        0,
        2
    ],
    "_padding_": [
        0,
        0,
        0,
        0
    ],
    "_skin_": "se467d57971c4155a5b21094381cde01",
    "_text_": "Button",
    "canUpdateUI": true,
    "containerweight": 100,
    "contentalignment": 5,
    "displaytext": true,
    "focusskin": "se467d57971c4155a5b21094381cde01",
    "id": "btnCancelOrder",
    "info": null,
    "isvisible": true,
    "kuid": "fe4ec72f580a496ebacdd281df903271",
    "margininpixel": false,
    "name": "kony.ui.Button",
    "paddInPixel": [
        7.52,
        7.52,
        7.52,
        7.52
    ],
    "parent": "HBoxCancelOrder",
    "pf": "popUpCancelorder",
    "wType": "Button"
}