{
    "@class": "com.kony.gen.viz.model.component.KVizButton",
    "DNDConfig": null,
    "_margin_": [
        96,
        0,
        2,
        3
    ],
    "_padding_": [
        0,
        1,
        0,
        1
    ],
    "_skin_": "sf87b574355247c7b6007b6936f185c0",
    "_text_": "",
    "canUpdateUI": true,
    "containerweight": 100,
    "contentalignment": 5,
    "displaytext": true,
    "focusskin": "sf87b574355247c7b6007b6936f185c0",
    "id": "btnClose",
    "info": null,
    "isvisible": true,
    "kuid": "j97447917fe749e299b237a7fedd1f27",
    "margininpixel": false,
    "name": "kony.ui.Button",
    "paddinginpixel": false,
    "parent": "HBoxHeader",
    "pf": "popUpCancelorder",
    "wType": "Button"
}