{
    "@class": "com.kony.gen.viz.model.container.KVizHBox",
    "DNDConfig": null,
    "_margin_": [
        0,
        2,
        0,
        0
    ],
    "_orientation_": 1,
    "_padding_": [
        0,
        0,
        0,
        0
    ],
    "_percent_": true,
    "_position_": 3,
    "_skin_": "s3240d32b9a74cc78d1e0768cd2cdf1b",
    "allboxes": [],
    "canUpdateUI": true,
    "children": [
        "lblkey6",
        "lblValue6"
    ],
    "containerweight": 100,
    "contextmenu": null,
    "id": "CopyHBox0d013b06060234f",
    "info": null,
    "isvisible": true,
    "kuid": "cb622bbbcae64ad8891887d7385e1782",
    "layouttype": 0,
    "margininpixel": false,
    "name": "kony.ui.Box",
    "paddinginpixel": false,
    "parent": "VBoxOrderDetails",
    "pf": "popUpCancelorder",
    "wType": "HBox",
    "widgetalignment": 1
}