{
    "@class": "com.kony.gen.viz.model.container.KVizHBox",
    "DNDConfig": null,
    "_margin_": [
        0,
        0,
        0,
        5
    ],
    "_orientation_": 1,
    "_padding_": [
        0,
        0,
        0,
        0
    ],
    "_percent_": true,
    "_position_": 3,
    "_skin_": "s3240d32b9a74cc78d1e0768cd2cdf1b",
    "allboxes": [],
    "canUpdateUI": true,
    "children": [
        "lblTitle"
    ],
    "containerweight": 100,
    "contextmenu": null,
    "id": "CopyHBox0e5e1316494e547",
    "info": null,
    "isvisible": true,
    "kuid": "a06ad409c41b475fa766ee043fd45f6c",
    "layouttype": 0,
    "margininpixel": false,
    "name": "kony.ui.Box",
    "parent": "VBoxOrderDetails",
    "pf": "popUpCancelorder",
    "wType": "HBox",
    "widgetalignment": 1
}