{
    "@class": "com.kony.gen.viz.model.container.KVizVBox",
    "DNDConfig": null,
    "_margin_": [
        0,
        0,
        0,
        0
    ],
    "_orientation_": 2,
    "_padding_": [
        0,
        0,
        0,
        0
    ],
    "_percent_": true,
    "_position_": 3,
    "_skin_": "s0e13ed4077f481ab090dae6b2e595ed",
    "allboxes": [],
    "canUpdateUI": true,
    "children": [
        "HBox0b1f488bad72d40"
    ],
    "containerweight": 48,
    "contextmenu": null,
    "id": "VBox0fc05013b3d5144",
    "info": null,
    "isvisible": true,
    "kuid": "dbbb20ada07c4ba0aa373df7c98a91fb",
    "layouttype": 0,
    "name": "kony.ui.Box",
    "paddInPixel": [
        0,
        0,
        0,
        0
    ],
    "parent": "hbxBut0otn",
    "pf": "popUpCancelorder",
    "wType": "VBox",
    "widgetalignment": 1
}