{
    "DNDConfig": null,
    "_enabled_": false,
    "_margin_": [
        0,
        0,
        0,
        0
    ],
    "_padding_": [
        30,
        1,
        30,
        1
    ],
    "_skin_": "s606a17ee3414b8e9acee356c7415d28",
    "_text_": "",
    "autocapitalize": "none",
    "autocomplete": false,
    "autocorrect": false,
    "autofilter": false,
    "canUpdateUI": true,
    "containerheightmode": 1,
    "containerheightreference": 1,
    "containerweight": 100,
    "contentalignment": 5,
    "desktopweb": {
        "@class": "com.kony.gen.viz.model.component.property.textbox2.DesktopWebTextBox2Property",
        "containerHeightMode": 3,
        "render": true
    },
    "focusskin": "sbbe85f0bee44c78b807734a72c73932",
    "hexpand": true,
    "id": "textbox2506369923248845",
    "info": null,
    "isvisible": true,
    "keyboardstyle": "A",
    "keyboardtype": "A",
    "kiosk": {
        "@class": "com.kony.gen.viz.model.component.property.textbox2.KioskTextBox2Property",
        "render": true
    },
    "kuid": "p2kwiet2012247648051",
    "margininpixel": false,
    "mode": "A",
    "name": "kony.ui.TextBox2",
    "paddinginpixel": false,
    "parent": "vbox507353026213307",
    "pf": "frmIBTemplateLogin",
    "securetextentry": false,
    "spa": {
        "@class": "com.kony.gen.viz.model.component.property.textbox2.SPATextBox2Property",
        "autoCorrect": false,
        "containerHeightMode": 3
    },
    "textinputmode": "A",
    "vexpand": false,
    "viewtype": "default",
    "wType": "TextField",
    "widgetalignment": 5
}