{
    "DNDConfig": null,
    "_height_": {
        "type": "string",
        "value": "25%"
    },
    "_margin_": [
        0,
        0,
        0,
        0
    ],
    "_orientation_": 6,
    "_padding_": [
        0,
        0,
        0,
        0
    ],
    "_percent_": true,
    "_skin_": "sd039b0bb2724f9f846c3d4922e5c971",
    "allboxes": [],
    "autogrowmode": 0,
    "canUpdateUI": true,
    "children": [],
    "clipbounds": true,
    "containerId": true,
    "containerweight": 100,
    "controllerInfo": {
        "default": {
            "channel": "mobile",
            "name": "FlexContainer0bf08262d62464aController"
        }
    },
    "disabledSkins": {
        "focusSkin": "s24dec20c95145c0a0781b49aa9c58a8"
    },
    "enablescrolling": true,
    "id": "flexProductOld",
    "info": null,
    "isTemplate": true,
    "isvisible": true,
    "kuid": "dd48eb9cca614babbded321c9e4fb324",
    "layouttype": 2,
    "name": "kony.ui.FlexContainer",
    "parent": "tmpSegLoanProductListOld",
    "pf": "tmpSegLoanProductListOld",
    "snapgridsize": 10,
    "snaptogrid": true,
    "wType": "FlexContainer",
    "widgetalignment": 1
}