{
    "DNDConfig": null,
    "__parentReadjusting__": false,
    "_height_": {
        "type": "string",
        "value": "25%"
    },
    "_margin_": [
        0,
        0,
        0,
        0
    ],
    "_orientation_": 6,
    "_padding_": [
        0,
        0,
        0,
        0
    ],
    "_percent_": true,
    "_skin_": "s918d2c198cc4b1b99c1a0fe1f4e0370",
    "_top_": {
        "type": "string",
        "value": "0"
    },
    "_width_": {
        "type": "string",
        "value": "100%"
    },
    "allboxes": [],
    "autogrowmode": 0,
    "canUpdateUI": true,
    "centerx": {
        "type": "string",
        "value": "50%"
    },
    "children": [
        "lblReqType",
        "imgReqType"
    ],
    "clipbounds": true,
    "containerweight": 100,
    "enablescrolling": true,
    "focusskin": "s60a3bb5747a4dc397ce5a463c4eba92",
    "id": "flxReqType",
    "ide_onClick": "AS_FlexContainer_eb9508c1210f406faa1b495ee94a9a36",
    "info": null,
    "isvisible": true,
    "kuid": "eb12f697f8e64620aa486f8c0eaf3ca4",
    "layouttype": 2,
    "name": "kony.ui.FlexContainer",
    "parent": "flxSortOptions",
    "pf": "frmMBRTPDetailsList",
    "snapgridsize": 10,
    "snaptogrid": true,
    "wType": "FlexContainer",
    "widgetalignment": 1,
    "zindex": 1
}