{
    "DNDConfig": null,
    "_enabled_": false,
    "_margin_": [
        0,
        0,
        0,
        0
    ],
    "_orientation_": 2,
    "_padding_": [
        0,
        0,
        1,
        0
    ],
    "_percent_": true,
    "_position_": 3,
    "_resize_": true,
    "_skin_": "s52768f42b9349d0bea98909d96e6672",
    "allboxes": [],
    "canUpdateUI": true,
    "children": [
        "segAccountList"
    ],
    "containerheight": 70,
    "containerheightreference": 2,
    "containerweight": 100,
    "desktopweb": {
        "@class": "com.kony.gen.viz.model.container.property.scrollbox.DesktopWebScrollBoxProperty",
        "_padding_": [
            0,
            0,
            0,
            0
        ],
        "padding": [
            0,
            0,
            0,
            0
        ],
        "paddingInPixel": false,
        "psp": {
            "scrollArrowConfig": [
                null,
                null,
                null,
                null
            ]
        },
        "render": true
    },
    "enablescrollbypage": false,
    "id": "scrollbox44557018542146",
    "info": null,
    "isvisible": true,
    "kiosk": {
        "@class": "com.kony.gen.viz.model.container.property.scrollbox.KioskScrollBoxProperty",
        "_position_": 3,
        "position": 3,
        "render": true
    },
    "kuid": "p2kwiet2012247638882",
    "layoutalignment": 3,
    "margininpixel": false,
    "name": "kony.ui.ScrollBox",
    "paddinginpixel": false,
    "parent": "hbxContainerAccount",
    "pf": "frmIBAnyIDRegistration",
    "scrollbar": "scrollbar",
    "scrolldirection": 2,
    "scrollingevents": null,
    "showscrollbars": true,
    "spa": {
        "@class": "com.kony.gen.viz.model.container.property.scrollbox.SPAScrollBoxProperty"
    },
    "templateType": "forms",
    "totalWt": 0,
    "wType": "ScrollBox",
    "widgetalignment": 1
}