{
    "@class": "com.kony.gen.viz.model.component.KVizButton",
    "DNDConfig": null,
    "__parentReadjusting__": false,
    "_height_": {
        "type": "string",
        "value": "90%"
    },
    "_margin_": [
        6,
        6,
        6,
        6
    ],
    "_padding_": [
        0,
        0,
        0,
        0
    ],
    "_skin_": "sf87b574355247c7b6007b6936f185c0",
    "_text_": "",
    "_width_": {
        "type": "string",
        "value": "12%"
    },
    "canUpdateUI": true,
    "centerx": {
        "type": "string",
        "value": "93%"
    },
    "centery": {
        "type": "string",
        "value": "50%"
    },
    "containerweight": 100,
    "contentalignment": 5,
    "displaytext": true,
    "focusskin": "sf87b574355247c7b6007b6936f185c0",
    "id": "btnClose",
    "ide_onClick": "AS_Button_a4d5a00476994249a8935bb81bc7c076",
    "info": null,
    "iphone": {
        "psp": {
            "showProgressIndicator": false
        }
    },
    "isvisible": true,
    "kuid": "d12c90452f5243a192beeb803834fcd3",
    "name": "kony.ui.Button",
    "parent": "flxClose",
    "pf": "frmMBRTPApplyBiller",
    "showprogressindicator": false,
    "wType": "Button",
    "zindex": 1
}