{
    "DNDConfig": null,
    "Image": "default.png",
    "_enabled_": false,
    "_margin_": [
        0,
        0,
        0,
        0
    ],
    "_skin_": "s67e2dd3d75d45a0a82b2eb3bb4dd558",
    "_text_": "",
    "advview": "default",
    "canUpdateUI": true,
    "containerweight": 84,
    "contentalignment": 6,
    "dateeditable": true,
    "dateformat": "dd/MM/yyyy",
    "desktopweb": {
        "@class": "com.kony.gen.viz.model.component.property.datefield.DesktopWebDateFieldProperty",
        "_padding_": [
            0,
            0,
            4,
            0
        ],
        "calendarIcon": "transparent.png",
        "padding": [
            0,
            0,
            4,
            0
        ],
        "paddingInPixel": false,
        "psp": {
            "noOfMonths": 1
        },
        "render": true,
        "viewType": "popup"
    },
    "enddate": [
        30,
        8,
        2013
    ],
    "focusskin": "s119fc3001ef43ec839011a86204ceba",
    "format": "dd/MM/yyyy",
    "formatteddate": "",
    "hexpand": true,
    "id": "calendarStartOn",
    "info": null,
    "isvisible": true,
    "kiosk": {
        "@class": "com.kony.gen.viz.model.component.property.datefield.KioskDateFieldProperty",
        "calendarIcon": "transparent.png",
        "render": true
    },
    "kuid": "p2kwiet2012247640373",
    "margininpixel": false,
    "name": "kony.ui.Calendar",
    "pagedate": "8/2013",
    "parent": "hbox445417506921892",
    "pf": "frmIBBillPaymentView",
    "selectdate": "8/0/2013",
    "spa": {
        "@class": "com.kony.gen.viz.model.component.property.datefield.SPADateFieldProperty",
        "calendarIcon": "transparent.png"
    },
    "startdate": [
        1,
        8,
        2013
    ],
    "vexpand": false,
    "viewconfig": {
        "gridConfig": {
            "allowWeekendSelectable": true,
            "leftNavigationImage": "",
            "rightNavigationImage": ""
        }
    },
    "viewtype": "popup",
    "wType": "Calendar",
    "widgetalignment": 4
}