{
    "DNDConfig": null,
    "_enabled_": false,
    "_margin_": [
        0,
        0,
        0,
        0
    ],
    "_padding_": [
        4,
        1,
        1,
        1
    ],
    "_placeholder_": "Times",
    "_skin_": "s543bc07c1c94e538bb8e380ce34e482",
    "_text_": "",
    "autocapitalize": "none",
    "autocomplete": false,
    "autocorrect": false,
    "autofilter": false,
    "canUpdateUI": true,
    "containerheightmode": 1,
    "containerheightreference": 1,
    "containerweight": 100,
    "contentalignment": 4,
    "desktopweb": {
        "@class": "com.kony.gen.viz.model.component.property.textbox2.DesktopWebTextBox2Property",
        "containerHeightMode": 3,
        "ide_onKeyUp": "p2kwiet2012247640409_txtBPExecutiontimesval_DESKTOPWEB_onKeyUp_seq0",
        "psp": {
            "hoverSkin": "sfba10054a404f908e77e7feb6660173"
        },
        "render": true
    },
    "focusskin": "sfba10054a404f908e77e7feb6660173",
    "hexpand": true,
    "id": "txtBPExecutiontimesval",
    "info": null,
    "isvisible": true,
    "keyboardstyle": "A",
    "keyboardtype": "A",
    "kiosk": {
        "@class": "com.kony.gen.viz.model.component.property.textbox2.KioskTextBox2Property",
        "render": true
    },
    "kuid": "p2kwiet2012247640392",
    "margininpixel": false,
    "maxtextlength": 2,
    "mode": "A",
    "name": "kony.ui.TextBox2",
    "paddinginpixel": false,
    "parent": "vbox1563350998100416",
    "pf": "frmIBBillPaymentView",
    "securetextentry": false,
    "spa": {
        "@class": "com.kony.gen.viz.model.component.property.textbox2.SPATextBox2Property",
        "autoCorrect": false,
        "containerHeightMode": 3
    },
    "textinputmode": "A",
    "vexpand": false,
    "viewtype": "default",
    "wType": "TextField",
    "widgetalignment": 5
}