{
    "DNDConfig": null,
    "Image": "default.png",
    "_enabled_": false,
    "_margin_": [
        0,
        0,
        0,
        0
    ],
    "_padding_": [
        0,
        0,
        0,
        0
    ],
    "_skin_": "s539c69b7d3a45b9b19b380eb113272e",
    "_text_": "",
    "advview": "default",
    "android": {
        "@class": "com.kony.gen.viz.model.component.property.datefield.AndroidDateFieldProperty",
        "_margin_": [
            0,
            0,
            0,
            0
        ],
        "calendarIcon": "clock.png",
        "margin": [
            0,
            0,
            0,
            0
        ],
        "marginInPixel": false,
        "psp": {
            "containerHeightReference": 1,
            "data": {},
            "dayTextAlignmentInCell": 5,
            "hideDaysHeader": false,
            "hideMonthsHeader": false
        },
        "render": true,
        "viewType": "default"
    },
    "calendaricon": "clock.png",
    "canUpdateUI": true,
    "containerweight": 80,
    "contentalignment": 4,
    "dateeditable": true,
    "dateformat": "dd/MM/yyyy",
    "enddate": [
        30,
        8,
        2013
    ],
    "focusskin": "s539c69b7d3a45b9b19b380eb113272e",
    "format": "dd/MM/yyyy",
    "formatteddate": null,
    "hexpand": true,
    "id": "calScheduleEndDate",
    "info": null,
    "iphone": {
        "@class": "com.kony.gen.viz.model.component.property.datefield.IPhoneDateFieldProperty",
        "_margin_": [
            0,
            0,
            0,
            0
        ],
        "_padding_": [
            0,
            0,
            0,
            0
        ],
        "calendarIcon": "clock.png",
        "margin": [
            0,
            0,
            0,
            0
        ],
        "marginInPixel": true,
        "padding": [
            0,
            0,
            0,
            0
        ],
        "paddingInPixel": true,
        "psp": {
            "containerHeightReference": 1,
            "data": {},
            "dayTextAlignmentInCell": 5,
            "hideDaysHeader": false,
            "hideMonthsHeader": false,
            "mode": 0
        },
        "render": true,
        "viewType": "default"
    },
    "isvisible": true,
    "kuid": "p2kwiet2012247637093",
    "margininpixel": false,
    "name": "kony.ui.Calendar",
    "paddinginpixel": false,
    "pagedate": "8/2013",
    "parent": "hboxUntil",
    "pf": "frmScheduleBillPayEditFuture",
    "selectdate": "8/0/2013",
    "spa": {
        "@class": "com.kony.gen.viz.model.component.property.datefield.SPADateFieldProperty",
        "calendarIcon": "clock.png"
    },
    "spaan": {
        "@class": "com.kony.gen.viz.model.component.property.datefield.SPAAndroidDateFieldProperty",
        "_padding_": [
            0,
            0,
            0,
            0
        ],
        "padding": [
            0,
            0,
            0,
            0
        ],
        "paddingInPixel": false,
        "render": true
    },
    "spabb": {
        "@class": "com.kony.gen.viz.model.component.property.datefield.SPABBDateFieldProperty",
        "_padding_": [
            0,
            0,
            0,
            0
        ],
        "padding": [
            0,
            0,
            0,
            0
        ],
        "paddingInPixel": false,
        "render": true
    },
    "spaip": {
        "@class": "com.kony.gen.viz.model.component.property.datefield.SPAIPhoneDateFieldProperty",
        "_padding_": [
            0,
            0,
            0,
            0
        ],
        "padding": [
            0,
            0,
            0,
            0
        ],
        "paddingInPixel": false,
        "render": true
    },
    "spawinphone8": {
        "@class": "com.kony.gen.viz.model.component.property.datefield.SPAWinPhone8DateFieldProperty",
        "render": true
    },
    "startdate": [
        1,
        8,
        2013
    ],
    "vexpand": false,
    "viewconfig": {
        "gridConfig": {
            "allowWeekendSelectable": true,
            "leftNavigationImage": "",
            "rightNavigationImage": ""
        }
    },
    "viewtype": "default",
    "wType": "Calendar",
    "widgetalignment": 5,
    "winphone8": {
        "@class": "com.kony.gen.viz.model.component.property.datefield.WinPhone8DateFieldProperty",
        "_margin_": [
            1,
            1,
            1,
            1
        ],
        "_padding_": [
            1,
            1,
            1,
            1
        ],
        "margin": [
            1,
            1,
            1,
            1
        ],
        "marginInPixel": true,
        "padding": [
            1,
            1,
            1,
            1
        ],
        "paddingInPixel": true,
        "psp": {
            "enableCache": false
        },
        "render": true,
        "viewType": "default"
    }
}