{
    "DNDConfig": null,
    "_enabled_": false,
    "_margin_": [
        0,
        0,
        0,
        0
    ],
    "_orientation_": 1,
    "_padding_": [
        0,
        0,
        0,
        0
    ],
    "_skin_": "s356765121054296995042cd568e19a0",
    "_title_": "",
    "addWidgetsdone": false,
    "allboxes": [],
    "canUpdateUI": true,
    "children": [
        "hboxMapTemplate",
        "hbox210311287459013"
    ],
    "containerheightreference": 1,
    "containerweight": 12,
    "desktopweb": {
        "@class": "com.kony.gen.viz.model.container.property.form.DesktopWebFormProperty",
        "_padding_": [
            0,
            0,
            0,
            0
        ],
        "inTransitionConfig": {
            "popupTransition": "fadeAnimation"
        },
        "isModal": false,
        "outTransitionConfig": {
            "popupTransition": "none"
        },
        "padding": [
            0,
            0,
            0,
            0
        ],
        "paddingInPixel": false,
        "psp": {
            "dockableAppMenu": true,
            "dockableFooter": true,
            "dockableHeader": true,
            "draggable": false,
            "minimizeOnLostFocus": false,
            "resizable": false,
            "titleBarConfig": {
                "closeIcon": "",
                "maxIcon": "",
                "minIcon": "",
                "titleBarSkin": "popUpBgTrans"
            }
        },
        "render": true,
        "undefined": true
    },
    "displayorientation": 1,
    "enabledforidletimeout": false,
    "footeroverlap": false,
    "headeroverlap": false,
    "id": "popIBATMBranch",
    "ide_init": "p2kwiet2012247650544_popIBATMBranch_init_seq0",
    "info": null,
    "initdone": false,
    "intransitionconfig": {
        "formTransition": "None"
    },
    "invokedProperty": "footers",
    "ismodal": false,
    "isvisible": true,
    "kiosk": {
        "@class": "com.kony.gen.viz.model.container.property.form.KioskFormProperty",
        "_padding_": [
            0,
            0,
            0,
            0
        ],
        "inTransitionConfig": {
            "inTransition": "popin",
            "transitionSpeed": 0
        },
        "outTransitionConfig": {
            "transitionSpeed": 0
        },
        "padding": [
            0,
            0,
            0,
            0
        ],
        "paddingInPixel": false,
        "psp": {
            "animateHeaderFooter": false
        },
        "render": true,
        "undefined": true
    },
    "kuid": "p2kwiet2012247650544",
    "layouttype": 0,
    "margininpixel": false,
    "menuposition": 2,
    "name": "kony.ui.Popup",
    "needappmenu": true,
    "outtransitionconfig": {
        "formTransition": "None"
    },
    "paddinginpixel": false,
    "percent": true,
    "retainscrollposition": false,
    "spa": {
        "@class": "com.kony.gen.viz.model.container.property.form.SPAFormProperty",
        "isModal": false,
        "psp": {
            "dockableAppMenu": true,
            "dockableFooter": true,
            "dockableHeader": true
        }
    },
    "titlebar": true,
    "transparencybehindthepopup": 100,
    "type": 3,
    "wType": "Popup",
    "widgetalignment": 1
}